       IDENTIFICATION DIVISION.                                         PLWEBCHS
       PROGRAM-ID.  PLWEBCHS.                                           PLWEBCHS
                                                                        PLWEBCHS
      *REMARKS                                                          PLWEBCHS
      *    THIS CALLED PROGRAM RECEIVES A REQUEST FOR HELP              PLWEBCHS
      *    INFORMATION FOR A SPECIFIC DATA ELEMENT FROM THE             PLWEBCHS
      *    CALLING PROGRAM.  THE PARAMETER IS:  DFHCOM-INDEX.           PLWEBCHS
      *                                                                 PLWEBCHS
      *    THE ENTIRE TEXT FOR A FIELD WILL BE RETURNED TO              PLWEBCHS
      *    THE CALLING PROGRAM IN HTML FORMAT FROM DCHCOMMAREA.         PLWEBCHS
      *    THIS FORMAT CAN INCLUDE ADDITIONAL LINK ADDRESSES.           PLWEBCHS
                                                                        PLWEBCHS
       AUTHOR.  J.E. MCCLANE.                                           PLWEBCHS
       DATE-WRITTEN.                                                    PLWEBCHS
       DATE-COMPILED.                                                   PLWEBCHS
                                                                        PLWEBCHS
       ENVIRONMENT DIVISION.                                            PLWEBCHS
       CONFIGURATION SECTION.                                           PLWEBCHS
       DATA DIVISION.                                                   PLWEBCHS
       FILE SECTION.                                                    PLWEBCHS
                                                                        PLWEBCHS
       WORKING-STORAGE  SECTION.                                        PLWEBCHS
                                                                        PLWEBCHS
       01  WS-LITS.                                                     PLWEBCHS
           05  WS-LIT-ONE                PIC 9      VALUE 1.            PLWEBCHS
           05  WS-LIT-NO                 PIC X      VALUE 'N'.          PLWEBCHS
           05  WS-LIT-YES                PIC X      VALUE 'Y'.          PLWEBCHS
           05  WS-LIT-BRACKET            PIC X      VALUE '['.          PLWEBCHS
           05  WS-LIT-RBRACKET           PIC X      VALUE ']'.          PLWEBCHS
           05  WS-LIT-BR                 PIC X(4)   VALUE '<BR>'.       PLWEBCHS
           05  WS-LIT-BEGIN              PIC X(10)  VALUE               PLWEBCHS
               '<BODY><H3>'.                                            PLWEBCHS
           05  WS-LIT-H2                 PIC X(5)   VALUE '</H3>'.      PLWEBCHS
           05  WS-LIT-PRE                PIC X(6)   VALUE '<PRE>'.      PLWEBCHS
           05  WS-LIT-PREND              PIC X(20)  VALUE               PLWEBCHS
               '</PRE></BODY></HTML>'.                                  PLWEBCHS
           05  WS-LIT-DESCEND            PIC X(11)  VALUE 'END OF DESC'.PLWEBCHS
           05  WS-LIT-NOTFND             PIC X(18)  VALUE               PLWEBCHS
               '  RECORD NOT FOUND'.                                    PLWEBCHS
           05  WS-LIT-PAN                PIC X(4)   VALUE 'PAN '.       PLWEBCHS
           05  WS-LIT-22                 PIC 99     VALUE 22.           PLWEBCHS
           05  WS-LIT-23                 PIC XX     VALUE '23'.         PLWEBCHS
           05  WS-LIT-80                 PIC 99     VALUE 80.           PLWEBCHS
           05  WS-LIT-98                 PIC XX     VALUE '98'.         PLWEBCHS
           05  WS-LIT-99                 PIC XXX    VALUE ' 99'.        PLWEBCHS
                                                                        PLWEBCHS
       01  DATA-SW                       PIC X      VALUE 'N'.          PLWEBCHS
           88  DATA-FOUND                           VALUE 'Y'.          PLWEBCHS
                                                                        PLWEBCHS
       01  DATA-URL-SW                   PIC X      VALUE 'N'.          PLWEBCHS
           88  DATA-URL                             VALUE 'Y'.          PLWEBCHS
                                                                        PLWEBCHS
       01  WS-HOLD-URL-DATAD.                                           PLWEBCHS
           05 WS-HOLD-URL                PIC X(80).                     PLWEBCHS
           05 WS-HOLD-URL-DATA REDEFINES WS-HOLD-URL                    PLWEBCHS
                                         PIC X OCCURS 80 TIMES.         PLWEBCHS
                                                                        PLWEBCHS
       01  PREV-TEXT-DATA.                                              PLWEBCHS
           05 PREV-VSAM-DATA             PIC X(80).                     PLWEBCHS
           05 WS-HELP-DATA REDEFINES PREV-VSAM-DATA                     PLWEBCHS
                                         PIC X OCCURS 80 TIMES.         PLWEBCHS
                                                                        PLWEBCHS
       01  WS-SCREEN-DATA.                                              PLWEBCHS
           05  WS-SCREEN-LINE            PIC X(108).                    PLWEBCHS
           05  WS-TEXT-LINE REDEFINES WS-SCREEN-LINE                    PLWEBCHS
                                         PIC X OCCURS 108 TIMES.        PLWEBCHS
                                                                        PLWEBCHS
       01  WS-LIT-COLOR-TEXT.                                           PLWEBCHS
           05  WS-LIT-COLOR              PIC X(21)  VALUE               PLWEBCHS
               '<FONT COLOR="FF0000">'.                                 PLWEBCHS
           05  WS-LIT-COL REDEFINES WS-LIT-COLOR                        PLWEBCHS
                                         PIC X OCCURS 21 TIMES.         PLWEBCHS
                                                                        PLWEBCHS
       01  WS-LIT-COLOREND-TEXT.                                        PLWEBCHS
           05  WS-LIT-COLOREND           PIC X(7)   VALUE '</FONT>'.    PLWEBCHS
           05  WS-LIT-COLEND REDEFINES WS-LIT-COLOREND                  PLWEBCHS
                                         PIC X OCCURS 7 TIMES.          PLWEBCHS
                                                                        PLWEBCHS
       01  WS-LIT-BEG.                                                  PLWEBCHS
           05  WS-URL-TEXTBEG            PIC X(9)   VALUE '<A HREF="'.  PLWEBCHS
           05  WS-LIT-URLBEG REDEFINES WS-URL-TEXTBEG                   PLWEBCHS
                                         PIC X OCCURS 9 TIMES.          PLWEBCHS
                                                                        PLWEBCHS
       01  WS-LIT-MIDDLE.                                               PLWEBCHS
           05  WS-URL-TEXTMID            PIC XX     VALUE '">'.         PLWEBCHS
           05  WS-LIT-HREFEND REDEFINES WS-URL-TEXTMID                  PLWEBCHS
                                         PIC X OCCURS 2 TIMES.          PLWEBCHS
                                                                        PLWEBCHS
       01  WS-LIT-END.                                                  PLWEBCHS
           05  WS-URL-TEXTEND            PIC X(4)   VALUE '</A>'.       PLWEBCHS
           05  WS-LIT-URLEND REDEFINES WS-URL-TEXTEND                   PLWEBCHS
                                         PIC X OCCURS 4 TIMES.          PLWEBCHS
                                                                        PLWEBCHS
       01  HELP-TEXT-REC.                                               PLWEBCHS
           05  HELPTEXT-VSAM-KEY.                                       PLWEBCHS
               10  HELPTEXT-VSAM-UH1TEXT PIC X(11).                     PLWEBCHS
               10  HELPTEXT-FILLER.                                     PLWEBCHS
                   15  HELPTEXT-FILL1    PIC 9(16) COMP-3.              PLWEBCHS
                   15  HELPTEXT-FILL2    PIC 9(15) COMP-3.              PLWEBCHS
           05  HELPTEXT-VSAM-TITLE       PIC X(30).                     PLWEBCHS
           05  HELPTEXT-FILLER1          PIC X(281).                    PLWEBCHS
           05  HELPTEXT-TBLTEXT OCCURS 20 TIMES.                        PLWEBCHS
               10  HELPTEXT-INTRO.                                      PLWEBCHS
                   15  HELPTEXT-INTRO9   PIC X(9).                      PLWEBCHS
                   15  HELPTEXT-INTROPAN PIC X(4).                      PLWEBCHS
               10  HELPTEXT-TEXT         PIC X(80).                     PLWEBCHS
           05  HELPTEXT-FILLER2          PIC X(2410).                   PLWEBCHS
                                                                        PLWEBCHS
       01  WS-TEXT-TABLE.                                               PLWEBCHS
           05  WS-TABLE-TEXT OCCURS 73 TIMES.                           PLWEBCHS
               10  WS-TBLTEXT-BR         PIC X(4).                      PLWEBCHS
               10  WS-TBLTEXT-TEXT       PIC X(108).                    PLWEBCHS
                                                                        PLWEBCHS
       01  WS-REQUEST.                                                  PLWEBCHS
           05  WS-REQUEST-INDEX.                                        PLWEBCHS
               10  FILLER                PIC XXX    VALUE 'UH1'.        PLWEBCHS
               10  WS-REQ-INDEX          PIC X(8)   VALUE SPACES.       PLWEBCHS
           05  WS-REQUEST34.                                            PLWEBCHS
               10  WS-REQ17-FIRST        PIC 9(16)  VALUE ZEROS COMP-3. PLWEBCHS
               10  WS-REQ17-NEXT         PIC 9(15)  VALUE ZEROS COMP-3. PLWEBCHS
                                                                        PLWEBCHS
       01  WS-INDEX.                                                    PLWEBCHS
           05  WS-HELP-INDX              PIC 99     VALUE ZEROS.        PLWEBCHS
           05  WS-RETN-INDX              PIC 99     VALUE ZEROS.        PLWEBCHS
           05  WS-COLOR-INDX             PIC 99     VALUE ZEROS.        PLWEBCHS
           05  WS-COLED-INDX             PIC 99     VALUE ZEROS.        PLWEBCHS
           05  WS-LINE-INDX              PIC 999    VALUE ZEROS.        PLWEBCHS
           05  WS-CHAR-INDX              PIC 99     VALUE ZEROS.        PLWEBCHS
           05  WS-URL-INDX               PIC 99     VALUE ZEROS.        PLWEBCHS
           05  WS-FORMURL-INDX           PIC 99     VALUE ZEROS.        PLWEBCHS
           05  WS-CNT-URL                PIC 99     VALUE ZEROS.        PLWEBCHS
                                                                        PLWEBCHS
       01  RESPONSE-CODE                 PIC S9(8)  COMP.               PLWEBCHS
       01  REC-LENGTH                    PIC S9(4)  COMP  VALUE 4608.   PLWEBCHS
           EJECT                                                        PLWEBCHS
       LINKAGE SECTION.                                                 PLWEBCHS
           EJECT                                                        PLWEBCHS
       01  DFHCOMMAREA.                                                 PLWEBCHS
           05  DFHCOM-INDEX              PIC X(8).                      PLWEBCHS
           05  DFHCOM-RET-STATUS         PIC XX.                        PLWEBCHS
           05  DFHCOM-RETURN-REC.                                       PLWEBCHS
               10  DFHCOM-RET-HTML-BEGIN PIC X(10).                     PLWEBCHS
               10  DFHCOM-RET-SUBTITLE   PIC X(30).                     PLWEBCHS
               10  DFHCOM-RET-HTML-H2    PIC X(5).                      PLWEBCHS
               10  DFHCOM-RET-HTML-PRE   PIC X(5).                      PLWEBCHS
               10  DFHCOM-RET-DATA       PIC X(9073).                   PLWEBCHS
       EJECT                                                            PLWEBCHS
       PROCEDURE DIVISION USING DFHCOMMAREA.                            PLWEBCHS
                                                                        PLWEBCHS
       0000-MAIN SECTION.                                               PLWEBCHS
                                                                        PLWEBCHS
           PERFORM 0100-INIT.                                           PLWEBCHS
                                                                        PLWEBCHS
           PERFORM 0300-READ-NEXT UNTIL                                 PLWEBCHS
               DFHCOM-INDEX NOT = WS-REQ-INDEX.                         PLWEBCHS
                                                                        PLWEBCHS
           PERFORM 9000-CLOSE-TEXTFILE.                                 PLWEBCHS
                                                                        PLWEBCHS
       0100-INIT SECTION.                                               PLWEBCHS
                                                                        PLWEBCHS
           INITIALIZE DFHCOM-RET-DATA                                   PLWEBCHS
                      HELP-TEXT-REC                                     PLWEBCHS
                      WS-REQ-INDEX                                      PLWEBCHS
                      RESPONSE-CODE                                     PLWEBCHS
                      PREV-VSAM-DATA                                    PLWEBCHS
                      WS-HOLD-URL                                       PLWEBCHS
                      WS-TEXT-TABLE.                                    PLWEBCHS
                                                                        PLWEBCHS
           MOVE DFHCOM-INDEX TO WS-REQ-INDEX.                           PLWEBCHS
           MOVE WS-LIT-NO    TO DATA-SW.                                PLWEBCHS
                                                                        PLWEBCHS
           MOVE WS-REQUEST   TO HELPTEXT-VSAM-UH1TEXT.                  PLWEBCHS
           ADD WS-LIT-ONE TO WS-HELP-INDX                               PLWEBCHS
                             WS-RETN-INDX                               PLWEBCHS
                             WS-CHAR-INDX.                              PLWEBCHS
           MOVE ZERO TO WS-COLOR-INDX                                   PLWEBCHS
                        WS-COLED-INDX.                                  PLWEBCHS
                                                                        PLWEBCHS
           EXEC CICS STARTBR                                            PLWEBCHS
               DATASET('D21HLP2')                                       PLWEBCHS
               RIDFLD(WS-REQUEST)                                       PLWEBCHS
               KEYLENGTH(11)                                            PLWEBCHS
               GENERIC                                                  PLWEBCHS
               RESP(RESPONSE-CODE)                                      PLWEBCHS
           END-EXEC.                                                    PLWEBCHS
                                                                        PLWEBCHS
           IF RESPONSE-CODE = DFHRESP(DISABLED)                         PLWEBCHS
               MOVE WS-LIT-98 TO DFHCOM-RET-STATUS                      PLWEBCHS
               PERFORM 9000-CLOSE-TEXTFILE                              PLWEBCHS
           END-IF.                                                      PLWEBCHS
                                                                        PLWEBCHS
       0100-INIT-EXIT. EXIT.                                            PLWEBCHS
           EJECT                                                        PLWEBCHS
       0300-READ-NEXT SECTION.                                          PLWEBCHS
                                                                        PLWEBCHS
           EXEC CICS                                                    PLWEBCHS
               READNEXT DATASET('D21HLP2')                              PLWEBCHS
               INTO(HELP-TEXT-REC)                                      PLWEBCHS
               LENGTH(REC-LENGTH)                                       PLWEBCHS
               RIDFLD(WS-REQUEST)                                       PLWEBCHS
               RESP(RESPONSE-CODE)                                      PLWEBCHS
           END-EXEC.                                                    PLWEBCHS
                                                                        PLWEBCHS
           PERFORM 8000-PROCESS-HANDLE-CONDS.                           PLWEBCHS
           ADD WS-LIT-ONE TO WS-REQ17-NEXT.                             PLWEBCHS
                                                                        PLWEBCHS
           IF WS-REQ-INDEX = DFHCOM-INDEX                               PLWEBCHS
               MOVE WS-LIT-YES          TO DATA-SW                      PLWEBCHS
               MOVE HELPTEXT-VSAM-TITLE TO DFHCOM-RET-SUBTITLE          PLWEBCHS
               PERFORM 0400-FORMAT-SEND-DATA UNTIL                      PLWEBCHS
                   HELPTEXT-INTRO (WS-HELP-INDX) = WS-LIT-99            PLWEBCHS
                   OR HELPTEXT-INTROPAN (WS-HELP-INDX) NOT = WS-LIT-PAN PLWEBCHS
               IF HELPTEXT-INTRO (WS-HELP-INDX) = WS-LIT-99             PLWEBCHS
                  OR HELPTEXT-INTROPAN (WS-HELP-INDX) NOT = WS-LIT-PAN  PLWEBCHS
                   MOVE WS-LIT-ONE TO WS-HELP-INDX                      PLWEBCHS
               END-IF                                                   PLWEBCHS
           ELSE                                                         PLWEBCHS
               IF WS-REQ-INDEX > DFHCOM-INDEX                           PLWEBCHS
                   PERFORM 9000-CLOSE-TEXTFILE                          PLWEBCHS
               END-IF                                                   PLWEBCHS
           END-IF.                                                      PLWEBCHS
                                                                        PLWEBCHS
       0300-READ-NEXT-EXIT.                                             PLWEBCHS
           EXIT.                                                        PLWEBCHS
           EJECT                                                        PLWEBCHS
       0400-FORMAT-SEND-DATA  SECTION.                                  PLWEBCHS
                                                                        PLWEBCHS
           MOVE WS-LIT-BR TO WS-TBLTEXT-BR (WS-RETN-INDX).              PLWEBCHS
           MOVE HELPTEXT-TEXT (WS-HELP-INDX) TO PREV-VSAM-DATA.         PLWEBCHS
                                                                        PLWEBCHS
           MOVE WS-LIT-ONE TO WS-LINE-INDX.                             PLWEBCHS
           PERFORM 0500-FORM-RETDATA                                    PLWEBCHS
               UNTIL WS-CHAR-INDX > WS-LIT-80                           PLWEBCHS
                                                                        PLWEBCHS
           MOVE WS-SCREEN-LINE TO WS-TBLTEXT-TEXT (WS-RETN-INDX).       PLWEBCHS
           INITIALIZE PREV-VSAM-DATA                                    PLWEBCHS
                      WS-SCREEN-LINE.                                   PLWEBCHS
                                                                        PLWEBCHS
           ADD  WS-LIT-ONE TO WS-HELP-INDX                              PLWEBCHS
                              WS-RETN-INDX.                             PLWEBCHS
           MOVE WS-LIT-ONE TO WS-CHAR-INDX                              PLWEBCHS
                              WS-LINE-INDX.                             PLWEBCHS
                                                                        PLWEBCHS
       0400-FORMAT-SEND-DATA-EXIT.                                      PLWEBCHS
           EXIT.                                                        PLWEBCHS
           EJECT                                                        PLWEBCHS
       0500-FORM-RETDATA  SECTION.                                      PLWEBCHS
                                                                        PLWEBCHS
           IF WS-HELP-DATA (WS-CHAR-INDX) = X'01'                       PLWEBCHS
               MOVE SPACE TO WS-TEXT-LINE (WS-LINE-INDX)                PLWEBCHS
               ADD WS-LIT-ONE TO WS-CHAR-INDX                           PLWEBCHS
               ADD WS-LIT-ONE TO WS-LINE-INDX                           PLWEBCHS
               GO TO 0500-FORM-RETDATA-EXIT                             PLWEBCHS
           ELSE                                                         PLWEBCHS
               IF WS-HELP-DATA (WS-CHAR-INDX) = X'04'                   PLWEBCHS
                   MOVE SPACE TO WS-TEXT-LINE (WS-LINE-INDX)            PLWEBCHS
                   ADD WS-LIT-ONE TO WS-LINE-INDX                       PLWEBCHS
                   MOVE WS-LIT-ONE TO WS-COLOR-INDX                     PLWEBCHS
                   PERFORM 0600-MOVE-COLOR 21 TIMES                     PLWEBCHS
                   ADD WS-LIT-ONE TO WS-CHAR-INDX                       PLWEBCHS
                   GO TO 0500-FORM-RETDATA-EXIT                         PLWEBCHS
               ELSE                                                     PLWEBCHS
                   IF WS-HELP-DATA (WS-CHAR-INDX) = X'02'               PLWEBCHS
                       MOVE WS-LIT-ONE TO WS-COLED-INDX                 PLWEBCHS
                       PERFORM 0700-MOVE-COLOREND 7 TIMES               PLWEBCHS
                       ADD WS-LIT-ONE TO WS-CHAR-INDX                   PLWEBCHS
                       ADD WS-LIT-ONE TO WS-LINE-INDX                   PLWEBCHS
                       GO TO 0500-FORM-RETDATA-EXIT                     PLWEBCHS
                   ELSE                                                 PLWEBCHS
                       IF WS-HELP-DATA (WS-CHAR-INDX) = WS-LIT-BRACKET  PLWEBCHS
                          OR DATA-URL                                   PLWEBCHS
                           PERFORM 0800-CHECK-FOR-URL-DATA              PLWEBCHS
                       ELSE                                             PLWEBCHS
                           PERFORM 0750-MOVE-SCREEN-TEXT                PLWEBCHS
                       END-IF                                           PLWEBCHS
                   END-IF                                               PLWEBCHS
               END-IF                                                   PLWEBCHS
           END-IF.                                                      PLWEBCHS
                                                                        PLWEBCHS
       0500-FORM-RETDATA-EXIT.                                          PLWEBCHS
           EXIT.                                                        PLWEBCHS
           EJECT                                                        PLWEBCHS
       0600-MOVE-COLOR SECTION.                                         PLWEBCHS
                                                                        PLWEBCHS
           MOVE WS-LIT-COL (WS-COLOR-INDX) TO                           PLWEBCHS
                WS-TEXT-LINE (WS-LINE-INDX).                            PLWEBCHS
           ADD 1 TO WS-COLOR-INDX.                                      PLWEBCHS
           ADD 1 TO WS-LINE-INDX.                                       PLWEBCHS
                                                                        PLWEBCHS
       0600-MOVE-COLOR-EXIT.                                            PLWEBCHS
           EXIT.                                                        PLWEBCHS
                                                                        PLWEBCHS
                                                                        PLWEBCHS
                                                                        PLWEBCHS
       0700-MOVE-COLOREND SECTION.                                      PLWEBCHS
                                                                        PLWEBCHS
           MOVE WS-LIT-COLEND (WS-COLED-INDX) TO                        PLWEBCHS
                WS-TEXT-LINE (WS-LINE-INDX).                            PLWEBCHS
           ADD 1 TO WS-COLED-INDX.                                      PLWEBCHS
           ADD 1 TO WS-LINE-INDX.                                       PLWEBCHS
                                                                        PLWEBCHS
       0700-MOVE-COLOREND-EXIT.                                         PLWEBCHS
           EXIT.                                                        PLWEBCHS
                                                                        PLWEBCHS
                                                                        PLWEBCHS
                                                                        PLWEBCHS
       0750-MOVE-SCREEN-TEXT    SECTION.                                PLWEBCHS
                                                                        PLWEBCHS
           MOVE WS-HELP-DATA (WS-CHAR-INDX) TO                          PLWEBCHS
                WS-TEXT-LINE (WS-LINE-INDX).                            PLWEBCHS
           ADD 1 TO WS-CHAR-INDX.                                       PLWEBCHS
           ADD 1 TO WS-LINE-INDX.                                       PLWEBCHS
                                                                        PLWEBCHS
       0750-MOVE-SCREEN-TEXT-EXIT.                                      PLWEBCHS
           EXIT.                                                        PLWEBCHS
           EJECT.                                                       PLWEBCHS
       0800-CHECK-FOR-URL-DATA  SECTION.                                PLWEBCHS
                                                                        PLWEBCHS
           IF WS-HELP-DATA (WS-CHAR-INDX) = WS-LIT-BRACKET              PLWEBCHS
               ADD 1 TO WS-CHAR-INDX                                    PLWEBCHS
               IF WS-HELP-DATA (WS-CHAR-INDX) = WS-LIT-BRACKET          PLWEBCHS
                   ADD 1 TO WS-CHAR-INDX                                PLWEBCHS
                   PERFORM 0900-REFORM-URL                              PLWEBCHS
                   MOVE WS-LIT-YES TO DATA-URL-SW                       PLWEBCHS
                   PERFORM 1000-MOVE-URLDATA UNTIL                      PLWEBCHS
                     WS-HELP-DATA (WS-CHAR-INDX) = WS-LIT-RBRACKET      PLWEBCHS
                       OR WS-CHAR-INDX > WS-LIT-80                      PLWEBCHS
                   PERFORM 1100-CHECK-URLDATA                           PLWEBCHS
               ELSE                                                     PLWEBCHS
                   SUBTRACT WS-LIT-ONE FROM WS-CHAR-INDX                PLWEBCHS
                   PERFORM 0750-MOVE-SCREEN-TEXT                        PLWEBCHS
               END-IF                                                   PLWEBCHS
           ELSE                                                         PLWEBCHS
               IF WS-HELP-DATA (WS-CHAR-INDX) = SPACE                   PLWEBCHS
                   ADD WS-LIT-ONE TO WS-CHAR-INDX                       PLWEBCHS
                   IF WS-HELP-DATA (WS-CHAR-INDX) = SPACE               PLWEBCHS
                       PERFORM 1150-FORM-URLEND                         PLWEBCHS
                   ELSE                                                 PLWEBCHS
                       SUBTRACT WS-LIT-ONE FROM WS-CHAR-INDX            PLWEBCHS
                       PERFORM 0750-MOVE-SCREEN-TEXT                    PLWEBCHS
                   END-IF                                               PLWEBCHS
               ELSE                                                     PLWEBCHS
                   PERFORM 0750-MOVE-SCREEN-TEXT                        PLWEBCHS
               END-IF                                                   PLWEBCHS
           END-IF.                                                      PLWEBCHS
                                                                        PLWEBCHS
       0800-CHECK-FOR-URL-DATA-EXIT.                                    PLWEBCHS
           EXIT.                                                        PLWEBCHS
                                                                        PLWEBCHS
                                                                        PLWEBCHS
                                                                        PLWEBCHS
       0900-REFORM-URL          SECTION.                                PLWEBCHS
                                                                        PLWEBCHS
           MOVE WS-LIT-ONE TO WS-LINE-INDX                              PLWEBCHS
                              WS-FORMURL-INDX.                          PLWEBCHS
                                                                        PLWEBCHS
           PERFORM 0950-MOVE-URLBEG 9 TIMES.                            PLWEBCHS
           MOVE WS-LIT-ONE TO WS-FORMURL-INDX.                          PLWEBCHS
           MOVE WS-LIT-ONE TO WS-URL-INDX.                              PLWEBCHS
                                                                        PLWEBCHS
       0900-REFORM-URL-EXIT.                                            PLWEBCHS
           EXIT.                                                        PLWEBCHS
           EJECT                                                        PLWEBCHS
       0950-MOVE-URLBEG         SECTION.                                PLWEBCHS
                                                                        PLWEBCHS
           MOVE WS-LIT-URLBEG (WS-FORMURL-INDX) TO                      PLWEBCHS
                WS-TEXT-LINE (WS-LINE-INDX).                            PLWEBCHS
                                                                        PLWEBCHS
           ADD WS-LIT-ONE TO WS-FORMURL-INDX                            PLWEBCHS
                             WS-LINE-INDX.                              PLWEBCHS
                                                                        PLWEBCHS
                                                                        PLWEBCHS
       0950-MOVE-URLBEG-EXIT.                                           PLWEBCHS
           EXIT.                                                        PLWEBCHS
                                                                        PLWEBCHS
                                                                        PLWEBCHS
                                                                        PLWEBCHS
       1000-MOVE-URLDATA      SECTION.                                  PLWEBCHS
                                                                        PLWEBCHS
           MOVE WS-HELP-DATA (WS-CHAR-INDX) TO                          PLWEBCHS
                WS-HOLD-URL-DATA (WS-URL-INDX).                         PLWEBCHS
                                                                        PLWEBCHS
           ADD WS-LIT-ONE TO WS-CHAR-INDX                               PLWEBCHS
                             WS-URL-INDX                                PLWEBCHS
                             WS-CNT-URL.                                PLWEBCHS
                                                                        PLWEBCHS
       1000-MOVE-URLDATA-EXIT.                                          PLWEBCHS
           EXIT.                                                        PLWEBCHS
           EJECT.                                                       PLWEBCHS
       1100-CHECK-URLDATA         SECTION.                              PLWEBCHS
                                                                        PLWEBCHS
           IF WS-HELP-DATA (WS-CHAR-INDX) = WS-LIT-RBRACKET             PLWEBCHS
               ADD  WS-LIT-ONE TO WS-CHAR-INDX                          PLWEBCHS
           ELSE                                                         PLWEBCHS
               GO TO 1100-CHECK-URLDATA-EXIT                            PLWEBCHS
           END-IF.                                                      PLWEBCHS
                                                                        PLWEBCHS
           IF WS-HELP-DATA (WS-CHAR-INDX) = WS-LIT-RBRACKET             PLWEBCHS
               ADD  WS-LIT-ONE TO WS-CHAR-INDX                          PLWEBCHS
               IF WS-HELP-DATA (WS-CHAR-INDX) = SPACE                   PLWEBCHS
                   ADD  WS-LIT-ONE TO WS-CHAR-INDX                      PLWEBCHS
                   PERFORM 0750-MOVE-SCREEN-TEXT                        PLWEBCHS
               ELSE                                                     PLWEBCHS
                   SUBTRACT WS-LIT-ONE FROM WS-CHAR-INDX                PLWEBCHS
                   PERFORM 0750-MOVE-SCREEN-TEXT                        PLWEBCHS
               END-IF                                                   PLWEBCHS
           ELSE                                                         PLWEBCHS
               SUBTRACT WS-LIT-ONE FROM WS-CHAR-INDX                    PLWEBCHS
               PERFORM 0750-MOVE-SCREEN-TEXT                            PLWEBCHS
           END-IF.                                                      PLWEBCHS
                                                                        PLWEBCHS
       1100-CHECK-URLDATA-EXIT.                                         PLWEBCHS
           EXIT.                                                        PLWEBCHS
                                                                        PLWEBCHS
                                                                        PLWEBCHS
                                                                        PLWEBCHS
                                                                        PLWEBCHS
       1150-FORM-URLEND           SECTION.                              PLWEBCHS
                                                                        PLWEBCHS
           MOVE WS-LIT-ONE TO WS-FORMURL-INDX.                          PLWEBCHS
           PERFORM 1300-ADD-URLFEND 2 TIMES.                            PLWEBCHS
           IF WS-HOLD-URL = SPACES                                      PLWEBCHS
               CONTINUE                                                 PLWEBCHS
           ELSE                                                         PLWEBCHS
               MOVE WS-LIT-ONE TO WS-URL-INDX                           PLWEBCHS
               PERFORM 1200-MOVE-HOLD-URL-NAME UNTIL                    PLWEBCHS
                   WS-URL-INDX > WS-CNT-URL                             PLWEBCHS
               MOVE WS-LIT-NO TO DATA-URL-SW                            PLWEBCHS
               INITIALIZE WS-HOLD-URL                                   PLWEBCHS
           END-IF.                                                      PLWEBCHS
                                                                        PLWEBCHS
           MOVE WS-LIT-ONE TO WS-FORMURL-INDX.                          PLWEBCHS
           PERFORM 1400-MOVE-URLEND 4 TIMES.                            PLWEBCHS
                                                                        PLWEBCHS
                                                                        PLWEBCHS
       1150-FORM-URLEND-EXIT.                                           PLWEBCHS
           EXIT.                                                        PLWEBCHS
           EJECT                                                        PLWEBCHS
       1200-MOVE-HOLD-URL-NAME    SECTION.                              PLWEBCHS
                                                                        PLWEBCHS
           MOVE WS-HOLD-URL-DATA (WS-URL-INDX) TO                       PLWEBCHS
                WS-TEXT-LINE (WS-LINE-INDX).                            PLWEBCHS
                                                                        PLWEBCHS
           ADD WS-LIT-ONE TO WS-LINE-INDX.                              PLWEBCHS
           ADD WS-LIT-ONE TO WS-URL-INDX.                               PLWEBCHS
                                                                        PLWEBCHS
       1200-MOVE-HOLD-URL-NAME-EXIT.                                    PLWEBCHS
           EXIT.                                                        PLWEBCHS
                                                                        PLWEBCHS
                                                                        PLWEBCHS
                                                                        PLWEBCHS
                                                                        PLWEBCHS
       1300-ADD-URLFEND           SECTION.                              PLWEBCHS
                                                                        PLWEBCHS
           MOVE WS-LIT-HREFEND (WS-FORMURL-INDX) TO                     PLWEBCHS
                WS-TEXT-LINE (WS-LINE-INDX).                            PLWEBCHS
                                                                        PLWEBCHS
           ADD WS-LIT-ONE TO WS-FORMURL-INDX                            PLWEBCHS
                             WS-LINE-INDX.                              PLWEBCHS
                                                                        PLWEBCHS
       1300-ADD-URLFEND-EXIT.                                           PLWEBCHS
           EXIT.                                                        PLWEBCHS
                                                                        PLWEBCHS
                                                                        PLWEBCHS
                                                                        PLWEBCHS
                                                                        PLWEBCHS
       1400-MOVE-URLEND           SECTION.                              PLWEBCHS
                                                                        PLWEBCHS
           MOVE WS-LIT-URLEND (WS-FORMURL-INDX) TO                      PLWEBCHS
                WS-TEXT-LINE (WS-LINE-INDX).                            PLWEBCHS
                                                                        PLWEBCHS
           ADD WS-LIT-ONE TO WS-FORMURL-INDX                            PLWEBCHS
                             WS-LINE-INDX.                              PLWEBCHS
                                                                        PLWEBCHS
       1400-MOVE-URLEND-EXIT.                                           PLWEBCHS
           EXIT.                                                        PLWEBCHS
           EJECT                                                        PLWEBCHS
       8000-PROCESS-HANDLE-CONDS  SECTION.                              PLWEBCHS
                                                                        PLWEBCHS
           IF RESPONSE-CODE = DFHRESP(DISABLED)                         PLWEBCHS
               MOVE WS-LIT-98 TO DFHCOM-RET-STATUS                      PLWEBCHS
               PERFORM 9000-CLOSE-TEXTFILE                              PLWEBCHS
           ELSE                                                         PLWEBCHS
               IF RESPONSE-CODE = DFHRESP(NOTFND)                       PLWEBCHS
                   MOVE WS-LIT-23 TO DFHCOM-RET-STATUS                  PLWEBCHS
                   PERFORM 9000-CLOSE-TEXTFILE                          PLWEBCHS
               ELSE                                                     PLWEBCHS
                   IF RESPONSE-CODE = WS-LIT-22 OR ZEROS                PLWEBCHS
                       CONTINUE                                         PLWEBCHS
                   ELSE                                                 PLWEBCHS
                       PERFORM 9000-CLOSE-TEXTFILE                      PLWEBCHS
               END-IF                                                   PLWEBCHS
           END-IF.                                                      PLWEBCHS
                                                                        PLWEBCHS
       8000-PROCESS-HANDLE-CONDS-EXIT.                                  PLWEBCHS
           EXIT.                                                        PLWEBCHS
           EJECT                                                        PLWEBCHS
       9000-CLOSE-TEXTFILE SECTION.                                     PLWEBCHS
                                                                        PLWEBCHS
           MOVE WS-LIT-BEGIN TO DFHCOM-RET-HTML-BEGIN.                  PLWEBCHS
           MOVE WS-LIT-PRE   TO DFHCOM-RET-HTML-PRE.                    PLWEBCHS
           MOVE WS-LIT-H2    TO DFHCOM-RET-HTML-H2.                     PLWEBCHS
                                                                        PLWEBCHS
           IF DFHCOM-RET-STATUS = ZEROS                                 PLWEBCHS
               CONTINUE                                                 PLWEBCHS
           ELSE                                                         PLWEBCHS
               IF DATA-FOUND                                            PLWEBCHS
                   CONTINUE                                             PLWEBCHS
               ELSE                                                     PLWEBCHS
                   MOVE WS-LIT-NOTFND TO DFHCOM-RET-SUBTITLE            PLWEBCHS
               END-IF                                                   PLWEBCHS
           END-IF.                                                      PLWEBCHS
                                                                        PLWEBCHS
           ADD WS-LIT-ONE      TO WS-RETN-INDX.                         PLWEBCHS
           MOVE WS-LIT-BR      TO WS-TBLTEXT-BR (WS-RETN-INDX).         PLWEBCHS
           MOVE WS-LIT-PREND   TO WS-TBLTEXT-TEXT(WS-RETN-INDX).        PLWEBCHS
           ADD WS-LIT-ONE      TO WS-RETN-INDX.                         PLWEBCHS
           MOVE SPACES         TO WS-TBLTEXT-BR (WS-RETN-INDX).         PLWEBCHS
           MOVE WS-LIT-DESCEND TO WS-TBLTEXT-TEXT(WS-RETN-INDX).        PLWEBCHS
           MOVE WS-TEXT-TABLE  TO DFHCOM-RET-DATA.                      PLWEBCHS
                                                                        PLWEBCHS
           EXEC CICS                                                    PLWEBCHS
               ENDBR                                                    PLWEBCHS
               DATASET('D21HLP2')                                       PLWEBCHS
           END-EXEC.                                                    PLWEBCHS
                                                                        PLWEBCHS
           GOBACK.                                                      PLWEBCHS
                                                                        PLWEBCHS
       9000-CLOSE-TEXTFILE-EXIT.                                        PLWEBCHS
