000100**************************************************************/   36570961
000200*  PROGRAM: PPA1HRFH                                         */   36570961
000300*  RELEASE # ___0961___   SERVICE REQUEST NO(S)____3657______*/   36570961
000400*  NAME ______AAC______   MODIFICATION DATE ____02/14/95_____*/   36570961
000500*  DESCRIPTION                                               */   36570961
000600*    HISTORY REPORTING HEADER/FOOTER FORMAT APPLICATION      */   36570961
000700*    PROCESSOR FOR THE BROWSE SCREEN                         */   36570961
000800*                                                            */   36570961
000900**************************************************************/   36570961
001000 IDENTIFICATION DIVISION.                                         PPA1HRFH
001100 PROGRAM-ID. PPA1HRFH.                                            PPA1HRFH
001200 ENVIRONMENT DIVISION.                                            PPA1HRFH
001300 CONFIGURATION SECTION.                                           PPA1HRFH
001400 SOURCE-COMPUTER.                                                 PPA1HRFH
001500 COPY  CPOTXUCS.                                                  PPA1HRFH
001600 DATA DIVISION.                                                   PPA1HRFH
001700 WORKING-STORAGE SECTION.                                         PPA1HRFH
001800 01  WS-COMN.                                                     PPA1HRFH
001900   05  WS-START                          PIC X(27) VALUE          PPA1HRFH
002000       'WORKING STORAGE STARTS HERE'.                             PPA1HRFH
002100   05  WS-PPCTTUTL                       PIC X(08)                PPA1HRFH
002200                                             VALUE 'PPCTTUTL'.    PPA1HRFH
002300   05  WS-PPPVREDO                       PIC X(08)                PPA1HRFH
002400                                             VALUE 'PPPVREDO'.    PPA1HRFH
002500   05  WS-CTR                            PIC 9(02) VALUE ZERO.    PPA1HRFH
002600   05  WS-CTR-2                          PIC 9(02) VALUE ZERO.    PPA1HRFH
002700   05  WS-SYS-ENTRY-DATE                 PIC X(10) VALUE SPACE.   PPA1HRFH
002800   05  WS-SYS-ENTRY-TIME                 PIC X(10) VALUE SPACE.   PPA1HRFH
002900   05  WS-FOOTER-FUNC                    PIC X(04) VALUE SPACES.  PPA1HRFH
003000   05  WS-FOOTER-EMP-ID                  PIC X(09) VALUE SPACES.  PPA1HRFH
003100   05  WS-FOOTER-EMP-NAME                PIC X(26) VALUE SPACES.  PPA1HRFH
003200   05  WS-FOOTER-EMP-SSN                 PIC X(09) VALUE SPACES.  PPA1HRFH
003300   05  WS-FOOTER-ASOF-DATE               PIC X(06) VALUE SPACES.  PPA1HRFH
003400   05  WS-FOOTER-PASTPRES-FLAG           PIC X(01) VALUE SPACES.  PPA1HRFH
003500   05  WS-FOOTER-INCOR-FLAG              PIC X(01) VALUE SPACES.  PPA1HRFH
003600 01  UCHDRARE  EXTERNAL.                                          PPA1HRFH
003700     COPY UCHDRARE.                                               PPA1HRFH
003800 01  WS-PPHWHD0 REDEFINES UCHDRARE.                               PPA1HRFH
003900     COPY PPHWHD0.                                                PPA1HRFH
004000 01  WS-UCFMHD0 REDEFINES UCHDRARE.                               PPA1HRFH
004100     COPY UCFMHD0.                                                PPA1HRFH
004200 01  UCFTRARE  EXTERNAL.                                          PPA1HRFH
004300     COPY UCFTRARE.                                               PPA1HRFH
004400 01  WS-PPHRFT0 REDEFINES UCFTRARE.                               PPA1HRFH
004500     COPY PPHRFT0.                                                PPA1HRFH
004600 01  UCCOMMON   EXTERNAL.                                         PPA1HRFH
004700     COPY UCCOMMON.                                               PPA1HRFH
004800 01  UCPISCRN   EXTERNAL.                                         PPA1HRFH
004900     COPY UCPISCRN.                                               PPA1HRFH
005000 01  UCPIROFH   EXTERNAL.                                         PPA1HRFH
005100     COPY UCPIROFH.                                               PPA1HRFH
005200 01  CPWSHDBW   EXTERNAL.                                         PPA1HRFH
005300     COPY CPWSHDBW.                                               PPA1HRFH
005400 01  CPWSWORK   EXTERNAL.                                         PPA1HRFH
005500     COPY CPWSWORK.                                               PPA1HRFH
005600 01  UCWSABND    EXTERNAL.                                        PPA1HRFH
005700     COPY UCWSABND.                                               PPA1HRFH
005800 01  PPDB2MSG-INTERFACE.                                          PPA1HRFH
005900     COPY CPLNKDB2.                                               PPA1HRFH
006000 01  CPLNKCTT EXTERNAL.                                           PPA1HRFH
006100     COPY CPLNKCTT.                                               PPA1HRFH
006200 01  CPWSDEED EXTERNAL.                                           PPA1HRFH
006300     COPY CPWSDEED.                                               PPA1HRFH
006400                                                                  PPA1HRFH
006500     COPY DFHBMSCA.                                               PPA1HRFH
006600******************************************************************PPA1HRFH
006700*          SQL - WORKING STORAGE                                 *PPA1HRFH
006800******************************************************************PPA1HRFH
006900 01  HME-ROW.                                                     PPA1HRFH
007000     EXEC SQL                                                     PPA1HRFH
007100          INCLUDE PPPVHMEH                                        PPA1HRFH
007200     END-EXEC.                                                    PPA1HRFH
007300                                                                  PPA1HRFH
007400 01  IDX-ROW EXTERNAL.                                            PPA1HRFH
007500     EXEC SQL                                                     PPA1HRFH
007600          INCLUDE PPPVZIDX                                        PPA1HRFH
007700     END-EXEC.                                                    PPA1HRFH
007800                                                                  PPA1HRFH
007900 01  BAS-ROW EXTERNAL.                                            PPA1HRFH
008000     EXEC SQL                                                     PPA1HRFH
008100          INCLUDE PPPVZBAS                                        PPA1HRFH
008200     END-EXEC.                                                    PPA1HRFH
008300                                                                  PPA1HRFH
008400     EXEC SQL                                                     PPA1HRFH
008500          INCLUDE SQLCA                                           PPA1HRFH
008600     END-EXEC.                                                    PPA1HRFH
008700******************************************************************PPA1HRFH
008800*                                                                *PPA1HRFH
008900*                  SQL - SELECTS                                 *PPA1HRFH
009000*                                                                *PPA1HRFH
009100******************************************************************PPA1HRFH
009200 LINKAGE SECTION.                                                 PPA1HRFH
009300                                                                  PPA1HRFH
009400                                                                  PPA1HRFH
009500 EJECT                                                            PPA1HRFH
009600 PROCEDURE DIVISION.                                              PPA1HRFH
009700                                                                  PPA1HRFH
009800 0000-MAINLINE                        SECTION.                    PPA1HRFH
009900                                                                  PPA1HRFH
010000     PERFORM 1000-INITIALIZATION.                                 PPA1HRFH
010100     PERFORM 2000-MOVE-ATTRIBUTES-TO-MAPS.                        PPA1HRFH
010200     PERFORM 3000-MOVE-DATA-TO-MAPS.                              PPA1HRFH
010300                                                                  PPA1HRFH
010400     GOBACK.                                                      PPA1HRFH
010500                                                                  PPA1HRFH
010600 0000-EXIT.                                                       PPA1HRFH
010700     EXIT.                                                        PPA1HRFH
010800                                                                  PPA1HRFH
010900                                                                  PPA1HRFH
011000 EJECT                                                            PPA1HRFH
011100 1000-INITIALIZATION                  SECTION.                    PPA1HRFH
011200     MOVE ZERO TO UCCOMMON-RETURN-CODE.                           PPA1HRFH
011300                                                                  PPA1HRFH
011400     MOVE NEXT-FUNCI         TO WS-FOOTER-FUNC.                   PPA1HRFH
011500     MOVE FTR-IDI            TO WS-FOOTER-EMP-ID.                 PPA1HRFH
011600     MOVE FTR-NAMEI          TO WS-FOOTER-EMP-NAME.               PPA1HRFH
011700     MOVE FTR-SSNI           TO WS-FOOTER-EMP-SSN.                PPA1HRFH
011800     MOVE FTR-ASOF-DATEI     TO WS-FOOTER-ASOF-DATE.              PPA1HRFH
011900     MOVE FTR-PASTPRES-FLAGI TO WS-FOOTER-PASTPRES-FLAG.          PPA1HRFH
012000     MOVE FTR-INCOR-FLAGI    TO WS-FOOTER-INCOR-FLAG.             PPA1HRFH
012100                                                                  PPA1HRFH
012200     MOVE LOW-VALUES         TO UCHDRARE                          PPA1HRFH
012300                                UCFTRARE.                         PPA1HRFH
012400                                                                  PPA1HRFH
012500     IF UCCOMMON-FUNCTION-TYPE NOT = 'M'                          PPA1HRFH
012600        MOVE LENGTH OF PPHWHD0O TO UCPIROFH-TOP-MAP-LENGTH        PPA1HRFH
012700     ELSE                                                         PPA1HRFH
012800        MOVE LENGTH OF UCFMHD0O TO UCPIROFH-TOP-MAP-LENGTH        PPA1HRFH
012900     END-IF.                                                      PPA1HRFH
013000                                                                  PPA1HRFH
013100     MOVE LENGTH OF PPHRFT0O TO UCPIROFH-BOT-MAP-LENGTH.          PPA1HRFH
013200                                                                  PPA1HRFH
013300     EXEC CICS                                                    PPA1HRFH
013400          ASKTIME                                                 PPA1HRFH
013500          ABSTIME (UCCOMMON-ABSTIME-X)                            PPA1HRFH
013600     END-EXEC.                                                    PPA1HRFH
013700                                                                  PPA1HRFH
013800     EXEC CICS                                                    PPA1HRFH
013900          FORMATTIME                                              PPA1HRFH
014000          ABSTIME (UCCOMMON-ABSTIME-X)                            PPA1HRFH
014100          MMDDYY  (UCCOMMON-DATE-X)                               PPA1HRFH
014200          DATESEP                                                 PPA1HRFH
014300          TIME    (UCCOMMON-TIME-X)                               PPA1HRFH
014400          TIMESEP                                                 PPA1HRFH
014500     END-EXEC.                                                    PPA1HRFH
014600 1000-EXIT.                                                       PPA1HRFH
014700     EXIT.                                                        PPA1HRFH
014800                                                                  PPA1HRFH
014900                                                                  PPA1HRFH
015000 EJECT                                                            PPA1HRFH
015100 2000-MOVE-ATTRIBUTES-TO-MAPS         SECTION.                    PPA1HRFH
015200                                                                  PPA1HRFH
015300     IF UCCOMMON-FUNCTION-TYPE NOT = 'M'                          PPA1HRFH
015400        MOVE UCCOMMON-CLR-NORM-DISPL TO DATEC OF PPHWHD0O         PPA1HRFH
015500                                        TIMEC OF PPHWHD0O         PPA1HRFH
015600                                        DATELUC                   PPA1HRFH
015700                                        USERIDC OF PPHWHD0O       PPA1HRFH
015800        MOVE UCCOMMON-CLR-SCREEN-ID  TO MAP-NAMEC                 PPA1HRFH
015900                                        VERSIONC                  PPA1HRFH
016000        MOVE UCCOMMON-CLR-TITLE      TO SUBSYSTEM-NAMEC           PPA1HRFH
016100                                                   OF PPHWHD0O    PPA1HRFH
016200                                        SCREEN-NAMEC              PPA1HRFH
016300                                                   OF PPHWHD0O    PPA1HRFH
016400        MOVE UCCOMMON-CLR-FLD-LABEL  TO LUSERIDC OF PPHWHD0O      PPA1HRFH
016500                                        L-DATELUC                 PPA1HRFH
016600     ELSE                                                         PPA1HRFH
016700        MOVE UCCOMMON-CLR-NORM-DISPL TO DATEC OF UCFMHD0O         PPA1HRFH
016800                                        TIMEC OF UCFMHD0O         PPA1HRFH
016900                                        USERIDC OF UCFMHD0O       PPA1HRFH
017000        MOVE UCCOMMON-CLR-SCREEN-ID  TO MAP-NAME-REL-NUMBERC      PPA1HRFH
017100        MOVE UCCOMMON-CLR-TITLE   TO SUBSYSTEM-NAMEC OF UCFMHD0O  PPA1HRFH
017200                                     SCREEN-NAMEC OF UCFMHD0O     PPA1HRFH
017300        MOVE UCCOMMON-CLR-FLD-LABEL TO LUSERIDC OF UCFMHD0O       PPA1HRFH
017400     END-IF.                                                      PPA1HRFH
017500                                                                  PPA1HRFH
017600     MOVE UCCOMMON-CLR-FLD-LABEL TO LNEXT-FUNCC                   PPA1HRFH
017700                                    LFTR-IDC                      PPA1HRFH
017800                                    LFTR-NAMEC                    PPA1HRFH
017900                                    LFTR-SSNC                     PPA1HRFH
018000                                    LFTR-ASOF-DATEC               PPA1HRFH
018100                                    LFTR-PASTPRES-FLAGC           PPA1HRFH
018200                                    LFTR-INCOR-FLAGC              PPA1HRFH
018300                                    LCOMMANDC                     PPA1HRFH
018400                                    LPF1C                         PPA1HRFH
018500                                    LPF2C.                        PPA1HRFH
018600                                                                  PPA1HRFH
018700     MOVE UCCOMMON-CLR-ENTRY     TO NEXT-FUNCC                    PPA1HRFH
018800                                    FTR-IDC                       PPA1HRFH
018900                                    FTR-NAMEC                     PPA1HRFH
019000                                    FTR-SSNC                      PPA1HRFH
019100                                    FTR-ASOF-DATEC                PPA1HRFH
019200                                    FTR-PASTPRES-FLAGC            PPA1HRFH
019300                                    FTR-INCOR-FLAGC               PPA1HRFH
019400                                    COMMANDC.                     PPA1HRFH
019500                                                                  PPA1HRFH
019600     MOVE UCCOMMON-CLR-FUNC-KEY TO PF01C                          PPA1HRFH
019700                                   PF02C                          PPA1HRFH
019800                                   PF03C                          PPA1HRFH
019900                                   PF04C                          PPA1HRFH
020000                                   PF05C                          PPA1HRFH
020100                                   PF06C                          PPA1HRFH
020200                                   PF07C                          PPA1HRFH
020300                                   PF08C                          PPA1HRFH
020400                                   PF09C                          PPA1HRFH
020500                                   PF10C                          PPA1HRFH
020600                                   PF11C                          PPA1HRFH
020700                                   PF12C.                         PPA1HRFH
020800                                                                  PPA1HRFH
020900     MOVE UCPIROFH-CLR-MSG      TO MESSAGEC.                      PPA1HRFH
021000     MOVE UCCOMMON-CLR-MSG-SEV-9 TO CRITICAL-MSGC.                PPA1HRFH
021100                                                                  PPA1HRFH
021200     IF UCCOMMON-FUNCTION-TYPE NOT = 'M'                          PPA1HRFH
021300        MOVE UCCOMMON-HLT-NORM-DISPL TO DATEH OF PPHWHD0O         PPA1HRFH
021400                                        TIMEH OF PPHWHD0O         PPA1HRFH
021500                                        DATELUH                   PPA1HRFH
021600                                        USERIDH OF PPHWHD0O       PPA1HRFH
021700        MOVE UCCOMMON-HLT-SCREEN-ID  TO MAP-NAMEH                 PPA1HRFH
021800                                        VERSIONH                  PPA1HRFH
021900        MOVE UCCOMMON-HLT-TITLE      TO SUBSYSTEM-NAMEH           PPA1HRFH
022000                                                   OF PPHWHD0O    PPA1HRFH
022100                                        SCREEN-NAMEH              PPA1HRFH
022200                                                   OF PPHWHD0O    PPA1HRFH
022300        MOVE UCCOMMON-HLT-FLD-LABEL  TO LUSERIDH OF PPHWHD0O      PPA1HRFH
022400                                        L-DATELUH                 PPA1HRFH
022500     ELSE                                                         PPA1HRFH
022600        MOVE UCCOMMON-HLT-NORM-DISPL TO DATEH OF UCFMHD0O         PPA1HRFH
022700                                        TIMEH OF UCFMHD0O         PPA1HRFH
022800                                        USERIDH OF UCFMHD0O       PPA1HRFH
022900        MOVE UCCOMMON-HLT-SCREEN-ID  TO MAP-NAME-REL-NUMBERH      PPA1HRFH
023000        MOVE UCCOMMON-HLT-TITLE                                   PPA1HRFH
023100           TO SUBSYSTEM-NAMEH OF UCFMHD0O                         PPA1HRFH
023200              SCREEN-NAMEH OF UCFMHD0O                            PPA1HRFH
023300        MOVE UCCOMMON-HLT-FLD-LABEL TO LUSERIDH OF UCFMHD0O       PPA1HRFH
023400     END-IF.                                                      PPA1HRFH
023500                                                                  PPA1HRFH
023600     MOVE UCCOMMON-HLT-FLD-LABEL TO  LNEXT-FUNCH                  PPA1HRFH
023700                                     LFTR-IDH                     PPA1HRFH
023800                                     LFTR-NAMEH                   PPA1HRFH
023900                                     LFTR-SSNH                    PPA1HRFH
024000                                     LFTR-ASOF-DATEH              PPA1HRFH
024100                                     LFTR-PASTPRES-FLAGH          PPA1HRFH
024200                                     LFTR-INCOR-FLAGH             PPA1HRFH
024300                                     LCOMMANDH                    PPA1HRFH
024400                                     LPF1H                        PPA1HRFH
024500                                     LPF2H.                       PPA1HRFH
024600                                                                  PPA1HRFH
024700     MOVE UCCOMMON-HLT-ENTRY     TO NEXT-FUNCH                    PPA1HRFH
024800                                    FTR-IDH                       PPA1HRFH
024900                                    FTR-NAMEH                     PPA1HRFH
025000                                    FTR-SSNH                      PPA1HRFH
025100                                    FTR-ASOF-DATEH                PPA1HRFH
025200                                    FTR-PASTPRES-FLAGH            PPA1HRFH
025300                                    FTR-INCOR-FLAGH               PPA1HRFH
025400                                    COMMANDH.                     PPA1HRFH
025500                                                                  PPA1HRFH
025600     MOVE UCCOMMON-HLT-FUNC-KEY TO PF01H                          PPA1HRFH
025700                                   PF02H                          PPA1HRFH
025800                                   PF03H                          PPA1HRFH
025900                                   PF04H                          PPA1HRFH
026000                                   PF05H                          PPA1HRFH
026100                                   PF06H                          PPA1HRFH
026200                                   PF07H                          PPA1HRFH
026300                                   PF08H                          PPA1HRFH
026400                                   PF09H                          PPA1HRFH
026500                                   PF10H                          PPA1HRFH
026600                                   PF11H                          PPA1HRFH
026700                                   PF12H.                         PPA1HRFH
026800                                                                  PPA1HRFH
026900     MOVE UCPIROFH-HLT-MSG      TO MESSAGEH.                      PPA1HRFH
027000     MOVE UCCOMMON-HLT-MSG-SEV-9 TO CRITICAL-MSGH.                PPA1HRFH
027100                                                                  PPA1HRFH
027200     IF UCCOMMON-FUNCTION-TYPE NOT = 'M'                          PPA1HRFH
027300        MOVE UCCOMMON-ATR-NORM-DISPL TO DATEA OF PPHWHD0O         PPA1HRFH
027400                                        TIMEA OF PPHWHD0O         PPA1HRFH
027500                                        DATELUA                   PPA1HRFH
027600                                        USERIDA OF PPHWHD0O       PPA1HRFH
027700        MOVE UCCOMMON-ATR-SCREEN-ID  TO MAP-NAMEA                 PPA1HRFH
027800                                        VERSIONA                  PPA1HRFH
027900        MOVE UCCOMMON-ATR-TITLE      TO SUBSYSTEM-NAMEA           PPA1HRFH
028000                                                   OF PPHWHD0O    PPA1HRFH
028100                                        SCREEN-NAMEA              PPA1HRFH
028200                                                   OF PPHWHD0O    PPA1HRFH
028300        MOVE UCCOMMON-ATR-FLD-LABEL  TO LUSERIDA OF PPHWHD0O      PPA1HRFH
028400                                        L-DATELUA                 PPA1HRFH
028500     ELSE                                                         PPA1HRFH
028600        MOVE UCCOMMON-ATR-NORM-DISPL TO DATEA OF UCFMHD0O         PPA1HRFH
028700                                        TIMEA OF UCFMHD0O         PPA1HRFH
028800                                        USERIDA OF UCFMHD0O       PPA1HRFH
028900        MOVE UCCOMMON-ATR-SCREEN-ID  TO MAP-NAME-REL-NUMBERA      PPA1HRFH
029000        MOVE UCCOMMON-ATR-TITLE      TO SUBSYSTEM-NAMEA           PPA1HRFH
029100                                       OF UCFMHD0O                PPA1HRFH
029200                                        SCREEN-NAMEA OF UCFMHD0O  PPA1HRFH
029300        MOVE UCCOMMON-ATR-FLD-LABEL TO LUSERIDA OF UCFMHD0O       PPA1HRFH
029400                                                                  PPA1HRFH
029500     END-IF.                                                      PPA1HRFH
029600                                                                  PPA1HRFH
029700     MOVE UCCOMMON-ATR-FLD-LABEL TO LNEXT-FUNCA                   PPA1HRFH
029800                                    LFTR-IDA                      PPA1HRFH
029900                                    LFTR-NAMEA                    PPA1HRFH
030000                                    LFTR-SSNA                     PPA1HRFH
030100                                    LFTR-ASOF-DATEA               PPA1HRFH
030200                                    LFTR-PASTPRES-FLAGA           PPA1HRFH
030300                                    LFTR-INCOR-FLAGA              PPA1HRFH
030400                                    LCOMMANDA                     PPA1HRFH
030500                                    LPF1A                         PPA1HRFH
030600                                    LPF2A.                        PPA1HRFH
030700                                                                  PPA1HRFH
030800     MOVE UCCOMMON-ATR-ENTRY     TO NEXT-FUNCA                    PPA1HRFH
030900                                    FTR-IDA                       PPA1HRFH
031000                                    FTR-NAMEA                     PPA1HRFH
031100                                    FTR-SSNA                      PPA1HRFH
031200                                    FTR-ASOF-DATEA                PPA1HRFH
031300                                    FTR-PASTPRES-FLAGA            PPA1HRFH
031400                                    FTR-INCOR-FLAGA               PPA1HRFH
031500                                    COMMANDA.                     PPA1HRFH
031600                                                                  PPA1HRFH
031700     MOVE UCCOMMON-ATR-FUNC-KEY TO PF01A                          PPA1HRFH
031800                                   PF02A                          PPA1HRFH
031900                                   PF03A                          PPA1HRFH
032000                                   PF04A                          PPA1HRFH
032100                                   PF05A                          PPA1HRFH
032200                                   PF06A                          PPA1HRFH
032300                                   PF07A                          PPA1HRFH
032400                                   PF08A                          PPA1HRFH
032500                                   PF09A                          PPA1HRFH
032600                                   PF10A                          PPA1HRFH
032700                                   PF11A                          PPA1HRFH
032800                                   PF12A.                         PPA1HRFH
032900                                                                  PPA1HRFH
033000     MOVE UCPIROFH-ATR-MSG      TO MESSAGEA.                      PPA1HRFH
033100     MOVE UCCOMMON-ATR-MSG-SEV-9 TO CRITICAL-MSGA.                PPA1HRFH
033200                                                                  PPA1HRFH
033300 2000-EXIT.                                                       PPA1HRFH
033400     EXIT.                                                        PPA1HRFH
033500                                                                  PPA1HRFH
033600                                                                  PPA1HRFH
033700 EJECT                                                            PPA1HRFH
033800 3000-MOVE-DATA-TO-MAPS               SECTION.                    PPA1HRFH
033900                                                                  PPA1HRFH
034000     STRING UCPIROFH-DTL-MAP-NAME DELIMITED BY SPACE,             PPA1HRFH
034100            '-'                   DELIMITED BY SIZE,              PPA1HRFH
034200            UCPISCRN-DTL-REL-NO   DELIMITED BY SIZE               PPA1HRFH
034300       INTO MAP-NAMEO                                             PPA1HRFH
034400     END-STRING.                                                  PPA1HRFH
034500                                                                  PPA1HRFH
034600     IF UCCOMMON-FUNCTION-TYPE  = 'M'                             PPA1HRFH
034700        MOVE MAP-NAMEO TO MAP-NAME-REL-NUMBERO                    PPA1HRFH
034800     END-IF.                                                      PPA1HRFH
034900                                                                  PPA1HRFH
035000******************************************************************PPA1HRFH
035100*    CENTER THE SUBSYSTEM NAME AND FUNCTION DESCRIPTION          *PPA1HRFH
035200*    BY COUNTING THE NUMBER OF TRAILING BLANKS, DIVIDING         *PPA1HRFH
035300*    THAT NUMBER BY 2 AND THEN MOVING THE NAME INTO THE          *PPA1HRFH
035400*    CENTER OF THE SCREEN FIELD.                                 *PPA1HRFH
035500******************************************************************PPA1HRFH
035600     IF UCCOMMON-FUNCTION-TYPE  NOT = 'M'                         PPA1HRFH
035700        MOVE SPACES TO SUBSYSTEM-NAMEO OF PPHWHD0O                PPA1HRFH
035800     ELSE                                                         PPA1HRFH
035900        MOVE SPACES TO SUBSYSTEM-NAMEO OF UCFMHD0O                PPA1HRFH
036000     END-IF.                                                      PPA1HRFH
036100                                                                  PPA1HRFH
036200     PERFORM VARYING WS-CTR FROM 21 BY -1                         PPA1HRFH
036300       UNTIL UCPIROFH-SUBSYSTEM-NAME (WS-CTR:1) NOT = SPACES      PPA1HRFH
036400       OR WS-CTR < 1                                              PPA1HRFH
036500     END-PERFORM.                                                 PPA1HRFH
036600                                                                  PPA1HRFH
036700     IF WS-CTR <   21                                             PPA1HRFH
036800         COMPUTE WS-CTR = ((21 - WS-CTR) / 2) + 1                 PPA1HRFH
036900         COMPUTE WS-CTR-2 = 21 - WS-CTR                           PPA1HRFH
037000     ELSE                                                         PPA1HRFH
037100         COMPUTE WS-CTR   = 1                                     PPA1HRFH
037200         COMPUTE WS-CTR-2 = 21                                    PPA1HRFH
037300     END-IF                                                       PPA1HRFH
037400                                                                  PPA1HRFH
037500     IF UCCOMMON-FUNCTION-TYPE  NOT = 'M'                         PPA1HRFH
037600        MOVE UCPIROFH-SUBSYSTEM-NAME                              PPA1HRFH
037700           TO SUBSYSTEM-NAMEO OF PPHWHD0O (WS-CTR:WS-CTR-2)       PPA1HRFH
037800     ELSE                                                         PPA1HRFH
037900        MOVE UCPIROFH-SUBSYSTEM-NAME                              PPA1HRFH
038000           TO SUBSYSTEM-NAMEO OF UCFMHD0O (WS-CTR:WS-CTR-2)       PPA1HRFH
038100     END-IF.                                                      PPA1HRFH
038200                                                                  PPA1HRFH
038300     IF UCCOMMON-FUNCTION-TYPE  NOT = 'M'                         PPA1HRFH
038400        MOVE SPACES TO SCREEN-NAMEO OF PPHWHD0O                   PPA1HRFH
038500     ELSE                                                         PPA1HRFH
038600        MOVE SPACES TO SCREEN-NAMEO OF UCFMHD0O                   PPA1HRFH
038700     END-IF.                                                      PPA1HRFH
038800                                                                  PPA1HRFH
038900     PERFORM VARYING WS-CTR FROM 30 BY -1                         PPA1HRFH
039000       UNTIL UCPIROFH-FUNC-DESC (WS-CTR:1) NOT = SPACES           PPA1HRFH
039100       OR WS-CTR < 1                                              PPA1HRFH
039200     END-PERFORM.                                                 PPA1HRFH
039300                                                                  PPA1HRFH
039400     COMPUTE WS-CTR = ((30 - WS-CTR) / 2) + 1.                    PPA1HRFH
039500     COMPUTE WS-CTR-2 = 30 - WS-CTR.                              PPA1HRFH
039600                                                                  PPA1HRFH
039700     IF UCCOMMON-FUNCTION-TYPE  NOT = 'M'                         PPA1HRFH
039800        MOVE UCPIROFH-FUNC-DESC                                   PPA1HRFH
039900           TO SCREEN-NAMEO OF PPHWHD0O (WS-CTR:WS-CTR-2)          PPA1HRFH
040000     ELSE                                                         PPA1HRFH
040100        MOVE UCPIROFH-FUNC-DESC                                   PPA1HRFH
040200           TO SCREEN-NAMEO OF UCFMHD0O (WS-CTR:WS-CTR-2)          PPA1HRFH
040300     END-IF.                                                      PPA1HRFH
040400                                                                  PPA1HRFH
040500     IF UCCOMMON-FUNCTION-TYPE  NOT = 'M'                         PPA1HRFH
040600        MOVE UCCOMMON-DATE-X TO DATEO OF PPHWHD0O                 PPA1HRFH
040700        MOVE UCCOMMON-TIME-X TO TIMEO OF PPHWHD0O                 PPA1HRFH
040800     ELSE                                                         PPA1HRFH
040900        MOVE UCCOMMON-DATE-X TO DATEO OF UCFMHD0O                 PPA1HRFH
041000        MOVE UCCOMMON-TIME-X TO TIMEO OF UCFMHD0O                 PPA1HRFH
041100     END-IF.                                                      PPA1HRFH
041200                                                                  PPA1HRFH
041300     IF UCCOMMON-FUNCTION-TYPE  NOT = 'M'                         PPA1HRFH
041400        MOVE UCCOMMON-USERID TO USERIDO OF PPHWHD0O               PPA1HRFH
041500     ELSE                                                         PPA1HRFH
041600        MOVE UCCOMMON-USERID TO USERIDO OF UCFMHD0O               PPA1HRFH
041700     END-IF.                                                      PPA1HRFH
041800                                                                  PPA1HRFH
041900* LAST HISTORY UPDATE: L-DATELUO AND L-DATELUO ARE SUPPRESSED     PPA1HRFH
042000     MOVE SPACES TO L-DATELUO                                     PPA1HRFH
042100                      DATELUO.                                    PPA1HRFH
042200                                                                  PPA1HRFH
042300     IF UCCOMMON-FUNCTION = 'HWHO'                                PPA1HRFH
042400        MOVE CPWSWORK-BROWSE-RETURN-FUNC TO NEXT-FUNCO            PPA1HRFH
042500     END-IF.                                                      PPA1HRFH
042600                                                                  PPA1HRFH
042700     IF CPWSWORK-REDISPLAY-EEID                                   PPA1HRFH
042800      OR UCCOMMON-REDISPLAY-KEYS                                  PPA1HRFH
042900        MOVE WS-FOOTER-EMP-ID            TO FTR-IDO               PPA1HRFH
043000        SET CPWSWORK-DONT-REDISPLAY-EEID TO TRUE                  PPA1HRFH
043100        MOVE UCCOMMON-ATR-ENTRY-MDT      TO FTR-IDA               PPA1HRFH
043200     END-IF.                                                      PPA1HRFH
043300                                                                  PPA1HRFH
043400     IF CPWSWORK-REDISPLAY-NAME                                   PPA1HRFH
043500      OR UCCOMMON-REDISPLAY-KEYS                                  PPA1HRFH
043600        MOVE WS-FOOTER-EMP-NAME          TO FTR-NAMEO             PPA1HRFH
043700        SET CPWSWORK-DONT-REDISPLAY-NAME TO TRUE                  PPA1HRFH
043800        MOVE UCCOMMON-ATR-ENTRY-MDT      TO FTR-NAMEA             PPA1HRFH
043900     END-IF.                                                      PPA1HRFH
044000                                                                  PPA1HRFH
044100     IF CPWSWORK-REDISPLAY-SSN                                    PPA1HRFH
044200      OR UCCOMMON-REDISPLAY-KEYS                                  PPA1HRFH
044300        MOVE WS-FOOTER-EMP-SSN          TO FTR-SSNO               PPA1HRFH
044400        SET CPWSWORK-DONT-REDISPLAY-SSN TO TRUE                   PPA1HRFH
044500        MOVE UCCOMMON-ATR-ENTRY-MDT     TO FTR-SSNA               PPA1HRFH
044600     END-IF.                                                      PPA1HRFH
044700                                                                  PPA1HRFH
044800     IF CPWSWORK-REDISPLAY-DATE                                   PPA1HRFH
044900      OR UCCOMMON-REDISPLAY-KEYS                                  PPA1HRFH
045000        MOVE WS-FOOTER-ASOF-DATE         TO FTR-ASOF-DATEO        PPA1HRFH
045100        SET CPWSWORK-DONT-REDISPLAY-DATE TO TRUE                  PPA1HRFH
045200        MOVE UCCOMMON-ATR-ENTRY-MDT      TO FTR-ASOF-DATEA        PPA1HRFH
045300     END-IF.                                                      PPA1HRFH
045400                                                                  PPA1HRFH
045500     IF CPWSWORK-REDISPLAY-INCOR                                  PPA1HRFH
045600      OR UCCOMMON-REDISPLAY-KEYS                                  PPA1HRFH
045700        MOVE WS-FOOTER-INCOR-FLAG         TO FTR-INCOR-FLAGO      PPA1HRFH
045800        SET CPWSWORK-DONT-REDISPLAY-INCOR TO TRUE                 PPA1HRFH
045900        MOVE UCCOMMON-ATR-ENTRY-MDT       TO FTR-INCOR-FLAGA      PPA1HRFH
046000     END-IF.                                                      PPA1HRFH
046100                                                                  PPA1HRFH
046200     IF CPWSHDBW-REDISPLAY-PASTP                                  PPA1HRFH
046300      OR UCCOMMON-REDISPLAY-KEYS                                  PPA1HRFH
046400        MOVE WS-FOOTER-PASTPRES-FLAG      TO FTR-PASTPRES-FLAGO   PPA1HRFH
046500        SET CPWSHDBW-DONT-REDISPLAY-PASTP TO TRUE                 PPA1HRFH
046600        MOVE UCCOMMON-ATR-ENTRY-MDT       TO FTR-PASTPRES-FLAGA   PPA1HRFH
046700     END-IF.                                                      PPA1HRFH
046800                                                                  PPA1HRFH
046900     IF UCPISCRN-DISPLAY-COMMAND                                  PPA1HRFH
047000        MOVE UCCOMMON-COMMAND-DATA        TO COMMANDO             PPA1HRFH
047100        MOVE UCCOMMON-ATR-ENTRY-MDT       TO COMMANDA             PPA1HRFH
047200        SET UCPISCRN-DONT-DISPLAY-COMMAND TO TRUE                 PPA1HRFH
047300     END-IF.                                                      PPA1HRFH
047400                                                                  PPA1HRFH
047500     MOVE UCPIROFH-MSG-LINE              TO MESSAGEO.             PPA1HRFH
047600     MOVE UCCOMMON-HOT-MSG               TO CRITICAL-MSGO.        PPA1HRFH
047700     MOVE UCPIROFH-PFK-DISPLAY-ITEM (1)  TO PF01O.                PPA1HRFH
047800     MOVE UCPIROFH-PFK-DISPLAY-ITEM (2)  TO PF02O.                PPA1HRFH
047900     MOVE UCPIROFH-PFK-DISPLAY-ITEM (3)  TO PF03O.                PPA1HRFH
048000     MOVE UCPIROFH-PFK-DISPLAY-ITEM (4)  TO PF04O.                PPA1HRFH
048100     MOVE UCPIROFH-PFK-DISPLAY-ITEM (5)  TO PF05O.                PPA1HRFH
048200     MOVE UCPIROFH-PFK-DISPLAY-ITEM (6)  TO PF06O.                PPA1HRFH
048300     MOVE UCPIROFH-PFK-DISPLAY-ITEM (7)  TO PF07O.                PPA1HRFH
048400     MOVE UCPIROFH-PFK-DISPLAY-ITEM (8)  TO PF08O.                PPA1HRFH
048500     MOVE UCPIROFH-PFK-DISPLAY-ITEM (9)  TO PF09O.                PPA1HRFH
048600     MOVE UCPIROFH-PFK-DISPLAY-ITEM (10) TO PF10O.                PPA1HRFH
048700     MOVE UCPIROFH-PFK-DISPLAY-ITEM (11) TO PF11O.                PPA1HRFH
048800     MOVE UCPIROFH-PFK-DISPLAY-ITEM (12) TO PF12O.                PPA1HRFH
048900                                                                  PPA1HRFH
049000     IF UCPISCRN-CURSOR-TO-CMD                                    PPA1HRFH
049100         MOVE -1 TO COMMANDL                                      PPA1HRFH
049200     ELSE                                                         PPA1HRFH
049300         MOVE -1 TO NEXT-FUNCL                                    PPA1HRFH
049400     END-IF.                                                      PPA1HRFH
049500                                                                  PPA1HRFH
049600     IF UCCOMMON-UPD-COMPLETE                                     PPA1HRFH
049700        SET UCPISCRN-CURSOR-IN-FOOTER TO TRUE                     PPA1HRFH
049800     END-IF.                                                      PPA1HRFH
049900                                                                  PPA1HRFH
050000 3000-EXIT.                                                       PPA1HRFH
050100     EXIT.                                                        PPA1HRFH
050200                                                                  PPA1HRFH
050300 EJECT                                                            PPA1HRFH
050400 9999-ABEND                           SECTION.                    PPA1HRFH
050500**************************************************************    PPA1HRFH
050600*  COPIED PROCEDURE DIVISION CODE FOR ABEND HANDLING         *    PPA1HRFH
050700**************************************************************    PPA1HRFH
050800     MOVE 'PPA1HRFH' TO UCWSABND-ABENDING-PGM.                    PPA1HRFH
050900     COPY UCPDABND.                                               PPA1HRFH
051000                                                                  PPA1HRFH
051100 9999-EXIT.                                                       PPA1HRFH
051200     EXIT.                                                        PPA1HRFH
