000001**************************************************************/   EFIX1214
000002*  PROGRAM: PPAPPIFP                                         */   EFIX1214
000003*  RELEASE: ___1214______ SERVICE REQUEST(S): _____EFIX____  */   EFIX1214
000004*  NAME:__PHIL THOMPSON__ MODIFICATION DATE:  ___10/26/98__  */   EFIX1214
000005*  DESCRIPTION:                                              */   EFIX1214
000006*  - THIS IS A COMPLETE REPLACEMENT OF THE R951 VERSION.     */   EFIX1214
000007*    PPAPPIFP NOW CONTAINS MUCH OF THE SAME KEY FUNCTIONS    */   EFIX1214
000008*    THAT ARE IN THE KEY SWITCH PROGRAM PPAPPIKS. IT PROVIDES*/   EFIX1214
000009*    PPPEUD ACCESS FOR  ALL POSSIBLE KEY SELECTS. THIS FIXES */   EFIX1214
000010*    THE ARSM DEPARTMENT RULE ERROR REPORTED IN ERROR REPORT */   EFIX1214
000011*    1284.                                                   */   EFIX1214
000014**************************************************************/   EFIX1214
000015**************************************************************/   PPAPPIFP
000020*                                                            */   PPAPPIFP
000610*    PAR INQUIRY FUNCTION PRE-EDIT APPLICATION PROCESSOR     */   PPAPPIFP
000700*                                                            */   PPAPPIFP
000800**************************************************************/   PPAPPIFP
000900 IDENTIFICATION DIVISION.                                         PPAPPIFP
001000 PROGRAM-ID. PPAPPIFP.                                            PPAPPIFP
001100 ENVIRONMENT DIVISION.                                            PPAPPIFP
001200 CONFIGURATION SECTION.                                           PPAPPIFP
001300 SOURCE-COMPUTER.                                                 PPAPPIFP
001400 COPY CPOTXUCS.                                                   PPAPPIFP
001500                                                                  PPAPPIFP
001600 DATA DIVISION.                                                   PPAPPIFP
001700 WORKING-STORAGE SECTION.                                         PPAPPIFP
001800                                                                  PPAPPIFP
001900 01  WS-COMN.                                                     PPAPPIFP
002000     05  WS-START                          PIC X(27) VALUE        PPAPPIFP
002100       'WORKING STORAGE STARTS HERE'.                             PPAPPIFP
002200     05  WS-RESP                           PIC S9(8) COMP.        PPAPPIFP
002300     05  WS-SUB                            PIC S9(04) COMP.       PPAPPIFP
002400     05  WS-EMPLOYEE-ID                    PIC X(09).             PPAPPIFP
002500     05  WS-COUNT                          PIC S9(8) COMP         PPAPPIFP
002600                                                     VALUE ZERO.  PPAPPIFP
002700     05  PGM-ARSM                          PIC X(08) VALUE        PPAPPIFP
002800                                                     'UCARSM'.    PPAPPIFP
002900     05  PGM-PPINITWK                      PIC X(08) VALUE        PPAPPIFP
003000                                                     'PPINITWK'.  PPAPPIFP
003001     05  PGM-PPEUDEXT                      PIC X(08) VALUE        PPAPPIFP
003002                                                     'PPEUDEXT'.  PPAPPIFP
003010     05  WS-UNIQUE-EE-ID            PIC X(09) VALUE SPACES.       PPAPPIFP
003020     05  WS-SOC-SEC-NO              PIC X(09) VALUE SPACES.       PPAPPIFP
003030     05  WS-EMP-NAME                PIC X(26) VALUE SPACES.       PPAPPIFP
003040     05  WS-DB2-CHECK-DATE          PIC X(10) VALUE SPACES.       PPAPPIFP
003050     05  WS-PAY-CYCLE               PIC X(02) VALUE SPACES.       PPAPPIFP
003060            88 VALID-PAY-CYCLE      VALUE 'B1' 'B2'               PPAPPIFP
003070                                          'MO' 'SM' 'XX' 'MA'.    PPAPPIFP
003080     05  WS-RECORD-AUTH-SAVE        PIC X(01) VALUE SPACES.       PPAPPIFP
003090     05  WS-VALID-DATE-FLAG         PIC X VALUE SPACES.           PPAPPIFP
003091         88  VALID-DATE                VALUE 'Y'.                 PPAPPIFP
003092         88  INVALID-DATE              VALUE 'N'.                 PPAPPIFP
003093     05  WS-SELECT-OPTION           PIC 9 VALUE ZERO.             PPAPPIFP
003094         88  SELECT-WTH-ID-ONLY        VALUE 1.                   PPAPPIFP
003095         88  SELECT-WTH-ID-CYCLE       VALUE 2.                   PPAPPIFP
003096         88  SELECT-WTH-ID-CHK-DATE    VALUE 3.                   PPAPPIFP
003097         88  SELECT-WTH-ID-CC-CKDATE   VALUE 4.                   PPAPPIFP
003098     05  WS-KEY-FLAG                PIC 9 VALUE ZERO.             PPAPPIFP
003099         88  WS-KEY-ID              VALUE 1.                      PPAPPIFP
003100         88  WS-KEY-NAME            VALUE 2.                      PPAPPIFP
003101         88  WS-KEY-SSN             VALUE 3.                      PPAPPIFP
003102     05  WS-EUD-NAME-SW             PIC X VALUE SPACES.           PPAPPIFP
003103         88  EUD-NAME-FOUND            VALUE 'Y'.                 PPAPPIFP
003104         88  EUD-NAME-NOT-FOUND        VALUE 'N'.                 PPAPPIFP
003105     05  WS-EUD-SSN-SW              PIC X VALUE SPACES.           PPAPPIFP
003106         88  EUD-SSN-FOUND             VALUE 'Y'.                 PPAPPIFP
003107         88  EUD-SSN-NOT-FOUND         VALUE 'N'.                 PPAPPIFP
003108     05  SWITCH-TO-BROWSE-SW        PIC X(01) VALUE SPACES.       PPAPPIFP
003109         88  SWITCH-TO-BROWSE           VALUE 'Y'.                PPAPPIFP
003110     05  BROWSE-SELECT-SW           PIC X(01) VALUE SPACES.       PPAPPIFP
003111         88  BROWSE-SELECT              VALUE 'Y'.                PPAPPIFP
003112     05  ERRORS-FOUND-SW            PIC X(01) VALUE SPACES.       PPAPPIFP
003113         88  NO-ERRORS-FOUND            VALUE SPACES.             PPAPPIFP
003114         88  ERRORS-FOUND               VALUE '1'.                PPAPPIFP
003100                                                                  PPAPPIFP
003200 01  WS-MESS-NOS.                                                 PPAPPIFP
003400     05  MP0021                            PIC X(5) VALUE 'P0021'.PPAPPIFP
003410     05  MP0022                            PIC X(5) VALUE 'P0022'.PPAPPIFP
003411     05  MP0032                            PIC X(5) VALUE 'P0032'.PPAPPIFP
003420     05  MP0301                            PIC X(5) VALUE 'P0301'.PPAPPIFP
003430     05  MP0302                            PIC X(5) VALUE 'P0302'.PPAPPIFP
003500     05  MP0634                            PIC X(5) VALUE 'P0634'.PPAPPIFP
003600     05  MP0912                            PIC X(5) VALUE 'P0912'.PPAPPIFP
003700                                                                  PPAPPIFP
003800 01  PPDB2MSG-INTERFACE.                                          PPAPPIFP
003900     COPY CPLNKDB2.                                               PPAPPIFP
004000                                                                  PPAPPIFP
004100 01  CPWSXDC3.                                     COPY CPWSXDC3. PPAPPIFP
004101                                                                  PPAPPIFP
004102 01  BLID-BUILD-ID-AREA.                           COPY CPWSBLID. PPAPPIFP
004110                                                                  PPAPPIFP
004100 01  ARSM-INTERFACE.                               COPY UCLNARSM. PPAPPIFP
004200                                                                  PPAPPIFP
004300 01  UCWSABND    EXTERNAL.                                        PPAPPIFP
004400     COPY UCWSABND.                                               PPAPPIFP
004500                                                                  PPAPPIFP
004600 01  UCPISCRN    EXTERNAL.                                        PPAPPIFP
004700     COPY UCPISCRN.                                               PPAPPIFP
004800                                                                  PPAPPIFP
004900 01  CPWSKEYS    EXTERNAL.                                        PPAPPIFP
005000     COPY CPWSKEYS.                                               PPAPPIFP
005100                                                                  PPAPPIFP
005200 01  CPWSWORK    EXTERNAL.                                        PPAPPIFP
005300     COPY CPWSWORK.                                               PPAPPIFP
005400                                                                  PPAPPIFP
005320 01  CPWSFOOT    EXTERNAL.                                        PPAPPIFP
005330     COPY CPWSFOOT.                                               PPAPPIFP
005340                                                                  PPAPPIFP
005350 01  UCPIROKS    EXTERNAL.                                        PPAPPIFP
005360     COPY UCPIROKS.                                               PPAPPIFP
005400                                                                  PPAPPIFP
005500 01  UCCOMMON   EXTERNAL.                                         PPAPPIFP
005600     EXEC SQL                                                     PPAPPIFP
005700      INCLUDE UCCOMMON                                            PPAPPIFP
005800     END-EXEC.                                                    PPAPPIFP
005900                                                                  PPAPPIFP
006000 01  CFN-ROW   EXTERNAL.                                          PPAPPIFP
006100     EXEC SQL                                                     PPAPPIFP
006200      INCLUDE UC0VZCFN                                            PPAPPIFP
006300     END-EXEC.                                                    PPAPPIFP
006400                                                                  PPAPPIFP
006500******************************************************************PPAPPIFP
006600*          SQL - WORKING STORAGE                                 *PPAPPIFP
006700******************************************************************PPAPPIFP
006800                                                                  PPAPPIFP
006900     EXEC SQL                                                     PPAPPIFP
007000          INCLUDE SQLCA                                           PPAPPIFP
007100     END-EXEC.                                                    PPAPPIFP
007200                                                                  PPAPPIFP
007300 01  EUD-ROW   EXTERNAL.                                          PPAPPIFP
007400     EXEC SQL                                                     PPAPPIFP
007500          INCLUDE PPPVZEUD                                        PPAPPIFP
007600     END-EXEC.                                                    PPAPPIFP
007700                                                                  PPAPPIFP
007720     EXEC  SQL DECLARE                                            PPAPPIFP
007730            EMPLOYEE-CURS1  CURSOR FOR                            PPAPPIFP
007740            SELECT                                                PPAPPIFP
007750        EMPLOYEE_ID                                               PPAPPIFP
007760            FROM PPPVZEUD_EUD                                     PPAPPIFP
007770               WHERE SOC_SEC_NO = :WS-SOC-SEC-NO                  PPAPPIFP
007780     END-EXEC.                                                    PPAPPIFP
007790                                                                  PPAPPIFP
007791     EXEC  SQL DECLARE                                            PPAPPIFP
007792            EMPLOYEE-CURS2  CURSOR FOR                            PPAPPIFP
007793            SELECT                                                PPAPPIFP
007794        EMPLOYEE_ID                                               PPAPPIFP
007795            FROM PPPVZEUD_EUD                                     PPAPPIFP
007796               WHERE EMP_NAME = :WS-EMP-NAME                      PPAPPIFP
007797     END-EXEC.                                                    PPAPPIFP
007798                                                                  PPAPPIFP
007799     EXEC  SQL DECLARE                                            PPAPPIFP
007800        EMPLOYEE-CURS3  CURSOR FOR                                PPAPPIFP
007801            SELECT                                                PPAPPIFP
007802               PAY_CYCLE_END_DATE                                 PPAPPIFP
007803              ,PAY_CYCLE_CODE                                     PPAPPIFP
007804              ,EMPLOYEE_ID                                        PPAPPIFP
007805              ,RECORD_TYPE                                        PPAPPIFP
007806              ,PRI_GROSS_CTL                                      PPAPPIFP
007807              ,HOME_DEPT                                          PPAPPIFP
007808            FROM PPPVZEUD_EUD                                     PPAPPIFP
007809           WHERE EMPLOYEE_ID     = :WS-UNIQUE-EE-ID               PPAPPIFP
007810             AND PAY_CYCLE_CODE >= :WS-PAY-CYCLE                  PPAPPIFP
007811             AND CHK_DATE       <= :WS-DB2-CHECK-DATE             PPAPPIFP
007812        ORDER BY PRI_GROSS_CTL DESC                               PPAPPIFP
007813     END-EXEC.                                                    PPAPPIFP
007800 LINKAGE SECTION.                                                 PPAPPIFP
007900                                                                  PPAPPIFP
008000                                                                  PPAPPIFP
008100 EJECT                                                            PPAPPIFP
008200                                                                  PPAPPIFP
008300 PROCEDURE DIVISION.                                              PPAPPIFP
008400                                                                  PPAPPIFP
008500 0000-MAIN-LINE   SECTION.                                        PPAPPIFP
008600**************************************************************    PPAPPIFP
008700*  MAIN LINE PROCESSING                                      *    PPAPPIFP
008800**************************************************************    PPAPPIFP
008900                                                                  PPAPPIFP
009000     EXEC SQL                                                     PPAPPIFP
009100          INCLUDE CPPDXE99                                        PPAPPIFP
009200     END-EXEC.                                                    PPAPPIFP
009300                                                                  PPAPPIFP
009400     MOVE 'PPAPPIFP' TO DB2MSG-PGM-ID.                            PPAPPIFP
009500                                                                  PPAPPIFP
009600     IF NOT CPWSWORK-INITIALIZED                                  PPAPPIFP
009700        CALL PGM-PPINITWK USING DFHEIBLK                          PPAPPIFP
009800          ON EXCEPTION                                            PPAPPIFP
009900             STRING 'ERROR CALLING PROGRAM: ' DELIMITED BY SIZE   PPAPPIFP
010000                    PGM-PPINITWK           DELIMITED BY SIZE      PPAPPIFP
010100                         INTO UCWSABND-ABEND-DATA (1)             PPAPPIFP
010200             END-STRING                                           PPAPPIFP
010300             PERFORM 9999-ABEND                                   PPAPPIFP
010400        END-CALL                                                  PPAPPIFP
010500     END-IF.                                                      PPAPPIFP
010600                                                                  PPAPPIFP
010700     SET CPWSWORK-EMPLOYEE-FOUND TO TRUE.                         PPAPPIFP
010710     MOVE CPWSWORK-UNIQUE-EE-ID TO WS-UNIQUE-EE-ID.               PPAPPIFP
010720     IF CPWSWORK-SWITCH-FROM-BRS                                  PPAPPIFP
010721     AND (CPWSWORK-CYCLE-END-DATE NOT = SPACE AND                 PPAPPIFP
010722          CPWSWORK-CYCLE-CODE     NOT = SPACE AND                 PPAPPIFP
010723          CPWSWORK-RECORD-TYPE    NOT = SPACE AND                 PPAPPIFP
010724          CPWSWORK-PRI-GROSS-CTL  NOT = SPACE)                    PPAPPIFP
010730        SET BROWSE-SELECT TO TRUE                                 PPAPPIFP
010740     END-IF.                                                      PPAPPIFP
010800                                                                  PPAPPIFP
010900**************************************************************    PPAPPIFP
011000*  IF IT'S A NEW SUBSYSTEM, AND THE EDB EXTERNALS DO NOT     *    PPAPPIFP
011100*  MATCH THE KEY IN CPWSKEYS, THE EXTERNALS MUST BE LOADED   *    PPAPPIFP
011200*  BY SETTING UCCOMMON-SWITCH-KEYS                           *    PPAPPIFP
011300**************************************************************    PPAPPIFP
011400     IF UCCOMMON-SUBSYSTEM-INIT                                   PPAPPIFP
011500      AND (CFN-FUNCTION-ID   NOT = 'IBRS')                        PPAPPIFP
011700      AND (CPWSKEYS-EMPLOYEE-ID NOT = SPACES)                     PPAPPIFP
011800      AND (CPWSKEYS-EMPLOYEE-ID NOT = LOW-VALUES)                 PPAPPIFP
011900        MOVE CPWSKEYS-EMPLOYEE-ID TO WS-EMPLOYEE-ID               PPAPPIFP
012000        PERFORM 1000-CHECK-ID                                     PPAPPIFP
012100     END-IF.                                                      PPAPPIFP
012200                                                                  PPAPPIFP
012300     GOBACK.                                                      PPAPPIFP
012400                                                                  PPAPPIFP
012500 0000-EXIT.                                                       PPAPPIFP
012600     EXIT.                                                        PPAPPIFP
012700                                                                  PPAPPIFP
012800                                                                  PPAPPIFP
012900 EJECT                                                            PPAPPIFP
013000                                                                  PPAPPIFP
013100 1000-CHECK-ID    SECTION.                                        PPAPPIFP
013200**************************************************************    PPAPPIFP
013300*  DETERMINE WHETHER THE EMPLOYEE ID EXISTS ON THE PAR, AND  *    PPAPPIFP
013400*  IF SO, DETERMINE THE USER'S AUTHORIZATION FOR THAT ID.    *    PPAPPIFP
013500**************************************************************    PPAPPIFP
013600                                                                  PPAPPIFP
013730     PERFORM 3000-GET-EUD-DATA.                                   PPAPPIFP
013800                                                                  PPAPPIFP
014000     IF NO-ERRORS-FOUND                                           PPAPPIFP
014000        PERFORM 2000-CHECK-AUTH                                   PPAPPIFP
014100     ELSE                                                         PPAPPIFP
014200        MOVE MP0021 TO UCCOMMON-MSG-NUMBER                        PPAPPIFP
014300        SET UCCOMMON-RETURN-ERRORS-FOUND TO TRUE                  PPAPPIFP
014400     END-IF.                                                      PPAPPIFP
014500                                                                  PPAPPIFP
014600     IF UCCOMMON-RETURN-ERRORS-FOUND                              PPAPPIFP
014710      IF  CFN-FUNCTION-TYPE = 'M'                                 PPAPPIFP
014800        SET CPWSWORK-EMPLOYEE-NOT-FOUND TO TRUE                   PPAPPIFP
014900        SET UCCOMMON-RETURN-NO-ERRORS TO TRUE                     PPAPPIFP
015000        MOVE SPACES TO UCCOMMON-MSG-NUMBER                        PPAPPIFP
015002      END-IF                                                      PPAPPIFP
015003     ELSE                                                         PPAPPIFP
015094           CALL PGM-PPEUDEXT USING DFHEIBLK                       PPAPPIFP
015095             ON EXCEPTION                                         PPAPPIFP
015096                STRING 'ERROR CALLING PROGRAM: '                  PPAPPIFP
015097                  DELIMITED BY SIZE                               PPAPPIFP
015098                  PGM-PPEUDEXT DELIMITED BY SIZE                  PPAPPIFP
015099                  INTO UCWSABND-ABEND-DATA (1)                    PPAPPIFP
015100                END-STRING                                        PPAPPIFP
015101             PERFORM 9999-ABEND                                   PPAPPIFP
015102           END-CALL                                               PPAPPIFP
015103           IF CPWSWORK-BROWSE-RETURN-FUNC NOT = SPACES            PPAPPIFP
015104             AND CPWSWORK-BROWSE-RETURN-FUNC NOT = LOW-VALUES     PPAPPIFP
015105             AND CPWSWORK-BROWSE-RETURN-FUNC NOT = 'IBRS'         PPAPPIFP
015106               SET UCCOMMON-SWITCH-FUNCTIONS TO TRUE              PPAPPIFP
015107               MOVE CPWSWORK-BROWSE-RETURN-FUNC                   PPAPPIFP
015108                               TO UCCOMMON-FUNCTION-REQUESTED     PPAPPIFP
015109           END-IF                                                 PPAPPIFP
015100     END-IF.                                                      PPAPPIFP
015200                                                                  PPAPPIFP
015300 1000-EXIT.                                                       PPAPPIFP
015400     EXIT.                                                        PPAPPIFP
015500                                                                  PPAPPIFP
015600 EJECT                                                            PPAPPIFP
015700                                                                  PPAPPIFP
015800 2000-CHECK-AUTH   SECTION.                                       PPAPPIFP
015900***********************************************************       PPAPPIFP
016000*  CHECK SECURITY                                         *       PPAPPIFP
016100***********************************************************       PPAPPIFP
016200                                                                  PPAPPIFP
016300     MOVE UCCOMMON-USERID TO ARSM-AUTH-ID.                        PPAPPIFP
016400     MOVE 'PAR    '            TO ARSM-RESOURCE-TYPE.             PPAPPIFP
016500     MOVE WS-EMPLOYEE-ID       TO ARSM-RESOURCE-NAME.             PPAPPIFP
016600     MOVE 'VIEW'               TO ARSM-ACCESS-INTENT.             PPAPPIFP
016610     MOVE HOME-DEPT OF EUD-ROW TO ARSM-QUALIFIERS.                PPAPPIFP
016700                                                                  PPAPPIFP
016800     CALL PGM-ARSM USING DFHEIBLK DFHCOMMAREA ARSM-INTERFACE.     PPAPPIFP
016900                                                                  PPAPPIFP
017000     IF ARSM-RETURN-CODE = ZERO                                   PPAPPIFP
017100        IF ARSM-PERMISSION      = 'Y'                             PPAPPIFP
017200           SET UCCOMMON-RECORD-AUTH-VIEW TO TRUE                  PPAPPIFP
017300           SET UCCOMMON-RETURN-NO-ERRORS TO TRUE                  PPAPPIFP
017400           IF UCCOMMON-HOT-MSG-NUMBER = MP0634                    PPAPPIFP
017500              SET UCCOMMON-HOT-MSG-NUM-NOT-SET TO TRUE            PPAPPIFP
017600           END-IF                                                 PPAPPIFP
017700        ELSE                                                      PPAPPIFP
017800           SET UCCOMMON-RECORD-AUTH-NONE TO TRUE                  PPAPPIFP
017900           SET UCCOMMON-RETURN-ERRORS-FOUND TO TRUE               PPAPPIFP
018010           MOVE MP0032 TO UCCOMMON-MSG-NUMBER                     PPAPPIFP
018100        END-IF                                                    PPAPPIFP
018200     ELSE                                                         PPAPPIFP
018300        SET UCCOMMON-RETURN-ERRORS-FOUND TO TRUE                  PPAPPIFP
018400        MOVE MP0912 TO UCCOMMON-MSG-NUMBER                        PPAPPIFP
018500     END-IF.                                                      PPAPPIFP
018600                                                                  PPAPPIFP
018700 2000-EXIT.                                                       PPAPPIFP
018800     EXIT.                                                        PPAPPIFP
018900                                                                  PPAPPIFP
019000     EJECT                                                        PPAPPIFP
019090 3000-GET-EUD-DATA   SECTION.                                     PPAPPIFP
019091**************************************************************    PPAPPIFP
019092*  GET EUD ROW BASED ON KEY DATA ENTERED                     *    PPAPPIFP
019093**************************************************************    PPAPPIFP
019094                                                                  PPAPPIFP
019095     PERFORM 3600-DETERMINE-SELECTION.                            PPAPPIFP
019102                                                                  PPAPPIFP
019103     EVALUATE TRUE                                                PPAPPIFP
019104       WHEN BROWSE-SELECT                                         PPAPPIFP
019105          PERFORM 3500-MOVE-KEY-FIELDS                            PPAPPIFP
019106       WHEN SELECT-WTH-ID-ONLY                                    PPAPPIFP
019107          PERFORM 3100-PROCESS-WTH-ID                             PPAPPIFP
019108       WHEN SELECT-WTH-ID-CYCLE                                   PPAPPIFP
019109          PERFORM 3200-PROCESS-WTH-ID-CYCLE                       PPAPPIFP
019110       WHEN SELECT-WTH-ID-CHK-DATE                                PPAPPIFP
019111          PERFORM 3300-PROCESS-WTH-ID-CHKDATE                     PPAPPIFP
019112       WHEN SELECT-WTH-ID-CC-CKDATE                               PPAPPIFP
019113          PERFORM 3400-PROCESS-WTH-ID-CC-CKDATE                   PPAPPIFP
019114     END-EVALUATE.                                                PPAPPIFP
019115                                                                  PPAPPIFP
019116 3000-EXIT.                                                       PPAPPIFP
019117     EXIT.                                                        PPAPPIFP
019118                                                                  PPAPPIFP
019119     EJECT                                                        PPAPPIFP
019120                                                                  PPAPPIFP
019121 3100-PROCESS-WTH-ID    SECTION.                                  PPAPPIFP
019122***********************************************************       PPAPPIFP
019123*    SELECTION-OPTION-1 USING EMPLOYEE-ID ONLY            *       PPAPPIFP
019124***********************************************************       PPAPPIFP
019125                                                                  PPAPPIFP
019126     PERFORM 8010-SELECT-CNT-WTH-ID.                              PPAPPIFP
019127                                                                  PPAPPIFP
019128     EVALUATE WS-COUNT                                            PPAPPIFP
019129       WHEN ZERO                                                  PPAPPIFP
019130         MOVE MP0021 TO UCCOMMON-MSG-NUMBER                       PPAPPIFP
019131         SET ERRORS-FOUND TO TRUE                                 PPAPPIFP
019132       WHEN 1                                                     PPAPPIFP
019133         PERFORM 8510-SELECT-EUD-WTH-ID                           PPAPPIFP
019134       WHEN OTHER                                                 PPAPPIFP
019135         PERFORM 7000-SELECT-MOST-CURRENT                         PPAPPIFP
019136     END-EVALUATE.                                                PPAPPIFP
019137                                                                  PPAPPIFP
019138 3100-EXIT.                                                       PPAPPIFP
019139     EXIT.                                                        PPAPPIFP
019140                                                                  PPAPPIFP
019141     EJECT                                                        PPAPPIFP
019142                                                                  PPAPPIFP
019143 3200-PROCESS-WTH-ID-CYCLE    SECTION.                            PPAPPIFP
019144**************************************************************    PPAPPIFP
019145*  SELECTION-OPTION-1 USING EMPLOYEE-ID AND PAY-CYCLE        *    PPAPPIFP
019146**************************************************************    PPAPPIFP
019147                                                                  PPAPPIFP
019148     PERFORM 8020-SELECT-CNT-WTH-ID-CYCLE.                        PPAPPIFP
019149                                                                  PPAPPIFP
019150     EVALUATE WS-COUNT                                            PPAPPIFP
019151       WHEN ZERO                                                  PPAPPIFP
019152         MOVE MP0022 TO UCCOMMON-MSG-NUMBER                       PPAPPIFP
019153         SET ERRORS-FOUND TO TRUE                                 PPAPPIFP
019154       WHEN 1                                                     PPAPPIFP
019155         PERFORM 8520-SELECT-EUD-WTH-ID-CYCLE                     PPAPPIFP
019156       WHEN OTHER                                                 PPAPPIFP
019157         PERFORM 7000-SELECT-MOST-CURRENT                         PPAPPIFP
019158     END-EVALUATE.                                                PPAPPIFP
019159                                                                  PPAPPIFP
019160 3200-EXIT.                                                       PPAPPIFP
019161     EXIT.                                                        PPAPPIFP
019162                                                                  PPAPPIFP
019163     EJECT                                                        PPAPPIFP
019164                                                                  PPAPPIFP
019165 3300-PROCESS-WTH-ID-CHKDATE    SECTION.                          PPAPPIFP
019166**************************************************************    PPAPPIFP
019167*  SELECTION-OPTION-1 USING EMPLOYEE-ID AND CHECK-DATE       *    PPAPPIFP
019168**************************************************************    PPAPPIFP
019169                                                                  PPAPPIFP
019170     PERFORM 8030-SELECT-CNT-WTH-ID-CHKDATE.                      PPAPPIFP
019171                                                                  PPAPPIFP
019172     EVALUATE WS-COUNT                                            PPAPPIFP
019173       WHEN ZERO                                                  PPAPPIFP
019174         MOVE MP0022 TO UCCOMMON-MSG-NUMBER                       PPAPPIFP
019175         SET ERRORS-FOUND TO TRUE                                 PPAPPIFP
019176       WHEN 1                                                     PPAPPIFP
019177         PERFORM 8530-SELECT-EUD-WTH-ID-CHKDATE                   PPAPPIFP
019178       WHEN OTHER                                                 PPAPPIFP
019179         PERFORM 7000-SELECT-MOST-CURRENT                         PPAPPIFP
019180     END-EVALUATE.                                                PPAPPIFP
019181                                                                  PPAPPIFP
019182 3300-EXIT.                                                       PPAPPIFP
019183     EXIT.                                                        PPAPPIFP
019184                                                                  PPAPPIFP
019185     EJECT                                                        PPAPPIFP
019186                                                                  PPAPPIFP
019187 3400-PROCESS-WTH-ID-CC-CKDATE    SECTION.                        PPAPPIFP
019188**************************************************************    PPAPPIFP
019189*    SELECTION-OPTION-1 USING EMPLOYEE-ID,PAY-CYCLE,CHKDATE  *    PPAPPIFP
019190**************************************************************    PPAPPIFP
019191                                                                  PPAPPIFP
019192     PERFORM 8040-SELECT-CNT-WTH-ID-CC-CKDT.                      PPAPPIFP
019193                                                                  PPAPPIFP
019194     EVALUATE WS-COUNT                                            PPAPPIFP
019195       WHEN ZERO                                                  PPAPPIFP
019196         MOVE MP0022 TO UCCOMMON-MSG-NUMBER                       PPAPPIFP
019197         SET ERRORS-FOUND TO TRUE                                 PPAPPIFP
019198       WHEN 1                                                     PPAPPIFP
019199         PERFORM 8540-SELECT-EUD-WTH-ID-CC-CKDT                   PPAPPIFP
019200       WHEN OTHER                                                 PPAPPIFP
019201         PERFORM 7000-SELECT-MOST-CURRENT                         PPAPPIFP
019202     END-EVALUATE.                                                PPAPPIFP
019203                                                                  PPAPPIFP
019204 3400-EXIT.                                                       PPAPPIFP
019205     EXIT.                                                        PPAPPIFP
019206                                                                  PPAPPIFP
019207     EJECT                                                        PPAPPIFP
019208                                                                  PPAPPIFP
019209 3500-MOVE-KEY-FIELDS    SECTION.                                 PPAPPIFP
019210**************************************************************    PPAPPIFP
019211*  KEY FIELDS HAVE BEEN ESTABLISHED BY IBRS. SIMPLY MOVE     *    PPAPPIFP
019212*  TO THE EUD ROW.                                           *    PPAPPIFP
019213**************************************************************    PPAPPIFP
019214                                                                  PPAPPIFP
019215     MOVE CPWSWORK-CYCLE-END-DATE TO PAY-CYCLE-END-DATE.          PPAPPIFP
019216     MOVE CPWSWORK-CYCLE-CODE     TO PAY-CYCLE-CODE.              PPAPPIFP
019217     MOVE CPWSWORK-RECORD-TYPE    TO RECORD-TYPE.                 PPAPPIFP
019218     MOVE CPWSWORK-PRI-GROSS-CTL  TO PRI-GROSS-CTL.               PPAPPIFP
019219     MOVE WS-UNIQUE-EE-ID         TO EMPLOYEE-ID.                 PPAPPIFP
019220     PERFORM 8550-SELECT-EUD-WTH-RECORD-KEY.                      PPAPPIFP
019221                                                                  PPAPPIFP
019227 3500-EXIT.                                                       PPAPPIFP
019228     EXIT.                                                        PPAPPIFP
019229                                                                  PPAPPIFP
019230     EJECT                                                        PPAPPIFP
019231 3600-DETERMINE-SELECTION   SECTION.                              PPAPPIFP
019232**************************************************************    PPAPPIFP
019233*  DETERMINE WHICH TYPE OF KEY DATA WAS ENTERED              *    PPAPPIFP
019234**************************************************************    PPAPPIFP
019235                                                                  PPAPPIFP
019236     EVALUATE TRUE                                                PPAPPIFP
019237       WHEN (CPWSFOOT-ENTERED-ID NOT = SPACES                     PPAPPIFP
019238             AND                                                  PPAPPIFP
019239             CPWSFOOT-ENTERED-ID NOT = LOW-VALUES)                PPAPPIFP
019240         SET WS-KEY-ID TO TRUE                                    PPAPPIFP
019241         SET CPWSWORK-ID-BROWSE TO TRUE                           PPAPPIFP
019242         MOVE CPWSFOOT-ENTERED-ID TO CPWSWORK-ENTERED-ID          PPAPPIFP
019243         MOVE SPACES TO CPWSWORK-ENTERED-NAME                     PPAPPIFP
019244         MOVE SPACES TO CPWSWORK-ENTERED-SSN                      PPAPPIFP
019245                                                                  PPAPPIFP
019246         PERFORM 8010-SELECT-CNT-WTH-ID                           PPAPPIFP
019247         IF WS-COUNT = ZERO                                       PPAPPIFP
019248            SET ERRORS-FOUND TO TRUE                              PPAPPIFP
019249            IF UCCOMMON-FUNCTION NOT = 'IBRS'                     PPAPPIFP
019250               MOVE MP0021 TO UCCOMMON-MSG-NUMBER                 PPAPPIFP
019251            END-IF                                                PPAPPIFP
019252            IF CPWSFOOT-ENTERED-FUNC = 'IBRS'                     PPAPPIFP
019253               SET SWITCH-TO-BROWSE TO TRUE                       PPAPPIFP
019254            END-IF                                                PPAPPIFP
019255         END-IF                                                   PPAPPIFP
019256       WHEN  (CPWSFOOT-ENTERED-SSN NOT = SPACES                   PPAPPIFP
019257              AND                                                 PPAPPIFP
019258              CPWSFOOT-ENTERED-SSN NOT = LOW-VALUES)              PPAPPIFP
019259         SET WS-KEY-SSN TO TRUE                                   PPAPPIFP
019260         SET CPWSWORK-SSN-BROWSE TO TRUE                          PPAPPIFP
019261         MOVE CPWSFOOT-ENTERED-SSN TO CPWSWORK-ENTERED-SSN        PPAPPIFP
019262         MOVE SPACES TO CPWSWORK-ENTERED-ID                       PPAPPIFP
019263         MOVE SPACES TO CPWSWORK-ENTERED-NAME                     PPAPPIFP
019264         MOVE CPWSFOOT-ENTERED-SSN TO WS-SOC-SEC-NO               PPAPPIFP
019265                                                                  PPAPPIFP
019266         PERFORM 8200-SELECT-ID-WTH-SSN                           PPAPPIFP
019267         IF EUD-SSN-NOT-FOUND                                     PPAPPIFP
019268            SET ERRORS-FOUND TO TRUE                              PPAPPIFP
019269            IF UCCOMMON-FUNCTION NOT = 'IBRS'                     PPAPPIFP
019270               MOVE MP0021 TO UCCOMMON-MSG-NUMBER                 PPAPPIFP
019271            END-IF                                                PPAPPIFP
019272            IF CPWSFOOT-ENTERED-FUNC = 'IBRS'                     PPAPPIFP
019273               SET SWITCH-TO-BROWSE TO TRUE                       PPAPPIFP
019274            END-IF                                                PPAPPIFP
019275         END-IF                                                   PPAPPIFP
019276       WHEN (CPWSFOOT-ENTERED-NAME NOT = SPACES                   PPAPPIFP
019277             AND                                                  PPAPPIFP
019278             CPWSFOOT-ENTERED-NAME NOT = LOW-VALUES)              PPAPPIFP
019279         SET WS-KEY-NAME TO TRUE                                  PPAPPIFP
019280         SET CPWSWORK-NAME-BROWSE TO TRUE                         PPAPPIFP
019281         MOVE CPWSFOOT-ENTERED-NAME TO CPWSWORK-ENTERED-NAME      PPAPPIFP
019282         MOVE SPACES TO CPWSWORK-ENTERED-ID                       PPAPPIFP
019283         MOVE SPACES TO CPWSWORK-ENTERED-SSN                      PPAPPIFP
019284         MOVE CPWSFOOT-ENTERED-NAME TO WS-EMP-NAME                PPAPPIFP
019285                                                                  PPAPPIFP
019286         PERFORM 8150-SELECT-ID-WTH-NAME                          PPAPPIFP
019287         IF EUD-NAME-NOT-FOUND                                    PPAPPIFP
019288            SET SWITCH-TO-BROWSE TO TRUE                          PPAPPIFP
019289         END-IF                                                   PPAPPIFP
019290     END-EVALUATE.                                                PPAPPIFP
019291                                                                  PPAPPIFP
019292     IF NO-ERRORS-FOUND                                           PPAPPIFP
019293        SET SELECT-WTH-ID-ONLY TO TRUE                            PPAPPIFP
019294        IF (CPWSFOOT-ENTERED-PAY-CYCLE NOT = SPACES)              PPAPPIFP
019295         AND (CPWSFOOT-ENTERED-PAY-CYCLE NOT = LOW-VALUES)        PPAPPIFP
019296           PERFORM 3610-CHECK-CYCLE                               PPAPPIFP
019297        END-IF                                                    PPAPPIFP
019298     END-IF.                                                      PPAPPIFP
019299                                                                  PPAPPIFP
019300     IF NO-ERRORS-FOUND                                           PPAPPIFP
019301        IF CPWSFOOT-ENTERED-CHECK-DATE = SPACES OR LOW-VALUES     PPAPPIFP
019302           MOVE XDC3-HIGH-USA-DATE TO WS-DB2-CHECK-DATE           PPAPPIFP
019303        ELSE                                                      PPAPPIFP
019304           PERFORM 3620-CHECK-DATE                                PPAPPIFP
019305        END-IF                                                    PPAPPIFP
019306     END-IF.                                                      PPAPPIFP
019307                                                                  PPAPPIFP
019308 3600-EXIT.                                                       PPAPPIFP
019309     EXIT.                                                        PPAPPIFP
019310                                                                  PPAPPIFP
019311     EJECT                                                        PPAPPIFP
019312                                                                  PPAPPIFP
019313 3610-CHECK-CYCLE   SECTION.                                      PPAPPIFP
019314***********************************************************       PPAPPIFP
019315*    VALIDATE ENTERED-PAY-CYCLE                                   PPAPPIFP
019316***********************************************************       PPAPPIFP
019317                                                                  PPAPPIFP
019318     MOVE CPWSFOOT-ENTERED-PAY-CYCLE TO  WS-PAY-CYCLE             PPAPPIFP
019319                                                                  PPAPPIFP
019320     IF VALID-PAY-CYCLE                                           PPAPPIFP
019321        SET SELECT-WTH-ID-CYCLE TO TRUE                           PPAPPIFP
019322     ELSE                                                         PPAPPIFP
019323        SET ERRORS-FOUND TO TRUE                                  PPAPPIFP
019324        MOVE MP0301 TO UCCOMMON-MSG-NUMBER                        PPAPPIFP
019325     END-IF.                                                      PPAPPIFP
019329     EJECT                                                        PPAPPIFP
019330                                                                  PPAPPIFP
019331 3620-CHECK-DATE   SECTION.                                       PPAPPIFP
019332***********************************************************       PPAPPIFP
019333*    VALIDATE ENTERED-CHECK-DATE                                  PPAPPIFP
019334***********************************************************       PPAPPIFP
019335                                                                  PPAPPIFP
019391     MOVE CPWSFOOT-ENTERED-CHECK-DATE TO XDC3-INPUT6-DATE         PPAPPIFP
019392                                                                  PPAPPIFP
019393     SET VALID-DATE TO TRUE.                                      PPAPPIFP
019394     PERFORM XDC3-VALIDATE-INPUT6-TO-ISO.                         PPAPPIFP
019395     IF XDC3-INVALID-DATE                                         PPAPPIFP
019396          SET INVALID-DATE TO TRUE                                PPAPPIFP
019397     END-IF.                                                      PPAPPIFP
019398                                                                  PPAPPIFP
019399     IF NOT VALID-DATE                                            PPAPPIFP
019400        MOVE MP0302 TO UCCOMMON-MSG-NUMBER                        PPAPPIFP
019401        SET ERRORS-FOUND TO TRUE                                  PPAPPIFP
019402     ELSE                                                         PPAPPIFP
019403        MOVE XDC3-ISO-DATE       TO WS-DB2-CHECK-DATE             PPAPPIFP
019404        IF SELECT-WTH-ID-ONLY                                     PPAPPIFP
019405           SET SELECT-WTH-ID-CHK-DATE TO TRUE                     PPAPPIFP
019406        ELSE                                                      PPAPPIFP
019407           SET SELECT-WTH-ID-CC-CKDATE TO TRUE                    PPAPPIFP
019408        END-IF                                                    PPAPPIFP
019409     END-IF.                                                      PPAPPIFP
019414     EJECT                                                        PPAPPIFP
019415                                                                  PPAPPIFP
019416 7000-SELECT-MOST-CURRENT   SECTION.                              PPAPPIFP
019417***********************************************************       PPAPPIFP
019418*   THIS SECTION WILL OPEN A CURSOR FOR THAT EMPLOYEE     *       PPAPPIFP
019419*   AND WILL PROCESS THE MOST CURRENT RECORD.             *       PPAPPIFP
019420***********************************************************       PPAPPIFP
019421                                                                  PPAPPIFP
019422     PERFORM 8265-OPEN-ALL-EMP-CURS.                              PPAPPIFP
019423                                                                  PPAPPIFP
019424     PERFORM 7165-FETCH-ALL-EMP-CURS                              PPAPPIFP
019425                                                                  PPAPPIFP
019426     PERFORM 8370-CLOSE-CURS3.                                    PPAPPIFP
019427                                                                  PPAPPIFP
019428     PERFORM 8550-SELECT-EUD-WTH-RECORD-KEY.                      PPAPPIFP
019429                                                                  PPAPPIFP
019430     SET CPWSWORK-MORE-PAR-RECS TO TRUE.                          PPAPPIFP
019431                                                                  PPAPPIFP
019432 7000-EXIT.                                                       PPAPPIFP
019433     EXIT.                                                        PPAPPIFP
019434                                                                  PPAPPIFP
019435     EJECT                                                        PPAPPIFP
019100                                                                  PPAPPIFP
019437 7165-FETCH-ALL-EMP-CURS   SECTION.                               PPAPPIFP
019300**************************************************************    PPAPPIFP
019439*  FETCH EMPLOYEE-CURS3                                      *    PPAPPIFP
019500**************************************************************    PPAPPIFP
019600                                                                  PPAPPIFP
019442     MOVE 'FETCH EMPLOYEE-CURS3' TO DB2MSG-TAG.                   PPAPPIFP
019800                                                                  PPAPPIFP
019900     EXEC SQL                                                     PPAPPIFP
019445         FETCH  EMPLOYEE-CURS3                                    PPAPPIFP
019446           INTO  :PAY-CYCLE-END-DATE                              PPAPPIFP
019447                ,:PAY-CYCLE-CODE                                  PPAPPIFP
019448                ,:EMPLOYEE-ID                                     PPAPPIFP
019449                ,:RECORD-TYPE                                     PPAPPIFP
019450                ,:PRI-GROSS-CTL                                   PPAPPIFP
019451                ,:HOME-DEPT                                       PPAPPIFP
020400     END-EXEC.                                                    PPAPPIFP
020500                                                                  PPAPPIFP
019454     IF SQLCODE NOT = ZERO                                        PPAPPIFP
019455        PERFORM 999999-SQL-ERROR                                  PPAPPIFP
019456     END-IF.                                                      PPAPPIFP
019457                                                                  PPAPPIFP
019458 7165-EXIT.                                                       PPAPPIFP
019459     EXIT.                                                        PPAPPIFP
019460                                                                  PPAPPIFP
019461     EJECT                                                        PPAPPIFP
019462                                                                  PPAPPIFP
019463 8010-SELECT-CNT-WTH-ID   SECTION.                                PPAPPIFP
019464**************************************************************    PPAPPIFP
019465*  COUNT EUD ROWS FOR ID ENTERED                             *    PPAPPIFP
019466**************************************************************    PPAPPIFP
019467                                                                  PPAPPIFP
019468     MOVE 'SELECT EUD COUNT WITH ID' TO DB2MSG-TAG.               PPAPPIFP
019469                                                                  PPAPPIFP
019470     EXEC SQL                                                     PPAPPIFP
019471         SELECT                                                   PPAPPIFP
019472         COUNT (*)                                                PPAPPIFP
019473         INTO :WS-COUNT                                           PPAPPIFP
019474         FROM PPPVZEUD_EUD                                        PPAPPIFP
019475         WHERE EMPLOYEE_ID =  :WS-UNIQUE-EE-ID                    PPAPPIFP
019476     END-EXEC.                                                    PPAPPIFP
019477                                                                  PPAPPIFP
019478     IF SQLCODE NOT = ZERO                                        PPAPPIFP
019479        PERFORM 999999-SQL-ERROR                                  PPAPPIFP
019480     END-IF.                                                      PPAPPIFP
019481                                                                  PPAPPIFP
019482 8010-EXIT.                                                       PPAPPIFP
019483     EXIT.                                                        PPAPPIFP
019484                                                                  PPAPPIFP
019485     EJECT                                                        PPAPPIFP
019486                                                                  PPAPPIFP
019487 8020-SELECT-CNT-WTH-ID-CYCLE   SECTION.                          PPAPPIFP
019488**************************************************************    PPAPPIFP
019489*  COUNT EUD ROWS FOR ID AND CYCLE ENTERED                   *    PPAPPIFP
019490**************************************************************    PPAPPIFP
019491                                                                  PPAPPIFP
019492     MOVE 'SELECT EUD COUNT WITH ID/CYCLE' TO DB2MSG-TAG.         PPAPPIFP
019493                                                                  PPAPPIFP
019494     EXEC SQL                                                     PPAPPIFP
019495         SELECT                                                   PPAPPIFP
019496         COUNT (*)                                                PPAPPIFP
019497         INTO :WS-COUNT                                           PPAPPIFP
019498         FROM PPPVZEUD_EUD                                        PPAPPIFP
019499         WHERE EMPLOYEE_ID =  :WS-UNIQUE-EE-ID                    PPAPPIFP
019500           AND PAY_CYCLE_CODE  =  :WS-PAY-CYCLE                   PPAPPIFP
019501     END-EXEC.                                                    PPAPPIFP
019502                                                                  PPAPPIFP
019503     IF SQLCODE NOT = ZERO                                        PPAPPIFP
019504        PERFORM 999999-SQL-ERROR                                  PPAPPIFP
019505     END-IF.                                                      PPAPPIFP
019506                                                                  PPAPPIFP
019507 8020-EXIT.                                                       PPAPPIFP
019508     EXIT.                                                        PPAPPIFP
019509                                                                  PPAPPIFP
019510     EJECT                                                        PPAPPIFP
019511                                                                  PPAPPIFP
019512 8030-SELECT-CNT-WTH-ID-CHKDATE   SECTION.                        PPAPPIFP
019513**************************************************************    PPAPPIFP
019514*  COUNT EUD ROWS FOR ID AND CHECK DATE ENTERED              *    PPAPPIFP
019515**************************************************************    PPAPPIFP
019516                                                                  PPAPPIFP
019517     MOVE 'SELECT EUD COUNT WITH DATE' TO DB2MSG-TAG.             PPAPPIFP
019518                                                                  PPAPPIFP
019519     EXEC SQL                                                     PPAPPIFP
019520         SELECT                                                   PPAPPIFP
019521         COUNT (*)                                                PPAPPIFP
019522         INTO :WS-COUNT                                           PPAPPIFP
019523         FROM PPPVZEUD_EUD                                        PPAPPIFP
019524         WHERE EMPLOYEE_ID =  :WS-UNIQUE-EE-ID                    PPAPPIFP
019525           AND CHK_DATE        =  :WS-DB2-CHECK-DATE              PPAPPIFP
019526     END-EXEC.                                                    PPAPPIFP
019527                                                                  PPAPPIFP
019528     IF SQLCODE NOT = ZERO                                        PPAPPIFP
019529        PERFORM 999999-SQL-ERROR                                  PPAPPIFP
019530     END-IF.                                                      PPAPPIFP
019531                                                                  PPAPPIFP
019532 8030-EXIT.                                                       PPAPPIFP
019533     EXIT.                                                        PPAPPIFP
019534                                                                  PPAPPIFP
019535     EJECT                                                        PPAPPIFP
019536                                                                  PPAPPIFP
019537 8040-SELECT-CNT-WTH-ID-CC-CKDT   SECTION.                        PPAPPIFP
019538**************************************************************    PPAPPIFP
019539*  COUNT EUD ROWS FOR ID, CYCLE AND CHECK DATE ENTERED       *    PPAPPIFP
019540**************************************************************    PPAPPIFP
019541                                                                  PPAPPIFP
019542     MOVE 'SELECT EUD COUNT WITH ID-CC-CKDT' TO DB2MSG-TAG.       PPAPPIFP
019543                                                                  PPAPPIFP
019544     EXEC SQL                                                     PPAPPIFP
019545         SELECT                                                   PPAPPIFP
019546         COUNT (*)                                                PPAPPIFP
019547         INTO :WS-COUNT                                           PPAPPIFP
019548         FROM PPPVZEUD_EUD                                        PPAPPIFP
019549         WHERE EMPLOYEE_ID =  :WS-UNIQUE-EE-ID                    PPAPPIFP
019550           AND PAY_CYCLE_CODE  =  :WS-PAY-CYCLE                   PPAPPIFP
019551           AND CHK_DATE        =  :WS-DB2-CHECK-DATE              PPAPPIFP
019552     END-EXEC.                                                    PPAPPIFP
019553                                                                  PPAPPIFP
019554     IF SQLCODE NOT = ZERO                                        PPAPPIFP
019555        PERFORM 999999-SQL-ERROR                                  PPAPPIFP
019556     END-IF.                                                      PPAPPIFP
019557                                                                  PPAPPIFP
019558 8040-EXIT.                                                       PPAPPIFP
019559     EXIT.                                                        PPAPPIFP
019560                                                                  PPAPPIFP
019561     EJECT                                                        PPAPPIFP
019562                                                                  PPAPPIFP
019563 8150-SELECT-ID-WTH-NAME    SECTION.                              PPAPPIFP
019564**************************************************************    PPAPPIFP
019565*  OBTAIN THE ID BASED ON NAME ENTERED                       *    PPAPPIFP
019566**************************************************************    PPAPPIFP
019567                                                                  PPAPPIFP
019568     PERFORM 8255-OPEN-EMP-NAME-CURS.                             PPAPPIFP
019569                                                                  PPAPPIFP
019570     PERFORM 8165-FETCH-EMP-NAME-CURS.                            PPAPPIFP
019571                                                                  PPAPPIFP
019572     PERFORM 8360-CLOSE-CURS2.                                    PPAPPIFP
019573                                                                  PPAPPIFP
019574 8150-EXIT.                                                       PPAPPIFP
019575     EXIT.                                                        PPAPPIFP
019576                                                                  PPAPPIFP
019577     EJECT                                                        PPAPPIFP
019578                                                                  PPAPPIFP
019579 8165-FETCH-EMP-NAME-CURS   SECTION.                              PPAPPIFP
019580**************************************************************    PPAPPIFP
019581*  FETCH EMPLOYEE-CURS2                                      *    PPAPPIFP
019582**************************************************************    PPAPPIFP
019583                                                                  PPAPPIFP
019584     MOVE 'FETCH EMPLOYEE-CURS2' TO DB2MSG-TAG.                   PPAPPIFP
019585                                                                  PPAPPIFP
019586     EXEC SQL                                                     PPAPPIFP
019587         FETCH  EMPLOYEE-CURS2                                    PPAPPIFP
019588           INTO :WS-UNIQUE-EE-ID                                  PPAPPIFP
019589     END-EXEC.                                                    PPAPPIFP
019590                                                                  PPAPPIFP
019591     IF SQLCODE = +0                                              PPAPPIFP
019592        SET EUD-NAME-FOUND TO TRUE                                PPAPPIFP
019593     ELSE                                                         PPAPPIFP
019594        SET EUD-NAME-NOT-FOUND TO TRUE                            PPAPPIFP
019595     END-IF.                                                      PPAPPIFP
019596                                                                  PPAPPIFP
019597 8165-EXIT.                                                       PPAPPIFP
019598     EXIT.                                                        PPAPPIFP
019599                                                                  PPAPPIFP
019600     EJECT                                                        PPAPPIFP
019601                                                                  PPAPPIFP
019602 8200-SELECT-ID-WTH-SSN    SECTION.                               PPAPPIFP
019603**************************************************************    PPAPPIFP
019604*  OBTAIN THE ID BASED ON SSN ENTERED                        *    PPAPPIFP
019605**************************************************************    PPAPPIFP
019606                                                                  PPAPPIFP
019607     PERFORM 8250-OPEN-EMP-SSN-CURS.                              PPAPPIFP
019608                                                                  PPAPPIFP
019609     PERFORM 8210-FETCH-EMP-SSN-CURS.                             PPAPPIFP
019610                                                                  PPAPPIFP
019611     PERFORM 8350-CLOSE-CURS1.                                    PPAPPIFP
019612                                                                  PPAPPIFP
019613 8200-EXIT.                                                       PPAPPIFP
019614     EXIT.                                                        PPAPPIFP
019615                                                                  PPAPPIFP
019616     EJECT                                                        PPAPPIFP
019617                                                                  PPAPPIFP
019618 8210-FETCH-EMP-SSN-CURS   SECTION.                               PPAPPIFP
019619**************************************************************    PPAPPIFP
019620*   FETCH EMPLOYEE-CURS1                                     *    PPAPPIFP
019621**************************************************************    PPAPPIFP
019622                                                                  PPAPPIFP
019623     MOVE 'FETCH EMPLOYEE-CURS1' TO DB2MSG-TAG.                   PPAPPIFP
019624                                                                  PPAPPIFP
019625     EXEC SQL                                                     PPAPPIFP
019626         FETCH  EMPLOYEE-CURS1                                    PPAPPIFP
019627           INTO :WS-UNIQUE-EE-ID                                  PPAPPIFP
019628     END-EXEC.                                                    PPAPPIFP
019629                                                                  PPAPPIFP
019630     IF SQLCODE = +0                                              PPAPPIFP
019631        SET EUD-SSN-FOUND TO TRUE                                 PPAPPIFP
019632     ELSE                                                         PPAPPIFP
019633     IF SQLCODE = +100                                            PPAPPIFP
019634        SET EUD-SSN-NOT-FOUND TO TRUE                             PPAPPIFP
019635     END-IF                                                       PPAPPIFP
019636     END-IF.                                                      PPAPPIFP
019637                                                                  PPAPPIFP
019638 8210-EXIT.                                                       PPAPPIFP
019639     EXIT.                                                        PPAPPIFP
019640                                                                  PPAPPIFP
019641     EJECT                                                        PPAPPIFP
019642                                                                  PPAPPIFP
019643                                                                  PPAPPIFP
019644 8250-OPEN-EMP-SSN-CURS   SECTION.                                PPAPPIFP
019645**************************************************************    PPAPPIFP
019646*  OPEN EMPLOYEE-CURS1                                       *    PPAPPIFP
019647**************************************************************    PPAPPIFP
019648                                                                  PPAPPIFP
019649     MOVE 'OPEN EMPLOYEE-CURS1' TO DB2MSG-TAG.                    PPAPPIFP
019650                                                                  PPAPPIFP
019651     EXEC SQL                                                     PPAPPIFP
019652         OPEN  EMPLOYEE-CURS1                                     PPAPPIFP
019653     END-EXEC.                                                    PPAPPIFP
019654                                                                  PPAPPIFP
019655 8250-EXIT.                                                       PPAPPIFP
020700     EXIT.                                                        PPAPPIFP
020800                                                                  PPAPPIFP
019658     EJECT                                                        PPAPPIFP
019659                                                                  PPAPPIFP
019660 8255-OPEN-EMP-NAME-CURS   SECTION.                               PPAPPIFP
019661**************************************************************    PPAPPIFP
019662*  OPEN EMPLOYEE-CURS2                                       *    PPAPPIFP
019663**************************************************************    PPAPPIFP
019664                                                                  PPAPPIFP
019665     MOVE 'OPEN EMPLOYEE-CURS2' TO DB2MSG-TAG.                    PPAPPIFP
019666                                                                  PPAPPIFP
019667     EXEC SQL                                                     PPAPPIFP
019668         OPEN  EMPLOYEE-CURS2                                     PPAPPIFP
019669     END-EXEC.                                                    PPAPPIFP
019670                                                                  PPAPPIFP
019671 8255-EXIT.                                                       PPAPPIFP
019672     EXIT.                                                        PPAPPIFP
019673                                                                  PPAPPIFP
019674     EJECT                                                        PPAPPIFP
019675                                                                  PPAPPIFP
019676 8265-OPEN-ALL-EMP-CURS   SECTION.                                PPAPPIFP
019677**************************************************************    PPAPPIFP
019678*  OPEN EMPLOYEE-CURS3                                       *    PPAPPIFP
019679**************************************************************    PPAPPIFP
019680                                                                  PPAPPIFP
019681     MOVE 'OPEN EMPLOYEE-CURS3' TO DB2MSG-TAG.                    PPAPPIFP
019682                                                                  PPAPPIFP
019683     EXEC SQL                                                     PPAPPIFP
019684         OPEN  EMPLOYEE-CURS3                                     PPAPPIFP
019685     END-EXEC.                                                    PPAPPIFP
019686                                                                  PPAPPIFP
019687 8265-EXIT.                                                       PPAPPIFP
019688     EXIT.                                                        PPAPPIFP
019689                                                                  PPAPPIFP
019690     EJECT                                                        PPAPPIFP
019691                                                                  PPAPPIFP
019692 8350-CLOSE-CURS1   SECTION.                                      PPAPPIFP
019693**************************************************************    PPAPPIFP
019694*  CLOSE EMPLOYEE-CURS1                                      *    PPAPPIFP
019695**************************************************************    PPAPPIFP
019696                                                                  PPAPPIFP
019697     MOVE 'CLOSE EMPLOYEE-CURS1' TO DB2MSG-TAG.                   PPAPPIFP
019698                                                                  PPAPPIFP
019699     EXEC SQL                                                     PPAPPIFP
019700         CLOSE  EMPLOYEE-CURS1                                    PPAPPIFP
019701     END-EXEC.                                                    PPAPPIFP
019702                                                                  PPAPPIFP
019703 8350-EXIT.                                                       PPAPPIFP
019704     EXIT.                                                        PPAPPIFP
019705                                                                  PPAPPIFP
019706     EJECT                                                        PPAPPIFP
019707                                                                  PPAPPIFP
019708 8360-CLOSE-CURS2   SECTION.                                      PPAPPIFP
019709**************************************************************    PPAPPIFP
019710*  CLOSE EMPLOYEE-CURS2                                      *    PPAPPIFP
019711**************************************************************    PPAPPIFP
019712                                                                  PPAPPIFP
019713     MOVE 'CLOSE EMPLOYEE-CURS2' TO DB2MSG-TAG.                   PPAPPIFP
019714                                                                  PPAPPIFP
019715     EXEC SQL                                                     PPAPPIFP
019716         CLOSE  EMPLOYEE-CURS2                                    PPAPPIFP
019717     END-EXEC.                                                    PPAPPIFP
019718                                                                  PPAPPIFP
019719 8360-EXIT.                                                       PPAPPIFP
019720     EXIT.                                                        PPAPPIFP
019721                                                                  PPAPPIFP
019722     EJECT                                                        PPAPPIFP
019723                                                                  PPAPPIFP
019724 8370-CLOSE-CURS3   SECTION.                                      PPAPPIFP
019725**************************************************************    PPAPPIFP
019726*  CLOSE EMPLOYEE-CURS3                                      *    PPAPPIFP
019727**************************************************************    PPAPPIFP
019728                                                                  PPAPPIFP
019729     MOVE 'CLOSE EMPLOYEE-CURS3' TO DB2MSG-TAG.                   PPAPPIFP
019730                                                                  PPAPPIFP
019731     EXEC SQL                                                     PPAPPIFP
019732         CLOSE  EMPLOYEE-CURS3                                    PPAPPIFP
019733     END-EXEC.                                                    PPAPPIFP
019734                                                                  PPAPPIFP
019735 8370-EXIT.                                                       PPAPPIFP
019736     EXIT.                                                        PPAPPIFP
019737                                                                  PPAPPIFP
019738     EJECT                                                        PPAPPIFP
019739                                                                  PPAPPIFP
019740 8510-SELECT-EUD-WTH-ID   SECTION.                                PPAPPIFP
019741***********************************************************       PPAPPIFP
019742*    SELECT EUD BY EMPLOYEE ID                            *       PPAPPIFP
019743***********************************************************       PPAPPIFP
019744                                                                  PPAPPIFP
019745     MOVE 'SELECT EUD WITH ID' TO DB2MSG-TAG.                     PPAPPIFP
019746                                                                  PPAPPIFP
019747     EXEC SQL                                                     PPAPPIFP
019748         SELECT  PAY_CYCLE_END_DATE                               PPAPPIFP
019749                ,PAY_CYCLE_CODE                                   PPAPPIFP
019750                ,EMPLOYEE_ID                                      PPAPPIFP
019751                ,RECORD_TYPE                                      PPAPPIFP
019752                ,PRI_GROSS_CTL                                    PPAPPIFP
019753                ,HOME_DEPT                                        PPAPPIFP
019754         INTO    :PAY-CYCLE-END-DATE                              PPAPPIFP
019755                ,:PAY-CYCLE-CODE                                  PPAPPIFP
019756                ,:EMPLOYEE-ID                                     PPAPPIFP
019757                ,:RECORD-TYPE                                     PPAPPIFP
019758                ,:PRI-GROSS-CTL                                   PPAPPIFP
019759                ,:HOME-DEPT                                       PPAPPIFP
019760         FROM PPPVZEUD_EUD                                        PPAPPIFP
019761         WHERE EMPLOYEE_ID = :WS-UNIQUE-EE-ID                     PPAPPIFP
019762     END-EXEC.                                                    PPAPPIFP
019763                                                                  PPAPPIFP
019764     IF SQLCODE NOT = ZERO                                        PPAPPIFP
019765        PERFORM 999999-SQL-ERROR                                  PPAPPIFP
019766     END-IF.                                                      PPAPPIFP
019767                                                                  PPAPPIFP
019768 8510-EXIT.                                                       PPAPPIFP
019769     EXIT.                                                        PPAPPIFP
019770                                                                  PPAPPIFP
019771     EJECT                                                        PPAPPIFP
019772                                                                  PPAPPIFP
019774 8520-SELECT-EUD-WTH-ID-CYCLE   SECTION.                          PPAPPIFP
019775**************************************************************    PPAPPIFP
019776*  SELECT THE EUD ROW BASED ON EMPLOYEE ID AND CYCLE         *    PPAPPIFP
019777**************************************************************    PPAPPIFP
019778                                                                  PPAPPIFP
019779     MOVE 'SELECT EUD WITH ID & CYCLE' TO DB2MSG-TAG.             PPAPPIFP
019780                                                                  PPAPPIFP
019781     EXEC SQL                                                     PPAPPIFP
019782         SELECT  PAY_CYCLE_END_DATE                               PPAPPIFP
019783                ,PAY_CYCLE_CODE                                   PPAPPIFP
019784                ,EMPLOYEE_ID                                      PPAPPIFP
019785                ,RECORD_TYPE                                      PPAPPIFP
019786                ,PRI_GROSS_CTL                                    PPAPPIFP
019787                ,HOME_DEPT                                        PPAPPIFP
019788         INTO    :PAY-CYCLE-END-DATE                              PPAPPIFP
019789                ,:PAY-CYCLE-CODE                                  PPAPPIFP
019790                ,:EMPLOYEE-ID                                     PPAPPIFP
019791                ,:RECORD-TYPE                                     PPAPPIFP
019792                ,:PRI-GROSS-CTL                                   PPAPPIFP
019793                ,:HOME-DEPT                                       PPAPPIFP
019794         FROM PPPVZEUD_EUD                                        PPAPPIFP
019795         WHERE EMPLOYEE_ID = :WS-UNIQUE-EE-ID                     PPAPPIFP
019796           AND PAY_CYCLE_CODE = :WS-PAY-CYCLE                     PPAPPIFP
019797     END-EXEC.                                                    PPAPPIFP
019798                                                                  PPAPPIFP
019799     IF SQLCODE NOT = ZERO                                        PPAPPIFP
019800        PERFORM 999999-SQL-ERROR                                  PPAPPIFP
019801     END-IF.                                                      PPAPPIFP
019802                                                                  PPAPPIFP
019803 8520-EXIT.                                                       PPAPPIFP
019804     EXIT.                                                        PPAPPIFP
019805                                                                  PPAPPIFP
019806     EJECT                                                        PPAPPIFP
019807                                                                  PPAPPIFP
019808 8530-SELECT-EUD-WTH-ID-CHKDATE   SECTION.                        PPAPPIFP
019809**************************************************************    PPAPPIFP
019810*  SELECT THE EUD ROW BASED ON EMPLOYEE ID AND CHECK DATE    *    PPAPPIFP
019811**************************************************************    PPAPPIFP
019812                                                                  PPAPPIFP
019813     MOVE 'SELECT EUD WITH ID & CHKDATE' TO DB2MSG-TAG.           PPAPPIFP
019814                                                                  PPAPPIFP
019815     EXEC SQL                                                     PPAPPIFP
019816         SELECT  PAY_CYCLE_END_DATE                               PPAPPIFP
019817                ,PAY_CYCLE_CODE                                   PPAPPIFP
019818                ,EMPLOYEE_ID                                      PPAPPIFP
019819                ,RECORD_TYPE                                      PPAPPIFP
019820                ,PRI_GROSS_CTL                                    PPAPPIFP
019821                ,HOME_DEPT                                        PPAPPIFP
019822         INTO    :PAY-CYCLE-END-DATE                              PPAPPIFP
019823                ,:PAY-CYCLE-CODE                                  PPAPPIFP
019824                ,:EMPLOYEE-ID                                     PPAPPIFP
019825                ,:RECORD-TYPE                                     PPAPPIFP
019826                ,:PRI-GROSS-CTL                                   PPAPPIFP
019827                ,:HOME-DEPT                                       PPAPPIFP
019828         FROM PPPVZEUD_EUD                                        PPAPPIFP
019829         WHERE EMPLOYEE_ID = :WS-UNIQUE-EE-ID                     PPAPPIFP
019830           AND CHK_DATE    = :WS-DB2-CHECK-DATE                   PPAPPIFP
019831     END-EXEC.                                                    PPAPPIFP
019832                                                                  PPAPPIFP
019833     IF SQLCODE NOT = ZERO                                        PPAPPIFP
019834        PERFORM 999999-SQL-ERROR                                  PPAPPIFP
019835     END-IF.                                                      PPAPPIFP
019836                                                                  PPAPPIFP
019837 8530-EXIT.                                                       PPAPPIFP
019838     EXIT.                                                        PPAPPIFP
019839                                                                  PPAPPIFP
019840     EJECT                                                        PPAPPIFP
019841                                                                  PPAPPIFP
019842 8540-SELECT-EUD-WTH-ID-CC-CKDT   SECTION.                        PPAPPIFP
019843**************************************************************    PPAPPIFP
019844*  SELECT THE EUD ROW BASED ON EMPLOYEE ID, CYCLE AND CHECK  *    PPAPPIFP
019845*  DATE.                                                     *    PPAPPIFP
019846**************************************************************    PPAPPIFP
019847                                                                  PPAPPIFP
019848     MOVE 'SELECT EUD WITH ID, CC & CHKDATE' TO DB2MSG-TAG.       PPAPPIFP
019849                                                                  PPAPPIFP
019850     EXEC SQL                                                     PPAPPIFP
019851         SELECT  PAY_CYCLE_END_DATE                               PPAPPIFP
019852                ,PAY_CYCLE_CODE                                   PPAPPIFP
019853                ,EMPLOYEE_ID                                      PPAPPIFP
019854                ,RECORD_TYPE                                      PPAPPIFP
019855                ,PRI_GROSS_CTL                                    PPAPPIFP
019856                ,HOME_DEPT                                        PPAPPIFP
019857         INTO    :PAY-CYCLE-END-DATE                              PPAPPIFP
019858                ,:PAY-CYCLE-CODE                                  PPAPPIFP
019859                ,:EMPLOYEE-ID                                     PPAPPIFP
019860                ,:RECORD-TYPE                                     PPAPPIFP
019861                ,:PRI-GROSS-CTL                                   PPAPPIFP
019862                ,:HOME-DEPT                                       PPAPPIFP
019863         FROM PPPVZEUD_EUD                                        PPAPPIFP
019864         WHERE EMPLOYEE_ID = :WS-UNIQUE-EE-ID                     PPAPPIFP
019865           AND PAY_CYCLE_CODE = :WS-PAY-CYCLE                     PPAPPIFP
019866           AND CHK_DATE       = :WS-DB2-CHECK-DATE                PPAPPIFP
019867     END-EXEC.                                                    PPAPPIFP
019868                                                                  PPAPPIFP
019869     IF SQLCODE NOT = ZERO                                        PPAPPIFP
019870        PERFORM 999999-SQL-ERROR                                  PPAPPIFP
019871     END-IF.                                                      PPAPPIFP
019872                                                                  PPAPPIFP
019873 8540-EXIT.                                                       PPAPPIFP
019874     EXIT.                                                        PPAPPIFP
019875                                                                  PPAPPIFP
019876     EJECT                                                        PPAPPIFP
019877                                                                  PPAPPIFP
019878 8550-SELECT-EUD-WTH-RECORD-KEY   SECTION.                        PPAPPIFP
019879**************************************************************    PPAPPIFP
019880*  SELECT THE EUD BASED ON EMPLOYEE ID, CYCLE END DATE,      *    PPAPPIFP
019881*  RECORD TYPE AND PRI-GROSS-CTL                             *    PPAPPIFP
019882**************************************************************    PPAPPIFP
019883                                                                  PPAPPIFP
019884     MOVE 'SELECT EUD WITH RECORD KEY' TO DB2MSG-TAG.             PPAPPIFP
019885                                                                  PPAPPIFP
019886     EXEC SQL                                                     PPAPPIFP
019887         SELECT  PAY_CYCLE_END_DATE                               PPAPPIFP
019888                ,PAY_CYCLE_CODE                                   PPAPPIFP
019889                ,EMPLOYEE_ID                                      PPAPPIFP
019890                ,RECORD_TYPE                                      PPAPPIFP
019891                ,PRI_GROSS_CTL                                    PPAPPIFP
019892                ,HOME_DEPT                                        PPAPPIFP
019893         INTO    :PAY-CYCLE-END-DATE                              PPAPPIFP
019894                ,:PAY-CYCLE-CODE                                  PPAPPIFP
019895                ,:EMPLOYEE-ID                                     PPAPPIFP
019896                ,:RECORD-TYPE                                     PPAPPIFP
019897                ,:PRI-GROSS-CTL                                   PPAPPIFP
019898                ,:HOME-DEPT                                       PPAPPIFP
019899         FROM PPPVZEUD_EUD                                        PPAPPIFP
019900         WHERE EMPLOYEE_ID = :WS-UNIQUE-EE-ID                     PPAPPIFP
019901           AND PAY_CYCLE_END_DATE  =                              PPAPPIFP
019902                             :PAY-CYCLE-END-DATE                  PPAPPIFP
019903           AND RECORD_TYPE = :RECORD-TYPE                         PPAPPIFP
019904           AND PRI_GROSS_CTL = :PRI-GROSS-CTL                     PPAPPIFP
019905     END-EXEC.                                                    PPAPPIFP
019906                                                                  PPAPPIFP
019907     IF SQLCODE NOT = ZERO                                        PPAPPIFP
019908        PERFORM 999999-SQL-ERROR                                  PPAPPIFP
019909     END-IF.                                                      PPAPPIFP
019910                                                                  PPAPPIFP
019911 8550-EXIT.                                                       PPAPPIFP
019912     EXIT.                                                        PPAPPIFP
019913                                                                  PPAPPIFP
019914     EJECT                                                        PPAPPIFP
020905*FORMAT-DISPLAY-ID   SECTION.                                     PPAPPIFP
020906**************************************************************    PPAPPIFP
020907*  COPIED PROCEDURE DIVISION CODE FOR BUILDING AND           *    PPAPPIFP
020908*  FORMATTING EMPLOYEE ID BASED ON LENGTH.                   *    PPAPPIFP
020909**************************************************************    PPAPPIFP
020910     COPY CPPDBLID.                                               PPAPPIFP
020911     EJECT                                                        PPAPPIFP
020912                                                                  PPAPPIFP
020913 XDC3-ROUTINES    SECTION.                                        PPAPPIFP
020914**************************************************************    PPAPPIFP
020915*  STANDARD XDC3 DATE ROUTINES.                              *    PPAPPIFP
020916**************************************************************    PPAPPIFP
020930     COPY CPPDXDC3.                                               PPAPPIFP
020940     EJECT                                                        PPAPPIFP
021000                                                                  PPAPPIFP
021100 9999-ABEND    SECTION.                                           PPAPPIFP
021200**************************************************************    PPAPPIFP
021300*  COPIED PROCEDURE DIVISION CODE                            *    PPAPPIFP
021400**************************************************************    PPAPPIFP
021500                                                                  PPAPPIFP
021600     MOVE 'PPAPPIFP' TO UCWSABND-ABENDING-PGM.                    PPAPPIFP
021800     COPY UCPDABND.                                               PPAPPIFP
021900                                                                  PPAPPIFP
022000 9999-EXIT.                                                       PPAPPIFP
022100     EXIT.                                                        PPAPPIFP
022200                                                                  PPAPPIFP
022300                                                                  PPAPPIFP
022400 EJECT                                                            PPAPPIFP
022500*999999-SQL-ERROR SECTION.                                        PPAPPIFP
022600**************************************************************    PPAPPIFP
022700*  COPIED PROCEDURE DIVISION CODE FOR SQL ERROR HANDLING     *    PPAPPIFP
022800**************************************************************    PPAPPIFP
022900                                                                  PPAPPIFP
023000      EXEC SQL                                                    PPAPPIFP
023100           INCLUDE CPPDXP99                                       PPAPPIFP
023200      END-EXEC.                                                   PPAPPIFP
023300                                                                  PPAPPIFP
023400      MOVE 'SQL ERROR - SEE PRECEDING DB2 MESSAGES'               PPAPPIFP
023500                                      TO UCWSABND-ABEND-DATA (1). PPAPPIFP
023600                                                                  PPAPPIFP
023700      PERFORM 9999-ABEND.                                         PPAPPIFP
023800                                                                  PPAPPIFP
023900 999999-EXIT.                                                     PPAPPIFP
024000       EXIT.                                                      PPAPPIFP
024100***************    END OF SOURCE - PPAPPIFP    *******************PPAPPIFP
