000010**************************************************************/   32021138
000020*  PROGRAM: PPAPTRSR                                         */   32021138
000030*  RELEASE: ___1138______ SERVICE REQUEST(S): ____13202____  */   32021138
000040*  NAME:______PAYJIG_____ MODIFICATION DATE:  ___08/04/97__  */   32021138
000050*  DESCRIPTION:                                              */   32021138
000060*  - MODIFIED FOR FULL ACCOUNTING UNIT                       */   32021138
000070**************************************************************/   32021138
000100**************************************************************/   36580967
000200*  PROGRAM: PPAPTRSR                                         */   36580967
000300*  RELEASE: ___0967______ SERVICE REQUEST(S): _____3658____  */   36580967
000400*  NAME:_______MLG_______ MODIFICATION DATE:  __03/10/95____ */   36580967
000500*  DESCRIPTION:                                              */   36580967
000600*    OPTR STORE/RESTORE APPLICATION PROCESSOR                */   36580967
000800**************************************************************/   36580967
000900 IDENTIFICATION DIVISION.                                         PPAPTRSR
001000 PROGRAM-ID. PPAPTRSR.                                            PPAPTRSR
001100 ENVIRONMENT DIVISION.                                            PPAPTRSR
001200 CONFIGURATION SECTION.                                           PPAPTRSR
001300 SOURCE-COMPUTER.                                                 PPAPTRSR
001400 COPY  CPOTXUCS.                                                  PPAPTRSR
001500 DATA DIVISION.                                                   PPAPTRSR
001600 WORKING-STORAGE SECTION.                                         PPAPTRSR
001700                                                                  PPAPTRSR
001800 01  WS-COMN.                                                     PPAPTRSR
001900     05  WS-START                          PIC X(32) VALUE        PPAPTRSR
002000         'WORKING STORAGE STARTS HERE'.                           PPAPTRSR
002100     05  WS-ENQ-NAME                       PIC X(08)              PPAPTRSR
002200                                               VALUE 'THFSEQNO'.  PPAPTRSR
002300     05  WS-RESP                           PIC S9(8) COMP.        PPAPTRSR
002400     05  WS-LENGTH                         PIC S9(08) COMP.       PPAPTRSR
002500     05  TS-QUEUE-ID.                                             PPAPTRSR
002600         10  TS-QUEUE-NAME-SS              PIC X(02).             PPAPTRSR
002700         10  TS-QUEUE-NAME-N1              PIC 9(01).             PPAPTRSR
002800         10  TS-QUEUE-NAME-N2              PIC 9(01).             PPAPTRSR
002900         10  TS-QUEUE-TERMID               PIC X(04).             PPAPTRSR
003000     05  TS-QUEUE-LENGTH                   PIC S9(04) COMP.       PPAPTRSR
003100     05  TS-QUEUE-ITEM                     PIC S9(04) COMP.       PPAPTRSR
003200     05  TS-AUDIT-QUEUE-ID.                                       PPAPTRSR
003300         10  TS-AUDIT-Q-SS-NAME            PIC X(02).             PPAPTRSR
003400         10  TS-AUDIT-Q-VARIABLE           PIC X(02).             PPAPTRSR
003500             88  TS-AUDIT-Q-VAR-REGULAR              VALUE 'AU'.  PPAPTRSR
003600             88  TS-AUDIT-Q-VAR-NESTED               VALUE 'AN'.  PPAPTRSR
003700         10  TS-AUDIT-Q-TERM-ID            PIC X(04).             PPAPTRSR
003800     05  TS-AUDIT-QUEUE-LENGTH             PIC S9(04) COMP        PPAPTRSR
003900                                                      VALUE 8.    PPAPTRSR
004000     05  TS-AUDIT-QUEUE-DATA.                                     PPAPTRSR
004100         10  TS-AUDIT-Q-QUEUE-NAME         PIC X(08).             PPAPTRSR
004200                                                                  PPAPTRSR
004300 01  WS-TS-AREA                            PIC X(24000).          PPAPTRSR
004400                                                                  PPAPTRSR
004800 01  EXTRN-PCR-RECORD   EXTERNAL.                                 PPAPTRSR
004900     05  EXTRN-PCR-RECORD-224    PIC X(224).                      PPAPTRSR
005000     05  FILLER                  PIC X(800).                      PPAPTRSR
005100                                                                  PPAPTRSR
005200 01  UCCOMMON   EXTERNAL.                                         PPAPTRSR
005300     COPY UCCOMMON.                                               PPAPTRSR
005400                                                                  PPAPTRSR
005500 01  UCPIROSR   EXTERNAL.                                         PPAPTRSR
005600     COPY UCPIROSR.                                               PPAPTRSR
005800                                                                  PPAPTRSR
005900 01  CPWSWORK   EXTERNAL.                                         PPAPTRSR
006000     COPY CPWSWORK.                                               PPAPTRSR
006100                                                                  PPAPTRSR
006110 01  CPWSPTRW   EXTERNAL.                                         PPAPTRSR
006120     COPY CPWSPTRW.                                               PPAPTRSR
006130                                                                  PPAPTRSR
006140 01  CPWSTRIF   EXTERNAL.                                         PPAPTRSR
006150     COPY CPWSTRIF.                                               PPAPTRSR
006160                                                                  PPAPTRSR
006161 01  CCWSTHFT   EXTERNAL.                                         PPAPTRSR
006172*****05  FILLER                PIC X(3072).                       32021138
006173     05  FILLER                PIC X(3414).                       32021138
006182                                                                  PPAPTRSR
006192 01  CCWSTHFT-DATA  REDEFINES CCWSTHFT.                           PPAPTRSR
006202     02  EDIT-TRAN OCCURS 19 TIMES.                               PPAPTRSR
006212         05  FILLER              PIC X(02).                       PPAPTRSR
006222         05  EDIT-TRAN-ID        PIC X(9).                        PPAPTRSR
006232         05  FILLER              REDEFINES                        PPAPTRSR
006242             EDIT-TRAN-ID.                                        PPAPTRSR
006252             10  EDIT-ACTN-CD    PIC X.                           PPAPTRSR
006262             10  EDIT-SEQ-NO9    PIC 9(5).                        PPAPTRSR
006272             10  EDIT-ID-FILL    PIC X(3).                        PPAPTRSR
006282         05  EDIT-TRAN-CD        PIC XX.                          PPAPTRSR
006292         05  EDIT-TRAN-IMAGE.                                     PPAPTRSR
006302*****        10  EDIT-TRAN-FILLER-ORG PIC X(69).                  32021138
006303             10  EDIT-TRAN-FILLER-ORG PIC X(87).                  32021138
006312             10  EDIT-TRAN-FILLER-OP  PIC X(02).                  PPAPTRSR
006322             10  EDIT-TRAN-FILLER-COS PIC X(20).                  PPAPTRSR
006332     02  CCWSTHFT-AUDIT-DATA.                                     PPAPTRSR
006342         05 PAY-PROCESS-ID       PIC X(08).                       PPAPTRSR
006352         05 PAY-CYCLE-END-DATE   PIC X(10).                       PPAPTRSR
006362         05 PAY-CYCLE-CODE       PIC X(02).                       PPAPTRSR
006372         05 CCWSTHFT-RETURN-CD   PIC 9(02).                       PPAPTRSR
006382            88 CCWSTHFT-RETURN-OK       VALUE ZERO.               PPAPTRSR
006392            88 CCWSTHFT-RETURN-ABORT    VALUE 1.                  PPAPTRSR
006402         05 CCWSTHFT-RETURN-REF  PIC X(79).                       PPAPTRSR
006412         05 CHANGED-BY           PIC X(08).                       PPAPTRSR
006422         05 CHANGED-AT           PIC X(26).                       PPAPTRSR
006432         05 CCWSTHFT-EXIST-CNT   PIC 9(04) COMP.                  PPAPTRSR
006442     02  ATSIGN-IND              PIC X(01)                        PPAPTRSR
006452                   OCCURS 19 TIMES.                               PPAPTRSR
006462     02  CCWSTHFT-DIST-NUMS-WRK.                                  PPAPTRSR
006472         05 CCWSTHFT-DIST-NUM    PIC X(02)                        PPAPTRSR
006482                       OCCURS 19 TIMES.                           PPAPTRSR
006492     02  CCWSTHFT-TIMES-WRK.                                      PPAPTRSR
006502         05 CCWSTHFT-CHANGED-AT  PIC X(26)                        PPAPTRSR
006512                       OCCURS 19 TIMES.                           PPAPTRSR
006522     02  CCWSTHFT-FILLER-AREA.                                    PPAPTRSR
006532         05  FILLER              PIC X(408).                      PPAPTRSR
006542                                                                  PPAPTRSR
006552 01  FILLER REDEFINES CCWSTHFT.                                   PPAPTRSR
006562*          "LX" "RX" "AP" "TE" "TX"                               PPAPTRSR
006572     02  CCWSTHFT-ITEM OCCURS 19 TIMES.                           PPAPTRSR
006582         05  HIGHEST-SEV      PIC 9(01).                          PPAPTRSR
006592         05  LINE-COMMAND     PIC X(01).                          PPAPTRSR
006602             88  LINE-COMMAND-ADD          VALUE 'A'.             PPAPTRSR
006612             88  LINE-COMMAND-BLOCK        VALUE 'B'.             PPAPTRSR
006622             88  LINE-COMMAND-CHANGE       VALUE 'C'.             PPAPTRSR
006632             88  LINE-COMMAND-DELETE       VALUE 'D'.             PPAPTRSR
006642                                   COPY CPWSXTAT.                 PPAPTRSR
006652     02  FILLER              PIC X(1096).                         PPAPTRSR
006662                                                                  PPAPTRSR
006672 01  FILLER REDEFINES CCWSTHFT.                                   PPAPTRSR
006682*          "FT" "RA" "ST"                                         PPAPTRSR
006692     02  CCWSTHFT-ITEM OCCURS 19 TIMES.                           PPAPTRSR
006702         05  FILLER           PIC X(02).                          PPAPTRSR
006712                                   COPY CPWSXC2T.                 PPAPTRSR
006722     02  FILLER              PIC X(1096).                         PPAPTRSR
006732                                                                  PPAPTRSR
006742 01  FILLER REDEFINES CCWSTHFT.                                   PPAPTRSR
006752*    XC3T-TRAN-IMAGE       >>>> "PS"                              PPAPTRSR
006762*    XC3T-TRAN-IMAGE       >>>> "DS"                              PPAPTRSR
006772*    XC3T-TRAN-IMAGE       >>>> "RF"                              PPAPTRSR
006782*    XC3T-TRAN-IMAGE       >>>> "HA"                              PPAPTRSR
006792*    XC3T-LV-TRAN-IMAGE    >>>> "LA"                              PPAPTRSR
006802*    XC3T-DA-TRAN-IMAGE    >>>> "DA"                              PPAPTRSR
006812     02  CCWSTHFT-ITEM OCCURS 19 TIMES.                           PPAPTRSR
006822         05  FILLER           PIC X(02).                          PPAPTRSR
006832                                   COPY CPWSXC3T.                 PPAPTRSR
006842     02  FILLER              PIC X(1096).                         PPAPTRSR
006852                                                                  PPAPTRSR
006862 01  FILLER REDEFINES CCWSTHFT.                                   PPAPTRSR
006872*          "SB" "UB"                                              PPAPTRSR
006882     02  CCWSTHFT-ITEM OCCURS 19 TIMES.                           PPAPTRSR
006892         05  FILLER           PIC X(02).                          PPAPTRSR
006902                                   COPY CPWSXSUB.                 PPAPTRSR
006912     02  FILLER              PIC X(1096).                         PPAPTRSR
006922                                                                  PPAPTRSR
006932 01  CCWSTHFH   EXTERNAL.                                         PPAPTRSR
006942*****05  FILLER                PIC X(3072).                       32021138
006943     05  FILLER                PIC X(3414).                       32021138
006952                                                                  PPAPTRSR
006962 01  CCWSTHFH-DATA REDEFINES CCWSTHFH.                            PPAPTRSR
006972     02  EDIT-TRAN-HOLD OCCURS 19 TIMES.                          PPAPTRSR
006982         05  FILLER              PIC X(02).                       PPAPTRSR
006992         05  EDIT-TRAN-ID        PIC X(9).                        PPAPTRSR
007002         05  FILLER              REDEFINES                        PPAPTRSR
007012             EDIT-TRAN-ID.                                        PPAPTRSR
007022             10  EDIT-ACTN-CD    PIC X.                           PPAPTRSR
007032             10  EDIT-SEQ-NO9    PIC 9(5).                        PPAPTRSR
007042             10  EDIT-ID-FILL    PIC X(3).                        PPAPTRSR
007052         05  EDIT-TRAN-CD        PIC XX.                          PPAPTRSR
007062         05  EDIT-TRAN-IMAGE.                                     PPAPTRSR
007072*****        10  EDIT-TRAN-FILLER-ORG PIC X(69).                  32021138
007073             10  EDIT-TRAN-FILLER-ORG PIC X(87).                  32021138
007082             10  EDIT-TRAN-FILLER-OP  PIC X(02).                  PPAPTRSR
007092             10  EDIT-TRAN-FILLER-COS PIC X(20).                  PPAPTRSR
007102     02  CCWSTHFH-AUDIT-DATA.                                     PPAPTRSR
007112         05 FILLER               PIC X(135).                      PPAPTRSR
007122         05 CCWSTHFH-EXIST-CNT   PIC 9(04) COMP.                  PPAPTRSR
007132     02  HOLD-ATSIGN-IND         PIC X(01)                        PPAPTRSR
007142                   OCCURS 19 TIMES.                               PPAPTRSR
007152     02  CCWSTHFH-FILLER-AREA.                                    PPAPTRSR
007162         05  FILLER              PIC X(940).                      PPAPTRSR
007172                                                                  PPAPTRSR
007182 01  FILLER REDEFINES CCWSTHFH.                                   PPAPTRSR
007192*          "LX" "RX" "AP" "TE" "TX"                               PPAPTRSR
007202     02  CCWSTHFH-ITEM-HOLD OCCURS 19 TIMES.                      PPAPTRSR
007212         05  FILLER           PIC X(01).                          PPAPTRSR
007222         05  LINE-COMMAND     PIC X(01).                          PPAPTRSR
007232                                   COPY CPWSXTAT.                 PPAPTRSR
007242     02  FILLER              PIC X(1096).                         PPAPTRSR
007252                                                                  PPAPTRSR
007262 01  FILLER REDEFINES CCWSTHFH.                                   PPAPTRSR
007272*          "FT" "RA" "ST"                                         PPAPTRSR
007282     02  CCWSTHFH-ITEM-HOLD OCCURS 19 TIMES.                      PPAPTRSR
007292         05  FILLER           PIC X(02).                          PPAPTRSR
007302                                   COPY CPWSXC2T.                 PPAPTRSR
007312     02  FILLER              PIC X(1096).                         PPAPTRSR
007322                                                                  PPAPTRSR
007332 01  FILLER REDEFINES CCWSTHFH.                                   PPAPTRSR
007342*    XC3T-TRAN-IMAGE       >>>> "PS"                              PPAPTRSR
007352*    XC3T-TRAN-IMAGE       >>>> "DS"                              PPAPTRSR
007362*    XC3T-TRAN-IMAGE       >>>> "RF"                              PPAPTRSR
007372*    XC3T-TRAN-IMAGE       >>>> "HA"                              PPAPTRSR
007382*    XC3T-LV-TRAN-IMAGE    >>>> "LA"                              PPAPTRSR
007392*    XC3T-DA-TRAN-IMAGE    >>>> "DA"                              PPAPTRSR
007402     02  CCWSTHFH-ITEM-HOLD OCCURS 19 TIMES.                      PPAPTRSR
007412         05  FILLER           PIC X(02).                          PPAPTRSR
007422                                   COPY CPWSXC3T.                 PPAPTRSR
007432     02  FILLER              PIC X(1096).                         PPAPTRSR
007442                                                                  PPAPTRSR
007452 01  FILLER REDEFINES CCWSTHFH.                                   PPAPTRSR
007462*          "SB" "UB"                                              PPAPTRSR
007472     02  CCWSTHFH-ITEM-HOLD OCCURS 19 TIMES.                      PPAPTRSR
007482         05  FILLER           PIC X(02).                          PPAPTRSR
007492                                   COPY CPWSXSUB.                 PPAPTRSR
007502     02  FILLER              PIC X(1096).                         PPAPTRSR
007512                                                                  PPAPTRSR
007522 01  THMS-MESSAGES          EXTERNAL.                             PPAPTRSR
007532     COPY CPWSTHMS.                                               PPAPTRSR
007542                                                                  PPAPTRSR
007552 01  CPWSKEYS   EXTERNAL.                                         PPAPTRSR
007562     COPY CPWSKEYS.                                               PPAPTRSR
007572                                                                  PPAPTRSR
008700 01  UCWSABND    EXTERNAL.                                        PPAPTRSR
008800     COPY UCWSABND.                                               PPAPTRSR
008900                                                                  PPAPTRSR
009900 LINKAGE SECTION.                                                 PPAPTRSR
010000                                                                  PPAPTRSR
010100     EJECT                                                        PPAPTRSR
010200                                                                  PPAPTRSR
010300 PROCEDURE DIVISION.                                              PPAPTRSR
010400                                                                  PPAPTRSR
010500 0000-MAIN-LINE   SECTION.                                        PPAPTRSR
010600**************************************************************    PPAPTRSR
010700*  MAIN LINE PROCESSING SECTION                              *    PPAPTRSR
010800*  PERFORM STORE OR RESTORE FUNCTIONS DEPENDING ON REQUEST   *    PPAPTRSR
010900*  CODE.                                                     *    PPAPTRSR
011000*  IF LOGICAL FUNCTION IS CANCEL, IT IS A REQUEST TO         *    PPAPTRSR
011100*  RESTORE THE EDB FROM THE HOLD VERSION.                    *    PPAPTRSR
011200*                                                            *    PPAPTRSR
011300*  THE FOLLOWING CONVENTIONS ARE USED FOR TEMP STORAGE QUEUE *    PPAPTRSR
011400*  NAMES: SSXYTTTT WHERE:                                    *    PPAPTRSR
011500*    SS = SUBSYSTEM ID PASSED FROM UCROUTER                  *    PPAPTRSR
011600*    X  = NESTING LEVEL PASSED FROM UCROUTER                 *    PPAPTRSR
011700*    Y  = QUEUE IDENTIFIER                                   *    PPAPTRSR
011800*    TTTT = TERMINAL ID                                      *    PPAPTRSR
011900*                                                            *    PPAPTRSR
012000**************************************************************    PPAPTRSR
012100                                                                  PPAPTRSR
012200                                                                  PPAPTRSR
012300     MOVE ZERO TO UCCOMMON-RETURN-CODE.                           PPAPTRSR
012400                                                                  PPAPTRSR
012500     IF UCCOMMON-STORE-DATA                                       PPAPTRSR
012600        PERFORM 1000-STORE-DATA                                   PPAPTRSR
012700     ELSE                                                         PPAPTRSR
012800        PERFORM 2000-RESTORE-DATA                                 PPAPTRSR
012900        MOVE SPACES TO CPWSWORK-DONT-OVERRIDE-MSG-SW              PPAPTRSR
013000     END-IF.                                                      PPAPTRSR
013100                                                                  PPAPTRSR
013200     GOBACK.                                                      PPAPTRSR
013300                                                                  PPAPTRSR
013400 0000-EXIT.                                                       PPAPTRSR
013500     EXIT.                                                        PPAPTRSR
013600                                                                  PPAPTRSR
013700     EJECT                                                        PPAPTRSR
013800                                                                  PPAPTRSR
013900 1000-STORE-DATA   SECTION.                                       PPAPTRSR
014000**************************************************************    PPAPTRSR
014100*  STORE EXTERNAL AREAS IN TEMP STORAGE                      *    PPAPTRSR
014200**************************************************************    PPAPTRSR
014300                                                                  PPAPTRSR
014400     MOVE EIBTRMID TO TS-QUEUE-TERMID.                            PPAPTRSR
014500                                                                  PPAPTRSR
014600     MOVE UCCOMMON-SUBSYSTEM-ID TO TS-QUEUE-NAME-SS.              PPAPTRSR
014610     MOVE UCPIROSR-NESTED-FUNCTION-SW TO TS-QUEUE-NAME-N1.        PPAPTRSR
014800                                                                  PPAPTRSR
014900**************************************************************    PPAPTRSR
015000*  QUEUE 1 CONTAINS MISC EXTERNAL DATA                       *    PPAPTRSR
015100**************************************************************    PPAPTRSR
015200     MOVE 1 TO TS-QUEUE-NAME-N2.                                  PPAPTRSR
015300                                                                  PPAPTRSR
015400     PERFORM 1100-INITIALIZE-QUEUE.                               PPAPTRSR
015500                                                                  PPAPTRSR
015600     MOVE 1 TO TS-QUEUE-ITEM.                                     PPAPTRSR
015700     MOVE LENGTH OF CPWSWORK TO TS-QUEUE-LENGTH.                  PPAPTRSR
015800                                                                  PPAPTRSR
015900     EXEC CICS                                                    PPAPTRSR
016000          WRITEQ                                                  PPAPTRSR
016100          QUEUE  (TS-QUEUE-ID)                                    PPAPTRSR
016200          FROM   (CPWSWORK)                                       PPAPTRSR
016300          ITEM   (TS-QUEUE-ITEM)                                  PPAPTRSR
016400          LENGTH (TS-QUEUE-LENGTH)                                PPAPTRSR
016500          NOHANDLE                                                PPAPTRSR
016600          RESP   (WS-RESP)                                        PPAPTRSR
016700     END-EXEC.                                                    PPAPTRSR
016800                                                                  PPAPTRSR
016900     IF WS-RESP NOT = DFHRESP(NORMAL)                             PPAPTRSR
017000        PERFORM 9999-ABEND                                        PPAPTRSR
017100     END-IF.                                                      PPAPTRSR
017200                                                                  PPAPTRSR
017300     MOVE 2 TO TS-QUEUE-ITEM.                                     PPAPTRSR
017400     MOVE LENGTH OF CPWSKEYS TO TS-QUEUE-LENGTH.                  PPAPTRSR
017500                                                                  PPAPTRSR
017600     EXEC CICS                                                    PPAPTRSR
017700          WRITEQ                                                  PPAPTRSR
017800          QUEUE  (TS-QUEUE-ID)                                    PPAPTRSR
017900          FROM   (CPWSKEYS)                                       PPAPTRSR
018000          ITEM   (TS-QUEUE-ITEM)                                  PPAPTRSR
018100          LENGTH (TS-QUEUE-LENGTH)                                PPAPTRSR
018200          NOHANDLE                                                PPAPTRSR
018300          RESP   (WS-RESP)                                        PPAPTRSR
018400     END-EXEC.                                                    PPAPTRSR
018500                                                                  PPAPTRSR
018600     IF WS-RESP NOT = DFHRESP(NORMAL)                             PPAPTRSR
018700        PERFORM 9999-ABEND                                        PPAPTRSR
018800     END-IF.                                                      PPAPTRSR
018900                                                                  PPAPTRSR
019000     MOVE 3 TO TS-QUEUE-ITEM.                                     PPAPTRSR
019100     MOVE LENGTH OF CPWSPTRW TO TS-QUEUE-LENGTH.                  PPAPTRSR
019200                                                                  PPAPTRSR
019300     EXEC CICS                                                    PPAPTRSR
019400          WRITEQ                                                  PPAPTRSR
019500          QUEUE  (TS-QUEUE-ID)                                    PPAPTRSR
019600          FROM   (CPWSPTRW)                                       PPAPTRSR
019700          ITEM   (TS-QUEUE-ITEM)                                  PPAPTRSR
019800          LENGTH (TS-QUEUE-LENGTH)                                PPAPTRSR
019900          NOHANDLE                                                PPAPTRSR
020000          RESP   (WS-RESP)                                        PPAPTRSR
020100     END-EXEC.                                                    PPAPTRSR
020200                                                                  PPAPTRSR
020300     IF WS-RESP NOT = DFHRESP(NORMAL)                             PPAPTRSR
020400        PERFORM 9999-ABEND                                        PPAPTRSR
020500     END-IF.                                                      PPAPTRSR
020600                                                                  PPAPTRSR
020700     MOVE 4 TO TS-QUEUE-ITEM.                                     PPAPTRSR
020800     MOVE LENGTH OF CPWSTRIF TO TS-QUEUE-LENGTH.                  PPAPTRSR
020900                                                                  PPAPTRSR
021000     EXEC CICS                                                    PPAPTRSR
021100          WRITEQ                                                  PPAPTRSR
021200          QUEUE  (TS-QUEUE-ID)                                    PPAPTRSR
021300          FROM   (CPWSTRIF)                                       PPAPTRSR
021400          ITEM   (TS-QUEUE-ITEM)                                  PPAPTRSR
021500          LENGTH (TS-QUEUE-LENGTH)                                PPAPTRSR
021600          NOHANDLE                                                PPAPTRSR
021700          RESP   (WS-RESP)                                        PPAPTRSR
021800     END-EXEC.                                                    PPAPTRSR
021900                                                                  PPAPTRSR
022000     IF WS-RESP NOT = DFHRESP(NORMAL)                             PPAPTRSR
022100        PERFORM 9999-ABEND                                        PPAPTRSR
022200     END-IF.                                                      PPAPTRSR
022300                                                                  PPAPTRSR
022400     MOVE 5 TO TS-QUEUE-ITEM.                                     PPAPTRSR
022500     MOVE LENGTH OF THMS-MESSAGES TO TS-QUEUE-LENGTH.             PPAPTRSR
022600                                                                  PPAPTRSR
022700     EXEC CICS                                                    PPAPTRSR
022800          WRITEQ                                                  PPAPTRSR
022900          QUEUE  (TS-QUEUE-ID)                                    PPAPTRSR
023000          FROM   (THMS-MESSAGES)                                  PPAPTRSR
023100          ITEM   (TS-QUEUE-ITEM)                                  PPAPTRSR
023200          LENGTH (TS-QUEUE-LENGTH)                                PPAPTRSR
023300          NOHANDLE                                                PPAPTRSR
023400          RESP   (WS-RESP)                                        PPAPTRSR
023500     END-EXEC.                                                    PPAPTRSR
023600                                                                  PPAPTRSR
023700     IF WS-RESP NOT = DFHRESP(NORMAL)                             PPAPTRSR
023800        PERFORM 9999-ABEND                                        PPAPTRSR
023900     END-IF.                                                      PPAPTRSR
024000                                                                  PPAPTRSR
024100     MOVE 6 TO TS-QUEUE-ITEM.                                     PPAPTRSR
024200     MOVE LENGTH OF CCWSTHFT TO TS-QUEUE-LENGTH.                  PPAPTRSR
024300                                                                  PPAPTRSR
024400     EXEC CICS                                                    PPAPTRSR
024500          WRITEQ                                                  PPAPTRSR
024600          QUEUE  (TS-QUEUE-ID)                                    PPAPTRSR
024700          FROM   (CCWSTHFT)                                       PPAPTRSR
024800          ITEM   (TS-QUEUE-ITEM)                                  PPAPTRSR
024900          LENGTH (TS-QUEUE-LENGTH)                                PPAPTRSR
025000          NOHANDLE                                                PPAPTRSR
025100          RESP   (WS-RESP)                                        PPAPTRSR
025200     END-EXEC.                                                    PPAPTRSR
025300                                                                  PPAPTRSR
025400     IF WS-RESP NOT = DFHRESP(NORMAL)                             PPAPTRSR
025500        PERFORM 9999-ABEND                                        PPAPTRSR
025600     END-IF.                                                      PPAPTRSR
025601                                                                  PPAPTRSR
025610     MOVE 7 TO TS-QUEUE-ITEM.                                     PPAPTRSR
025620     MOVE LENGTH OF CCWSTHFH TO TS-QUEUE-LENGTH.                  PPAPTRSR
025630                                                                  PPAPTRSR
025640     EXEC CICS                                                    PPAPTRSR
025650          WRITEQ                                                  PPAPTRSR
025660          QUEUE  (TS-QUEUE-ID)                                    PPAPTRSR
025670          FROM   (CCWSTHFH)                                       PPAPTRSR
025680          ITEM   (TS-QUEUE-ITEM)                                  PPAPTRSR
025690          LENGTH (TS-QUEUE-LENGTH)                                PPAPTRSR
025691          NOHANDLE                                                PPAPTRSR
025692          RESP   (WS-RESP)                                        PPAPTRSR
025693     END-EXEC.                                                    PPAPTRSR
025694                                                                  PPAPTRSR
025695     IF WS-RESP NOT = DFHRESP(NORMAL)                             PPAPTRSR
025696        PERFORM 9999-ABEND                                        PPAPTRSR
025697     END-IF.                                                      PPAPTRSR
025700                                                                  PPAPTRSR
025710     MOVE 8 TO TS-QUEUE-ITEM.                                     PPAPTRSR
025720     MOVE LENGTH OF EXTRN-PCR-RECORD TO TS-QUEUE-LENGTH.          PPAPTRSR
025730                                                                  PPAPTRSR
025740     EXEC CICS                                                    PPAPTRSR
025750          WRITEQ                                                  PPAPTRSR
025760          QUEUE  (TS-QUEUE-ID)                                    PPAPTRSR
025770          FROM   (EXTRN-PCR-RECORD)                               PPAPTRSR
025780          ITEM   (TS-QUEUE-ITEM)                                  PPAPTRSR
025790          LENGTH (TS-QUEUE-LENGTH)                                PPAPTRSR
025791          NOHANDLE                                                PPAPTRSR
025792          RESP   (WS-RESP)                                        PPAPTRSR
025793     END-EXEC.                                                    PPAPTRSR
025794                                                                  PPAPTRSR
025795     IF WS-RESP NOT = DFHRESP(NORMAL)                             PPAPTRSR
025796        PERFORM 9999-ABEND                                        PPAPTRSR
025797     END-IF.                                                      PPAPTRSR
025798                                                                  PPAPTRSR
025800 1000-EXIT.                                                       PPAPTRSR
025900     EXIT.                                                        PPAPTRSR
026000                                                                  PPAPTRSR
026100     EJECT                                                        PPAPTRSR
026200                                                                  PPAPTRSR
039000 1100-INITIALIZE-QUEUE   SECTION.                                 PPAPTRSR
039100**************************************************************    PPAPTRSR
039200*  DELETE THE TEMP STORAGE QUEUE, IF IT IS THERE. IF IT'S    *    PPAPTRSR
039300*  THE FIRST TIME THROUGH, WRITE THE QUEUE NAME TO THE       *    PPAPTRSR
039400*  TEMP STORAGE AUDIT QUEUE.                                 *    PPAPTRSR
039500**************************************************************    PPAPTRSR
039600                                                                  PPAPTRSR
039700     EXEC CICS                                                    PPAPTRSR
039800          DELETEQ TS                                              PPAPTRSR
039900          QUEUE (TS-QUEUE-ID)                                     PPAPTRSR
040000          NOHANDLE                                                PPAPTRSR
040100          RESP(WS-RESP)                                           PPAPTRSR
040200     END-EXEC.                                                    PPAPTRSR
040300                                                                  PPAPTRSR
040400     IF UCCOMMON-SUBSYSTEM-INIT                                   PPAPTRSR
040500      OR UCPIROSR-NESTED-FUNCTION                                 PPAPTRSR
040600        PERFORM 9000-AUDIT-TS-QUEUE                               PPAPTRSR
040700     END-IF.                                                      PPAPTRSR
040800                                                                  PPAPTRSR
040900 1100-EXIT.                                                       PPAPTRSR
041000     EXIT.                                                        PPAPTRSR
041100                                                                  PPAPTRSR
041200     EJECT                                                        PPAPTRSR
041300                                                                  PPAPTRSR
041400 2000-RESTORE-DATA   SECTION.                                     PPAPTRSR
041500**************************************************************    PPAPTRSR
041600*  READ TEMP STORAGE QUEUES AND POPULATE EXTERNAL AREAS      *    PPAPTRSR
041700**************************************************************    PPAPTRSR
041800     EXEC CICS                                                    PPAPTRSR
041900          ENQ                                                     PPAPTRSR
042000          RESOURCE(WS-ENQ-NAME)                                   PPAPTRSR
042100          LENGTH  (LENGTH OF WS-ENQ-NAME)                         PPAPTRSR
042200          NOHANDLE                                                PPAPTRSR
042300          RESP (WS-RESP)                                          PPAPTRSR
042400     END-EXEC.                                                    PPAPTRSR
042500                                                                  PPAPTRSR
042600     EXEC CICS                                                    PPAPTRSR
042700          DEQ                                                     PPAPTRSR
042800          RESOURCE(WS-ENQ-NAME)                                   PPAPTRSR
042900          LENGTH  (LENGTH OF WS-ENQ-NAME)                         PPAPTRSR
043000          NOHANDLE                                                PPAPTRSR
043100          RESP (WS-RESP)                                          PPAPTRSR
043200     END-EXEC.                                                    PPAPTRSR
043300                                                                  PPAPTRSR
043400     MOVE EIBTRMID TO TS-QUEUE-TERMID.                            PPAPTRSR
043500                                                                  PPAPTRSR
043600     MOVE UCCOMMON-SUBSYSTEM-ID TO TS-QUEUE-NAME-SS.              PPAPTRSR
043610     MOVE UCPIROSR-NESTED-FUNCTION-SW TO TS-QUEUE-NAME-N1.        PPAPTRSR
043800                                                                  PPAPTRSR
043900**************************************************************    PPAPTRSR
044000*  QUEUE 1 CONTAINS THE MISC NON-EDB EXTERNAL DATA           *    PPAPTRSR
044100**************************************************************    PPAPTRSR
044200     MOVE 1 TO TS-QUEUE-NAME-N2.                                  PPAPTRSR
044300                                                                  PPAPTRSR
044400     MOVE 1 TO TS-QUEUE-ITEM.                                     PPAPTRSR
044500                                                                  PPAPTRSR
044600     EXEC CICS                                                    PPAPTRSR
044700          READQ                                                   PPAPTRSR
044800          QUEUE  (TS-QUEUE-ID)                                    PPAPTRSR
044900          INTO   (CPWSWORK)                                       PPAPTRSR
045000          ITEM   (TS-QUEUE-ITEM)                                  PPAPTRSR
045100          NOHANDLE                                                PPAPTRSR
045200          RESP   (WS-RESP)                                        PPAPTRSR
045300     END-EXEC.                                                    PPAPTRSR
045400                                                                  PPAPTRSR
045500     IF WS-RESP = DFHRESP(NORMAL)                                 PPAPTRSR
045600        CONTINUE                                                  PPAPTRSR
045700     ELSE                                                         PPAPTRSR
045800        PERFORM 9999-ABEND                                        PPAPTRSR
045900     END-IF.                                                      PPAPTRSR
046000                                                                  PPAPTRSR
046100     MOVE 2 TO TS-QUEUE-ITEM.                                     PPAPTRSR
046200                                                                  PPAPTRSR
046300     EXEC CICS                                                    PPAPTRSR
046400          READQ                                                   PPAPTRSR
046500          QUEUE  (TS-QUEUE-ID)                                    PPAPTRSR
046600          INTO   (CPWSKEYS)                                       PPAPTRSR
046700          ITEM   (TS-QUEUE-ITEM)                                  PPAPTRSR
046800          NOHANDLE                                                PPAPTRSR
046900          RESP   (WS-RESP)                                        PPAPTRSR
047000     END-EXEC.                                                    PPAPTRSR
047100                                                                  PPAPTRSR
047200     IF WS-RESP = DFHRESP(NORMAL)                                 PPAPTRSR
047300        CONTINUE                                                  PPAPTRSR
047400     ELSE                                                         PPAPTRSR
047500        PERFORM 9999-ABEND                                        PPAPTRSR
047600     END-IF.                                                      PPAPTRSR
047700                                                                  PPAPTRSR
047710     MOVE 3 TO TS-QUEUE-ITEM.                                     PPAPTRSR
047720                                                                  PPAPTRSR
047730     EXEC CICS                                                    PPAPTRSR
047740          READQ                                                   PPAPTRSR
047750          QUEUE  (TS-QUEUE-ID)                                    PPAPTRSR
047760          INTO   (CPWSPTRW)                                       PPAPTRSR
047770          ITEM   (TS-QUEUE-ITEM)                                  PPAPTRSR
047780          NOHANDLE                                                PPAPTRSR
047790          RESP   (WS-RESP)                                        PPAPTRSR
047791     END-EXEC.                                                    PPAPTRSR
047792                                                                  PPAPTRSR
047793     IF WS-RESP = DFHRESP(NORMAL)                                 PPAPTRSR
047794        CONTINUE                                                  PPAPTRSR
047795     ELSE                                                         PPAPTRSR
047796        PERFORM 9999-ABEND                                        PPAPTRSR
047797     END-IF.                                                      PPAPTRSR
047798                                                                  PPAPTRSR
047800     MOVE 4 TO TS-QUEUE-ITEM.                                     PPAPTRSR
047810                                                                  PPAPTRSR
047900     EXEC CICS                                                    PPAPTRSR
048000          READQ                                                   PPAPTRSR
048100          QUEUE  (TS-QUEUE-ID)                                    PPAPTRSR
048200          INTO   (CPWSTRIF)                                       PPAPTRSR
048300          ITEM   (TS-QUEUE-ITEM)                                  PPAPTRSR
048400          NOHANDLE                                                PPAPTRSR
048500          RESP   (WS-RESP)                                        PPAPTRSR
048600     END-EXEC.                                                    PPAPTRSR
048700                                                                  PPAPTRSR
048800     IF WS-RESP = DFHRESP(NORMAL)                                 PPAPTRSR
048900        CONTINUE                                                  PPAPTRSR
049000     ELSE                                                         PPAPTRSR
049100        PERFORM 9999-ABEND                                        PPAPTRSR
049200     END-IF.                                                      PPAPTRSR
049300                                                                  PPAPTRSR
049400     MOVE 5 TO TS-QUEUE-ITEM.                                     PPAPTRSR
049500                                                                  PPAPTRSR
049600     EXEC CICS                                                    PPAPTRSR
049700          READQ                                                   PPAPTRSR
049800          QUEUE  (TS-QUEUE-ID)                                    PPAPTRSR
049900          INTO   (THMS-MESSAGES)                                  PPAPTRSR
050000          ITEM   (TS-QUEUE-ITEM)                                  PPAPTRSR
050100          NOHANDLE                                                PPAPTRSR
050200          RESP   (WS-RESP)                                        PPAPTRSR
050300     END-EXEC.                                                    PPAPTRSR
050400                                                                  PPAPTRSR
050500     IF WS-RESP = DFHRESP(NORMAL)                                 PPAPTRSR
050600        CONTINUE                                                  PPAPTRSR
050700     ELSE                                                         PPAPTRSR
050800        PERFORM 9999-ABEND                                        PPAPTRSR
050900     END-IF.                                                      PPAPTRSR
051000                                                                  PPAPTRSR
051100     MOVE 6 TO TS-QUEUE-ITEM.                                     PPAPTRSR
051200                                                                  PPAPTRSR
051300     EXEC CICS                                                    PPAPTRSR
051400          READQ                                                   PPAPTRSR
051500          QUEUE  (TS-QUEUE-ID)                                    PPAPTRSR
051600          INTO   (CCWSTHFT)                                       PPAPTRSR
051700          ITEM   (TS-QUEUE-ITEM)                                  PPAPTRSR
051800          NOHANDLE                                                PPAPTRSR
051900          RESP   (WS-RESP)                                        PPAPTRSR
052000     END-EXEC.                                                    PPAPTRSR
052100                                                                  PPAPTRSR
052200     IF WS-RESP = DFHRESP(NORMAL)                                 PPAPTRSR
052300        CONTINUE                                                  PPAPTRSR
052400     ELSE                                                         PPAPTRSR
052500        PERFORM 9999-ABEND                                        PPAPTRSR
052600     END-IF.                                                      PPAPTRSR
052700                                                                  PPAPTRSR
052800     MOVE 7 TO TS-QUEUE-ITEM.                                     PPAPTRSR
052900                                                                  PPAPTRSR
053000     EXEC CICS                                                    PPAPTRSR
053100          READQ                                                   PPAPTRSR
053200          QUEUE  (TS-QUEUE-ID)                                    PPAPTRSR
053300          INTO   (CCWSTHFH)                                       PPAPTRSR
053400          ITEM   (TS-QUEUE-ITEM)                                  PPAPTRSR
053500          NOHANDLE                                                PPAPTRSR
053600          RESP   (WS-RESP)                                        PPAPTRSR
053700     END-EXEC.                                                    PPAPTRSR
053800                                                                  PPAPTRSR
053900     IF WS-RESP = DFHRESP(NORMAL)                                 PPAPTRSR
054000        CONTINUE                                                  PPAPTRSR
054100     ELSE                                                         PPAPTRSR
054200        PERFORM 9999-ABEND                                        PPAPTRSR
054300     END-IF.                                                      PPAPTRSR
054400                                                                  PPAPTRSR
054500     MOVE 8 TO TS-QUEUE-ITEM.                                     PPAPTRSR
054600                                                                  PPAPTRSR
054700     EXEC CICS                                                    PPAPTRSR
054800          READQ                                                   PPAPTRSR
054900          QUEUE  (TS-QUEUE-ID)                                    PPAPTRSR
055000          INTO   (EXTRN-PCR-RECORD)                               PPAPTRSR
055100          ITEM   (TS-QUEUE-ITEM)                                  PPAPTRSR
055200          NOHANDLE                                                PPAPTRSR
055300          RESP   (WS-RESP)                                        PPAPTRSR
055400     END-EXEC.                                                    PPAPTRSR
055500                                                                  PPAPTRSR
055600     IF WS-RESP = DFHRESP(NORMAL)                                 PPAPTRSR
055700        CONTINUE                                                  PPAPTRSR
055800     ELSE                                                         PPAPTRSR
055900        PERFORM 9999-ABEND                                        PPAPTRSR
056000     END-IF.                                                      PPAPTRSR
056100                                                                  PPAPTRSR
067700 2100-DELETE-QUEUE   SECTION.                                     PPAPTRSR
067800**************************************************************    PPAPTRSR
067900***DELETE THE TEMP STORAGE QUEUE                             *    PPAPTRSR
068000**************************************************************    PPAPTRSR
068100                                                                  PPAPTRSR
068200     EXEC CICS                                                    PPAPTRSR
068300          DELETEQ TS                                              PPAPTRSR
068400          QUEUE (TS-QUEUE-ID)                                     PPAPTRSR
068500          NOHANDLE                                                PPAPTRSR
068600          RESP(WS-RESP)                                           PPAPTRSR
068700     END-EXEC.                                                    PPAPTRSR
068800                                                                  PPAPTRSR
068900 2100-EXIT.                                                       PPAPTRSR
069000     EXIT.                                                        PPAPTRSR
069100                                                                  PPAPTRSR
069200     EJECT                                                        PPAPTRSR
069300                                                                  PPAPTRSR
069400                                                                  PPAPTRSR
069500 9000-AUDIT-TS-QUEUE   SECTION.                                   PPAPTRSR
069600**************************************************************    PPAPTRSR
069700*  WRITE THE TEMP STORAGE AUDIT QUEUE CONTAINING THE NAME    *    PPAPTRSR
069800*  OF A TEMP STORAGE QUEUE BEING WRITTEN.                    *    PPAPTRSR
069900**************************************************************    PPAPTRSR
070000                                                                  PPAPTRSR
070100     IF UCPIROSR-NESTED-FUNCTION                                  PPAPTRSR
070200        SET TS-AUDIT-Q-VAR-NESTED TO TRUE                         PPAPTRSR
070300     ELSE                                                         PPAPTRSR
070400        SET TS-AUDIT-Q-VAR-REGULAR TO TRUE                        PPAPTRSR
070500     END-IF.                                                      PPAPTRSR
070600                                                                  PPAPTRSR
070700     MOVE UCCOMMON-SUBSYSTEM-ID TO TS-AUDIT-Q-SS-NAME.            PPAPTRSR
070800     MOVE EIBTRMID TO TS-AUDIT-Q-TERM-ID.                         PPAPTRSR
070900     MOVE TS-QUEUE-ID TO TS-AUDIT-Q-QUEUE-NAME.                   PPAPTRSR
071000                                                                  PPAPTRSR
071100     EXEC CICS                                                    PPAPTRSR
071200          WRITEQ TS                                               PPAPTRSR
071300          QUEUE  (TS-AUDIT-QUEUE-ID)                              PPAPTRSR
071400          FROM   (TS-AUDIT-QUEUE-DATA)                            PPAPTRSR
071500          LENGTH (TS-AUDIT-QUEUE-LENGTH)                          PPAPTRSR
071600          NOHANDLE                                                PPAPTRSR
071700          RESP   (WS-RESP)                                        PPAPTRSR
071800     END-EXEC.                                                    PPAPTRSR
071900                                                                  PPAPTRSR
072000     IF WS-RESP NOT = DFHRESP(NORMAL)                             PPAPTRSR
072100        PERFORM 9999-ABEND                                        PPAPTRSR
072200     END-IF.                                                      PPAPTRSR
072300                                                                  PPAPTRSR
072400 9000-EXIT.                                                       PPAPTRSR
072500     EXIT.                                                        PPAPTRSR
072600                                                                  PPAPTRSR
072700     EJECT                                                        PPAPTRSR
072800                                                                  PPAPTRSR
072900 9999-ABEND    SECTION.                                           PPAPTRSR
073000**************************************************************    PPAPTRSR
073100*  COPIED PROCEDURE DIVISION CODE                            *    PPAPTRSR
073200**************************************************************    PPAPTRSR
073300                                                                  PPAPTRSR
073400     MOVE 'PPAPTRSR' TO UCWSABND-ABENDING-PGM.                    PPAPTRSR
073500                                                                  PPAPTRSR
073600     COPY UCPDABND.                                               PPAPTRSR
073700                                                                  PPAPTRSR
073800 9999-EXIT.                                                       PPAPTRSR
073900     EXIT.                                                        PPAPTRSR
074000                                                                  PPAPTRSR
074100     EXIT.                                                        PPAPTRSR
074200                                                                  PPAPTRSR
074300***************    END OF SOURCE - PPAPTRSR    *******************PPAPTRSR
