000100**************************************************************/   32031184
000200*  PROGRAM: PPAPDPFH                                         */   32031184
000300*  RELEASE # ___1184___   SERVICE REQUEST NO(S)____13203_____*/   32031184
000400*  NAME __SRS__________   MODIFICATION DATE ____01/07/98_____*/   32031184
000500*  DESCRIPTION                                               */   32031184
000600*    DEPARTMENTAL PAR INQUIRY HEADER/FOOTER FORMAT PROGRAM   */   32031184
000800**************************************************************/   32031184
000900 IDENTIFICATION DIVISION.                                         PPAPDPFH
001000 PROGRAM-ID. PPAPDPFH.                                            PPAPDPFH
001100 ENVIRONMENT DIVISION.                                            PPAPDPFH
001200 CONFIGURATION SECTION.                                           PPAPDPFH
001300 SOURCE-COMPUTER.                                                 PPAPDPFH
001400 COPY  CPOTXUCS.                                                  PPAPDPFH
001500 DATA DIVISION.                                                   PPAPDPFH
001600 WORKING-STORAGE SECTION.                                         PPAPDPFH
001700 01  WS-COMN.                                                     PPAPDPFH
001800   05  WS-START                          PIC X(27) VALUE          PPAPDPFH
001900       'WORKING STORAGE STARTS HERE'.                             PPAPDPFH
002000   05  WS-SS-CTR                         PIC 9(02) VALUE ZERO.    PPAPDPFH
002100   05  WS-SS-CTR-2                       PIC 9(02) VALUE ZERO.    PPAPDPFH
002200   05  WS-FN-CTR                         PIC 9(02) VALUE ZERO.    PPAPDPFH
002300   05  WS-FN-CTR-2                       PIC 9(02) VALUE ZERO.    PPAPDPFH
002400   05  WS-PPPVREDO                       PIC X(08)                PPAPDPFH
002500                                             VALUE 'PPPVREDO'.    PPAPDPFH
002600   05  WS-FOOTER-FUNC                    PIC X(04) VALUE SPACES.  PPAPDPFH
002700   05  WS-FOOTER-EMP-ID                  PIC X(09) VALUE SPACES.  PPAPDPFH
002800   05  WS-FOOTER-EMP-NAME                PIC X(26) VALUE SPACES.  PPAPDPFH
002900   05  WS-FOOTER-EMP-SSN                 PIC X(09) VALUE SPACES.  PPAPDPFH
003000   05  WS-FOOTER-PAY-CYCLE               PIC X(02) VALUE SPACES.  PPAPDPFH
003100   05  WS-FOOTER-CHECK-DATE              PIC X(06) VALUE SPACES.  PPAPDPFH
003200   05  WS-HEADER-SW                      PIC X(01) VALUE SPACE.   PPAPDPFH
003300       88  WS-USE-DETAIL-HEADER-1                  VALUE '1'.     PPAPDPFH
003400       88  WS-USE-DETAIL-HEADER-2                  VALUE '2'.     PPAPDPFH
003500       88  WS-USE-DETAIL-HEADER-3                  VALUE '3'.     PPAPDPFH
003600       88  WS-USE-MENU-HEADER                      VALUE '4'.     PPAPDPFH
003700                                                                  PPAPDPFH
003800 01  WS-DATE-CONV.                                                PPAPDPFH
003900     COPY CPWSXDTZ.                                               PPAPDPFH
004000                                                                  PPAPDPFH
004100 01  PPDB2MSG-INTERFACE.                                          PPAPDPFH
004200     COPY CPLNKDB2.                                               PPAPDPFH
004300 01  UCHDRARE  EXTERNAL.                                          PPAPDPFH
004400     COPY UCHDRARE.                                               PPAPDPFH
004500 01  WS-PPDPHD0 REDEFINES UCHDRARE.                               PPAPDPFH
004600     COPY PPDPHD0.                                                PPAPDPFH
004700 01  WS-PPD3HD0 REDEFINES UCHDRARE.                               PPAPDPFH
004800     COPY PPD3HD0.                                                PPAPDPFH
004900 01  WS-PPD2HD0 REDEFINES UCHDRARE.                               PPAPDPFH
005000     COPY PPD2HD0.                                                PPAPDPFH
005100 01  WS-UCFMHD0 REDEFINES UCHDRARE.                               PPAPDPFH
005200     COPY UCFMHD0.                                                PPAPDPFH
005300 01  UCFTRARE  EXTERNAL.                                          PPAPDPFH
005400     COPY UCFTRARE.                                               PPAPDPFH
005500 01  WS-PPDPFT0 REDEFINES UCFTRARE.                               PPAPDPFH
005600     COPY PPDPFT0.                                                PPAPDPFH
005700 01  UCCOMMON   EXTERNAL.                                         PPAPDPFH
005800     COPY UCCOMMON.                                               PPAPDPFH
005900 01  UCPISCRN   EXTERNAL.                                         PPAPDPFH
006000     COPY UCPISCRN.                                               PPAPDPFH
006100 01  UCPIROFH   EXTERNAL.                                         PPAPDPFH
006200     COPY UCPIROFH.                                               PPAPDPFH
006300 01  CPWSDEED   EXTERNAL.                                         PPAPDPFH
006400     COPY CPWSDEED.                                               PPAPDPFH
006500 01  CPWSWORK   EXTERNAL.                                         PPAPDPFH
006600     COPY CPWSWORK.                                               PPAPDPFH
006700 01  UCWSABND    EXTERNAL.                                        PPAPDPFH
006800     COPY UCWSABND.                                               PPAPDPFH
006900******************************************************************PPAPDPFH
007000*          SQL - WORKING STORAGE                                 *PPAPDPFH
007100******************************************************************PPAPDPFH
007200 01  EUD-ROW       EXTERNAL.                                      PPAPDPFH
007300     EXEC SQL                                                     PPAPDPFH
007400          INCLUDE PPPVZEUD                                        PPAPDPFH
007500     END-EXEC.                                                    PPAPDPFH
007600                                                                  PPAPDPFH
007700 01  HME-ROW.                                                     PPAPDPFH
007800     EXEC SQL                                                     PPAPDPFH
007900          INCLUDE PPPVZHME                                        PPAPDPFH
008000     END-EXEC.                                                    PPAPDPFH
008100                                                                  PPAPDPFH
008200     EXEC SQL                                                     PPAPDPFH
008300          INCLUDE SQLCA                                           PPAPDPFH
008400     END-EXEC.                                                    PPAPDPFH
008500                                                                  PPAPDPFH
008600 LINKAGE SECTION.                                                 PPAPDPFH
008700                                                                  PPAPDPFH
008800     EJECT                                                        PPAPDPFH
008900                                                                  PPAPDPFH
009000 PROCEDURE DIVISION.                                              PPAPDPFH
009100                                                                  PPAPDPFH
009200 0000-MAINLINE                        SECTION.                    PPAPDPFH
009300**************************************************************    PPAPDPFH
009400*  MAIN LINE PROCESSING                                      *    PPAPDPFH
009500**************************************************************    PPAPDPFH
009600                                                                  PPAPDPFH
009700     EXEC SQL                                                     PPAPDPFH
009800          INCLUDE CPPDXE99                                        PPAPDPFH
009900     END-EXEC.                                                    PPAPDPFH
010000                                                                  PPAPDPFH
010100     PERFORM 1000-INITIALIZATION.                                 PPAPDPFH
010200     PERFORM 2000-MOVE-ATTRIBUTES-TO-MAPS.                        PPAPDPFH
010300     PERFORM 3000-MOVE-DATA-TO-MAPS.                              PPAPDPFH
010400                                                                  PPAPDPFH
010500     GOBACK.                                                      PPAPDPFH
010600                                                                  PPAPDPFH
010700 0000-EXIT.                                                       PPAPDPFH
010800     EXIT.                                                        PPAPDPFH
010900                                                                  PPAPDPFH
011000     EJECT                                                        PPAPDPFH
011100                                                                  PPAPDPFH
011200 1000-INITIALIZATION                  SECTION.                    PPAPDPFH
011300**************************************************************    PPAPDPFH
011400*  INITIALIZE WORK AREAS.                                    *    PPAPDPFH
011500**************************************************************    PPAPDPFH
011600                                                                  PPAPDPFH
011700     MOVE ZERO TO UCCOMMON-RETURN-CODE.                           PPAPDPFH
011800                                                                  PPAPDPFH
011900     MOVE NEXT-FUNCI TO WS-FOOTER-FUNC.                           PPAPDPFH
012000     MOVE FTR-IDI    TO WS-FOOTER-EMP-ID.                         PPAPDPFH
012100     MOVE FTR-NAMEI  TO WS-FOOTER-EMP-NAME.                       PPAPDPFH
012200     MOVE FTR-SSNI   TO WS-FOOTER-EMP-SSN.                        PPAPDPFH
012300     MOVE FTR-NEXT-PAY-CYCLEI TO WS-FOOTER-PAY-CYCLE.             PPAPDPFH
012400     MOVE FTR-NEXT-CHECK-DATEI TO WS-FOOTER-CHECK-DATE.           PPAPDPFH
012500                                                                  PPAPDPFH
012600     MOVE LOW-VALUES TO UCHDRARE                                  PPAPDPFH
012700                        UCFTRARE.                                 PPAPDPFH
012800                                                                  PPAPDPFH
012900     IF UCCOMMON-RECORD-AUTH-VIEW                                 PPAPDPFH
013000      AND (NOT UCCOMMON-FUNC-TYPE-MENU)                           PPAPDPFH
013100      AND (NOT UCCOMMON-FUNC-TYPE-SELE)                           PPAPDPFH
013200        SET UCPISCRN-CURSOR-IN-FOOTER TO TRUE                     PPAPDPFH
013300     END-IF.                                                      PPAPDPFH
013400                                                                  PPAPDPFH
013500     EVALUATE TRUE                                                PPAPDPFH
013600       WHEN UCCOMMON-FUNCTION-TYPE = 'M'                          PPAPDPFH
013700         SET WS-USE-MENU-HEADER TO TRUE                           PPAPDPFH
013800       WHEN UCCOMMON-FUNCTION = 'IBRS'                            PPAPDPFH
013900         SET WS-USE-DETAIL-HEADER-2 TO TRUE                       PPAPDPFH
014000       WHEN UCCOMMON-FUNCTION = 'IDCS'                            PPAPDPFH
014100       WHEN UCCOMMON-FUNCTION = 'IDC2'                            PPAPDPFH
014200         SET WS-USE-DETAIL-HEADER-3 TO TRUE                       PPAPDPFH
014300       WHEN OTHER                                                 PPAPDPFH
014400         SET WS-USE-DETAIL-HEADER-1 TO TRUE                       PPAPDPFH
014500     END-EVALUATE.                                                PPAPDPFH
014600                                                                  PPAPDPFH
014700     EVALUATE TRUE                                                PPAPDPFH
014800       WHEN WS-USE-DETAIL-HEADER-1                                PPAPDPFH
014900         MOVE LENGTH OF PPDPHD0O TO UCPIROFH-TOP-MAP-LENGTH       PPAPDPFH
015000       WHEN WS-USE-DETAIL-HEADER-2                                PPAPDPFH
015100         MOVE LENGTH OF PPD3HD0O TO UCPIROFH-TOP-MAP-LENGTH       PPAPDPFH
015200       WHEN WS-USE-DETAIL-HEADER-3                                PPAPDPFH
015300         MOVE LENGTH OF PPD2HD0O TO UCPIROFH-TOP-MAP-LENGTH       PPAPDPFH
015400       WHEN OTHER                                                 PPAPDPFH
015500           MOVE LENGTH OF UCFMHD0O TO UCPIROFH-TOP-MAP-LENGTH     PPAPDPFH
015600     END-EVALUATE.                                                PPAPDPFH
015700                                                                  PPAPDPFH
015800     MOVE LENGTH OF PPDPFT0O TO UCPIROFH-BOT-MAP-LENGTH.          PPAPDPFH
015900                                                                  PPAPDPFH
016000     EXEC CICS                                                    PPAPDPFH
016100          ASKTIME                                                 PPAPDPFH
016200          ABSTIME (UCCOMMON-ABSTIME-X)                            PPAPDPFH
016300     END-EXEC.                                                    PPAPDPFH
016400                                                                  PPAPDPFH
016500     EXEC CICS                                                    PPAPDPFH
016600          FORMATTIME                                              PPAPDPFH
016700          ABSTIME (UCCOMMON-ABSTIME-X)                            PPAPDPFH
016800          MMDDYY  (UCCOMMON-DATE-X)                               PPAPDPFH
016900          DATESEP                                                 PPAPDPFH
017000          TIME    (UCCOMMON-TIME-X)                               PPAPDPFH
017100          TIMESEP                                                 PPAPDPFH
017200     END-EXEC.                                                    PPAPDPFH
017300                                                                  PPAPDPFH
017400******************************************************************PPAPDPFH
017500*    SYSTEM DATE & TIME WILL BE USED FOR DATE & TIME OF LAST      PPAPDPFH
017600*    EMPLOYEE UPDATE UNTIL COLS ARE ADDED TO DB2 PER TABLE.       PPAPDPFH
017700******************************************************************PPAPDPFH
017800                                                                  PPAPDPFH
017900 1000-EXIT.                                                       PPAPDPFH
018000     EXIT.                                                        PPAPDPFH
018100                                                                  PPAPDPFH
018200     EJECT                                                        PPAPDPFH
018300                                                                  PPAPDPFH
018400 2000-MOVE-ATTRIBUTES-TO-MAPS         SECTION.                    PPAPDPFH
018500**************************************************************    PPAPDPFH
018600*  SET COLOR, ATTRIBUTE AND HIGHLIGHT BYTES                  *    PPAPDPFH
018700**************************************************************    PPAPDPFH
018800                                                                  PPAPDPFH
018900     EVALUATE TRUE                                                PPAPDPFH
019000     WHEN WS-USE-DETAIL-HEADER-1                                  PPAPDPFH
019100        PERFORM 2100-DETAIL-HEADER-1                              PPAPDPFH
019200     WHEN WS-USE-DETAIL-HEADER-2                                  PPAPDPFH
019300        PERFORM 2200-DETAIL-HEADER-2                              PPAPDPFH
019400     WHEN WS-USE-DETAIL-HEADER-3                                  PPAPDPFH
019500        PERFORM 2300-DETAIL-HEADER-3                              PPAPDPFH
019600     WHEN OTHER                                                   PPAPDPFH
019700        PERFORM 2400-MENU-HEADER                                  PPAPDPFH
019800     END-EVALUATE.                                                PPAPDPFH
019900                                                                  PPAPDPFH
020000     MOVE UCCOMMON-CLR-FLD-LABEL TO LNEXT-FUNCC                   PPAPDPFH
020100                                    LFTR-IDC                      PPAPDPFH
020200                                    LFTR-NAMEC                    PPAPDPFH
020300                                    LFTR-SSNC                     PPAPDPFH
020400                                    LFTR-NEXT-PAY-CYCLEC          PPAPDPFH
020500                                    LFTR-NEXT-CHECK-DATEC         PPAPDPFH
020600                                    LCOMMANDC                     PPAPDPFH
020700                                    LPF1C                         PPAPDPFH
020800                                    LPF2C.                        PPAPDPFH
020900                                                                  PPAPDPFH
021000     MOVE UCCOMMON-CLR-ENTRY     TO NEXT-FUNCC                    PPAPDPFH
021100                                    FTR-IDC                       PPAPDPFH
021200                                    FTR-NAMEC                     PPAPDPFH
021300                                    FTR-SSNC                      PPAPDPFH
021400                                    FTR-NEXT-PAY-CYCLEC           PPAPDPFH
021500                                    FTR-NEXT-CHECK-DATEC          PPAPDPFH
021600                                    COMMANDC.                     PPAPDPFH
021700                                                                  PPAPDPFH
021800     MOVE UCCOMMON-CLR-FUNC-KEY TO PF01C                          PPAPDPFH
021900                                   PF02C                          PPAPDPFH
022000                                   PF03C                          PPAPDPFH
022100                                   PF04C                          PPAPDPFH
022200                                   PF05C                          PPAPDPFH
022300                                   PF06C                          PPAPDPFH
022400                                   PF07C                          PPAPDPFH
022500                                   PF08C                          PPAPDPFH
022600                                   PF09C                          PPAPDPFH
022700                                   PF10C                          PPAPDPFH
022800                                   PF11C                          PPAPDPFH
022900                                   PF12C.                         PPAPDPFH
023000                                                                  PPAPDPFH
023100     MOVE UCPIROFH-CLR-MSG      TO MESSAGEC.                      PPAPDPFH
023200                                                                  PPAPDPFH
023300     MOVE UCCOMMON-CLR-MSG-SEV-9 TO CRITICAL-MSGC.                PPAPDPFH
023400                                                                  PPAPDPFH
023500                                                                  PPAPDPFH
023600     MOVE UCCOMMON-HLT-FLD-LABEL TO  LNEXT-FUNCH                  PPAPDPFH
023700                                     LFTR-IDH                     PPAPDPFH
023800                                     LFTR-NAMEH                   PPAPDPFH
023900                                     LFTR-SSNH                    PPAPDPFH
024000                                     LFTR-NEXT-PAY-CYCLEH         PPAPDPFH
024100                                     LFTR-NEXT-CHECK-DATEH        PPAPDPFH
024200                                     LCOMMANDH                    PPAPDPFH
024300                                     LPF1H                        PPAPDPFH
024400                                     LPF2H.                       PPAPDPFH
024500                                                                  PPAPDPFH
024600     MOVE UCCOMMON-HLT-ENTRY     TO NEXT-FUNCH                    PPAPDPFH
024700                                    FTR-IDH                       PPAPDPFH
024800                                    FTR-NAMEH                     PPAPDPFH
024900                                    FTR-SSNH                      PPAPDPFH
025000                                    FTR-NEXT-PAY-CYCLEH           PPAPDPFH
025100                                    FTR-NEXT-CHECK-DATEH          PPAPDPFH
025200                                    COMMANDH.                     PPAPDPFH
025300                                                                  PPAPDPFH
025400     MOVE UCCOMMON-HLT-FUNC-KEY TO PF01H                          PPAPDPFH
025500                                   PF02H                          PPAPDPFH
025600                                   PF03H                          PPAPDPFH
025700                                   PF04H                          PPAPDPFH
025800                                   PF05H                          PPAPDPFH
025900                                   PF06H                          PPAPDPFH
026000                                   PF07H                          PPAPDPFH
026100                                   PF08H                          PPAPDPFH
026200                                   PF09H                          PPAPDPFH
026300                                   PF10H                          PPAPDPFH
026400                                   PF11H                          PPAPDPFH
026500                                   PF12H.                         PPAPDPFH
026600                                                                  PPAPDPFH
026700     MOVE UCPIROFH-HLT-MSG      TO MESSAGEH.                      PPAPDPFH
026800     MOVE UCCOMMON-HLT-MSG-SEV-9 TO CRITICAL-MSGH.                PPAPDPFH
026900                                                                  PPAPDPFH
027000                                                                  PPAPDPFH
027100     MOVE UCCOMMON-ATR-FLD-LABEL TO LNEXT-FUNCA                   PPAPDPFH
027200                                    LFTR-IDA                      PPAPDPFH
027300                                    LFTR-NAMEA                    PPAPDPFH
027400                                    LFTR-SSNA                     PPAPDPFH
027500                                    LFTR-NEXT-PAY-CYCLEA          PPAPDPFH
027600                                    LFTR-NEXT-CHECK-DATEA         PPAPDPFH
027700                                    LCOMMANDA                     PPAPDPFH
027800                                    LPF1A                         PPAPDPFH
027900                                    LPF2A.                        PPAPDPFH
028000     MOVE UCCOMMON-ATR-ENTRY     TO NEXT-FUNCA                    PPAPDPFH
028100                                    FTR-IDA                       PPAPDPFH
028200                                    FTR-NAMEA                     PPAPDPFH
028300                                    FTR-SSNA                      PPAPDPFH
028400                                    FTR-NEXT-PAY-CYCLEA           PPAPDPFH
028500                                    FTR-NEXT-CHECK-DATEA          PPAPDPFH
028600                                    COMMANDA.                     PPAPDPFH
028700     MOVE UCCOMMON-ATR-FUNC-KEY TO PF01A                          PPAPDPFH
028800                                   PF02A                          PPAPDPFH
028900                                   PF03A                          PPAPDPFH
029000                                   PF04A                          PPAPDPFH
029100                                   PF05A                          PPAPDPFH
029200                                   PF06A                          PPAPDPFH
029300                                   PF07A                          PPAPDPFH
029400                                   PF08A                          PPAPDPFH
029500                                   PF09A                          PPAPDPFH
029600                                   PF10A                          PPAPDPFH
029700                                   PF11A                          PPAPDPFH
029800                                   PF12A.                         PPAPDPFH
029900                                                                  PPAPDPFH
030000     MOVE UCPIROFH-ATR-MSG      TO MESSAGEA.                      PPAPDPFH
030100     MOVE UCCOMMON-ATR-MSG-SEV-9 TO CRITICAL-MSGA.                PPAPDPFH
030200                                                                  PPAPDPFH
030300 2000-EXIT.                                                       PPAPDPFH
030400     EXIT.                                                        PPAPDPFH
030500                                                                  PPAPDPFH
030600     EJECT                                                        PPAPDPFH
030700                                                                  PPAPDPFH
030800 2100-DETAIL-HEADER-1   SECTION.                                  PPAPDPFH
030900**************************************************************    PPAPDPFH
031000*  SET ATTRIBUTES IN THE MAIN DETAIL HEADER MAP              *    PPAPDPFH
031100**************************************************************    PPAPDPFH
031200                                                                  PPAPDPFH
031300      MOVE UCCOMMON-CLR-NORM-DISPL TO                             PPAPDPFH
031400                                  BUNDLE-NAMEC OF PPDPHD0O        PPAPDPFH
031500                                  DATEC OF PPDPHD0O               PPAPDPFH
031600                                  TIMEC OF PPDPHD0O               PPAPDPFH
031700                                  USERIDC OF PPDPHD0O             PPAPDPFH
031800                                  HDR-PAY-CYCLEC OF PPDPHD0O      PPAPDPFH
031900                                  HDR-PROCESS-DATEC OF PPDPHD0O   PPAPDPFH
032000                                  HDR-CHECK-DATEC OF PPDPHD0O     PPAPDPFH
032100                                  CURRENT-PAGEC OF PPDPHD0O       PPAPDPFH
032200                                  TOTAL-PAGESC OF PPDPHD0O        PPAPDPFH
032300                                  HDR-IDC OF PPDPHD0O             PPAPDPFH
032400                                  HDR-NAMEC OF PPDPHD0O           PPAPDPFH
032500                                  HDR-SSNC OF PPDPHD0O            PPAPDPFH
032600                                  HDR-HOME-DEPT-CODEC             PPAPDPFH
032700                                  HDR-HOME-DEPT-TRANSLATIONC      PPAPDPFH
032800                                  HDR-CHK-DISP-CODEC              PPAPDPFH
032900                                  HDR-EMP-STATUSC                 PPAPDPFH
033000                                  HDR-CHECK-NUMC                  PPAPDPFH
033100                                  HDR-RECORD-TYPEC                PPAPDPFH
033200                                  HDR-PRI-GROSS-CTLC              PPAPDPFH
033300                                                                  PPAPDPFH
033400     MOVE UCCOMMON-CLR-SCREEN-ID  TO MAP-NAMEC OF PPDPHD0O        PPAPDPFH
033500                                     VERSIONC OF PPDPHD0O         PPAPDPFH
033600                                                                  PPAPDPFH
033700     MOVE UCCOMMON-CLR-TITLE TO SUBSYSTEM-NAMEC OF PPDPHD0O       PPAPDPFH
033800                                SCREEN-NAMEC OF PPDPHD0O          PPAPDPFH
033900                                                                  PPAPDPFH
034000     MOVE UCCOMMON-CLR-FLD-LABEL TO                               PPAPDPFH
034100                                 LUSERIDC OF PPDPHD0O             PPAPDPFH
034200                                 LHDR-PAY-CYCLEC OF PPDPHD0O      PPAPDPFH
034300                                 LHDR-PROCESS-DATEC OF PPDPHD0O   PPAPDPFH
034400                                 LHDR-CHECK-DATEC OF PPDPHD0O     PPAPDPFH
034500                                 LCURRENT-PAGEC OF PPDPHD0O       PPAPDPFH
034600                                 LTOTAL-PAGESC OF PPDPHD0O        PPAPDPFH
034700                                 LHDR-IDC OF PPDPHD0O             PPAPDPFH
034800                                 LHDR-NAMEC OF PPDPHD0O           PPAPDPFH
034900                                 LHDR-SSNC OF PPDPHD0O            PPAPDPFH
035000                                 LHDR-HOME-DEPTC                  PPAPDPFH
035100                                 LHDR-CHK-DISP-CODEC              PPAPDPFH
035200                                 LHDR-EMP-STATUSC                 PPAPDPFH
035300                                 LHDR-CHECK-NUMC                  PPAPDPFH
035400                                 LHDR-RECORD-TYPEC                PPAPDPFH
035500                                 LHDR-PRI-GROSS-CTLC.             PPAPDPFH
035600                                                                  PPAPDPFH
035700      MOVE UCCOMMON-HLT-NORM-DISPL TO                             PPAPDPFH
035800                                  BUNDLE-NAMEH OF PPDPHD0O        PPAPDPFH
035900                                  DATEH OF PPDPHD0O               PPAPDPFH
036000                                  TIMEH OF PPDPHD0O               PPAPDPFH
036100                                  USERIDH OF PPDPHD0O             PPAPDPFH
036200                                  HDR-PAY-CYCLEH OF PPDPHD0O      PPAPDPFH
036300                                  HDR-PROCESS-DATEH OF PPDPHD0O   PPAPDPFH
036400                                  HDR-CHECK-DATEH OF PPDPHD0O     PPAPDPFH
036500                                  CURRENT-PAGEH OF PPDPHD0O       PPAPDPFH
036600                                  TOTAL-PAGESH OF PPDPHD0O        PPAPDPFH
036700                                  HDR-IDH OF PPDPHD0O             PPAPDPFH
036800                                  HDR-NAMEH OF PPDPHD0O           PPAPDPFH
036900                                  HDR-SSNH OF PPDPHD0O            PPAPDPFH
037000                                  HDR-HOME-DEPT-CODEH             PPAPDPFH
037100                                  HDR-HOME-DEPT-TRANSLATIONH      PPAPDPFH
037200                                  HDR-CHK-DISP-CODEH              PPAPDPFH
037300                                  HDR-EMP-STATUSH                 PPAPDPFH
037400                                  HDR-CHECK-NUMH                  PPAPDPFH
037500                                  HDR-RECORD-TYPEH                PPAPDPFH
037600                                  HDR-PRI-GROSS-CTLH              PPAPDPFH
037700                                                                  PPAPDPFH
037800     MOVE UCCOMMON-HLT-SCREEN-ID  TO MAP-NAMEH OF PPDPHD0O        PPAPDPFH
037900                                     VERSIONH OF PPDPHD0O         PPAPDPFH
038000                                                                  PPAPDPFH
038100     MOVE UCCOMMON-HLT-TITLE TO SUBSYSTEM-NAMEH OF PPDPHD0O       PPAPDPFH
038200                                SCREEN-NAMEH OF PPDPHD0O          PPAPDPFH
038300                                                                  PPAPDPFH
038400     MOVE UCCOMMON-HLT-FLD-LABEL TO                               PPAPDPFH
038500                                 LUSERIDH OF PPDPHD0O             PPAPDPFH
038600                                 LHDR-PAY-CYCLEH OF PPDPHD0O      PPAPDPFH
038700                                 LHDR-PROCESS-DATEH OF PPDPHD0O   PPAPDPFH
038800                                 LHDR-CHECK-DATEH OF PPDPHD0O     PPAPDPFH
038900                                 LCURRENT-PAGEH OF PPDPHD0O       PPAPDPFH
039000                                 LTOTAL-PAGESH OF PPDPHD0O        PPAPDPFH
039100                                 LHDR-IDH OF PPDPHD0O             PPAPDPFH
039200                                 LHDR-NAMEH OF PPDPHD0O           PPAPDPFH
039300                                 LHDR-SSNH OF PPDPHD0O            PPAPDPFH
039400                                 LHDR-HOME-DEPTH                  PPAPDPFH
039500                                 LHDR-CHK-DISP-CODEH              PPAPDPFH
039600                                 LHDR-EMP-STATUSH                 PPAPDPFH
039700                                 LHDR-CHECK-NUMH                  PPAPDPFH
039800                                 LHDR-RECORD-TYPEH                PPAPDPFH
039900                                 LHDR-PRI-GROSS-CTLH.             PPAPDPFH
040000                                                                  PPAPDPFH
040100      MOVE UCCOMMON-ATR-NORM-DISPL TO                             PPAPDPFH
040200                                  BUNDLE-NAMEA OF PPDPHD0O        PPAPDPFH
040300                                  DATEA OF PPDPHD0O               PPAPDPFH
040400                                  TIMEA OF PPDPHD0O               PPAPDPFH
040500                                  USERIDA OF PPDPHD0O             PPAPDPFH
040600                                  HDR-PAY-CYCLEA OF PPDPHD0O      PPAPDPFH
040700                                  HDR-PROCESS-DATEA OF PPDPHD0O   PPAPDPFH
040800                                  HDR-CHECK-DATEA OF PPDPHD0O     PPAPDPFH
040900                                  CURRENT-PAGEA OF PPDPHD0O       PPAPDPFH
041000                                  TOTAL-PAGESA OF PPDPHD0O        PPAPDPFH
041100                                  HDR-IDA OF PPDPHD0O             PPAPDPFH
041200                                  HDR-NAMEA OF PPDPHD0O           PPAPDPFH
041300                                  HDR-SSNA OF PPDPHD0O            PPAPDPFH
041400                                  HDR-HOME-DEPT-CODEA             PPAPDPFH
041500                                  HDR-HOME-DEPT-TRANSLATIONA      PPAPDPFH
041600                                  HDR-CHK-DISP-CODEA              PPAPDPFH
041700                                  HDR-EMP-STATUSA                 PPAPDPFH
041800                                  HDR-CHECK-NUMA                  PPAPDPFH
041900                                  HDR-RECORD-TYPEA                PPAPDPFH
042000                                  HDR-PRI-GROSS-CTLA              PPAPDPFH
042100                                                                  PPAPDPFH
042200     MOVE UCCOMMON-ATR-SCREEN-ID  TO MAP-NAMEA OF PPDPHD0O        PPAPDPFH
042300                                     VERSIONA OF PPDPHD0O         PPAPDPFH
042400                                                                  PPAPDPFH
042500     MOVE UCCOMMON-ATR-TITLE TO SUBSYSTEM-NAMEA OF PPDPHD0O       PPAPDPFH
042600                                SCREEN-NAMEA OF PPDPHD0O          PPAPDPFH
042700                                                                  PPAPDPFH
042800     MOVE UCCOMMON-ATR-FLD-LABEL TO                               PPAPDPFH
042900                                 LUSERIDA OF PPDPHD0O             PPAPDPFH
043000                                 LHDR-PAY-CYCLEA OF PPDPHD0O      PPAPDPFH
043100                                 LHDR-PROCESS-DATEA OF PPDPHD0O   PPAPDPFH
043200                                 LHDR-CHECK-DATEA OF PPDPHD0O     PPAPDPFH
043300                                 LCURRENT-PAGEA OF PPDPHD0O       PPAPDPFH
043400                                 LTOTAL-PAGESA OF PPDPHD0O        PPAPDPFH
043500                                 LHDR-IDA OF PPDPHD0O             PPAPDPFH
043600                                 LHDR-NAMEA OF PPDPHD0O           PPAPDPFH
043700                                 LHDR-SSNA OF PPDPHD0O            PPAPDPFH
043800                                 LHDR-HOME-DEPTA                  PPAPDPFH
043900                                 LHDR-CHK-DISP-CODEA              PPAPDPFH
044000                                 LHDR-EMP-STATUSA                 PPAPDPFH
044100                                 LHDR-CHECK-NUMA                  PPAPDPFH
044200                                 LHDR-RECORD-TYPEA                PPAPDPFH
044300                                 LHDR-PRI-GROSS-CTLA.             PPAPDPFH
044400                                                                  PPAPDPFH
044500 2100-EXIT.                                                       PPAPDPFH
044600     EXIT.                                                        PPAPDPFH
044700                                                                  PPAPDPFH
044800     EJECT                                                        PPAPDPFH
044900                                                                  PPAPDPFH
045000 2200-DETAIL-HEADER-2   SECTION.                                  PPAPDPFH
045100**************************************************************    PPAPDPFH
045200*  SET ATTRIBUTES IN THE SECOND DETAIL HEADER MAP            *    PPAPDPFH
045300**************************************************************    PPAPDPFH
045400                                                                  PPAPDPFH
045500      MOVE UCCOMMON-CLR-NORM-DISPL TO DATEC OF PPD3HD0O           PPAPDPFH
045600                                      TIMEC OF PPD3HD0O           PPAPDPFH
045700                                      USERIDC OF PPD3HD0O         PPAPDPFH
045800                                      BUNDLE-NAMEC OF PPD3HD0O    PPAPDPFH
045900                                                                  PPAPDPFH
046000     MOVE UCCOMMON-CLR-SCREEN-ID  TO MAP-NAMEC OF PPD3HD0O        PPAPDPFH
046100                                     VERSIONC OF PPD3HD0O         PPAPDPFH
046200                                                                  PPAPDPFH
046300     MOVE UCCOMMON-CLR-TITLE TO SUBSYSTEM-NAMEC OF PPD3HD0O       PPAPDPFH
046400                                SCREEN-NAMEC OF PPD3HD0O          PPAPDPFH
046500                                                                  PPAPDPFH
046600     MOVE UCCOMMON-CLR-FLD-LABEL TO LUSERIDC OF PPD3HD0O          PPAPDPFH
046700                                                                  PPAPDPFH
046800     MOVE UCCOMMON-HLT-NORM-DISPL TO DATEH OF PPD3HD0O            PPAPDPFH
046900                                     TIMEH OF PPD3HD0O            PPAPDPFH
047000                                     USERIDH OF PPD3HD0O          PPAPDPFH
047100                                     BUNDLE-NAMEH OF PPD3HD0O     PPAPDPFH
047200                                                                  PPAPDPFH
047300     MOVE UCCOMMON-HLT-SCREEN-ID  TO MAP-NAMEH OF PPD3HD0O        PPAPDPFH
047400                                     VERSIONH  OF PPD3HD0O        PPAPDPFH
047500                                                                  PPAPDPFH
047600     MOVE UCCOMMON-HLT-TITLE TO SUBSYSTEM-NAMEH OF PPD3HD0O       PPAPDPFH
047700                                SCREEN-NAMEH OF PPD3HD0O          PPAPDPFH
047800                                                                  PPAPDPFH
047900     MOVE UCCOMMON-HLT-FLD-LABEL TO LUSERIDH OF PPD3HD0O          PPAPDPFH
048000                                                                  PPAPDPFH
048100     MOVE UCCOMMON-ATR-NORM-DISPL TO DATEA OF PPD3HD0O            PPAPDPFH
048200                                        TIMEA OF PPD3HD0O         PPAPDPFH
048300                                        USERIDA OF PPD3HD0O       PPAPDPFH
048400                                        BUNDLE-NAMEA OF PPD3HD0O  PPAPDPFH
048500                                                                  PPAPDPFH
048600     MOVE UCCOMMON-ATR-SCREEN-ID  TO MAP-NAMEA OF PPD3HD0O        PPAPDPFH
048700                                     VERSIONA  OF PPD3HD0O        PPAPDPFH
048800                                                                  PPAPDPFH
048900     MOVE UCCOMMON-ATR-TITLE TO SUBSYSTEM-NAMEA OF PPD3HD0O       PPAPDPFH
049000                                SCREEN-NAMEA OF PPD3HD0O          PPAPDPFH
049100                                                                  PPAPDPFH
049200     MOVE UCCOMMON-ATR-FLD-LABEL TO LUSERIDA OF PPD3HD0O.         PPAPDPFH
049300                                                                  PPAPDPFH
049400 2200-EXIT.                                                       PPAPDPFH
049500     EXIT.                                                        PPAPDPFH
049600                                                                  PPAPDPFH
049700     EJECT                                                        PPAPDPFH
049800                                                                  PPAPDPFH
049900 2300-DETAIL-HEADER-3   SECTION.                                  PPAPDPFH
050000**************************************************************    PPAPDPFH
050100*  SET ATTRIBUTES IN THE THIRD DETAIL HEADER MAP             *    PPAPDPFH
050200**************************************************************    PPAPDPFH
050300                                                                  PPAPDPFH
050400      MOVE UCCOMMON-CLR-NORM-DISPL TO                             PPAPDPFH
050500                                  BUNDLE-NAMEC OF PPD2HD0O        PPAPDPFH
050600                                  DATEC OF PPD2HD0O               PPAPDPFH
050700                                  TIMEC OF PPD2HD0O               PPAPDPFH
050800                                  USERIDC OF PPD2HD0O             PPAPDPFH
050900                                  HDR-PAY-CYCLEC OF PPD2HD0O      PPAPDPFH
051000                                  HDR-PROCESS-DATEC OF PPD2HD0O   PPAPDPFH
051100                                  HDR-CHECK-DATEC OF PPD2HD0O     PPAPDPFH
051200                                  CURRENT-PAGEC OF PPD2HD0O       PPAPDPFH
051300                                  TOTAL-PAGESC OF PPD2HD0O        PPAPDPFH
051400                                                                  PPAPDPFH
051500     MOVE UCCOMMON-CLR-SCREEN-ID  TO MAP-NAMEC OF PPD2HD0O        PPAPDPFH
051600                                     VERSIONC OF PPD2HD0O         PPAPDPFH
051700                                                                  PPAPDPFH
051800     MOVE UCCOMMON-CLR-TITLE TO SUBSYSTEM-NAMEC OF PPD2HD0O       PPAPDPFH
051900                                SCREEN-NAMEC OF PPD2HD0O          PPAPDPFH
052000                                                                  PPAPDPFH
052100     MOVE UCCOMMON-CLR-FLD-LABEL TO                               PPAPDPFH
052200                                 LUSERIDC OF PPD2HD0O             PPAPDPFH
052300                                 LHDR-PAY-CYCLEC OF PPD2HD0O      PPAPDPFH
052400                                 LHDR-PROCESS-DATEC OF PPD2HD0O   PPAPDPFH
052500                                 LHDR-CHECK-DATEC OF PPD2HD0O     PPAPDPFH
052600                                 LCURRENT-PAGEC OF PPD2HD0O       PPAPDPFH
052700                                 LTOTAL-PAGESC OF PPD2HD0O        PPAPDPFH
052800                                                                  PPAPDPFH
052900      MOVE UCCOMMON-HLT-NORM-DISPL TO                             PPAPDPFH
053000                                  BUNDLE-NAMEH OF PPD2HD0O        PPAPDPFH
053100                                  DATEH OF PPD2HD0O               PPAPDPFH
053200                                  TIMEH OF PPD2HD0O               PPAPDPFH
053300                                  USERIDH OF PPD2HD0O             PPAPDPFH
053400                                  HDR-PAY-CYCLEH OF PPD2HD0O      PPAPDPFH
053500                                  HDR-PROCESS-DATEH OF PPD2HD0O   PPAPDPFH
053600                                  HDR-CHECK-DATEH OF PPD2HD0O     PPAPDPFH
053700                                  CURRENT-PAGEH OF PPD2HD0O       PPAPDPFH
053800                                  TOTAL-PAGESH OF PPD2HD0O        PPAPDPFH
053900                                                                  PPAPDPFH
054000     MOVE UCCOMMON-HLT-SCREEN-ID  TO MAP-NAMEH OF PPD2HD0O        PPAPDPFH
054100                                     VERSIONH OF PPD2HD0O         PPAPDPFH
054200                                                                  PPAPDPFH
054300     MOVE UCCOMMON-HLT-TITLE TO SUBSYSTEM-NAMEH OF PPD2HD0O       PPAPDPFH
054400                                SCREEN-NAMEH OF PPD2HD0O          PPAPDPFH
054500                                                                  PPAPDPFH
054600     MOVE UCCOMMON-HLT-FLD-LABEL TO                               PPAPDPFH
054700                                 LUSERIDH OF PPD2HD0O             PPAPDPFH
054800                                 LHDR-PAY-CYCLEH OF PPD2HD0O      PPAPDPFH
054900                                 LHDR-PROCESS-DATEH OF PPD2HD0O   PPAPDPFH
055000                                 LHDR-CHECK-DATEH OF PPD2HD0O     PPAPDPFH
055100                                 LCURRENT-PAGEH OF PPD2HD0O       PPAPDPFH
055200                                 LTOTAL-PAGESH OF PPD2HD0O        PPAPDPFH
055300                                                                  PPAPDPFH
055400      MOVE UCCOMMON-ATR-NORM-DISPL TO                             PPAPDPFH
055500                                  BUNDLE-NAMEA OF PPD2HD0O        PPAPDPFH
055600                                  DATEA OF PPD2HD0O               PPAPDPFH
055700                                  TIMEA OF PPD2HD0O               PPAPDPFH
055800                                  USERIDA OF PPD2HD0O             PPAPDPFH
055900                                  HDR-PAY-CYCLEA OF PPD2HD0O      PPAPDPFH
056000                                  HDR-PROCESS-DATEA OF PPD2HD0O   PPAPDPFH
056100                                  HDR-CHECK-DATEA OF PPD2HD0O     PPAPDPFH
056200                                  CURRENT-PAGEA OF PPD2HD0O       PPAPDPFH
056300                                  TOTAL-PAGESA OF PPD2HD0O        PPAPDPFH
056400                                                                  PPAPDPFH
056500     MOVE UCCOMMON-ATR-SCREEN-ID  TO MAP-NAMEA OF PPD2HD0O        PPAPDPFH
056600                                     VERSIONA OF PPD2HD0O         PPAPDPFH
056700                                                                  PPAPDPFH
056800     MOVE UCCOMMON-ATR-TITLE TO SUBSYSTEM-NAMEA OF PPD2HD0O       PPAPDPFH
056900                                SCREEN-NAMEA OF PPD2HD0O          PPAPDPFH
057000                                                                  PPAPDPFH
057100     MOVE UCCOMMON-ATR-FLD-LABEL TO                               PPAPDPFH
057200                                 LUSERIDA OF PPD2HD0O             PPAPDPFH
057300                                 LHDR-PAY-CYCLEA OF PPD2HD0O      PPAPDPFH
057400                                 LHDR-PROCESS-DATEA OF PPD2HD0O   PPAPDPFH
057500                                 LHDR-CHECK-DATEA OF PPD2HD0O     PPAPDPFH
057600                                 LCURRENT-PAGEA OF PPD2HD0O       PPAPDPFH
057700                                 LTOTAL-PAGESA OF PPD2HD0O.       PPAPDPFH
057800                                                                  PPAPDPFH
057900 2300-EXIT.                                                       PPAPDPFH
058000     EXIT.                                                        PPAPDPFH
058100                                                                  PPAPDPFH
058200     EJECT                                                        PPAPDPFH
058300 2400-MENU-HEADER   SECTION.                                      PPAPDPFH
058400**************************************************************    PPAPDPFH
058500*  SET ATTRIBUTES IN THE MENU HEADER MAP                     *    PPAPDPFH
058600**************************************************************    PPAPDPFH
058700                                                                  PPAPDPFH
058800     MOVE UCCOMMON-CLR-NORM-DISPL TO DATEC OF UCFMHD0O            PPAPDPFH
058900                                     TIMEC OF UCFMHD0O            PPAPDPFH
059000                                     USERIDC OF UCFMHD0O          PPAPDPFH
059100     MOVE UCCOMMON-CLR-SCREEN-ID  TO MAP-NAME-REL-NUMBERC         PPAPDPFH
059200     MOVE UCCOMMON-CLR-TITLE TO SUBSYSTEM-NAMEC OF UCFMHD0O       PPAPDPFH
059300                                SCREEN-NAMEC OF UCFMHD0O          PPAPDPFH
059400     MOVE UCCOMMON-CLR-FLD-LABEL TO LUSERIDC OF UCFMHD0O.         PPAPDPFH
059500                                                                  PPAPDPFH
059600     MOVE UCCOMMON-HLT-NORM-DISPL TO DATEH OF UCFMHD0O            PPAPDPFH
059700                                     TIMEH OF UCFMHD0O            PPAPDPFH
059800                                     USERIDH OF UCFMHD0O          PPAPDPFH
059900     MOVE UCCOMMON-HLT-SCREEN-ID  TO MAP-NAME-REL-NUMBERH         PPAPDPFH
060000     MOVE UCCOMMON-HLT-TITLE TO SUBSYSTEM-NAMEH OF UCFMHD0O       PPAPDPFH
060100                                SCREEN-NAMEH OF UCFMHD0O          PPAPDPFH
060200     MOVE UCCOMMON-HLT-FLD-LABEL TO LUSERIDH OF UCFMHD0O          PPAPDPFH
060300                                                                  PPAPDPFH
060400     MOVE UCCOMMON-ATR-NORM-DISPL TO DATEA OF UCFMHD0O            PPAPDPFH
060500                                     TIMEA OF UCFMHD0O            PPAPDPFH
060600                                     USERIDA OF UCFMHD0O          PPAPDPFH
060700     MOVE UCCOMMON-ATR-SCREEN-ID  TO MAP-NAME-REL-NUMBERA         PPAPDPFH
060800     MOVE UCCOMMON-ATR-TITLE TO SUBSYSTEM-NAMEA OF UCFMHD0O       PPAPDPFH
060900                                SCREEN-NAMEA OF UCFMHD0O          PPAPDPFH
061000     MOVE UCCOMMON-ATR-FLD-LABEL TO LUSERIDA OF UCFMHD0O.         PPAPDPFH
061100                                                                  PPAPDPFH
061200 2400-EXIT.                                                       PPAPDPFH
061300     EXIT.                                                        PPAPDPFH
061400                                                                  PPAPDPFH
061500     EJECT                                                        PPAPDPFH
061600                                                                  PPAPDPFH
061700 3000-MOVE-DATA-TO-MAPS               SECTION.                    PPAPDPFH
061800**************************************************************    PPAPDPFH
061900*  POPULATE THE HEADER AND FOOTER MAPS                       *    PPAPDPFH
062000**************************************************************    PPAPDPFH
062100                                                                  PPAPDPFH
062200                                                                  PPAPDPFH
062300******************************************************************PPAPDPFH
062400*    CENTER THE SUBSYSTEM NAME AND FUNCTION DESCRIPTION          *PPAPDPFH
062500*    BY COUNTING THE NUMBER OF TRAILING BLANKS, DIVIDING         *PPAPDPFH
062600*    THAT NUMBER BY 2 AND THEN MOVING THE NAME INTO THE          *PPAPDPFH
062700*    CENTER OF THE SCREEN FIELD.                                 *PPAPDPFH
062800******************************************************************PPAPDPFH
062900     PERFORM VARYING WS-SS-CTR FROM 21 BY -1                      PPAPDPFH
063000       UNTIL UCPIROFH-SUBSYSTEM-NAME (WS-SS-CTR:1) NOT = SPACES   PPAPDPFH
063100       OR WS-SS-CTR < 1                                           PPAPDPFH
063200     END-PERFORM.                                                 PPAPDPFH
063300                                                                  PPAPDPFH
063400     IF WS-SS-CTR <   21                                          PPAPDPFH
063500         COMPUTE WS-SS-CTR = ((21 - WS-SS-CTR) / 2) + 1           PPAPDPFH
063600         COMPUTE WS-SS-CTR-2 = 21 - WS-SS-CTR                     PPAPDPFH
063700     ELSE                                                         PPAPDPFH
063800         COMPUTE WS-SS-CTR   = 1                                  PPAPDPFH
063900         COMPUTE WS-SS-CTR-2 = 21                                 PPAPDPFH
064000     END-IF                                                       PPAPDPFH
064100                                                                  PPAPDPFH
064200     PERFORM VARYING WS-FN-CTR FROM 30 BY -1                      PPAPDPFH
064300       UNTIL UCPIROFH-FUNC-DESC (WS-FN-CTR:1) NOT = SPACES        PPAPDPFH
064400       OR WS-FN-CTR < 1                                           PPAPDPFH
064500     END-PERFORM.                                                 PPAPDPFH
064600                                                                  PPAPDPFH
064700     COMPUTE WS-FN-CTR = ((30 - WS-FN-CTR) / 2) + 1.              PPAPDPFH
064800     COMPUTE WS-FN-CTR-2 = 30 - WS-FN-CTR.                        PPAPDPFH
064900                                                                  PPAPDPFH
065000     EVALUATE TRUE                                                PPAPDPFH
065100       WHEN WS-USE-DETAIL-HEADER-1                                PPAPDPFH
065200         PERFORM 3100-DETAIL-HEADER-1                             PPAPDPFH
065300       WHEN WS-USE-DETAIL-HEADER-2                                PPAPDPFH
065400         PERFORM 3200-DETAIL-HEADER-2                             PPAPDPFH
065500       WHEN WS-USE-DETAIL-HEADER-3                                PPAPDPFH
065600         PERFORM 3300-DETAIL-HEADER-3                             PPAPDPFH
065700       WHEN OTHER                                                 PPAPDPFH
065800           PERFORM 3400-MENU-HEADER                               PPAPDPFH
065900     END-EVALUATE.                                                PPAPDPFH
066000                                                                  PPAPDPFH
066100     IF UCCOMMON-FUNCTION = 'IBRS'                                PPAPDPFH
066200        MOVE CPWSWORK-BROWSE-RETURN-FUNC TO NEXT-FUNCO            PPAPDPFH
066300     END-IF.                                                      PPAPDPFH
066400                                                                  PPAPDPFH
066500     IF CPWSWORK-REDISPLAY-EEID                                   PPAPDPFH
066600      OR UCCOMMON-REDISPLAY-KEYS                                  PPAPDPFH
066700        MOVE WS-FOOTER-EMP-ID TO FTR-IDO                          PPAPDPFH
066800        SET CPWSWORK-DONT-REDISPLAY-EEID TO TRUE                  PPAPDPFH
066900        MOVE UCCOMMON-ATR-ENTRY-MDT TO FTR-IDA                    PPAPDPFH
067000     END-IF.                                                      PPAPDPFH
067100                                                                  PPAPDPFH
067200     IF CPWSWORK-REDISPLAY-NAME                                   PPAPDPFH
067300      OR UCCOMMON-REDISPLAY-KEYS                                  PPAPDPFH
067400        MOVE WS-FOOTER-EMP-NAME TO FTR-NAMEO                      PPAPDPFH
067500        SET CPWSWORK-DONT-REDISPLAY-NAME TO TRUE                  PPAPDPFH
067600        MOVE UCCOMMON-ATR-ENTRY-MDT TO FTR-NAMEA                  PPAPDPFH
067700     END-IF.                                                      PPAPDPFH
067800                                                                  PPAPDPFH
067900     IF CPWSWORK-REDISPLAY-SSN                                    PPAPDPFH
068000      OR UCCOMMON-REDISPLAY-KEYS                                  PPAPDPFH
068100        MOVE WS-FOOTER-EMP-SSN TO FTR-SSNO                        PPAPDPFH
068200        SET CPWSWORK-DONT-REDISPLAY-SSN TO TRUE                   PPAPDPFH
068300        MOVE UCCOMMON-ATR-ENTRY-MDT TO FTR-SSNA                   PPAPDPFH
068400     END-IF.                                                      PPAPDPFH
068500                                                                  PPAPDPFH
068600     IF CPWSWORK-REDISPLAY-CYCLE                                  PPAPDPFH
068700      OR UCCOMMON-REDISPLAY-KEYS                                  PPAPDPFH
068800        MOVE WS-FOOTER-PAY-CYCLE TO FTR-NEXT-PAY-CYCLEO           PPAPDPFH
068900        SET CPWSWORK-DONT-REDISPLAY-CYCLE TO TRUE                 PPAPDPFH
069000        MOVE UCCOMMON-ATR-ENTRY-MDT TO FTR-NEXT-PAY-CYCLEA        PPAPDPFH
069100     END-IF.                                                      PPAPDPFH
069200                                                                  PPAPDPFH
069300     IF CPWSWORK-REDISPLAY-DATE                                   PPAPDPFH
069400      OR UCCOMMON-REDISPLAY-KEYS                                  PPAPDPFH
069500        MOVE WS-FOOTER-CHECK-DATE TO FTR-NEXT-CHECK-DATEO         PPAPDPFH
069600        SET CPWSWORK-DONT-REDISPLAY-DATE TO TRUE                  PPAPDPFH
069700        MOVE UCCOMMON-ATR-ENTRY-MDT TO FTR-NEXT-CHECK-DATEA       PPAPDPFH
069800     END-IF.                                                      PPAPDPFH
069900                                                                  PPAPDPFH
070000     IF UCPISCRN-DISPLAY-COMMAND                                  PPAPDPFH
070100        MOVE UCCOMMON-COMMAND-DATA  TO COMMANDO                   PPAPDPFH
070200        MOVE UCCOMMON-ATR-ENTRY-MDT TO COMMANDA                   PPAPDPFH
070300        SET UCPISCRN-DONT-DISPLAY-COMMAND TO TRUE                 PPAPDPFH
070400     END-IF.                                                      PPAPDPFH
070500                                                                  PPAPDPFH
070600     MOVE UCPIROFH-MSG-LINE TO MESSAGEO.                          PPAPDPFH
070700     MOVE UCCOMMON-HOT-MSG TO CRITICAL-MSGO.                      PPAPDPFH
070800     MOVE UCPIROFH-PFK-DISPLAY-ITEM (1)  TO PF01O.                PPAPDPFH
070900     MOVE UCPIROFH-PFK-DISPLAY-ITEM (2)  TO PF02O.                PPAPDPFH
071000     MOVE UCPIROFH-PFK-DISPLAY-ITEM (3)  TO PF03O.                PPAPDPFH
071100     MOVE UCPIROFH-PFK-DISPLAY-ITEM (4)  TO PF04O.                PPAPDPFH
071200     MOVE UCPIROFH-PFK-DISPLAY-ITEM (5)  TO PF05O.                PPAPDPFH
071300     MOVE UCPIROFH-PFK-DISPLAY-ITEM (6)  TO PF06O.                PPAPDPFH
071400     MOVE UCPIROFH-PFK-DISPLAY-ITEM (7)  TO PF07O.                PPAPDPFH
071500     MOVE UCPIROFH-PFK-DISPLAY-ITEM (8)  TO PF08O.                PPAPDPFH
071600     MOVE UCPIROFH-PFK-DISPLAY-ITEM (9)  TO PF09O.                PPAPDPFH
071700     MOVE UCPIROFH-PFK-DISPLAY-ITEM (10) TO PF10O.                PPAPDPFH
071800     MOVE UCPIROFH-PFK-DISPLAY-ITEM (11) TO PF11O.                PPAPDPFH
071900     MOVE UCPIROFH-PFK-DISPLAY-ITEM (12) TO PF12O.                PPAPDPFH
072000                                                                  PPAPDPFH
072100     IF UCPISCRN-CURSOR-TO-CMD                                    PPAPDPFH
072200         MOVE -1 TO COMMANDL                                      PPAPDPFH
072300     ELSE                                                         PPAPDPFH
072400         MOVE -1 TO NEXT-FUNCL                                    PPAPDPFH
072500     END-IF.                                                      PPAPDPFH
072600                                                                  PPAPDPFH
072700 3000-EXIT.                                                       PPAPDPFH
072800     EXIT.                                                        PPAPDPFH
072900                                                                  PPAPDPFH
073000     EJECT                                                        PPAPDPFH
073100                                                                  PPAPDPFH
073200 3100-DETAIL-HEADER-1   SECTION.                                  PPAPDPFH
073300**************************************************************    PPAPDPFH
073400*  MOVE DATA INTO THE MAIN DETAIL HEADER MAP                 *    PPAPDPFH
073500**************************************************************    PPAPDPFH
073600                                                                  PPAPDPFH
073700     STRING UCPIROFH-DTL-MAP-NAME DELIMITED BY SPACE,             PPAPDPFH
073800            '-'                   DELIMITED BY SIZE,              PPAPDPFH
073900            UCPISCRN-DTL-REL-NO   DELIMITED BY SIZE               PPAPDPFH
074000       INTO MAP-NAMEO OF PPDPHD0O                                 PPAPDPFH
074100     END-STRING.                                                  PPAPDPFH
074200                                                                  PPAPDPFH
074300     MOVE SPACES TO SUBSYSTEM-NAMEO OF PPDPHD0O                   PPAPDPFH
074400     MOVE UCPIROFH-SUBSYSTEM-NAME                                 PPAPDPFH
074500        TO SUBSYSTEM-NAMEO OF PPDPHD0O (WS-SS-CTR:WS-SS-CTR-2)    PPAPDPFH
074600                                                                  PPAPDPFH
074700     MOVE SPACES TO SCREEN-NAMEO OF PPDPHD0O                      PPAPDPFH
074800     MOVE UCPIROFH-FUNC-DESC                                      PPAPDPFH
074900           TO SCREEN-NAMEO OF PPDPHD0O (WS-FN-CTR:WS-FN-CTR-2)    PPAPDPFH
075000                                                                  PPAPDPFH
075100     MOVE UCCOMMON-BUNDLE-NAME TO BUNDLE-NAMEO OF PPDPHD0O.       PPAPDPFH
075200                                                                  PPAPDPFH
075300     MOVE UCCOMMON-DATE-X TO DATEO OF PPDPHD0O                    PPAPDPFH
075400     MOVE UCCOMMON-TIME-X TO TIMEO OF PPDPHD0O                    PPAPDPFH
075500                                                                  PPAPDPFH
075600     MOVE UCCOMMON-USERID TO USERIDO OF PPDPHD0O                  PPAPDPFH
075700                                                                  PPAPDPFH
075800     MOVE PAY-CYCLE-CODE OF EUD-ROW TO HDR-PAY-CYCLEO OF PPDPHD0O.PPAPDPFH
075900                                                                  PPAPDPFH
076000     MOVE PAY-CYCLE-END-DATE OF EUD-ROW TO WS-ISO-DATE.           PPAPDPFH
076100     MOVE WS-ISO-YY TO WS-USA-YY.                                 PPAPDPFH
076200     MOVE WS-ISO-MM TO WS-USA-MM.                                 PPAPDPFH
076300     MOVE WS-ISO-DD TO WS-USA-DD.                                 PPAPDPFH
076400     MOVE WS-USA-DATE TO HDR-PROCESS-DATEO OF PPDPHD0O.           PPAPDPFH
076500                                                                  PPAPDPFH
076600     MOVE CHK-DATE OF EUD-ROW TO WS-ISO-DATE.                     PPAPDPFH
076700     MOVE WS-ISO-YY TO WS-USA-YY.                                 PPAPDPFH
076800     MOVE WS-ISO-MM TO WS-USA-MM.                                 PPAPDPFH
076900     MOVE WS-ISO-DD TO WS-USA-DD.                                 PPAPDPFH
077000     MOVE WS-USA-DATE TO HDR-CHECK-DATEO OF PPDPHD0O.             PPAPDPFH
077100                                                                  PPAPDPFH
077200     PERFORM 3500-FORMAT-SSN                                      PPAPDPFH
077300                                                                  PPAPDPFH
077400     IF CPWSWORK-CURRENT-PAGE = ZERO                              PPAPDPFH
077500        MOVE SPACES          TO LCURRENT-PAGEO OF PPDPHD0O        PPAPDPFH
077600                                LTOTAL-PAGESO OF PPDPHD0O         PPAPDPFH
077700                                CURRENT-PAGEO OF PPDPHD0O         PPAPDPFH
077800                                TOTAL-PAGESO OF PPDPHD0O          PPAPDPFH
077900     ELSE                                                         PPAPDPFH
078000        MOVE CPWSWORK-CURRENT-PAGE TO CURRENT-PAGEO OF PPDPHD0O   PPAPDPFH
078100        MOVE CPWSWORK-TOTAL-PAGES  TO TOTAL-PAGESO OF PPDPHD0O    PPAPDPFH
078200     END-IF.                                                      PPAPDPFH
078300                                                                  PPAPDPFH
078400     MOVE CPWSWORK-DISPLAY-ID         TO HDR-IDO                  PPAPDPFH
078500                                                                  PPAPDPFH
078600     MOVE EMP-NAME OF EUD-ROW TO HDR-NAMEO                        PPAPDPFH
078700                                                                  PPAPDPFH
078800     MOVE HOME-DEPT OF EUD-ROW TO HDR-HOME-DEPT-CODEO             PPAPDPFH
078900     PERFORM 9000-SELECT-HME                                      PPAPDPFH
079000     IF SQLCODE = ZERO                                            PPAPDPFH
079100        MOVE HME-ABRV-DEPT-NAME TO HDR-HOME-DEPT-TRANSLATIONO     PPAPDPFH
079200     ELSE                                                         PPAPDPFH
079300        MOVE SPACES TO HDR-HOME-DEPT-TRANSLATIONO                 PPAPDPFH
079400     END-IF.                                                      PPAPDPFH
079500                                                                  PPAPDPFH
079600     MOVE CHK-DISP-CODE OF EUD-ROW TO HDR-CHK-DISP-CODEO.         PPAPDPFH
079700     MOVE EMP-STATUS    OF EUD-ROW TO HDR-EMP-STATUSO.            PPAPDPFH
079800     MOVE CHK-NO        OF EUD-ROW TO HDR-CHECK-NUMO.             PPAPDPFH
079900                                                                  PPAPDPFH
080000     EVALUATE RECORD-TYPE OF EUD-ROW                              PPAPDPFH
080100       WHEN  '85'                                                 PPAPDPFH
080200             MOVE 'CUR-ACTIVITY'   TO HDR-RECORD-TYPEO            PPAPDPFH
080300       WHEN  '65'                                                 PPAPDPFH
080400             MOVE 'EXPENSE-TRFR'   TO HDR-RECORD-TYPEO            PPAPDPFH
080500       WHEN  '70'                                                 PPAPDPFH
080600             MOVE 'CANCELLATION'   TO HDR-RECORD-TYPEO            PPAPDPFH
080700       WHEN  '75'                                                 PPAPDPFH
080800             MOVE 'OVERPAYMENT '   TO HDR-RECORD-TYPEO            PPAPDPFH
080900       WHEN  '80'                                                 PPAPDPFH
081000             MOVE 'HAND-DRAWN  '   TO HDR-RECORD-TYPEO            PPAPDPFH
081100       WHEN  '82'                                                 PPAPDPFH
081200             MOVE 'R-HAND-DRAWN'   TO HDR-RECORD-TYPEO            PPAPDPFH
081300       WHEN  OTHER                                                PPAPDPFH
081400             MOVE 'UNKNOWN TYPE'   TO HDR-RECORD-TYPEO            PPAPDPFH
081500     END-EVALUATE.                                                PPAPDPFH
081600                                                                  PPAPDPFH
081700     MOVE PRI-GROSS-CTL OF EUD-ROW TO HDR-PRI-GROSS-CTLO.         PPAPDPFH
081800                                                                  PPAPDPFH
081900 3100-EXIT.                                                       PPAPDPFH
082000     EXIT.                                                        PPAPDPFH
082100                                                                  PPAPDPFH
082200     EJECT                                                        PPAPDPFH
082300                                                                  PPAPDPFH
082400 3200-DETAIL-HEADER-2   SECTION.                                  PPAPDPFH
082500**************************************************************    PPAPDPFH
082600*  MOVE DATA INTO THE SECOND DETAIL HEADER MAP               *    PPAPDPFH
082700**************************************************************    PPAPDPFH
082800                                                                  PPAPDPFH
082900     STRING UCPIROFH-DTL-MAP-NAME DELIMITED BY SPACE,             PPAPDPFH
083000            '-'                   DELIMITED BY SIZE,              PPAPDPFH
083100            UCPISCRN-DTL-REL-NO   DELIMITED BY SIZE               PPAPDPFH
083200       INTO MAP-NAMEO OF PPD3HD0O                                 PPAPDPFH
083300     END-STRING.                                                  PPAPDPFH
083400                                                                  PPAPDPFH
083500     MOVE SPACES TO SUBSYSTEM-NAMEO OF PPD3HD0O                   PPAPDPFH
083600     MOVE UCPIROFH-SUBSYSTEM-NAME                                 PPAPDPFH
083700        TO SUBSYSTEM-NAMEO OF PPD3HD0O (WS-SS-CTR:WS-SS-CTR-2)    PPAPDPFH
083800                                                                  PPAPDPFH
083900     MOVE SPACES TO SCREEN-NAMEO OF PPD3HD0O                      PPAPDPFH
084000     MOVE UCPIROFH-FUNC-DESC                                      PPAPDPFH
084100           TO SCREEN-NAMEO OF PPD3HD0O (WS-FN-CTR:WS-FN-CTR-2)    PPAPDPFH
084200                                                                  PPAPDPFH
084300     MOVE UCCOMMON-BUNDLE-NAME TO BUNDLE-NAMEO OF PPD3HD0O.       PPAPDPFH
084400     MOVE UCCOMMON-DATE-X TO DATEO OF PPD3HD0O                    PPAPDPFH
084500     MOVE UCCOMMON-TIME-X TO TIMEO OF PPD3HD0O                    PPAPDPFH
084600     MOVE UCCOMMON-USERID TO USERIDO OF PPD3HD0O.                 PPAPDPFH
084700                                                                  PPAPDPFH
084800 3200-EXIT.                                                       PPAPDPFH
084900     EXIT.                                                        PPAPDPFH
085000                                                                  PPAPDPFH
085100     EJECT                                                        PPAPDPFH
085200                                                                  PPAPDPFH
085300 3300-DETAIL-HEADER-3   SECTION.                                  PPAPDPFH
085400**************************************************************    PPAPDPFH
085500*  MOVE DATA INTO THE THIRD DETAIL HEADER MAP                *    PPAPDPFH
085600**************************************************************    PPAPDPFH
085700                                                                  PPAPDPFH
085800     STRING UCPIROFH-DTL-MAP-NAME DELIMITED BY SPACE,             PPAPDPFH
085900            '-'                   DELIMITED BY SIZE,              PPAPDPFH
086000            UCPISCRN-DTL-REL-NO   DELIMITED BY SIZE               PPAPDPFH
086100       INTO MAP-NAMEO OF PPD2HD0O                                 PPAPDPFH
086200     END-STRING.                                                  PPAPDPFH
086300                                                                  PPAPDPFH
086400     MOVE SPACES TO SUBSYSTEM-NAMEO OF PPD2HD0O                   PPAPDPFH
086500     MOVE UCPIROFH-SUBSYSTEM-NAME                                 PPAPDPFH
086600        TO SUBSYSTEM-NAMEO OF PPD2HD0O (WS-SS-CTR:WS-SS-CTR-2)    PPAPDPFH
086700                                                                  PPAPDPFH
086800     MOVE SPACES TO SCREEN-NAMEO OF PPD2HD0O                      PPAPDPFH
086900     MOVE UCPIROFH-FUNC-DESC                                      PPAPDPFH
087000           TO SCREEN-NAMEO OF PPD2HD0O (WS-FN-CTR:WS-FN-CTR-2)    PPAPDPFH
087100                                                                  PPAPDPFH
087200     MOVE UCCOMMON-BUNDLE-NAME TO BUNDLE-NAMEO OF PPD2HD0O.       PPAPDPFH
087300                                                                  PPAPDPFH
087400     MOVE UCCOMMON-DATE-X TO DATEO OF PPD2HD0O                    PPAPDPFH
087500     MOVE UCCOMMON-TIME-X TO TIMEO OF PPD2HD0O                    PPAPDPFH
087600                                                                  PPAPDPFH
087700     MOVE UCCOMMON-USERID TO USERIDO OF PPD2HD0O                  PPAPDPFH
087800                                                                  PPAPDPFH
087900     MOVE PAY-CYCLE-CODE OF EUD-ROW TO HDR-PAY-CYCLEO OF PPD2HD0O.PPAPDPFH
088000                                                                  PPAPDPFH
088100     MOVE PAY-CYCLE-END-DATE OF EUD-ROW TO WS-ISO-DATE.           PPAPDPFH
088200     MOVE WS-ISO-YY TO WS-USA-YY.                                 PPAPDPFH
088300     MOVE WS-ISO-MM TO WS-USA-MM.                                 PPAPDPFH
088400     MOVE WS-ISO-DD TO WS-USA-DD.                                 PPAPDPFH
088500     MOVE WS-USA-DATE TO HDR-PROCESS-DATEO OF PPD2HD0O.           PPAPDPFH
088600                                                                  PPAPDPFH
088700     MOVE CHK-DATE OF EUD-ROW TO WS-ISO-DATE.                     PPAPDPFH
088800     MOVE WS-ISO-YY TO WS-USA-YY.                                 PPAPDPFH
088900     MOVE WS-ISO-MM TO WS-USA-MM.                                 PPAPDPFH
089000     MOVE WS-ISO-DD TO WS-USA-DD.                                 PPAPDPFH
089100     MOVE WS-USA-DATE TO HDR-CHECK-DATEO OF PPD2HD0O.             PPAPDPFH
089200                                                                  PPAPDPFH
089300     IF CPWSWORK-CURRENT-PAGE = ZERO                              PPAPDPFH
089400        MOVE SPACES         TO LCURRENT-PAGEO OF PPD2HD0O         PPAPDPFH
089500                               LTOTAL-PAGESO OF PPD2HD0O          PPAPDPFH
089600                               CURRENT-PAGEO OF PPD2HD0O          PPAPDPFH
089700                               TOTAL-PAGESO OF PPD2HD0O           PPAPDPFH
089800     ELSE                                                         PPAPDPFH
089900        MOVE CPWSWORK-CURRENT-PAGE TO CURRENT-PAGEO OF PPD2HD0O   PPAPDPFH
090000        MOVE CPWSWORK-TOTAL-PAGES  TO TOTAL-PAGESO OF PPD2HD0O    PPAPDPFH
090100     END-IF.                                                      PPAPDPFH
090200                                                                  PPAPDPFH
090300                                                                  PPAPDPFH
090400 3300-EXIT.                                                       PPAPDPFH
090500     EXIT.                                                        PPAPDPFH
090600                                                                  PPAPDPFH
090700     EJECT                                                        PPAPDPFH
090800                                                                  PPAPDPFH
090900 3400-MENU-HEADER   SECTION.                                      PPAPDPFH
091000**************************************************************    PPAPDPFH
091100*  MOVE DATA INTO THE MENU HEADER MAP                        *    PPAPDPFH
091200**************************************************************    PPAPDPFH
091300                                                                  PPAPDPFH
091400     STRING UCPIROFH-DTL-MAP-NAME DELIMITED BY SPACE,             PPAPDPFH
091500            '-'                   DELIMITED BY SIZE,              PPAPDPFH
091600            UCPISCRN-DTL-REL-NO   DELIMITED BY SIZE               PPAPDPFH
091700       INTO MAP-NAME-REL-NUMBERO                                  PPAPDPFH
091800     END-STRING.                                                  PPAPDPFH
091900                                                                  PPAPDPFH
092000     MOVE SPACES TO SUBSYSTEM-NAMEO OF UCFMHD0O                   PPAPDPFH
092100     MOVE UCPIROFH-SUBSYSTEM-NAME                                 PPAPDPFH
092200        TO SUBSYSTEM-NAMEO OF UCFMHD0O (WS-SS-CTR:WS-SS-CTR-2)    PPAPDPFH
092300                                                                  PPAPDPFH
092400     MOVE SPACES TO SCREEN-NAMEO OF UCFMHD0O                      PPAPDPFH
092500     MOVE UCPIROFH-FUNC-DESC                                      PPAPDPFH
092600           TO SCREEN-NAMEO OF UCFMHD0O (WS-FN-CTR:WS-FN-CTR-2)    PPAPDPFH
092700     MOVE UCCOMMON-DATE-X TO DATEO OF UCFMHD0O                    PPAPDPFH
092800     MOVE UCCOMMON-TIME-X TO TIMEO OF UCFMHD0O                    PPAPDPFH
092900     MOVE UCCOMMON-USERID TO USERIDO OF UCFMHD0O.                 PPAPDPFH
093000                                                                  PPAPDPFH
093100 3400-EXIT.                                                       PPAPDPFH
093200     EXIT.                                                        PPAPDPFH
093300                                                                  PPAPDPFH
093400     EJECT                                                        PPAPDPFH
093500                                                                  PPAPDPFH
093600 3500-FORMAT-SSN      SECTION.                                    PPAPDPFH
093700**************************************************************    PPAPDPFH
093800*  CALL PPPVREDO TO FORMAT THE SSN WITH DASHES.              *    PPAPDPFH
093900**************************************************************    PPAPDPFH
094000     INITIALIZE CPWSDEED-EXT-DATA.                                PPAPDPFH
094100     MOVE 1 TO CPWSDEED-CNT.                                      PPAPDPFH
094200     MOVE '0111' TO CPWSDEED-ELEM-NUMBER (1).                     PPAPDPFH
094300     MOVE SOC-SEC-NO OF EUD-ROW TO CPWSDEED-EDB-DATA (1)          PPAPDPFH
094400     SET CPWSDEED-ELEM-REQUEST-DISPLAY (1) TO TRUE.               PPAPDPFH
094500                                                                  PPAPDPFH
094600     CALL WS-PPPVREDO.                                            PPAPDPFH
094700                                                                  PPAPDPFH
094800     MOVE CPWSDEED-SCREEN-DATA (1) (1:11) TO HDR-SSNO.            PPAPDPFH
094900                                                                  PPAPDPFH
095000 3500-EXIT.                                                       PPAPDPFH
095100     EXIT.                                                        PPAPDPFH
095200                                                                  PPAPDPFH
095300     EJECT                                                        PPAPDPFH
095400                                                                  PPAPDPFH
095500 9000-SELECT-HME   SECTION.                                       PPAPDPFH
095600**************************************************************    PPAPDPFH
095700*  SELECT THE HOME DEPARTMENT NAME FROM THE HME TABLE        *    PPAPDPFH
095800**************************************************************    PPAPDPFH
095900                                                                  PPAPDPFH
096000     MOVE HOME-DEPT OF EUD-ROW TO HME-DEPT-NO.                    PPAPDPFH
096100                                                                  PPAPDPFH
096200     MOVE 'SELECT HME' TO DB2MSG-TAG.                             PPAPDPFH
096300                                                                  PPAPDPFH
096400     EXEC SQL                                                     PPAPDPFH
096500          SELECT HME_ABRV_DEPT_NAME                               PPAPDPFH
096600          INTO  :HME-ABRV-DEPT-NAME                               PPAPDPFH
096700          FROM PPPVZHME_HME                                       PPAPDPFH
096800          WHERE HME_DEPT_NO = :HME-DEPT-NO                        PPAPDPFH
096900     END-EXEC.                                                    PPAPDPFH
097000                                                                  PPAPDPFH
097100 9000-EXIT.                                                       PPAPDPFH
097200     EXIT.                                                        PPAPDPFH
097300                                                                  PPAPDPFH
097400     EJECT                                                        PPAPDPFH
097500                                                                  PPAPDPFH
097600 9999-ABEND                           SECTION.                    PPAPDPFH
097700**************************************************************    PPAPDPFH
097800*  COPIED PROCEDURE DIVISION CODE FOR ABEND HANDLING         *    PPAPDPFH
097900**************************************************************    PPAPDPFH
098000     MOVE 'PPAPDPFH' TO UCWSABND-ABENDING-PGM.                    PPAPDPFH
098100     COPY UCPDABND.                                               PPAPDPFH
098200                                                                  PPAPDPFH
098300 9999-EXIT.                                                       PPAPDPFH
098400     EXIT.                                                        PPAPDPFH
098500*999999-SQL-ERROR SECTION.                                        PPAPDPFH
098600**************************************************************    PPAPDPFH
098700*  COPIED PROCEDURE DIVISION CODE FOR SQL ERROR HANDLING     *    PPAPDPFH
098800**************************************************************    PPAPDPFH
098900                                                                  PPAPDPFH
099000      EXEC SQL                                                    PPAPDPFH
099100           INCLUDE CPPDXP99                                       PPAPDPFH
099200      END-EXEC.                                                   PPAPDPFH
099300                                                                  PPAPDPFH
099400      MOVE 'SQL ERROR - SEE PRECEDING DB2 MESSAGES'               PPAPDPFH
099500                                      TO UCWSABND-ABEND-DATA (1). PPAPDPFH
099600                                                                  PPAPDPFH
099700      PERFORM 9999-ABEND.                                         PPAPDPFH
099800                                                                  PPAPDPFH
099900 999999-EXIT.                                                     PPAPDPFH
100000       EXIT.                                                      PPAPDPFH
100100***************    END OF SOURCE - PPAPDPFH    *******************PPAPDPFH
