000100*===========================================================%     UCSD0079
000200*=  UCSD LOCAL CHANGES HAVE BEEN IMPLEMENTED.              =%     UCSD0079
000300*=  COLUMN 73 THRU 80 DENOTES CHANGE NUMBER - UCSD0079     =%     UCSD0079
000400*=                                                         =%     UCSD0079
000500*===========================================================%     UCSD0079
000600*==========================================================%      UCSD0154
000700*=    PROGRAM: PPAPORUP                                   =%      UCSD0154
000092*=    CHANGE: UCSD0154      PROJ. REQUEST: PAYROLL OFFICE =%      UCSD0154
000093*=    NAME: G CHIU          MODIFICATION DATE: 11/13/01   =%      UCSD0154
001000*=                                                        =%      UCSD0154
000095*=  WHEN  PPPABD ROWS WERE DELETED, THE CORRESSPONDING    =%      UCSD0154
000096*=  ABF ROWS SHOULD BE DELETED TOO.                       =%      UCSD0154
001600*==========================================================%      UCSD0154
000600*==========================================================%      UCSD0079
000700*=    PROGRAM: PPAPORUP                                   =%      UCSD0079
000092*=    CHANGE: UCSD0079      PROJ. REQUEST: PPR303         =%      UCSD0079
000093*=    NAME: RON BLOCK       MODIFICATION DATE: 9/18/95    =%      UCSD0079
001000*=                                                        =%      UCSD0079
000095*=  IN 1000-CALL-PPRCOPT1, DO NOT MOVE SPACES TO          =%      UCSD0079
000096*=  RCTS-INPUT-DATA IF RCTS-PREVIEW = 'Y'.                =%      UCSD0079
001600*==========================================================%      UCSD0079
000000**************************************************************/   48681411
000001*  PROGRAM: PPAPORUP                                         */   48681411
000002*  RELEASE: ___1411______ SERVICE REQUEST(S): ____14868____  */   48681411
000003*  NAME:_______QUAN______ MODIFICATION DATE:  ___04/23/02__  */   48681411
000004*  DESCRIPTION:                                              */   48681411
000005*  - ADDED OLRC FUNCTION RC12.                               */   48681411
000007**************************************************************/   48681411
000010**************************************************************/   32021138
000020*  PROGRAM: PPAPORUP                                         */   32021138
000030*  RELEASE: ___1138______ SERVICE REQUEST(S): ____13202____  */   32021138
000040*  NAME:______PAYJIG_____ MODIFICATION DATE:  ___08/04/97__  */   32021138
000050*  DESCRIPTION:                                              */   32021138
000060*  - MODIFIED FOR FULL ACCOUNTING UNIT                       */   32021138
000070**************************************************************/   32021138
000100**************************************************************/   EFIX1078
000200*  PROGRAM: PPAPORUP                                         */   EFIX1078
000300*  RELEASE: ___1078______ SERVICE REQUEST(S): _____EFIX____  */   EFIX1078
000400*  NAME:_______SRS_______ MODIFICATION DATE:  __07/17/96____ */   EFIX1078
000500*  DESCRIPTION: ERROR REPORT 1415:                           */   EFIX1078
000600*  - RESET SPEC-INIT-IND FOR RCOV TO CLEAR ENTRY FIELDS      */   EFIX1078
000700**************************************************************/   EFIX1078
000100**************************************************************/   36430943
000200*  PROGRAM: PPAPORUP                                         */   36430943
000300*  RELEASE: ___0943______ SERVICE REQUEST(S): _____3643____  */   36430943
000400*  NAME:_______SRS_______ MODIFICATION DATE:  __11/10/94____ */   36430943
000500*  DESCRIPTION:                                              */   36430943
000600*     MODIFY CPWSRCPW EXTERNAL REFERENCE FOR CONSISTENCY     */   36430943
000700**************************************************************/   36430943
000100**************************************************************/   36430911
000200*  PROGRAM: PPAPORUP                                         */   36430911
000300*  RELEASE: ___0911______ SERVICE REQUEST(S): _____3643____  */   36430911
000400*  NAME:_______SRS_______ MODIFICATION DATE:  __06/30/94____ */   36430911
000500*  DESCRIPTION:                                              */   36430911
000600*     SPECIAL PROCESSES  'UPDATE'    APPLICATION PROCESSOR   */   36430911
000700**************************************************************/   36430911
000800 IDENTIFICATION DIVISION.                                         PPAPORUP
000900 PROGRAM-ID. PPAPORUP.                                            PPAPORUP
001000 ENVIRONMENT DIVISION.                                            PPAPORUP
001100 CONFIGURATION SECTION.                                           PPAPORUP
001200 SOURCE-COMPUTER.                                  COPY CPOTXUCS. PPAPORUP
001300 OBJECT-COMPUTER.                                  COPY CPOTXOBJ. PPAPORUP
001400 DATA DIVISION.                                                   PPAPORUP
001500 WORKING-STORAGE SECTION.                                         PPAPORUP
001600 01  WS-MISC.                                                     PPAPORUP
001700     05  A-STND-PROG-ID          PIC X(15) VALUE 'PPAPORUP'.      PPAPORUP
001800     05  WS-EIN-ORIG             PIC X(09).                       PPAPORUP
001900     05  WS-EIN-OVER             PIC X(09).                       PPAPORUP
002000     05  WS-CHECK-ORIG           PIC X(06).                       PPAPORUP
002100     05  WS-CHECK-OVER           PIC X(06).                       PPAPORUP
002200     05  IX1                     PIC S9(4) COMP.                  PPAPORUP
002300     05  WS-PPRCOPT1             PIC X(15) VALUE 'PPRCOPT1'.      PPAPORUP
002400     05  WS-PPRCOPT2             PIC X(15) VALUE 'PPRCOPT2'.      PPAPORUP
002500     05  WS-PPRCOPT3             PIC X(15) VALUE 'PPRCOPT3'.      PPAPORUP
002600     05  WS-PPRCMDL2             PIC X(15) VALUE 'PPRCMDL2'.      PPAPORUP
002700     05  WS-PPORCNCL             PIC X(15) VALUE 'PPORCNCL'.      PPAPORUP
002800     05  WS-PPOROVPY             PIC X(15) VALUE 'PPOROVPY'.      PPAPORUP
002900     05  WS-PPORRVSL             PIC X(15) VALUE 'PPORRVSL'.      PPAPORUP
003000     05  WS-PPORDLTE             PIC X(15) VALUE 'PPORDLTE'.      PPAPORUP
003100     05  WS-PPOROVRD             PIC X(15) VALUE 'PPOROVRD'.      PPAPORUP
003110     05  WS-UCOLRMLC             PIC X(15) VALUE 'UCOLRMLC'.      48681411
003200     05  MP0407                  PIC X(05) VALUE 'P0407'.         PPAPORUP
003300     05  MP0418                  PIC X(05) VALUE 'P0418'.         PPAPORUP
003400     05  MP0419                  PIC X(05) VALUE 'P0419'.         PPAPORUP
003500     05  MP0422                  PIC X(05) VALUE 'P0422'.         PPAPORUP
003600     05  MP0501                  PIC X(05) VALUE 'P0501'.         PPAPORUP
003700     05  MP0507                  PIC X(05) VALUE 'P0507'.         PPAPORUP
003800     05  MP0514                  PIC X(05) VALUE 'P0514'.         PPAPORUP
003900     05  MP0596                  PIC X(05) VALUE 'P0596'.         PPAPORUP
003910 01  DATE-CONVERSION-WORK-AREAS.         COPY CPWSXDC3.           48681411
003920                                                                  48681411
003930 01  UCWSOLRM   EXTERNAL.                                         48681411
003940     COPY UCWSOLRM.                                               48681411
003950                                                                  48681411
004000 01  UCPISCRN   EXTERNAL.                                         PPAPORUP
004100     COPY UCPISCRN.                                               PPAPORUP
004200 01  CPWSSPEC    EXTERNAL.                                        PPAPORUP
004300     EXEC SQL                                                     PPAPORUP
004400        INCLUDE CPWSSPEC                                          PPAPORUP
004500     END-EXEC.                                                    PPAPORUP
004610 01  RCPW-INTERFACE-DATA EXTERNAL.                                36430943
004700     EXEC SQL                                                     PPAPORUP
004800        INCLUDE CPWSRCPW                                          PPAPORUP
004900     END-EXEC.                                                    PPAPORUP
005000 01  CPWSRCTS    EXTERNAL.                                        PPAPORUP
005100     EXEC SQL                                                     PPAPORUP
005200        INCLUDE CPWSRCTS                                          PPAPORUP
005300     END-EXEC.                                                    PPAPORUP
005400 01  CPWSORTS    EXTERNAL.                                        PPAPORUP
005500     EXEC SQL                                                     PPAPORUP
005600        INCLUDE CPWSORTS                                          PPAPORUP
005700     END-EXEC.                                                    PPAPORUP
005800 01  UCCOMMON    EXTERNAL.                                        PPAPORUP
005900     COPY UCCOMMON.                                               PPAPORUP
006000 01  UCPIROFE    EXTERNAL.                                        PPAPORUP
006100     COPY UCPIROFE.                                               PPAPORUP
006200 01  UCWSABND    EXTERNAL.                                        PPAPORUP
006300     COPY UCWSABND.                                               PPAPORUP
006400 01  PPDB2MSG-INTERFACE.            COPY CPLNKDB2.                PPAPORUP
006500 01  ABC-ROW EXTERNAL.                                            PPAPORUP
006600     EXEC SQL                                                     PPAPORUP
006700        INCLUDE PPPVZABC                                          PPAPORUP
006800     END-EXEC.                                                    PPAPORUP
006900 01  ABD-ROW-DATA.                                                PPAPORUP
007000     EXEC SQL                                                     PPAPORUP
007100        INCLUDE PPPVZABD                                          PPAPORUP
007200     END-EXEC.                                                    PPAPORUP
007300 01  ABE-ROW.                                                     PPAPORUP
007400     EXEC SQL                                                     PPAPORUP
007500         INCLUDE PPPVZABE                                         PPAPORUP
007600     END-EXEC.                                                    PPAPORUP
007700 01  ABF-ROW.                                                     PPAPORUP
007800     EXEC SQL                                                     PPAPORUP
007900         INCLUDE PPPVZABF                                         PPAPORUP
008000     END-EXEC.                                                    PPAPORUP
008100     EXEC SQL                                                     PPAPORUP
008200          INCLUDE SQLCA                                           PPAPORUP
008300     END-EXEC.                                                    PPAPORUP
008400                                                                  PPAPORUP
008500 PROCEDURE DIVISION.                                              PPAPORUP
008600                                                                  PPAPORUP
008700     EXEC SQL                                                     PPAPORUP
008800          INCLUDE CPPDXE99                                        PPAPORUP
008900     END-EXEC.                                                    PPAPORUP
009000                                                                  PPAPORUP
009100 0000-MAIN-LINE.                                                  PPAPORUP
009200                                                                  PPAPORUP
009300     INITIALIZE SPEC-MESSAGE-LIST                                 PPAPORUP
009400                SPEC-MSSG-PTR.                                    PPAPORUP
009500     SET UCCOMMON-RETURN-NO-ERRORS TO TRUE.                       PPAPORUP
009600     MOVE  A-STND-PROG-ID TO DB2MSG-PGM-ID.                       PPAPORUP
009700                                                                  PPAPORUP
009800     EVALUATE UCCOMMON-FUNCTION                                   PPAPORUP
009900      WHEN 'RC10'                                                 PPAPORUP
010000           PERFORM 1000-CALL-PPRCOPT1                             PPAPORUP
010100      WHEN 'RC11'                                                 PPAPORUP
010200           PERFORM 1000-CALL-PPRCOPT1                             PPAPORUP
010210      WHEN 'RC12'                                                 48681411
010220           PERFORM 1000-CALL-PPRCOPT1                             48681411
010300      WHEN 'RC20'                                                 PPAPORUP
010400           PERFORM 1500-CALL-PPRCOPT2                             PPAPORUP
010500      WHEN 'RC21'                                                 PPAPORUP
010600           PERFORM 1500-CALL-PPRCOPT2                             PPAPORUP
010700      WHEN 'RC30'                                                 PPAPORUP
010800           PERFORM 2000-CALL-PPRCOPT3                             PPAPORUP
010900      WHEN 'RCAD'                                                 PPAPORUP
011000           PERFORM 2500-RCAD-DELETE                               PPAPORUP
011100      WHEN 'RCOV'                                                 PPAPORUP
011200           PERFORM 3000-RCOV-OVERRIDE                             PPAPORUP
011300      WHEN 'RCO2'                                                 PPAPORUP
011400           PERFORM 3500-CALL-PPRCMDL2                             PPAPORUP
011500      WHEN 'CNCL'                                                 PPAPORUP
011600           PERFORM 4000-CALL-PPORCNCL                             PPAPORUP
011700      WHEN 'OVPY'                                                 PPAPORUP
011800           PERFORM 4500-CALL-PPOROVPY                             PPAPORUP
011900      WHEN 'RVSL'                                                 PPAPORUP
012000           PERFORM 5000-CALL-PPORRVSL                             PPAPORUP
012100      WHEN 'DLTE'                                                 PPAPORUP
012200           PERFORM 5500-CALL-PPORDLTE                             PPAPORUP
012300      WHEN 'RLSE'                                                 PPAPORUP
012400           PERFORM 6000-RLSE-ORCA                                 PPAPORUP
012500      WHEN 'OVRD'                                                 PPAPORUP
012600           PERFORM 6500-CALL-PPOROVRD                             PPAPORUP
012700      WHEN OTHER                                                  PPAPORUP
012800           PERFORM 9000-INVALID-REQUEST-CODE                      PPAPORUP
012900     END-EVALUATE.                                                PPAPORUP
013000     GOBACK.                                                      PPAPORUP
013100                                                                  PPAPORUP
013200 1000-CALL-PPRCOPT1.                                              PPAPORUP
013300                                                                  PPAPORUP
013400     CALL WS-PPRCOPT1 USING DFHEIBLK.                             PPAPORUP
013500     IF SPEC-MSSG-NO (1) NOT = SPACES                             PPAPORUP
013600        SET UCPISCRN-MORE-MESSAGES TO TRUE                        PPAPORUP
013700        SET UCCOMMON-EDIT-ERRORS-FOUND TO TRUE                    PPAPORUP
013800     ELSE                                                         PPAPORUP
013900        SET UCPISCRN-CURSOR-IN-FOOTER TO TRUE                     PPAPORUP
014000        SET UCPISCRN-MORE-MESSAGES TO TRUE                        PPAPORUP
014100        MOVE MP0501 TO SPEC-MSSG-NO (1)                           PPAPORUP
014200        MOVE 1 TO SPEC-MSSG-PAGE (1)                              PPAPORUP
014210        IF RCTS-NOTIF-EMAIL-ADDRESS NOT = SPACES                  48681411
014220        AND UCCOMMON-LOGIC-FUNC-UPDATE                            48681411
014232            PERFORM 1200-WRITE-EMAIL-TRIGGER                      48681411
014240        END-IF                                                    48681411
014300*****   MOVE SPACES TO RCTS-INPUT-DATA                            UCSD0079
013700        IF RCTS-PREVIEW NOT = 'Y'                                 UCSD0079
014300           MOVE SPACES TO RCTS-INPUT-DATA                         UCSD0079
013700        END-IF                                                    UCSD0079
014400     END-IF.                                                      PPAPORUP
014500     MOVE 1 TO SPEC-MSSG-PTR.                                     PPAPORUP
014600     MOVE SPEC-MSSG-NO (SPEC-MSSG-PTR) TO UCCOMMON-MSG-NUMBER.    PPAPORUP
014700                                                                  PPAPORUP
014710 1200-WRITE-EMAIL-TRIGGER.                                        48681411
014720******************************************************************48681411
014730*  INVOKE THE ELECTRONIC MAIL DISTRIBUTION PROGRAM TO SEND THE    48681411
014740*  COMPLETED NOTIFICATIONS TO RECIPIENT IN APPROPRIATE DEPARTMENT*48681411
014750******************************************************************48681411
014760     INITIALIZE UCWSOLRM-DATA.                                    48681411
014770                                                                  48681411
014780     MOVE RCTS-ID      TO UCWSOLRM-OLRC-EMPLOYEE-ID.              48681411
014790     MOVE RCTS-NAME    TO UCWSOLRM-OLRC-EMPLOYEE-NAME.            48681411
014792     MOVE RCTS-TRANS-DATE-MMDDCCYY TO XDC3-INPUT8-DATE.           48681411
014793     PERFORM XDC3-VALIDATE-INPUT8-TO-ISO.                         48681411
014794     PERFORM XDC3-CONVERT-ISO-TO-FMT.                             48681411
014795     MOVE XDC3-FMT-DATE TO UCWSOLRM-OLRC-PROCESS-DATE.            48681411
014796     MOVE RCTS-CHK-AVAIL-DATE-MMDDYY TO XDC3-INPUT6-DATE.         48681411
014797     PERFORM XDC3-VALIDATE-INPUT6-TO-ISO.                         48681411
014798     PERFORM XDC3-CONVERT-ISO-TO-FMT.                             48681411
014799     MOVE XDC3-FMT-DATE TO UCWSOLRM-OLRC-CHECK-AVAIL-DATE.        48681411
014800     MOVE RCTS-NOTIF-EMAIL-ADDRESS                                48681411
014801                       TO UCWSOLRM-OLRC-EMAIL-ADDRESS.            48681411
014802     MOVE RCTS-COMMENTS-LINE-1                                    48681411
014803                       TO UCWSOLRM-OLRC-COMMENT-LINE1.            48681411
014804     MOVE RCTS-COMMENTS-LINE-2                                    48681411
014805                       TO UCWSOLRM-OLRC-COMMENT-LINE2.            48681411
014806     MOVE RCTS-COMMENTS-LINE-3                                    48681411
014807                       TO UCWSOLRM-OLRC-COMMENT-LINE3.            48681411
014808                                                                  48681411
014809     CALL WS-UCOLRMLC.                                            48681411
014810                                                                  48681411
014811                                                                  48681411
014800 1500-CALL-PPRCOPT2.                                              PPAPORUP
014900                                                                  PPAPORUP
015000     CALL WS-PPRCOPT2 USING DFHEIBLK.                             PPAPORUP
015100     IF SPEC-MSSG-NO (1) NOT = SPACES                             PPAPORUP
015200        SET UCPISCRN-MORE-MESSAGES TO TRUE                        PPAPORUP
015300        SET UCCOMMON-EDIT-ERRORS-FOUND TO TRUE                    PPAPORUP
015400     ELSE                                                         PPAPORUP
015500        SET UCPISCRN-CURSOR-IN-FOOTER TO TRUE                     PPAPORUP
015600        MOVE SPACES TO RCTS-INPUT-DATA                            PPAPORUP
015700        SET UCPISCRN-MORE-MESSAGES TO TRUE                        PPAPORUP
015800        MOVE MP0419 TO SPEC-MSSG-NO (1)                           PPAPORUP
015900        MOVE 1 TO SPEC-MSSG-PAGE (1)                              PPAPORUP
016000     END-IF.                                                      PPAPORUP
016100     MOVE 1 TO SPEC-MSSG-PTR.                                     PPAPORUP
016200     MOVE SPEC-MSSG-NO (SPEC-MSSG-PTR) TO UCCOMMON-MSG-NUMBER.    PPAPORUP
016300                                                                  PPAPORUP
016400 2000-CALL-PPRCOPT3.                                              PPAPORUP
016500                                                                  PPAPORUP
016600     CALL WS-PPRCOPT3 USING DFHEIBLK.                             PPAPORUP
016700     IF SPEC-MSSG-NO (1) NOT = SPACES                             PPAPORUP
016800        SET UCPISCRN-MORE-MESSAGES TO TRUE                        PPAPORUP
016900        SET UCCOMMON-EDIT-ERRORS-FOUND TO TRUE                    PPAPORUP
017000     ELSE                                                         PPAPORUP
017100        SET UCPISCRN-CURSOR-IN-FOOTER TO TRUE                     PPAPORUP
017200        SET UCPISCRN-MORE-MESSAGES TO TRUE                        PPAPORUP
017300        MOVE MP0501 TO SPEC-MSSG-NO (1)                           PPAPORUP
017400        MOVE 1 TO SPEC-MSSG-PAGE (1)                              PPAPORUP
017500        MOVE SPACES TO RCTS-INPUT-DATA                            PPAPORUP
017600     END-IF.                                                      PPAPORUP
017700     MOVE 1 TO SPEC-MSSG-PTR.                                     PPAPORUP
017800     MOVE SPEC-MSSG-NO (SPEC-MSSG-PTR) TO UCCOMMON-MSG-NUMBER.    PPAPORUP
017900                                                                  PPAPORUP
018000 2500-RCAD-DELETE.                                                PPAPORUP
018100                                                                  PPAPORUP
018200     IF SPEC-DELETE-IND NOT = 'Y'                                 PPAPORUP
018300        MOVE MP0596 TO UCCOMMON-MSG-NUMBER                        PPAPORUP
018400     ELSE                                                         PPAPORUP
018500        EXEC SQL                                                  PPAPORUP
018600             DELETE FROM PPPVZABD_ABD                             PPAPORUP
018700             WHERE CHECK_NUMBER = :SPEC-ENTERED-CHECK             PPAPORUP
018800        END-EXEC                                                  PPAPORUP
018900***WHEN RUSH CHECK TRANSACTIONS ARE DELETED FROM PPPABD, THE      PPAPORUP
018900***CORRELATED PPPABF ROW SHOULD BE DELETED TOO. THE PPPABF DOES   PPAPORUP
018900***NOT CARRY CHECK-NO, SO THE EMPLOYEE ID IS USED AS DELETE KEY.  PPAPORUP
018900***IN CASE IF THERE ARE MORE THAN ONE CHECKS ARE ISSUED TO A      PPAPORUP
018900***GIVEN EMPLOYEE, ALL THE PPPABF ROWS FOR THAT EMPLOYEE ARE      PPAPORUP
018900***DELETED.  THE CORRECT WAY TO PURGE PPPABF IS TO MODIFY THE     PPAPORUP
018900***RUSH PROCESS TO CARRY CHECK-NO IN THE PPPABF.                  PPAPORUP
018900        IF SQLCODE = ZERO                                         PPAPORUP
018500        EXEC SQL                                                  UCSD0154
018600             DELETE FROM PPPVZABF_ABF                             UCSD0154
018700             WHERE VENDOR_ID_NO = :RCTS-ID                        UCSD0154
018800        END-EXEC                                                  UCSD0154
018900         IF SQLCODE = ZERO                                        UCSD0154
019000           MOVE MP0422 TO UCCOMMON-MSG-NUMBER                     PPAPORUP
019100         ELSE                                                     UCSD0154
019200           MOVE MP0407 TO UCCOMMON-MSG-NUMBER                     UCSD0154
019300         END-IF                                                   UCSD0154
019100        ELSE                                                      PPAPORUP
019200           MOVE MP0407 TO UCCOMMON-MSG-NUMBER                     PPAPORUP
019300        END-IF                                                    PPAPORUP
019400     END-IF.                                                      PPAPORUP
019500     MOVE SPACE TO SPEC-DELETE-IND.                               PPAPORUP
019600     SET UCPISCRN-CURSOR-IN-FOOTER TO TRUE.                       PPAPORUP
019700     SET UCPISCRN-MORE-MESSAGES TO TRUE.                          PPAPORUP
019800                                                                  PPAPORUP
019900 3000-RCOV-OVERRIDE.                                              PPAPORUP
020000                                                                  PPAPORUP
020100     SET UCPISCRN-CURSOR-IN-FOOTER TO TRUE.                       PPAPORUP
020200     SET UCPISCRN-MORE-MESSAGES TO TRUE.                          PPAPORUP
020300     PERFORM VARYING IX1 FROM 1 BY 1 UNTIL IX1 > 10               PPAPORUP
020400      IF SPEC-ORIG-EIN (IX1) NOT = SPACES                         PPAPORUP
020500         MOVE SPEC-ORIG-EIN (IX1) TO WS-EIN-ORIG                  PPAPORUP
020600         MOVE SPEC-OVRD-EIN (IX1) TO WS-EIN-OVER                  PPAPORUP
020700         PERFORM 9400-EIN-OVERRIDE                                PPAPORUP
020800      END-IF                                                      PPAPORUP
020900      IF SPEC-ORIG-CHK (IX1) NOT = SPACES                         PPAPORUP
021000         MOVE SPEC-ORIG-CHK (IX1) TO WS-CHECK-ORIG                PPAPORUP
021100         MOVE SPEC-OVRD-CHK (IX1) TO WS-CHECK-OVER                PPAPORUP
021200         PERFORM 9500-CHECK-OVERRIDE                              PPAPORUP
021300      END-IF                                                      PPAPORUP
021400     END-PERFORM.                                                 PPAPORUP
021410     MOVE SPACES TO SPEC-INIT-IND.                                EFIX1078
021500                                                                  PPAPORUP
021600 3500-CALL-PPRCMDL2.                                              PPAPORUP
021700                                                                  PPAPORUP
021800     IF RCPW-PRINT-ADVICE-FLAG NOT = 'Y'                          PPAPORUP
021900        MOVE MP0596 TO UCCOMMON-MSG-NUMBER                        PPAPORUP
022000     ELSE                                                         PPAPORUP
022100       CALL WS-PPRCMDL2 USING DFHEIBLK                            PPAPORUP
022200       IF SPEC-MSSG-NO (1) NOT = SPACES                           PPAPORUP
022300          SET UCPISCRN-MORE-MESSAGES TO TRUE                      PPAPORUP
022400          SET UCCOMMON-EDIT-ERRORS-FOUND TO TRUE                  PPAPORUP
022500       ELSE                                                       PPAPORUP
022600          SET UCPISCRN-CURSOR-IN-FOOTER TO TRUE                   PPAPORUP
022700          SET UCPISCRN-MORE-MESSAGES TO TRUE                      PPAPORUP
022800          MOVE MP0418 TO SPEC-MSSG-NO (1)                         PPAPORUP
022900          MOVE 1 TO SPEC-MSSG-PAGE (1)                            PPAPORUP
023000       END-IF                                                     PPAPORUP
023100       MOVE 1 TO SPEC-MSSG-PTR                                    PPAPORUP
023200       MOVE SPEC-MSSG-NO (SPEC-MSSG-PTR) TO UCCOMMON-MSG-NUMBER   PPAPORUP
023300     END-IF.                                                      PPAPORUP
023400                                                                  PPAPORUP
023500 4000-CALL-PPORCNCL.                                              PPAPORUP
023600                                                                  PPAPORUP
023700     CALL WS-PPORCNCL USING DFHEIBLK.                             PPAPORUP
023800     IF SPEC-MSSG-NO (1) NOT = SPACES                             PPAPORUP
023900        SET UCPISCRN-MORE-MESSAGES TO TRUE                        PPAPORUP
024000        SET UCCOMMON-EDIT-ERRORS-FOUND TO TRUE                    PPAPORUP
024100     ELSE                                                         PPAPORUP
024200        SET UCPISCRN-CURSOR-IN-FOOTER TO TRUE                     PPAPORUP
024300        SET UCPISCRN-MORE-MESSAGES TO TRUE                        PPAPORUP
024400        MOVE MP0501 TO SPEC-MSSG-NO (1)                           PPAPORUP
024500        MOVE 1 TO SPEC-MSSG-PAGE (1)                              PPAPORUP
024600        MOVE SPACES TO ORTS-INPUT-DATA                            PPAPORUP
024700     END-IF.                                                      PPAPORUP
024800     MOVE 1 TO SPEC-MSSG-PTR.                                     PPAPORUP
024900     MOVE SPEC-MSSG-NO (SPEC-MSSG-PTR) TO UCCOMMON-MSG-NUMBER.    PPAPORUP
025000                                                                  PPAPORUP
025100 4500-CALL-PPOROVPY.                                              PPAPORUP
025200                                                                  PPAPORUP
025300     CALL WS-PPOROVPY USING DFHEIBLK.                             PPAPORUP
025400     IF SPEC-MSSG-NO (1) NOT = SPACES                             PPAPORUP
025500        SET UCPISCRN-MORE-MESSAGES TO TRUE                        PPAPORUP
025600        SET UCCOMMON-EDIT-ERRORS-FOUND TO TRUE                    PPAPORUP
025700     ELSE                                                         PPAPORUP
025800        SET UCPISCRN-CURSOR-IN-FOOTER TO TRUE                     PPAPORUP
025900        SET UCPISCRN-MORE-MESSAGES TO TRUE                        PPAPORUP
026000        MOVE MP0501 TO SPEC-MSSG-NO (1)                           PPAPORUP
026100        MOVE 1 TO SPEC-MSSG-PAGE (1)                              PPAPORUP
026200        MOVE SPACES TO ORTS-INPUT-DATA                            PPAPORUP
026300     END-IF.                                                      PPAPORUP
026400     MOVE 1 TO SPEC-MSSG-PTR.                                     PPAPORUP
026500     MOVE SPEC-MSSG-NO (SPEC-MSSG-PTR) TO UCCOMMON-MSG-NUMBER.    PPAPORUP
026600                                                                  PPAPORUP
026700 5000-CALL-PPORRVSL.                                              PPAPORUP
026800                                                                  PPAPORUP
026900     CALL WS-PPORRVSL USING DFHEIBLK.                             PPAPORUP
027000     IF SPEC-MSSG-NO (1) NOT = SPACES                             PPAPORUP
027100        SET UCPISCRN-MORE-MESSAGES TO TRUE                        PPAPORUP
027200        SET UCCOMMON-EDIT-ERRORS-FOUND TO TRUE                    PPAPORUP
027300     ELSE                                                         PPAPORUP
027400        SET UCPISCRN-CURSOR-IN-FOOTER TO TRUE                     PPAPORUP
027500        SET UCPISCRN-MORE-MESSAGES TO TRUE                        PPAPORUP
027600        MOVE MP0501 TO SPEC-MSSG-NO (1)                           PPAPORUP
027700        MOVE 1 TO SPEC-MSSG-PAGE (1)                              PPAPORUP
027800        MOVE SPACES TO ORTS-INPUT-DATA                            PPAPORUP
027900     END-IF.                                                      PPAPORUP
028000     MOVE 1 TO SPEC-MSSG-PTR.                                     PPAPORUP
028100     MOVE SPEC-MSSG-NO (SPEC-MSSG-PTR) TO UCCOMMON-MSG-NUMBER.    PPAPORUP
028200                                                                  PPAPORUP
028300 5500-CALL-PPORDLTE.                                              PPAPORUP
028400                                                                  PPAPORUP
028500     IF SPEC-DELETE-IND NOT = 'Y'                                 PPAPORUP
028600        MOVE MP0596 TO UCCOMMON-MSG-NUMBER                        PPAPORUP
028700     ELSE                                                         PPAPORUP
028800       CALL WS-PPORDLTE USING DFHEIBLK                            PPAPORUP
028900       IF SPEC-MSSG-NO (1) NOT = SPACES                           PPAPORUP
029000          SET UCPISCRN-MORE-MESSAGES TO TRUE                      PPAPORUP
029100          SET UCCOMMON-EDIT-ERRORS-FOUND TO TRUE                  PPAPORUP
029200       ELSE                                                       PPAPORUP
029300          SET UCPISCRN-CURSOR-IN-FOOTER TO TRUE                   PPAPORUP
029400          SET UCPISCRN-MORE-MESSAGES TO TRUE                      PPAPORUP
029500          MOVE MP0514 TO SPEC-MSSG-NO (1)                         PPAPORUP
029600          MOVE 1 TO SPEC-MSSG-PAGE (1)                            PPAPORUP
029700       END-IF                                                     PPAPORUP
029800       MOVE 1 TO SPEC-MSSG-PTR                                    PPAPORUP
029900       MOVE SPEC-MSSG-NO (SPEC-MSSG-PTR) TO UCCOMMON-MSG-NUMBER   PPAPORUP
030000     END-IF.                                                      PPAPORUP
030100     MOVE SPACE TO SPEC-DELETE-IND.                               PPAPORUP
030200                                                                  PPAPORUP
030300 6000-RLSE-ORCA.                                                  PPAPORUP
030400                                                                  PPAPORUP
030500     IF SPEC-RELEASE-IND NOT = 'Y'                                PPAPORUP
030600        MOVE MP0596 TO UCCOMMON-MSG-NUMBER                        PPAPORUP
030700     ELSE                                                         PPAPORUP
030800       EXEC SQL                                                   PPAPORUP
030900            UPDATE PPPVZABE_ABE                                   PPAPORUP
031000              SET ACTION_FLAG = 'R'                               PPAPORUP
031100              WHERE EMPLOYEE_ID      = :SPEC-ENTERED-ID           PPAPORUP
031200                AND PAR_CONTROL_NUMBER = :SPEC-ENTERED-PAR        PPAPORUP
031300       END-EXEC                                                   PPAPORUP
031400       IF SQLCODE = 100                                           PPAPORUP
031500          SET UCPISCRN-MORE-MESSAGES TO TRUE                      PPAPORUP
031600          MOVE MP0507 TO SPEC-MSSG-NO (1)                         PPAPORUP
031700          MOVE 1 TO SPEC-MSSG-PAGE (1)                            PPAPORUP
031800       ELSE                                                       PPAPORUP
031900          SET UCPISCRN-CURSOR-IN-FOOTER TO TRUE                   PPAPORUP
032000          SET UCPISCRN-MORE-MESSAGES TO TRUE                      PPAPORUP
032100          MOVE MP0514 TO SPEC-MSSG-NO (1)                         PPAPORUP
032200          MOVE 1 TO SPEC-MSSG-PAGE (1)                            PPAPORUP
032300       END-IF                                                     PPAPORUP
032400       MOVE 1 TO SPEC-MSSG-PTR                                    PPAPORUP
032500       MOVE SPEC-MSSG-NO (SPEC-MSSG-PTR) TO UCCOMMON-MSG-NUMBER   PPAPORUP
032600     END-IF.                                                      PPAPORUP
032700     MOVE SPACE TO SPEC-RELEASE-IND.                              PPAPORUP
032800                                                                  PPAPORUP
032900 6500-CALL-PPOROVRD.                                              PPAPORUP
033000                                                                  PPAPORUP
033100     IF SPEC-OVERRIDE-IND NOT = 'Y'                               PPAPORUP
033200        MOVE MP0596 TO UCCOMMON-MSG-NUMBER                        PPAPORUP
033300     ELSE                                                         PPAPORUP
033400       CALL WS-PPOROVRD USING DFHEIBLK                            PPAPORUP
033500       IF SPEC-MSSG-NO (1) NOT = SPACES                           PPAPORUP
033600          SET UCPISCRN-MORE-MESSAGES TO TRUE                      PPAPORUP
033700          SET UCCOMMON-EDIT-ERRORS-FOUND TO TRUE                  PPAPORUP
033800       ELSE                                                       PPAPORUP
033900          SET UCPISCRN-CURSOR-IN-FOOTER TO TRUE                   PPAPORUP
034000          SET UCPISCRN-MORE-MESSAGES TO TRUE                      PPAPORUP
034100          MOVE MP0514 TO SPEC-MSSG-NO (1)                         PPAPORUP
034200          MOVE 1 TO SPEC-MSSG-PAGE (1)                            PPAPORUP
034300       END-IF                                                     PPAPORUP
034400       MOVE 1 TO SPEC-MSSG-PTR                                    PPAPORUP
034500       MOVE SPEC-MSSG-NO (SPEC-MSSG-PTR) TO UCCOMMON-MSG-NUMBER   PPAPORUP
034600     END-IF.                                                      PPAPORUP
034700     MOVE SPACE TO SPEC-OVERRIDE-IND.                             PPAPORUP
034800                                                                  PPAPORUP
034900 9400-EIN-OVERRIDE.                                               PPAPORUP
035000                                                                  PPAPORUP
035100     MOVE '9400 EIN OVERRIDE' TO DB2MSG-TAG.                      PPAPORUP
035200     EXEC SQL                                                     PPAPORUP
035300       UPDATE PPPVZABD_ABD                                        PPAPORUP
035400       SET   EMPLOYEE_ID = :WS-EIN-OVER                           PPAPORUP
035500       WHERE EMPLOYEE_ID = :WS-EIN-ORIG                           PPAPORUP
035600         AND TRANSACTION_CODE = 'R0'                              PPAPORUP
035700     END-EXEC                                                     PPAPORUP
035800     EXEC SQL                                                     PPAPORUP
035900       UPDATE PPPVZABD_ABD                                        PPAPORUP
036000       SET EMPLOYEE_ID = :WS-EIN-OVER,                            PPAPORUP
036100           TRANSACTION_IMAGE =                                    PPAPORUP
036200*****        :WS-EIN-OVER||SUBSTR(TRANSACTION_IMAGE,10,93)        32021138
036210             :WS-EIN-OVER||SUBSTR(TRANSACTION_IMAGE,10,111)       32021138
036300       WHERE EMPLOYEE_ID = :WS-EIN-ORIG                           PPAPORUP
036400     END-EXEC.                                                    PPAPORUP
036500                                                                  PPAPORUP
036600 9500-CHECK-OVERRIDE.                                             PPAPORUP
036700                                                                  PPAPORUP
036800     MOVE '9500-CHECK-OVERRIDE' TO DB2MSG-TAG.                    PPAPORUP
036900     EXEC SQL                                                     PPAPORUP
037000       UPDATE PPPVZABD_ABD                                        PPAPORUP
037100       SET   CHECK_NUMBER = :WS-CHECK-OVER                        PPAPORUP
037200       WHERE CHECK_NUMBER = :WS-CHECK-ORIG                        PPAPORUP
037300         AND TRANSACTION_CODE = 'R0'                              PPAPORUP
037400     END-EXEC                                                     PPAPORUP
037500     EXEC SQL                                                     PPAPORUP
037600       UPDATE PPPVZABD_ABD                                        PPAPORUP
037700       SET CHECK_NUMBER = :WS-CHECK-OVER,                         PPAPORUP
037800           TRANSACTION_IMAGE = SUBSTR(TRANSACTION_IMAGE,1,12)||   PPAPORUP
037900*****      :WS-CHECK-OVER||SUBSTR(TRANSACTION_IMAGE,19,84)        32021138
037910           :WS-CHECK-OVER||SUBSTR(TRANSACTION_IMAGE,19,102)       32021138
038000       WHERE CHECK_NUMBER = :WS-CHECK-ORIG                        PPAPORUP
038100     END-EXEC.                                                    PPAPORUP
038200                                                                  PPAPORUP
038300 9000-INVALID-REQUEST-CODE.                                       PPAPORUP
038400                                                                  PPAPORUP
038500     MOVE 'INVALID UPDATE REQUEST'                                PPAPORUP
038600       TO UCWSABND-MSG-DATA.                                      PPAPORUP
038700     MOVE 'PPAPORUP'       TO UCWSABND-ABENDING-PGM.              PPAPORUP
038800     MOVE SPACES          TO UCWSABND-ABEND-DATA(1)               PPAPORUP
038900                             UCWSABND-ABEND-DATA(2).              PPAPORUP
039000     STRING                                                       PPAPORUP
039100           'FUNCTION CODE = '  DELIMITED BY SIZE                  PPAPORUP
039200            UCCOMMON-FUNCTION         DELIMITED BY SIZE           PPAPORUP
039300       INTO UCWSABND-ABEND-DATA(1)                                PPAPORUP
039400     END-STRING.                                                  PPAPORUP
039500     PERFORM 9999-ABEND.                                          PPAPORUP
039510                                                                  48681411
039520     EJECT                                                        48681411
039530*----------------------------------------------------------------*48681411
039540 9300-DATE-CONVERSION-DB2  SECTION.                               48681411
039550*----------------------------------------------------------------*48681411
039560                                                                  48681411
039570*                                                 *-------------* 48681411
039580                                                   COPY CPPDXDC3. 48681411
039590*                                                 *-------------* 48681411
039600                                                                  PPAPORUP
039700 9999-ABEND    SECTION.                                           PPAPORUP
039800**************************************************************    PPAPORUP
039900*  COPIED PROCEDURE DIVISION CODE FOR ABEND HANDLING         *    PPAPORUP
040000**************************************************************    PPAPORUP
040100     MOVE 'PPAPORUP' TO UCWSABND-ABENDING-PGM.                    PPAPORUP
040200     COPY UCPDABND.                                               PPAPORUP
040300                                                                  PPAPORUP
040400 9999-EXIT.                                                       PPAPORUP
040500     EXIT.                                                        PPAPORUP
040600                                                                  PPAPORUP
040700*999999-SQL-ERROR SECTION.                                        PPAPORUP
040800**************************************************************    PPAPORUP
040900*  COPIED PROCEDURE DIVISION CODE FOR SQL ERROR HANDLING     *    PPAPORUP
041000**************************************************************    PPAPORUP
041100      EXEC SQL                                                    PPAPORUP
041200           INCLUDE CPPDXP99                                       PPAPORUP
041300      END-EXEC.                                                   PPAPORUP
041400      MOVE 'SQL ERROR - SEE PRECEDING DB2 MESSAGES'               PPAPORUP
041500                                 TO UCWSABND-ABEND-DATA (1).      PPAPORUP
041600      PERFORM 9999-ABEND.                                         PPAPORUP
041700 999999-EXIT.                                                     PPAPORUP
041800     EXIT.                                                        PPAPORUP
