000010*==========================================================%      UCSD0062
000020*= UCSD LOCAL CHANGES HAVE BEEN IMPLEMENTED.              =%      UCSD0062
000030*= COLUMN 73 THRU 80 DENOTES CHANGE NUMBER - UCSD9999     =%      UCSD0062
000040*=                                                        =%      UCSD0062
000050*==========================================================%      UCSD0062
000090*==========================================================%      UCSD0056
000091*=    PROGRAM: PPAPEIKS                                   =%      UCSD0056
000092*=    CHANGE # 0056         PROJ. REQUEST: 0056           =%      UCSD0056
000093*=    NAME: RON BLOCK       MODIFICATION DATE: 12/01/94   =%      UCSD0056
000094*=                                                        =%      UCSD0056
000095*=  ADD LOGIC TO SUPPORT INQUIRY SECURITY:                =%      UCSD0056
000096*=   1. IF A NEW FUNCTION WAS ENTERED, CALL UCFNAUTH      =%      UCSD0056
000097*=      TO DETERMINE THE LEVEL OF FUNCTION AUTHORITY      =%      UCSD0056
000098*=      THE USER HAS PRIOR TO CALLING UCARSM TO CHECK     =%      UCSD0056
000099*=      ID AUTHORITY.                                     =%      UCSD0056
000104*==========================================================%      UCSD0056
000060*==========================================================%      UCSD0062
000070*=    PROGRAM: PPAPEIKS                                   =%      UCSD0062
000080*=    CHANGE # UCSD0062     PROJ. REQUEST: UCSD0062       =%      UCSD0062
000090*=    NAME: RON BLOCK       MODIFICATION DATE: 11/03/94   =%      UCSD0062
000091*=                                                        =%      UCSD0062
000092*=    DESCRIPTION:                                        =%      UCSD0062
000093*=     MADE CHANGES TO IMPROVE EFFICIENCY.  REPLACED THE  =%      UCSD0062
000094*=     SQL 'COUNT' FUNCTION WITH CURSOR AND FETCH LOGIC   =%      UCSD0062
000095*=     (PROGRAM ONLY NEEDED TO KNOW WHETHER THE COUNT     =%      UCSD0062
000096*=     WAS 1).                                            =%      UCSD0062
000097*==========================================================%      UCSD0062
000100**************************************************************/   36430911
000200*  PROGRAM: PPAPEIKS                                         */   36430911
000300*  RELEASE # ___0911___   SERVICE REQUEST NO(S)____3643______*/   36430911
000400*  NAME __MLG__________   MODIFICATION DATE ____06/30/94_____*/   36430911
000500*  DESCRIPTION                                               */   36430911
000600*                                                            */   36430911
000700*     EDB INQUIRY KEY SWITCH APPLICATION PROCESSOR           */   36430911
000800*                                                            */   36430911
000900**************************************************************/   36430911
001000 IDENTIFICATION DIVISION.                                         PPAPEIKS
001100 PROGRAM-ID. PPAPEIKS.                                            PPAPEIKS
001200 ENVIRONMENT DIVISION.                                            PPAPEIKS
001300 CONFIGURATION SECTION.                                           PPAPEIKS
001400 SOURCE-COMPUTER.                                                 PPAPEIKS
001500 COPY CPOTXUCS.                                                   PPAPEIKS
001600                                                                  PPAPEIKS
001700 DATA DIVISION.                                                   PPAPEIKS
001800 WORKING-STORAGE SECTION.                                         PPAPEIKS
001900 01  WS-COMN.                                                     PPAPEIKS
002000   05  WS-START                          PIC X(27) VALUE          PPAPEIKS
002100       'WORKING STORAGE STARTS HERE'.                             PPAPEIKS
002200                                                                  PPAPEIKS
002300 01  WS-MESS-NOS.                                                 PPAPEIKS
002400     05  MP0017                     PIC X(5) VALUE 'P0017'.       PPAPEIKS
002500     05  MP0634                     PIC X(5) VALUE 'P0634'.       PPAPEIKS
002600     05  MP0912                     PIC X(5) VALUE 'P0912'.       PPAPEIKS
002700     05  MU0011                     PIC X(5) VALUE 'U0011'.       UCSD0056
002700     05  MU0017                     PIC X(5) VALUE 'U0017'.       PPAPEIKS
002800 01  WS-MISC.                                                     PPAPEIKS
002900     05  WS-COUNT                   PIC S9(8) COMP VALUE ZERO.    PPAPEIKS
002910     05  WS-DUMMY-ID                PIC X(09).                    UCSD0062
002920     05  WS-DUMMY-NAME              PIC X(26).                    UCSD0062
002930     05  WS-DUMMY-SSN               PIC X(09).                    UCSD0062
003000     05  WS-ENTERED-ID-1            PIC X(09).                    PPAPEIKS
003100     05  WS-ENTERED-ID-2            PIC X(09).                    PPAPEIKS
003200     05  WS-ENTERED-NAME-1          PIC X(26).                    PPAPEIKS
003300     05  WS-ENTERED-NAME-2          PIC X(26).                    PPAPEIKS
003400     05  WS-ENTERED-SSN-1           PIC X(09).                    PPAPEIKS
003500     05  WS-ENTERED-SSN-2           PIC X(09).                    PPAPEIKS
003600     05  WS-UNIQUE-EE-ID            PIC X(09).                    PPAPEIKS
003700     05  WS-FIRST-CHAR-FLAG         PIC X VALUE 'N'.              PPAPEIKS
003800         88  FIRST-CHAR-FND               VALUE 'Y'.              PPAPEIKS
003900     05  WS-KEY-LENGTH              PIC S9(4) COMP VALUE ZERO.    PPAPEIKS
004000     05  WS-SUB-IN                  PIC S9(4) COMP VALUE ZERO.    PPAPEIKS
004100     05  WS-SUB-OUT                 PIC S9(4) COMP VALUE ZERO.    PPAPEIKS
004200     05  WS-KEY-END                 PIC S9(4) COMP VALUE ZERO.    PPAPEIKS
004300     05  WS-KEY-1                   PIC X(26).                    PPAPEIKS
004400     05  WS-KEY-2                   PIC X(26).                    PPAPEIKS
004500     05  WS-KEY-REFORMATTED         PIC X(26).                    PPAPEIKS
004500     05  WS-ROW-COUNT-CFN           PIC S9(4) COMP.               UCSD0056
004600     05  WS-KEY-IN.                                               PPAPEIKS
004700         10  WS-KEY-IN-CHAR         PIC X  OCCURS 26 TIMES.       PPAPEIKS
004800     05  WS-KEY-OUT.                                              PPAPEIKS
004900         10  WS-KEY-OUT-CHAR        PIC X  OCCURS 27 TIMES.       PPAPEIKS
005000     05  WS-RECORD-AUTH-SAVE        PIC X  VALUE SPACE.           PPAPEIKS
005100                                                                  PPAPEIKS
005200 01  WS-CALLED-PROGRAMS.                                          PPAPEIKS
005300     05  PGM-ARSM                   PIC X(08) VALUE 'UCARSM'.     PPAPEIKS
005400     05  PGM-PPPERUTL               PIC X(08) VALUE 'PPPERUTL'.   PPAPEIKS
005500     05  PGM-PPPAYUTL               PIC X(08) VALUE 'PPPAYUTL'.   PPAPEIKS
005600     05  PGM-PPPCMUTL               PIC X(08) VALUE 'PPPCMUTL'.   PPAPEIKS
005700     05  PGM-PPINITWK               PIC X(08) VALUE 'PPINITWK'.   PPAPEIKS
005700     05  PGM-UCFNAUTH               PIC X(08) VALUE 'UCFNAUTH'.   UCSD0056
005800                                                                  PPAPEIKS
005900 01  BLID-BUILD-ID-AREA.                                          PPAPEIKS
006000     COPY CPWSBLID.                                               PPAPEIKS
006100                                                                  PPAPEIKS
006200 01  PPDB2MSG-INTERFACE.                                          PPAPEIKS
006300     COPY CPLNKDB2.                                               PPAPEIKS
006400     EJECT                                                        PPAPEIKS
006500                                                                  PPAPEIKS
006600 01  PPPERUTL-INTERFACE.                                          PPAPEIKS
006700     COPY CPLN2PER.                                               PPAPEIKS
006800     EJECT                                                        PPAPEIKS
006900                                                                  PPAPEIKS
007000 01  PPPAYUTL-INTERFACE.                                          PPAPEIKS
007100     COPY CPLNKPAY.                                               PPAPEIKS
007200     EJECT                                                        PPAPEIKS
007300                                                                  PPAPEIKS
007400 01  PPPCMUTL-INTERFACE.                                          PPAPEIKS
007500     COPY CPLNKPCM.                                               PPAPEIKS
007600     EJECT                                                        PPAPEIKS
007700                                                                  PPAPEIKS
007800 01  PER-ROW  EXTERNAL.                                           PPAPEIKS
007900     COPY CPWSRPER.                                               PPAPEIKS
008000                                                                  PPAPEIKS
008100 01  PAY-ROW  EXTERNAL.                                           PPAPEIKS
008200     COPY CPWSRPAY.                                               PPAPEIKS
008300                                                                  PPAPEIKS
008400 01  PCM-ROW  EXTERNAL.                                           PPAPEIKS
008500     COPY CPWSRPCM.                                               PPAPEIKS
008600                                                                  PPAPEIKS
008700 01  ARSM-INTERFACE.                               COPY UCLNARSM. PPAPEIKS
008800     EJECT                                                        PPAPEIKS
008900                                                                  PPAPEIKS
009000 01  UCCOMMON                EXTERNAL.                            PPAPEIKS
009100     EXEC SQL                                                     PPAPEIKS
009200          INCLUDE UCCOMMON                                        PPAPEIKS
009300     END-EXEC.                                                    PPAPEIKS
009400                                                                  UCSD0056
009500 01  CFN-ROW                 EXTERNAL.                            UCSD0056
009600     EXEC SQL                                                     UCSD0056
009700          INCLUDE UC0VZCFN                                        UCSD0056
009800     END-EXEC.                                                    UCSD0056
009400                                                                  UCSD0056
009500 01  UCPIAUTH                EXTERNAL.                            UCSD0056
009600     COPY UCPIAUTH.                                               UCSD0056
009400                                                                  UCSD0056
009500 01  UCPIROKS                EXTERNAL.                            PPAPEIKS
009600     EXEC SQL                                                     PPAPEIKS
009700          INCLUDE UCPIROKS                                        PPAPEIKS
009800     END-EXEC.                                                    PPAPEIKS
009900                                                                  PPAPEIKS
010000 01  CPWSFOOT                EXTERNAL.                            PPAPEIKS
010100     EXEC SQL                                                     PPAPEIKS
010200          INCLUDE CPWSFOOT                                        PPAPEIKS
010300     END-EXEC.                                                    PPAPEIKS
010400                                                                  PPAPEIKS
010500 01  CPWSWORK                EXTERNAL.                            PPAPEIKS
010600     EXEC SQL                                                     PPAPEIKS
010700          INCLUDE CPWSWORK                                        PPAPEIKS
010800     END-EXEC.                                                    PPAPEIKS
010900                                                                  PPAPEIKS
011000 01  CPWSKEYS                EXTERNAL.                            PPAPEIKS
011100     EXEC SQL                                                     PPAPEIKS
011200          INCLUDE CPWSKEYS                                        PPAPEIKS
011300     END-EXEC.                                                    PPAPEIKS
011400                                                                  PPAPEIKS
011500 01  UCWSABND                EXTERNAL.                            PPAPEIKS
011600     EXEC SQL                                                     PPAPEIKS
011700          INCLUDE UCWSABND                                        PPAPEIKS
011800     END-EXEC.                                                    PPAPEIKS
011900     EJECT                                                        PPAPEIKS
012000******************************************************************PPAPEIKS
012100*          SQL - WORKING STORAGE                                 *PPAPEIKS
012200******************************************************************PPAPEIKS
012300 01  WS-PPPVPAY.                                                  PPAPEIKS
012400     EXEC SQL                                                     PPAPEIKS
012500           INCLUDE PPPVZPAY                                       PPAPEIKS
012600     END-EXEC.                                                    PPAPEIKS
012700                                                                  PPAPEIKS
012800 01  WS-PPPVPER.                                                  PPAPEIKS
012900     EXEC SQL                                                     PPAPEIKS
013000           INCLUDE PPPVZPER                                       PPAPEIKS
013100     END-EXEC.                                                    PPAPEIKS
013200                                                                  PPAPEIKS
013300     EXEC SQL                                                     PPAPEIKS
013400           INCLUDE SQLCA                                          PPAPEIKS
013500     END-EXEC.                                                    PPAPEIKS
013600     EJECT                                                        PPAPEIKS
013700******************************************************************PPAPEIKS
013800*                                                                *PPAPEIKS
013900*                  SQL - SELECTS                                 *PPAPEIKS
014000*                                                                *PPAPEIKS
014100******************************************************************PPAPEIKS
014200*                                                                *PPAPEIKS
014300*        THE VIEW USED IN THIS PROGRAM ARE:                      *PPAPEIKS
014400*                                                                *PPAPEIKS
014500*    VIEW               VIEW DDL AND DCL INCLUDE                 *PPAPEIKS
014600*                        MEMBER NAMES                            *PPAPEIKS
014700*                                                                *PPAPEIKS
014800*  PPPVZPAY_PAY          PPPVZPAY                                *PPAPEIKS
014900*  PPPVZPER_PER          PPPVZPER                                *PPAPEIKS
015000******************************************************************PPAPEIKS
015100                                                                  PPAPEIKS
015200 LINKAGE SECTION.                                                 PPAPEIKS
015300                                                                  PPAPEIKS
015400     EJECT                                                        PPAPEIKS
015500                                                                  PPAPEIKS
015600 PROCEDURE DIVISION.                                              PPAPEIKS
015700                                                                  PPAPEIKS
015800 0000-MAINLINE SECTION.                                           PPAPEIKS
015900**************************************************************    PPAPEIKS
016000*  MAIN LINE PROCESSING                                      *    PPAPEIKS
016100**************************************************************    PPAPEIKS
016200                                                                  PPAPEIKS
016300     EXEC SQL                                                     PPAPEIKS
016400          INCLUDE CPPDXE99                                        PPAPEIKS
016500     END-EXEC.                                                    PPAPEIKS
016600                                                                  PPAPEIKS
016700     MOVE 'PPAPEIKS' TO DB2MSG-PGM-ID.                            PPAPEIKS
016800                                                                  PPAPEIKS
016900     IF NOT CPWSKEYS-INITIALIZED                                  PPAPEIKS
017000        INITIALIZE CPWSKEYS-DATA                                  PPAPEIKS
017100        SET CPWSKEYS-INITIALIZED TO TRUE                          PPAPEIKS
017200     END-IF.                                                      PPAPEIKS
017300                                                                  PPAPEIKS
017400     IF NOT CPWSWORK-INITIALIZED                                  PPAPEIKS
017500        PERFORM 0100-INIT-CPWSWORK                                PPAPEIKS
017600     END-IF.                                                      PPAPEIKS
017700                                                                  PPAPEIKS
017800     MOVE UCCOMMON-RECORD-AUTH TO WS-RECORD-AUTH-SAVE             PPAPEIKS
017900     PERFORM 1000-CHECK-UNIQUE.                                   PPAPEIKS
018000                                                                  PPAPEIKS
018100     MOVE SPACES TO CPWSWORK-ENTERED-ID                           PPAPEIKS
018200                    CPWSWORK-ENTERED-NAME                         PPAPEIKS
018300                    CPWSWORK-ENTERED-SSN.                         PPAPEIKS
018400                                                                  PPAPEIKS
018500     EVALUATE TRUE                                                PPAPEIKS
018600       WHEN (CPWSFOOT-ENTERED-ID NOT = SPACES)                    PPAPEIKS
018700        AND (CPWSFOOT-ENTERED-ID NOT = LOW-VALUES)                PPAPEIKS
018800         SET CPWSWORK-ID-BROWSE TO TRUE                           PPAPEIKS
018900         MOVE CPWSFOOT-ENTERED-ID TO CPWSWORK-ENTERED-ID          PPAPEIKS
019000       WHEN (CPWSFOOT-ENTERED-NAME NOT = SPACES)                  PPAPEIKS
019100        AND (CPWSFOOT-ENTERED-NAME NOT = LOW-VALUES)              PPAPEIKS
019200         SET CPWSWORK-NAME-BROWSE TO TRUE                         PPAPEIKS
019300         MOVE CPWSFOOT-ENTERED-NAME TO CPWSWORK-ENTERED-NAME      PPAPEIKS
019400       WHEN (CPWSFOOT-ENTERED-SSN NOT = SPACES)                   PPAPEIKS
019500        AND (CPWSFOOT-ENTERED-SSN NOT = LOW-VALUES)               PPAPEIKS
019600         SET CPWSWORK-SSN-BROWSE TO TRUE                          PPAPEIKS
019700         MOVE CPWSFOOT-ENTERED-SSN TO CPWSWORK-ENTERED-SSN        PPAPEIKS
019800     END-EVALUATE.                                                PPAPEIKS
019900                                                                  PPAPEIKS
020000     IF WS-COUNT = 1                                              PPAPEIKS
020100        PERFORM 2000-GET-UNIQUE-DATA                              PPAPEIKS
020200        PERFORM 3000-GET-AUTH                                     PPAPEIKS
020300        IF  UCCOMMON-RECORD-AUTH-VIEW    OR                       PPAPEIKS
020400            UCCOMMON-RECORD-AUTH-UPDATE                           PPAPEIKS
020500            PERFORM 4000-GET-DATA                                 PPAPEIKS
020600            MOVE CPWSWORK-UNIQUE-EE-ID TO BLID-ID-EDB-FORMAT      PPAPEIKS
020700            PERFORM FORMAT-DISPLAY-ID                             PPAPEIKS
020800            MOVE BLID-ID-DISPLAY-FORMAT TO CPWSWORK-DISPLAY-ID    PPAPEIKS
020900            MOVE WS-UNIQUE-EE-ID TO UCPIROKS-RECORD-KEY           PPAPEIKS
021000            IF CPWSWORK-BROWSE-RETURN-FUNC NOT = SPACES           PPAPEIKS
021100              AND CPWSWORK-BROWSE-RETURN-FUNC NOT = LOW-VALUES    PPAPEIKS
021200              AND CPWSWORK-BROWSE-RETURN-FUNC NOT = 'WHO '        PPAPEIKS
021300                SET UCCOMMON-SWITCH-FUNCTIONS TO TRUE             PPAPEIKS
021400                MOVE CPWSWORK-BROWSE-RETURN-FUNC                  PPAPEIKS
021500                                  TO UCCOMMON-FUNCTION-REQUESTED  PPAPEIKS
021600            END-IF                                                PPAPEIKS
021700        ELSE                                                      PPAPEIKS
021800          MOVE WS-RECORD-AUTH-SAVE TO UCCOMMON-RECORD-AUTH        PPAPEIKS
021900        END-IF                                                    PPAPEIKS
022000     ELSE                                                         PPAPEIKS
022100        IF ((CPWSFOOT-ENTERED-NAME NOT EQUAL SPACES)              PPAPEIKS
022200         AND (CPWSFOOT-ENTERED-NAME NOT EQUAL LOW-VALUES))        PPAPEIKS
022300           IF UCCOMMON-FUNCTION NOT = 'WHO '                      PPAPEIKS
022400              IF (CPWSFOOT-ENTERED-FUNC NOT = SPACES)             PPAPEIKS
022500               AND (CPWSFOOT-ENTERED-FUNC NOT = LOW-VALUES)       PPAPEIKS
022600                 MOVE CPWSFOOT-ENTERED-FUNC                       PPAPEIKS
022700                                 TO CPWSWORK-BROWSE-RETURN-FUNC   PPAPEIKS
022800              ELSE                                                PPAPEIKS
022900                  MOVE UCCOMMON-FUNCTION                          PPAPEIKS
023000                                 TO CPWSWORK-BROWSE-RETURN-FUNC   PPAPEIKS
023100              END-IF                                              PPAPEIKS
023200              SET UCCOMMON-SWITCH-FUNCTIONS TO TRUE               PPAPEIKS
023300              SET UCCOMMON-RETURN-NO-ERRORS TO TRUE               PPAPEIKS
023400              MOVE 'WHO' TO UCCOMMON-FUNCTION-REQUESTED           PPAPEIKS
023500              MOVE SPACES TO CPWSKEYS-EMPLOYEE-ID                 PPAPEIKS
023600           END-IF                                                 PPAPEIKS
023700        ELSE                                                      PPAPEIKS
023800           IF UCCOMMON-FUNCTION NOT = 'WHO '                      PPAPEIKS
023900              MOVE MP0017 TO UCCOMMON-MSG-NUMBER                  PPAPEIKS
024000              SET UCCOMMON-RETURN-ERRORS-FOUND TO TRUE            PPAPEIKS
024100              SET UCCOMMON-REDISPLAY-FUNC TO TRUE                 PPAPEIKS
024200              SET CPWSWORK-REDISPLAY-EEID TO TRUE                 PPAPEIKS
024300              SET CPWSWORK-REDISPLAY-NAME TO TRUE                 PPAPEIKS
024400              SET CPWSWORK-REDISPLAY-SSN TO TRUE                  PPAPEIKS
024500              MOVE SPACES TO CPWSFOOT-ENTERED-SSN                 PPAPEIKS
024600                             CPWSFOOT-ENTERED-ID                  PPAPEIKS
024700           END-IF                                                 PPAPEIKS
024800        END-IF                                                    PPAPEIKS
024900     END-IF.                                                      PPAPEIKS
025000                                                                  PPAPEIKS
025100     IF UCCOMMON-RETURN-ERRORS-FOUND                              PPAPEIKS
025200        SET CPWSWORK-DONT-OVERRIDE-MSG TO TRUE                    PPAPEIKS
025300     END-IF.                                                      PPAPEIKS
025400                                                                  PPAPEIKS
025500     SET CPWSWORK-NO-RELOAD TO TRUE.                              PPAPEIKS
025600     MOVE ZEROES TO CPWSWORK-CURRENT-PAGE                         PPAPEIKS
025700                    CPWSWORK-TOTAL-PAGES.                         PPAPEIKS
025800                                                                  PPAPEIKS
025900                                                                  PPAPEIKS
026000     GOBACK.                                                      PPAPEIKS
026100                                                                  PPAPEIKS
026200 0000-EXIT.                                                       PPAPEIKS
026300     EXIT.                                                        PPAPEIKS
026400                                                                  PPAPEIKS
026500     EJECT                                                        PPAPEIKS
026600                                                                  PPAPEIKS
026700 0100-INIT-CPWSWORK   SECTION.                                    PPAPEIKS
026800**************************************************************    PPAPEIKS
026900*  CALL PROGRAM PPINITWK TO INITIALIZE THE CPWSWORK WORK AREA*    PPAPEIKS
027000**************************************************************    PPAPEIKS
027100                                                                  PPAPEIKS
027200     CALL PGM-PPINITWK USING DFHEIBLK                             PPAPEIKS
027300       ON EXCEPTION                                               PPAPEIKS
027400          STRING 'ERROR CALLING PROGRAM: ' DELIMITED BY SIZE      PPAPEIKS
027500                 PGM-PPINITWK              DELIMITED BY SIZE      PPAPEIKS
027600                      INTO UCWSABND-ABEND-DATA (1)                PPAPEIKS
027700          END-STRING                                              PPAPEIKS
027800          PERFORM 9999-ABEND                                      PPAPEIKS
027900     END-CALL.                                                    PPAPEIKS
028000                                                                  PPAPEIKS
028100                                                                  PPAPEIKS
028200 0100-EXIT.                                                       PPAPEIKS
028300     EXIT.                                                        PPAPEIKS
028400                                                                  PPAPEIKS
028500     EJECT                                                        PPAPEIKS
028600                                                                  PPAPEIKS
028700 1000-CHECK-UNIQUE     SECTION.                                   PPAPEIKS
028800**************************************************************    PPAPEIKS
028900*  CHECK FOR UNIQUENESS OF KEY DATA ENTERED IN THE MAP       *    PPAPEIKS
029000*  FOOTER AND PASSED IN CPWSFOOT FROM PPAPEUIH.              *    PPAPEIKS
029100**************************************************************    PPAPEIKS
029200                                                                  PPAPEIKS
029300**************************************************************    PPAPEIKS
029400* IF CPWSWORK-RELOAD-EXTERNALS IS SET ON, THEN THE UNIQUE KEY*    PPAPEIKS
029500* HAS ALREADY BEEN PUT IN CPWSWORK-UNIQUE-EE-ID BY PPAPEUNF, *    PPAPEIKS
029600* SO NO CHECKING IS NEEDED HERE.                             *    PPAPEIKS
029700**************************************************************    PPAPEIKS
029800     IF CPWSWORK-RELOAD-EXTERNALS                                 PPAPEIKS
029900        MOVE 1 TO WS-COUNT                                        PPAPEIKS
030000        GO TO 1000-EXIT                                           PPAPEIKS
030100     END-IF.                                                      PPAPEIKS
030200                                                                  PPAPEIKS
030300     IF (CPWSFOOT-ENTERED-ID NOT EQUAL SPACES)                    PPAPEIKS
030400       AND (CPWSFOOT-ENTERED-ID NOT EQUAL LOW-VALUES)             PPAPEIKS
030500        MOVE CPWSFOOT-ENTERED-ID TO BLID-ID-DISPLAY-FORMAT        PPAPEIKS
030600        PERFORM BUILD-ID                                          PPAPEIKS
030700        MOVE BLID-ID-EDB-FORMAT TO WS-KEY-IN                      PPAPEIKS
030800        MOVE +9 TO WS-KEY-LENGTH                                  PPAPEIKS
030900        PERFORM 1100-SET-UP-KEY                                   PPAPEIKS
031000        IF WS-KEY-END < WS-KEY-LENGTH                             PPAPEIKS
031100           MOVE WS-KEY-REFORMATTED TO CPWSFOOT-ENTERED-ID         PPAPEIKS
031200           PERFORM 8050-SELECT-CNT-WTH-ID-2                       PPAPEIKS
031300        ELSE                                                      PPAPEIKS
031400           PERFORM 8000-SELECT-CNT-WTH-ID                         PPAPEIKS
031500        END-IF                                                    PPAPEIKS
031600     ELSE                                                         PPAPEIKS
031700        IF (CPWSFOOT-ENTERED-NAME NOT EQUAL SPACES)               PPAPEIKS
031800          AND (CPWSFOOT-ENTERED-NAME NOT EQUAL LOW-VALUES)        PPAPEIKS
031900           MOVE CPWSFOOT-ENTERED-NAME TO WS-KEY-IN                PPAPEIKS
032000           MOVE +26 TO WS-KEY-LENGTH                              PPAPEIKS
032100           PERFORM 1100-SET-UP-KEY                                PPAPEIKS
032200           IF WS-KEY-END < WS-KEY-LENGTH                          PPAPEIKS
032300              MOVE WS-KEY-REFORMATTED TO CPWSFOOT-ENTERED-NAME    PPAPEIKS
032400              PERFORM 8150-SELECT-CNT-WTH-NAME-2                  PPAPEIKS
032500           ELSE                                                   PPAPEIKS
032600              PERFORM 8100-SELECT-CNT-WTH-NAME                    PPAPEIKS
032700           END-IF                                                 PPAPEIKS
032800        ELSE                                                      PPAPEIKS
032900           IF (CPWSFOOT-ENTERED-SSN NOT EQUAL SPACES)             PPAPEIKS
033000             AND (CPWSFOOT-ENTERED-SSN NOT EQUAL LOW-VALUES)      PPAPEIKS
033100              MOVE CPWSFOOT-ENTERED-SSN TO WS-KEY-IN              PPAPEIKS
033200              MOVE +9 TO WS-KEY-LENGTH                            PPAPEIKS
033300              PERFORM 1100-SET-UP-KEY                             PPAPEIKS
033400              IF WS-KEY-END < WS-KEY-LENGTH                       PPAPEIKS
033500                 MOVE WS-KEY-REFORMATTED TO CPWSFOOT-ENTERED-SSN  PPAPEIKS
033600                 PERFORM 8250-SELECT-CNT-WTH-SSN-2                PPAPEIKS
033700              ELSE                                                PPAPEIKS
033800                 PERFORM 8200-SELECT-CNT-WTH-SSN                  PPAPEIKS
033900              END-IF                                              PPAPEIKS
034000           END-IF                                                 PPAPEIKS
034100        END-IF                                                    PPAPEIKS
034200     END-IF.                                                      PPAPEIKS
034300                                                                  PPAPEIKS
034400 1000-EXIT.                                                       PPAPEIKS
034500     EXIT.                                                        PPAPEIKS
034600                                                                  PPAPEIKS
034700     EJECT                                                        PPAPEIKS
034800                                                                  PPAPEIKS
034900 1100-SET-UP-KEY      SECTION.                                    PPAPEIKS
035000**************************************************************    PPAPEIKS
035100*  FORMAT THE UNIQUE KEY BASED ON KEY LENGTH                 *    PPAPEIKS
035200**************************************************************    PPAPEIKS
035300                                                                  PPAPEIKS
035400     MOVE SPACES TO WS-KEY-OUT.                                   PPAPEIKS
035500     MOVE 'N' TO WS-FIRST-CHAR-FLAG.                              PPAPEIKS
035600     MOVE 1   TO WS-SUB-OUT.                                      PPAPEIKS
035700                                                                  PPAPEIKS
035800     PERFORM VARYING WS-SUB-IN FROM 1 BY 1 UNTIL                  PPAPEIKS
035900                     WS-SUB-IN > WS-KEY-LENGTH                    PPAPEIKS
036000                                                                  PPAPEIKS
036100        IF FIRST-CHAR-FND                                         PPAPEIKS
036200           MOVE WS-KEY-IN-CHAR (WS-SUB-IN) TO                     PPAPEIKS
036300                WS-KEY-OUT-CHAR (WS-SUB-OUT)                      PPAPEIKS
036400                                                                  PPAPEIKS
036500           IF WS-KEY-IN-CHAR (WS-SUB-IN) = SPACES OR LOW-VALUES   PPAPEIKS
036600              CONTINUE                                            PPAPEIKS
036700           ELSE                                                   PPAPEIKS
036800              MOVE WS-SUB-OUT TO WS-KEY-END                       PPAPEIKS
036900           END-IF                                                 PPAPEIKS
037000                                                                  PPAPEIKS
037100           ADD 1 TO WS-SUB-OUT                                    PPAPEIKS
037200        ELSE                                                      PPAPEIKS
037300           IF WS-KEY-IN-CHAR (WS-SUB-IN) = SPACES OR LOW-VALUES   PPAPEIKS
037400              CONTINUE                                            PPAPEIKS
037500           ELSE                                                   PPAPEIKS
037600              MOVE WS-KEY-IN-CHAR (WS-SUB-IN) TO                  PPAPEIKS
037700                   WS-KEY-OUT-CHAR (WS-SUB-OUT)                   PPAPEIKS
037710              MOVE WS-SUB-OUT    TO WS-KEY-END                    UCSD0062
037800              ADD 1 TO WS-SUB-OUT                                 PPAPEIKS
037900              MOVE 'Y' TO WS-FIRST-CHAR-FLAG                      PPAPEIKS
038000           END-IF                                                 PPAPEIKS
038100        END-IF                                                    PPAPEIKS
038200     END-PERFORM.                                                 PPAPEIKS
038300                                                                  PPAPEIKS
038400     MOVE WS-KEY-OUT TO WS-KEY-REFORMATTED.                       PPAPEIKS
038500                                                                  PPAPEIKS
038600     IF WS-KEY-END < WS-KEY-LENGTH                                PPAPEIKS
038700        ADD 1 TO WS-KEY-END                                       PPAPEIKS
038800        PERFORM VARYING WS-SUB-OUT FROM WS-KEY-END BY 1           PPAPEIKS
038900                UNTIL   WS-SUB-OUT > WS-KEY-LENGTH                PPAPEIKS
039000                                                                  PPAPEIKS
039100           MOVE LOW-VALUES TO WS-KEY-OUT-CHAR (WS-SUB-OUT)        PPAPEIKS
039200        END-PERFORM                                               PPAPEIKS
039300        MOVE WS-KEY-OUT TO WS-KEY-1                               PPAPEIKS
039400                                                                  PPAPEIKS
039500        PERFORM VARYING WS-SUB-OUT FROM WS-KEY-END BY 1           PPAPEIKS
039600                UNTIL   WS-SUB-OUT > WS-KEY-LENGTH                PPAPEIKS
039700                                                                  PPAPEIKS
039800           MOVE HIGH-VALUES TO WS-KEY-OUT-CHAR (WS-SUB-OUT)       PPAPEIKS
039900        END-PERFORM                                               PPAPEIKS
040000        MOVE WS-KEY-OUT TO WS-KEY-2                               PPAPEIKS
040100        SUBTRACT 1 FROM WS-KEY-END                                PPAPEIKS
040200     END-IF.                                                      PPAPEIKS
040300                                                                  PPAPEIKS
040400 1100-EXIT.                                                       PPAPEIKS
040500     EXIT.                                                        PPAPEIKS
040600                                                                  PPAPEIKS
040700     EJECT                                                        PPAPEIKS
040800                                                                  PPAPEIKS
040900 2000-GET-UNIQUE-DATA   SECTION.                                  PPAPEIKS
041000**************************************************************    PPAPEIKS
041100*  OBTAIN THE EMPLOYEE ID FROM THE EDB BASED ON ENTERED      *    PPAPEIKS
041200*  KEY DATA.                                                 *    PPAPEIKS
041300**************************************************************    PPAPEIKS
041400                                                                  PPAPEIKS
041500**************************************************************    PPAPEIKS
041600* IF CPWSWORK-RELOAD-EXTERNALS IS SET ON, THEN THE UNIQUE KEY*    PPAPEIKS
041700* HAS ALREADY BEEN PUT IN CPWSWORK-UNIQUE-EE-ID BY PPAPEINF, *    PPAPEIKS
041800* SO NO PROCESSING IS NEEDED HERE.                           *    PPAPEIKS
041900**************************************************************    PPAPEIKS
042000     IF CPWSWORK-RELOAD-EXTERNALS                                 PPAPEIKS
042100        MOVE CPWSWORK-UNIQUE-EE-ID TO WS-UNIQUE-EE-ID             PPAPEIKS
042200        GO TO 2000-EXIT                                           PPAPEIKS
042300     END-IF.                                                      PPAPEIKS
042400                                                                  PPAPEIKS
042500     IF WS-KEY-END < WS-KEY-LENGTH                                PPAPEIKS
042600        IF (CPWSFOOT-ENTERED-ID NOT EQUAL SPACES)                 PPAPEIKS
042700          AND (CPWSFOOT-ENTERED-ID NOT EQUAL LOW-VALUES)          PPAPEIKS
042800           PERFORM 8275-SELECT-ID-WTH-ID-2                        PPAPEIKS
042900        ELSE                                                      PPAPEIKS
043000           IF (CPWSFOOT-ENTERED-NAME NOT EQUAL SPACES)            PPAPEIKS
043100             AND (CPWSFOOT-ENTERED-NAME NOT EQUAL LOW-VALUES)     PPAPEIKS
043200              PERFORM 8350-SELECT-ID-WTH-NAME-2                   PPAPEIKS
043300           ELSE                                                   PPAPEIKS
043400              IF (CPWSFOOT-ENTERED-SSN NOT EQUAL SPACES)          PPAPEIKS
043500                AND (CPWSFOOT-ENTERED-SSN NOT EQUAL LOW-VALUES)   PPAPEIKS
043600                 PERFORM 8450-SELECT-ID-WTH-SSN-2                 PPAPEIKS
043700              END-IF                                              PPAPEIKS
043800           END-IF                                                 PPAPEIKS
043900        END-IF                                                    PPAPEIKS
044000     ELSE                                                         PPAPEIKS
044100        IF (CPWSFOOT-ENTERED-ID NOT EQUAL SPACES)                 PPAPEIKS
044200          AND (CPWSFOOT-ENTERED-ID NOT EQUAL LOW-VALUES)          PPAPEIKS
044300           IF CPWSWORK-ID-LENGTH < 9                              PPAPEIKS
044400              MOVE WS-ENTERED-ID-1 TO WS-UNIQUE-EE-ID             PPAPEIKS
044500           ELSE                                                   PPAPEIKS
044600              MOVE CPWSFOOT-ENTERED-ID TO WS-UNIQUE-EE-ID         PPAPEIKS
044700           END-IF                                                 PPAPEIKS
044800        ELSE                                                      PPAPEIKS
044900           IF (CPWSFOOT-ENTERED-NAME NOT EQUAL SPACES)            PPAPEIKS
045000             AND (CPWSFOOT-ENTERED-NAME NOT EQUAL LOW-VALUES)     PPAPEIKS
045100              PERFORM 8300-SELECT-ID-WTH-NAME                     PPAPEIKS
045200           ELSE                                                   PPAPEIKS
045300              IF (CPWSFOOT-ENTERED-SSN NOT EQUAL SPACES)          PPAPEIKS
045400                AND (CPWSFOOT-ENTERED-SSN NOT EQUAL LOW-VALUES)   PPAPEIKS
045500                 PERFORM 8400-SELECT-ID-WTH-SSN                   PPAPEIKS
045600              END-IF                                              PPAPEIKS
045700           END-IF                                                 PPAPEIKS
045800        END-IF                                                    PPAPEIKS
045900     END-IF.                                                      PPAPEIKS
046000                                                                  PPAPEIKS
046100 2000-EXIT.                                                       PPAPEIKS
046200     EXIT.                                                        PPAPEIKS
046300                                                                  PPAPEIKS
046400     EJECT                                                        PPAPEIKS
046500                                                                  PPAPEIKS
046600 3000-GET-AUTH SECTION.                                           PPAPEIKS
046700**************************************************************    PPAPEIKS
046800*  CALL ARSM TO DETERMINE USER'S AUTHORIZATION FOR THE       *    PPAPEIKS
046900*  SELECTED EMPLOYEE RECORD.                                 *    PPAPEIKS
047000**************************************************************    PPAPEIKS
047100                                                                  PPAPEIKS
047200     MOVE UCCOMMON-USERID      TO ARSM-AUTH-ID.                   PPAPEIKS
047300     MOVE 'EDB    '            TO ARSM-RESOURCE-TYPE.             PPAPEIKS
047400     MOVE WS-UNIQUE-EE-ID      TO ARSM-RESOURCE-NAME.             PPAPEIKS
047500     MOVE 'UPDATE'             TO ARSM-ACCESS-INTENT.             PPAPEIKS
047600     MOVE SPACES               TO ARSM-QUALIFIERS.                PPAPEIKS
047700                                                                  PPAPEIKS
022400     IF (CPWSFOOT-ENTERED-FUNC NOT = SPACES)                      UCSD0056
022500       AND (CPWSFOOT-ENTERED-FUNC NOT = LOW-VALUES)               UCSD0056
022500        MOVE CFN-SUBSYSTEM-ID  TO UCPIAUTH-SUBSYSTEM-ID           UCSD0056
022500        MOVE CFN-FUNCTION-ID   TO UCPIAUTH-FUNCTION-ID            UCSD0056
022500        MOVE CFN-FUNCTION-TYPE TO UCPIAUTH-FUNCTION-TYPE          UCSD0056
049300        SET UCPIAUTH-LOG-REQUEST TO TRUE                          UCSD0056
049400        CALL PGM-UCFNAUTH USING DFHEIBLK                          UCSD0056
027300           ON EXCEPTION                                           UCSD0056
027400              STRING 'ERROR CALLING PROGRAM: ' DELIMITED BY SIZE  UCSD0056
027500                     PGM-PPINITWK              DELIMITED BY SIZE  UCSD0056
027600                          INTO UCWSABND-ABEND-DATA (1)            UCSD0056
027700              END-STRING                                          UCSD0056
027800              PERFORM 9999-ABEND                                  UCSD0056
027800        END-CALL                                                  UCSD0056
027800        IF UCCOMMON-RETURN-ERRORS-FOUND                           UCSD0056
027800           PERFORM 3600-VALIDATE-FUNCTION                         UCSD0056
049900           SET UCCOMMON-RECORD-AUTH-NONE TO TRUE                  UCSD0056
050100           SET CPWSWORK-REDISPLAY-EEID TO TRUE                    UCSD0056
050200           SET CPWSWORK-REDISPLAY-NAME TO TRUE                    UCSD0056
050300           SET CPWSWORK-REDISPLAY-SSN TO TRUE                     UCSD0056
027800           GO TO 3000-EXIT                                        UCSD0056
027800        END-IF                                                    UCSD0056
049700     END-IF.                                                      UCSD0056
049700                                                                  UCSD0056
047800     PERFORM 3500-CALL-ARSM.                                      PPAPEIKS
047900                                                                  PPAPEIKS
048000     IF  ARSM-RETURN-CODE = ZERO                                  PPAPEIKS
048100         IF ARSM-PERMISSION = 'Y'                                 PPAPEIKS
048200            SET UCCOMMON-RECORD-AUTH-UPDATE TO TRUE               PPAPEIKS
048300            SET UCCOMMON-RETURN-NO-ERRORS   TO TRUE               PPAPEIKS
048400            IF UCCOMMON-HOT-MSG-NUMBER = MP0634                   PPAPEIKS
048500               SET UCCOMMON-HOT-MSG-NUM-NOT-SET TO TRUE           PPAPEIKS
048600            END-IF                                                PPAPEIKS
048700         ELSE                                                     PPAPEIKS
048800            MOVE 'VIEW  '             TO ARSM-ACCESS-INTENT       PPAPEIKS
048900            MOVE SPACES               TO ARSM-QUALIFIERS          PPAPEIKS
049000            PERFORM 3500-CALL-ARSM                                PPAPEIKS
049100            IF  ARSM-RETURN-CODE = ZERO                           PPAPEIKS
049200                IF ARSM-PERMISSION = 'Y'                          PPAPEIKS
049300                   SET UCCOMMON-RECORD-AUTH-VIEW TO TRUE          PPAPEIKS
049400                   SET UCCOMMON-RETURN-NO-ERRORS   TO TRUE        PPAPEIKS
049500                   IF UCCOMMON-HOT-MSG-NUMBER = MP0634            PPAPEIKS
049600                      SET UCCOMMON-HOT-MSG-NUM-NOT-SET TO TRUE    PPAPEIKS
049700                   END-IF                                         PPAPEIKS
049800                ELSE                                              PPAPEIKS
049900                   SET UCCOMMON-RECORD-AUTH-NONE TO TRUE          PPAPEIKS
050000                   SET UCCOMMON-RETURN-ERRORS-FOUND TO TRUE       PPAPEIKS
050100                   SET CPWSWORK-REDISPLAY-EEID TO TRUE            PPAPEIKS
050200                   SET CPWSWORK-REDISPLAY-NAME TO TRUE            PPAPEIKS
050300                   SET CPWSWORK-REDISPLAY-SSN TO TRUE             PPAPEIKS
050400                   MOVE MU0017 TO UCCOMMON-MSG-NUMBER             PPAPEIKS
050500                END-IF                                            PPAPEIKS
050600            ELSE                                                  PPAPEIKS
050700                MOVE MP0912 TO UCCOMMON-MSG-NUMBER                PPAPEIKS
050800                SET UCCOMMON-RETURN-ERRORS-FOUND TO TRUE          PPAPEIKS
050900            END-IF                                                PPAPEIKS
051000      ELSE                                                        PPAPEIKS
051100         MOVE MP0912 TO UCCOMMON-MSG-NUMBER                       PPAPEIKS
051200         SET UCCOMMON-RETURN-ERRORS-FOUND TO TRUE                 PPAPEIKS
051300      END-IF.                                                     PPAPEIKS
051400                                                                  PPAPEIKS
051500 3000-EXIT.                                                       PPAPEIKS
051600     EXIT.                                                        PPAPEIKS
051700                                                                  PPAPEIKS
051800 3500-CALL-ARSM    SECTION.                                       PPAPEIKS
051900**************************************************************    PPAPEIKS
052000*  CALL UCARSM.                                              *    PPAPEIKS
052100**************************************************************    PPAPEIKS
052200                                                                  PPAPEIKS
052300     CALL PGM-ARSM  USING DFHEIBLK DFHCOMMAREA ARSM-INTERFACE.    PPAPEIKS
052400                                                                  PPAPEIKS
052500 3500-EXIT.                                                       PPAPEIKS
052600     EXIT.                                                        PPAPEIKS
052700                                                                  PPAPEIKS
051800 3600-VALIDATE-FUNCTION    SECTION.                               UCSD0056
052200                                                                  UCSD0056
052200     MOVE ZERO TO WS-ROW-COUNT-CFN.                               UCSD0056
052200                                                                  UCSD0056
052300     EXEC SQL                                                     UCSD0056
052300          SELECT COUNT(*)                                         UCSD0056
052300            INTO :WS-ROW-COUNT-CFN                                UCSD0056
052300            FROM UC0VZCFN_CFN                                     UCSD0056
052300           WHERE CFN_FUNCTION_ID = :CFN-FUNCTION-ID               UCSD0056
052300     END-EXEC.                                                    UCSD0056
052400                                                                  UCSD0056
052400     IF WS-ROW-COUNT-CFN = ZERO                                   UCSD0056
052400        MOVE MU0011     TO  UCCOMMON-MSG-NUMBER                   UCSD0056
052400     END-IF.                                                      UCSD0056
052400                                                                  UCSD0056
052500 3600-EXIT.                                                       UCSD0056
052600     EXIT.                                                        UCSD0056
052700                                                                  UCSD0056
052800     EJECT                                                        PPAPEIKS
052900                                                                  PPAPEIKS
053000 4000-GET-DATA      SECTION.                                      PPAPEIKS
053100**************************************************************    PPAPEIKS
053200*  CALL UTILITY PROGRAMS TO OBTAIN EDB DATA FROM THE PER,    *    PPAPEIKS
053300*  PAY AND PCM ROWS.                                         *    PPAPEIKS
053400**************************************************************    PPAPEIKS
053500                                                                  PPAPEIKS
053600     MOVE WS-UNIQUE-EE-ID TO PPPERUTL-EMPLOYEE-ID                 PPAPEIKS
053700                             PPPAYUTL-EMPLOYEE-ID                 PPAPEIKS
053800                             PPPCMUTL-EMPLOYEE-ID                 PPAPEIKS
053900                             CPWSKEYS-EMPLOYEE-ID                 PPAPEIKS
054000                             CPWSWORK-UNIQUE-EE-ID.               PPAPEIKS
054100                                                                  PPAPEIKS
054200     CALL PGM-PPPERUTL USING PPPERUTL-INTERFACE                   PPAPEIKS
054300                             PER-ROW.                             PPAPEIKS
054400                                                                  PPAPEIKS
054500     IF PPPERUTL-ERROR OR NOT PPPERUTL-PER-FOUND                  PPAPEIKS
054600        MOVE 'PPAPEIKS' TO UCWSABND-ABENDING-PGM                  PPAPEIKS
054700        MOVE 'PPAPEIKS' TO UCWSABND-ABENDING-PGM                  PPAPEIKS
054800        MOVE 'SEVERE ERROR HAS OCCURRED - CALL SUPERVISOR'        PPAPEIKS
054900                                     TO UCWSABND-MSG-DATA         PPAPEIKS
055000        MOVE '4000-GET-DATA - ERRORS IN CALL TO PPPERUTL'         PPAPEIKS
055100                                     TO UCWSABND-ABEND-DATA(1)    PPAPEIKS
055200        PERFORM 9999-ABEND                                        PPAPEIKS
055300     END-IF.                                                      PPAPEIKS
055400                                                                  PPAPEIKS
055500     CALL PGM-PPPAYUTL USING PPPAYUTL-INTERFACE                   PPAPEIKS
055600                             PAY-ROW.                             PPAPEIKS
055700                                                                  PPAPEIKS
055800     IF PPPAYUTL-ERROR OR NOT PPPAYUTL-PAY-FOUND                  PPAPEIKS
055900        MOVE 'PPAPEIKS'  TO UCWSABND-ABENDING-PGM                 PPAPEIKS
056000        MOVE 'PPAPEIKS'  TO UCWSABND-ABENDING-PGM                 PPAPEIKS
056100        MOVE 'SEVERE ERROR HAS OCCURRED - CALL SUPERVISOR'        PPAPEIKS
056200                                     TO UCWSABND-MSG-DATA         PPAPEIKS
056300        MOVE '4000-GET-DATA - ERRORS IN CALL TO PPPAYUTL'         PPAPEIKS
056400                                     TO UCWSABND-ABEND-DATA(1)    PPAPEIKS
056500        PERFORM 9999-ABEND                                        PPAPEIKS
056600     END-IF.                                                      PPAPEIKS
056700                                                                  PPAPEIKS
056800     CALL PGM-PPPCMUTL USING PPPCMUTL-INTERFACE                   PPAPEIKS
056900                             PCM-ROW.                             PPAPEIKS
057000                                                                  PPAPEIKS
057100     IF PPPCMUTL-ERROR                                            PPAPEIKS
057200        MOVE 'PPAPEIKS'  TO UCWSABND-ABENDING-PGM                 PPAPEIKS
057300        MOVE 'PPAPEIKS'  TO UCWSABND-ABENDING-PGM                 PPAPEIKS
057400        MOVE 'SEVERE ERROR HAS OCCURRED - CALL SUPERVISOR'        PPAPEIKS
057500                                     TO UCWSABND-MSG-DATA         PPAPEIKS
057600        MOVE '4000-GET-DATA - ERRORS IN CALL TO PPPCMUTL'         PPAPEIKS
057700                                     TO UCWSABND-ABEND-DATA(1)    PPAPEIKS
057800        PERFORM 9999-ABEND                                        PPAPEIKS
057900     END-IF.                                                      PPAPEIKS
058000                                                                  PPAPEIKS
058100 4000-EXIT.                                                       PPAPEIKS
058200     EXIT.                                                        PPAPEIKS
058300                                                                  PPAPEIKS
058400                                                                  PPAPEIKS
058500     EJECT                                                        PPAPEIKS
058600                                                                  PPAPEIKS
058700 8000-SELECT-CNT-WTH-ID    SECTION.                               PPAPEIKS
058800**************************************************************    PPAPEIKS
058900*  COUNT THE EMPLOYEES WITH THE EMPLOYEE ID ENTERED.         *    PPAPEIKS
059000**************************************************************    PPAPEIKS
059100                                                                  PPAPEIKS
059200     IF CPWSWORK-ID-LENGTH < 9                                    PPAPEIKS
059300        MOVE WS-KEY-REFORMATTED TO WS-ENTERED-ID-1                PPAPEIKS
059400     ELSE                                                         PPAPEIKS
059500        MOVE CPWSFOOT-ENTERED-ID TO WS-ENTERED-ID-1               PPAPEIKS
059600     END-IF.                                                      PPAPEIKS
059700                                                                  PPAPEIKS
059800     MOVE 'SELECT COUNT WITH ID' TO DB2MSG-TAG.                   PPAPEIKS
059900                                                                  PPAPEIKS
060000     EXEC SQL                                                     PPAPEIKS
060100         SELECT                                                   PPAPEIKS
060200         COUNT (*)                                                PPAPEIKS
060300         INTO :WS-COUNT                                           PPAPEIKS
060400         FROM PPPVZPER_PER                                        PPAPEIKS
060500         WHERE EMPLOYEE_ID =  :WS-ENTERED-ID-1                    PPAPEIKS
060600     END-EXEC.                                                    PPAPEIKS
060700                                                                  PPAPEIKS
060800 8000-EXIT.                                                       PPAPEIKS
060900     EXIT.                                                        PPAPEIKS
061000                                                                  PPAPEIKS
061100     EJECT                                                        PPAPEIKS
061200                                                                  PPAPEIKS
061300 8050-SELECT-CNT-WTH-ID-2     SECTION.                            PPAPEIKS
061400**************************************************************    PPAPEIKS
061500*  COUNT THE EMPLOYEES WITH THE EMPLOYEE ID ENTERED.         *    PPAPEIKS
061600**************************************************************    PPAPEIKS
061700                                                                  PPAPEIKS
061800     MOVE WS-KEY-1 TO WS-ENTERED-ID-1.                            PPAPEIKS
061900     MOVE WS-KEY-2 TO WS-ENTERED-ID-2.                            PPAPEIKS
062000                                                                  PPAPEIKS
062100     MOVE 'SELECT COUNT WITH ID-2' TO DB2MSG-TAG.                 PPAPEIKS
062200                                                                  PPAPEIKS
062300*    EXEC SQL                                                     UCSD0062
062400*        SELECT                                                   UCSD0062
062500*        COUNT (*)                                                UCSD0062
062600*        INTO :WS-COUNT                                           UCSD0062
062700*        FROM PPPVZPER_PER                                        UCSD0062
062800*        WHERE EMPLOYEE_ID BETWEEN :WS-ENTERED-ID-1               UCSD0062
062900*                              AND :WS-ENTERED-ID-2               UCSD0062
063000*    END-EXEC.                                                    UCSD0062
063100                                                                  UCSD0062
063101                                                                  UCSD0062
063102******************************************************************UCSD0062
063103* REPLACE COUNT WITH A CURSOR AND UP TO TWO FETCHES.  THE CURSOR *UCSD0062
063104* OPERTAION IS FOR PERFORMANCE REASONS.  FOR COUNTS WHICH WOULD  *UCSD0062
063105* RETURN A RESULT OF ZERO, 1 OR 2, THE CURSOR IS A WASH.  AS THE *UCSD0062
063106* COUNT INCREASES, THE TIME SAVINGS GROW.                        *UCSD0062
063107******************************************************************UCSD0062
063108     EXEC SQL                                                     UCSD0062
063109        DECLARE COUNT_1 CURSOR FOR                                UCSD0062
063110         SELECT   EMPLOYEE_ID                                     UCSD0062
063111              FROM  PPPVZPER_PER                                  UCSD0062
063112              WHERE EMPLOYEE_ID BETWEEN :WS-ENTERED-ID-1          UCSD0062
063113                                    AND :WS-ENTERED-ID-2          UCSD0062
063114     END-EXEC                                                     UCSD0062
063115                                                                  UCSD0062
063116     EXEC SQL                                                     UCSD0062
063117        OPEN COUNT_1                                              UCSD0062
063118     END-EXEC                                                     UCSD0062
063119                                                                  UCSD0062
063120     IF SQLCODE = ZERO                                            UCSD0062
063121        EXEC SQL                                                  UCSD0062
063122           FETCH   COUNT_1                                        UCSD0062
063123              INTO :WS-DUMMY-ID                                   UCSD0062
063124        END-EXEC                                                  UCSD0062
063125        IF SQLCODE = ZERO                                         UCSD0062
063126           EXEC SQL                                               UCSD0062
063127              FETCH   COUNT_1                                     UCSD0062
063128                 INTO :WS-DUMMY-ID                                UCSD0062
063129           END-EXEC                                               UCSD0062
063130           IF SQLCODE = ZERO                                      UCSD0062
063131              MOVE 2             TO WS-COUNT                      UCSD0062
063132           ELSE                                                   UCSD0062
063133              IF SQLCODE = 100                                    UCSD0062
063134                 MOVE 1          TO WS-COUNT                      UCSD0062
063135              END-IF                                              UCSD0062
063136           END-IF                                                 UCSD0062
063137        ELSE                                                      UCSD0062
063138           IF SQLCODE = 100                                       UCSD0062
063139              MOVE ZERO          TO WS-COUNT                      UCSD0062
063140           END-IF                                                 UCSD0062
063141        END-IF                                                    UCSD0062
063142        EXEC SQL                                                  UCSD0062
063143           CLOSE COUNT_1                                          UCSD0062
063144        END-EXEC                                                  UCSD0062
063145     END-IF.                                                      UCSD0062
063146                                                                  UCSD0062
063200 8050-EXIT.                                                       PPAPEIKS
063300     EXIT.                                                        PPAPEIKS
063400                                                                  PPAPEIKS
063500     EJECT                                                        PPAPEIKS
063600                                                                  PPAPEIKS
063700 8100-SELECT-CNT-WTH-NAME        SECTION.                         PPAPEIKS
063800**************************************************************    PPAPEIKS
063900*  COUNT THE EMPLOYEES WITH THE EMPLOYEE NAME ENTERED.       *    PPAPEIKS
064000**************************************************************    PPAPEIKS
064100                                                                  PPAPEIKS
064200     MOVE 'SELECT COUNT WITH NAME' TO DB2MSG-TAG.                 PPAPEIKS
064300                                                                  PPAPEIKS
064400     MOVE CPWSFOOT-ENTERED-NAME TO WS-ENTERED-NAME-1.             PPAPEIKS
064500                                                                  PPAPEIKS
064600     EXEC SQL                                                     PPAPEIKS
064700         SELECT                                                   PPAPEIKS
064800         COUNT (*)                                                PPAPEIKS
064900         INTO :WS-COUNT                                           PPAPEIKS
065000         FROM PPPVZPER_PER                                        PPAPEIKS
065100         WHERE EMP_NAME = :WS-ENTERED-NAME-1                      PPAPEIKS
065200     END-EXEC.                                                    PPAPEIKS
065300                                                                  PPAPEIKS
065400 8100-EXIT.                                                       PPAPEIKS
065500     EXIT.                                                        PPAPEIKS
065600                                                                  PPAPEIKS
065700     EJECT                                                        PPAPEIKS
065800                                                                  PPAPEIKS
065900 8150-SELECT-CNT-WTH-NAME-2    SECTION.                           PPAPEIKS
066000**************************************************************    PPAPEIKS
066100*  COUNT THE EMPLOYEES WITH THE EMPLOYEE NAME ENTERED.       *    PPAPEIKS
066200**************************************************************    PPAPEIKS
066300                                                                  PPAPEIKS
066400     MOVE 'SELECT COUNT WITH NAME-2' TO DB2MSG-TAG.               PPAPEIKS
066500                                                                  PPAPEIKS
066600     MOVE WS-KEY-1 TO WS-ENTERED-NAME-1.                          PPAPEIKS
066700     MOVE WS-KEY-2 TO WS-ENTERED-NAME-2.                          PPAPEIKS
066800                                                                  PPAPEIKS
066900*    EXEC SQL                                                     UCSD0062
067000*        SELECT                                                   UCSD0062
067100*        COUNT (*)                                                UCSD0062
067200*        INTO :WS-COUNT                                           UCSD0062
067300*        FROM PPPVZPER_PER                                        UCSD0062
067400*        WHERE EMP_NAME BETWEEN :WS-ENTERED-NAME-1                UCSD0062
067500*                           AND :WS-ENTERED-NAME-2                UCSD0062
067600*    END-EXEC.                                                    UCSD0062
067700                                                                  UCSD0062
067710******************************************************************UCSD0062
067720* SEE COMMENTS IN 8050.  SAME CHANGE MADE HERE                   *UCSD0062
067760******************************************************************UCSD0062
067770     EXEC SQL                                                     UCSD0062
067780        DECLARE COUNT_2 CURSOR FOR                                UCSD0062
067790         SELECT   EMP_NAME                                        UCSD0062
067791              FROM  PPPVZPER_PER                                  UCSD0062
067792              WHERE EMP_NAME BETWEEN :WS-ENTERED-NAME-1           UCSD0062
067793                                 AND :WS-ENTERED-NAME-2           UCSD0062
067794     END-EXEC                                                     UCSD0062
067795                                                                  UCSD0062
067796     EXEC SQL                                                     UCSD0062
067797        OPEN COUNT_2                                              UCSD0062
067798     END-EXEC                                                     UCSD0062
067799                                                                  UCSD0062
067800     IF SQLCODE = ZERO                                            UCSD0062
067801        EXEC SQL                                                  UCSD0062
067802           FETCH   COUNT_2                                        UCSD0062
067803              INTO :WS-DUMMY-NAME                                 UCSD0062
067804        END-EXEC                                                  UCSD0062
067805        IF SQLCODE = ZERO                                         UCSD0062
067806           EXEC SQL                                               UCSD0062
067807              FETCH   COUNT_2                                     UCSD0062
067808                 INTO :WS-DUMMY-NAME                              UCSD0062
067809           END-EXEC                                               UCSD0062
067810           IF SQLCODE = ZERO                                      UCSD0062
067811              MOVE 2             TO WS-COUNT                      UCSD0062
067812           ELSE                                                   UCSD0062
067813              IF SQLCODE = 100                                    UCSD0062
067814                 MOVE 1          TO WS-COUNT                      UCSD0062
067815              END-IF                                              UCSD0062
067816           END-IF                                                 UCSD0062
067817        ELSE                                                      UCSD0062
067818           IF SQLCODE = 100                                       UCSD0062
067819              MOVE ZERO          TO WS-COUNT                      UCSD0062
067820           END-IF                                                 UCSD0062
067821        END-IF                                                    UCSD0062
067822        EXEC SQL                                                  UCSD0062
067823           CLOSE COUNT_2                                          UCSD0062
067824        END-EXEC                                                  UCSD0062
067825     END-IF.                                                      UCSD0062
067826                                                                  UCSD0062
067800 8150-EXIT.                                                       PPAPEIKS
067900     EXIT.                                                        PPAPEIKS
068000                                                                  PPAPEIKS
068100     EJECT                                                        PPAPEIKS
068200                                                                  PPAPEIKS
068300 8200-SELECT-CNT-WTH-SSN     SECTION.                             PPAPEIKS
068400**************************************************************    PPAPEIKS
068500*  COUNT THE EMPLOYEES WITH THE EMPLOYEE SSN ENTERED.        *    PPAPEIKS
068600**************************************************************    PPAPEIKS
068700                                                                  PPAPEIKS
068800     MOVE 'SELECT COUNT WITH SSN' TO DB2MSG-TAG.                  PPAPEIKS
068900                                                                  PPAPEIKS
069000     MOVE CPWSFOOT-ENTERED-SSN TO WS-ENTERED-SSN-1.               PPAPEIKS
069100                                                                  PPAPEIKS
069200     EXEC SQL                                                     PPAPEIKS
069300         SELECT                                                   PPAPEIKS
069400         COUNT (*)                                                PPAPEIKS
069500         INTO :WS-COUNT                                           PPAPEIKS
069600         FROM PPPVZPAY_PAY                                        PPAPEIKS
069700         WHERE SOC_SEC_NUM = :WS-ENTERED-SSN-1                    PPAPEIKS
069800     END-EXEC.                                                    PPAPEIKS
069900                                                                  PPAPEIKS
070000 8200-EXIT.                                                       PPAPEIKS
070100     EXIT.                                                        PPAPEIKS
070200                                                                  PPAPEIKS
070300     EJECT                                                        PPAPEIKS
070400                                                                  PPAPEIKS
070500 8250-SELECT-CNT-WTH-SSN-2      SECTION.                          PPAPEIKS
070600**************************************************************    PPAPEIKS
070700*  COUNT THE EMPLOYEES WITH THE EMPLOYEE SSN ENTERED.        *    PPAPEIKS
070800**************************************************************    PPAPEIKS
070900                                                                  PPAPEIKS
071000     MOVE 'SELECT COUNT WITH SSN-2' TO DB2MSG-TAG.                PPAPEIKS
071100                                                                  PPAPEIKS
071200     MOVE WS-KEY-1 TO WS-ENTERED-SSN-1.                           PPAPEIKS
071300     MOVE WS-KEY-2 TO WS-ENTERED-SSN-2.                           PPAPEIKS
071400                                                                  PPAPEIKS
071500*    EXEC SQL                                                     UCSD0062
071600*        SELECT                                                   UCSD0062
071700*        COUNT (*)                                                UCSD0062
071800*        INTO :WS-COUNT                                           UCSD0062
071900*        FROM PPPVZPAY_PAY                                        UCSD0062
072000*        WHERE SOC_SEC_NUM BETWEEN :WS-ENTERED-SSN-1              UCSD0062
072100*                              AND :WS-ENTERED-SSN-2              UCSD0062
072200*    END-EXEC.                                                    PPAPEIKS
072300                                                                  PPAPEIKS
072310                                                                  UCSD0062
072320******************************************************************UCSD0062
072330* SEE COMMENTS IN 8050.  SAME CHANGE MADE HERE                   *UCSD0062
072340******************************************************************UCSD0062
072350     EXEC SQL                                                     UCSD0062
072360        DECLARE COUNT_3 CURSOR FOR                                UCSD0062
072370         SELECT   SOC_SEC_NUM                                     UCSD0062
072380              FROM  PPPVZPAY_PAY                                  UCSD0062
072390              WHERE SOC_SEC_NUM BETWEEN :WS-ENTERED-SSN-1         UCSD0062
072391                                    AND :WS-ENTERED-SSN-2         UCSD0062
072392     END-EXEC                                                     UCSD0062
072393                                                                  UCSD0062
072394     EXEC SQL                                                     UCSD0062
072395        OPEN COUNT_3                                              UCSD0062
072396     END-EXEC                                                     UCSD0062
072397                                                                  UCSD0062
072398     IF SQLCODE = ZERO                                            UCSD0062
072399        EXEC SQL                                                  UCSD0062
072400           FETCH   COUNT_3                                        UCSD0062
072401              INTO :WS-DUMMY-SSN                                  UCSD0062
072402        END-EXEC                                                  UCSD0062
072403        IF SQLCODE = ZERO                                         UCSD0062
072404           EXEC SQL                                               UCSD0062
072405              FETCH   COUNT_3                                     UCSD0062
072406                 INTO :WS-DUMMY-SSN                               UCSD0062
072407           END-EXEC                                               UCSD0062
072408           IF SQLCODE = ZERO                                      UCSD0062
072409              MOVE 2             TO WS-COUNT                      UCSD0062
072410           ELSE                                                   UCSD0062
072411              IF SQLCODE = 100                                    UCSD0062
072412                 MOVE 1          TO WS-COUNT                      UCSD0062
072413              END-IF                                              UCSD0062
072414           END-IF                                                 UCSD0062
072415        ELSE                                                      UCSD0062
072416           IF SQLCODE = 100                                       UCSD0062
072417              MOVE ZERO          TO WS-COUNT                      UCSD0062
072418           END-IF                                                 UCSD0062
072419        END-IF                                                    UCSD0062
072420        EXEC SQL                                                  UCSD0062
072421           CLOSE COUNT_3                                          UCSD0062
072422        END-EXEC                                                  UCSD0062
072423     END-IF.                                                      UCSD0062
072424                                                                  UCSD0062
072400 8250-EXIT.                                                       PPAPEIKS
072500     EXIT.                                                        PPAPEIKS
072600                                                                  PPAPEIKS
072700     EJECT                                                        PPAPEIKS
072800                                                                  PPAPEIKS
072900 8275-SELECT-ID-WTH-ID-2     SECTION.                             PPAPEIKS
073000**************************************************************    PPAPEIKS
073100*  SELECT THE EMPLOYEE ID FROM THE PER ROW BASED ON          *    PPAPEIKS
073200*  EMPLOYEE ID ENTERED.                                      *    PPAPEIKS
073300**************************************************************    PPAPEIKS
073400                                                                  PPAPEIKS
073500     MOVE 'SELECT ID WITH ID-2' TO DB2MSG-TAG.                    PPAPEIKS
073600                                                                  PPAPEIKS
073700     EXEC SQL                                                     PPAPEIKS
073800         SELECT                                                   PPAPEIKS
073900         EMPLOYEE_ID                                              PPAPEIKS
074000         INTO :WS-UNIQUE-EE-ID                                    PPAPEIKS
074100         FROM PPPVZPER_PER                                        PPAPEIKS
074200         WHERE EMPLOYEE_ID BETWEEN :WS-ENTERED-ID-1               PPAPEIKS
074300                               AND :WS-ENTERED-ID-2               PPAPEIKS
074400     END-EXEC.                                                    PPAPEIKS
074500                                                                  PPAPEIKS
074600 8275-EXIT.                                                       PPAPEIKS
074700     EXIT.                                                        PPAPEIKS
074800                                                                  PPAPEIKS
074900     EJECT                                                        PPAPEIKS
075000                                                                  PPAPEIKS
075100 8300-SELECT-ID-WTH-NAME     SECTION.                             PPAPEIKS
075200**************************************************************    PPAPEIKS
075300*  SELECT THE EMPLOYEE ID FROM THE PER ROW BASED ON          *    PPAPEIKS
075400*  EMPLOYEE NAME ENTERED.                                    *    PPAPEIKS
075500**************************************************************    PPAPEIKS
075600                                                                  PPAPEIKS
075700     MOVE 'SELECT ID WITH NAME' TO DB2MSG-TAG.                    PPAPEIKS
075800                                                                  PPAPEIKS
075900     EXEC SQL                                                     PPAPEIKS
076000         SELECT                                                   PPAPEIKS
076100         EMPLOYEE_ID                                              PPAPEIKS
076200         INTO :WS-UNIQUE-EE-ID                                    PPAPEIKS
076300         FROM PPPVZPER_PER                                        PPAPEIKS
076400         WHERE EMP_NAME = :WS-ENTERED-NAME-1                      PPAPEIKS
076500     END-EXEC.                                                    PPAPEIKS
076600                                                                  PPAPEIKS
076700 8300-EXIT.                                                       PPAPEIKS
076800     EXIT.                                                        PPAPEIKS
076900                                                                  PPAPEIKS
077000     EJECT                                                        PPAPEIKS
077100                                                                  PPAPEIKS
077200 8350-SELECT-ID-WTH-NAME-2     SECTION.                           PPAPEIKS
077300**************************************************************    PPAPEIKS
077400*  SELECT THE EMPLOYEE ID FROM THE PER ROW BASED ON          *    PPAPEIKS
077500*  EMPLOYEE NAME ENTERED.                                    *    PPAPEIKS
077600**************************************************************    PPAPEIKS
077700                                                                  PPAPEIKS
077800     MOVE 'SELECT ID WITH NAME-2' TO DB2MSG-TAG.                  PPAPEIKS
077900                                                                  PPAPEIKS
078000     EXEC SQL                                                     PPAPEIKS
078100         SELECT                                                   PPAPEIKS
078200         EMPLOYEE_ID                                              PPAPEIKS
078300         INTO :WS-UNIQUE-EE-ID                                    PPAPEIKS
078400         FROM PPPVZPER_PER                                        PPAPEIKS
078500         WHERE EMP_NAME BETWEEN :WS-ENTERED-NAME-1                PPAPEIKS
078600                            AND :WS-ENTERED-NAME-2                PPAPEIKS
078700     END-EXEC.                                                    PPAPEIKS
078800                                                                  PPAPEIKS
078900 8350-EXIT.                                                       PPAPEIKS
079000     EXIT.                                                        PPAPEIKS
079100                                                                  PPAPEIKS
079200     EJECT                                                        PPAPEIKS
079300                                                                  PPAPEIKS
079400                                                                  PPAPEIKS
079500 8400-SELECT-ID-WTH-SSN     SECTION.                              PPAPEIKS
079600**************************************************************    PPAPEIKS
079700*  SELECT THE EMPLOYEE ID FROM THE PER ROW BASED ON          *    PPAPEIKS
079800*  EMPLOYEE SSN ENTERED.                                     *    PPAPEIKS
079900**************************************************************    PPAPEIKS
080000                                                                  PPAPEIKS
080100     MOVE 'SELECT ID WITH SSN' TO DB2MSG-TAG.                     PPAPEIKS
080200                                                                  PPAPEIKS
080300     EXEC SQL                                                     PPAPEIKS
080400         SELECT                                                   PPAPEIKS
080500         EMPLOYEE_ID                                              PPAPEIKS
080600         INTO :WS-UNIQUE-EE-ID                                    PPAPEIKS
080700         FROM PPPVZPAY_PAY                                        PPAPEIKS
080800         WHERE SOC_SEC_NUM = :WS-ENTERED-SSN-1                    PPAPEIKS
080900     END-EXEC.                                                    PPAPEIKS
081000                                                                  PPAPEIKS
081100 8400-EXIT.                                                       PPAPEIKS
081200     EXIT.                                                        PPAPEIKS
081300                                                                  PPAPEIKS
081400     EJECT                                                        PPAPEIKS
081500                                                                  PPAPEIKS
081600 8450-SELECT-ID-WTH-SSN-2     SECTION.                            PPAPEIKS
081700**************************************************************    PPAPEIKS
081800*  SELECT THE EMPLOYEE ID FROM THE PER ROW BASED ON          *    PPAPEIKS
081900*  EMPLOYEE SSN ENTERED.                                     *    PPAPEIKS
082000**************************************************************    PPAPEIKS
082100                                                                  PPAPEIKS
082200     MOVE 'SELECT ID WITH SSN-2' TO DB2MSG-TAG.                   PPAPEIKS
082300                                                                  PPAPEIKS
082400     EXEC SQL                                                     PPAPEIKS
082500         SELECT                                                   PPAPEIKS
082600         EMPLOYEE_ID                                              PPAPEIKS
082700         INTO :WS-UNIQUE-EE-ID                                    PPAPEIKS
082800         FROM PPPVZPAY_PAY                                        PPAPEIKS
082900         WHERE SOC_SEC_NUM BETWEEN :WS-ENTERED-SSN-1              PPAPEIKS
083000                               AND :WS-ENTERED-SSN-2              PPAPEIKS
083100     END-EXEC.                                                    PPAPEIKS
083200                                                                  PPAPEIKS
083300 8450-EXIT.                                                       PPAPEIKS
083400     EXIT.                                                        PPAPEIKS
083500                                                                  PPAPEIKS
083600     EJECT                                                        PPAPEIKS
083700                                                                  PPAPEIKS
083800*BUILD-ID   SECTION.                                              PPAPEIKS
083900*FORMAT-DISPLAY-ID   SECTION.                                     PPAPEIKS
084000**************************************************************    PPAPEIKS
084100*  COPIED PROCEDURE DIVISION CODE FOR BUILDING AND           *    PPAPEIKS
084200*  FORMATTING EMPLOYEE ID BASED ON LENGTH.                   *    PPAPEIKS
084300**************************************************************    PPAPEIKS
084400                                                                  PPAPEIKS
084500     COPY CPPDBLID.                                               PPAPEIKS
084600                                                                  PPAPEIKS
084700     EJECT                                                        PPAPEIKS
084800                                                                  PPAPEIKS
084900*                                                                 PPAPEIKS
085000 9999-ABEND    SECTION.                                           PPAPEIKS
085100**************************************************************    PPAPEIKS
085200*  COPIED PROCEDURE DIVISION CODE                            *    PPAPEIKS
085300**************************************************************    PPAPEIKS
085400                                                                  PPAPEIKS
085500     MOVE 'PPAPEIKS' TO UCWSABND-ABENDING-PGM.                    PPAPEIKS
085600                                                                  PPAPEIKS
085700     COPY UCPDABND.                                               PPAPEIKS
085800                                                                  PPAPEIKS
085900 9999-EXIT.                                                       PPAPEIKS
086000     EXIT.                                                        PPAPEIKS
086100                                                                  PPAPEIKS
086200*999999-SQL-ERROR SECTION.                                        PPAPEIKS
086300**************************************************************    PPAPEIKS
086400*  COPIED PROCEDURE DIVISION CODE FOR SQL ERROR HANDLING     *    PPAPEIKS
086500**************************************************************    PPAPEIKS
086600                                                                  PPAPEIKS
086700      EXEC SQL                                                    PPAPEIKS
086800           INCLUDE CPPDXP99                                       PPAPEIKS
086900      END-EXEC.                                                   PPAPEIKS
087000                                                                  PPAPEIKS
087100      MOVE 'SQL ERROR - SEE PRECEDING DB2 MESSAGES'               PPAPEIKS
087200                                      TO UCWSABND-ABEND-DATA (1). PPAPEIKS
087300                                                                  PPAPEIKS
087400      PERFORM 9999-ABEND.                                         PPAPEIKS
087500                                                                  PPAPEIKS
087600 999999-EXIT.                                                     PPAPEIKS
087700       EXIT.                                                      PPAPEIKS
087800***************** END OF PPAPEIKS ********************************PPAPEIKS
