000010*==========================================================%      UCSD0075
000020*=    PROGRAM: PPAPTFSR                                   =%      UCSD0075
000030*=    CHANGE # 0075         PROJ. REQUEST: UCSD0075       =%      UCSD0075
000040*=    NAME: DELIA PERKINS   MODIFICATION DATE: 08/01/95   =%      UCSD0075
000050*=                                                        =%      UCSD0075
000060*=    DESCRIPTION:                                        =%      UCSD0075
000070*=     ADDED A NEW EXTERNAL AREA FOR ITTL PROCESSING THAT =%      UCSD0075
000080*=     NEEDS TO BE STORED AND RESTORED BY THIS PROGRAM.   =%      UCSD0075
000081*=     THE AREA IS CALLED CPWSITTL.                       =%      UCSD0075
000090*==========================================================%      UCSD0075
000010**************************************************************/   32021138
000020*  PROGRAM: PPAPTFSR                                         */   32021138
000030*  RELEASE: ___1138______ SERVICE REQUEST(S): ____13202____  */   32021138
000040*  NAME:______PAYJIG_____ MODIFICATION DATE:  ___08/04/97__  */   32021138
000050*  DESCRIPTION:                                              */   32021138
000060*  - MODIFIED FOR FULL ACCOUNTING UNIT                       */   32021138
000070**************************************************************/   32021138
000100**************************************************************/   36370967
000200*  PROGRAM: PPAPTFSR                                         */   36370967
000300*  RELEASE: ___0967______ SERVICE REQUEST(S): _____3637____  */   36370967
000400*  NAME:_______PXP_______ MODIFICATION DATE:  __03/10/95____ */   36370967
000500*  DESCRIPTION:                                              */   36370967
000600*    THF ENTRY/UPDATE STORE/RESTORE APPLICATION PROCESSOR    */   36370967
000800**************************************************************/   36370967
000900 IDENTIFICATION DIVISION.                                         PPAPTFSR
001000 PROGRAM-ID. PPAPTFSR.                                            PPAPTFSR
001100 ENVIRONMENT DIVISION.                                            PPAPTFSR
001200 CONFIGURATION SECTION.                                           PPAPTFSR
001300 SOURCE-COMPUTER.                                                 PPAPTFSR
001400 COPY  CPOTXUCS.                                                  PPAPTFSR
001500 DATA DIVISION.                                                   PPAPTFSR
001600 WORKING-STORAGE SECTION.                                         PPAPTFSR
001700                                                                  PPAPTFSR
001800 01  WS-COMN.                                                     PPAPTFSR
001900     05  WS-START                          PIC X(32) VALUE        PPAPTFSR
002000         'WORKING STORAGE STARTS HERE'.                           PPAPTFSR
002100     05  WS-ENQ-NAME                       PIC X(08)              PPAPTFSR
002200                                               VALUE 'THFSEQNO'.  PPAPTFSR
002300     05  WS-RESP                           PIC S9(8) COMP.        PPAPTFSR
002400     05  WS-LENGTH                         PIC S9(08) COMP.       PPAPTFSR
002500     05  TS-QUEUE-ID.                                             PPAPTFSR
002600         10  TS-QUEUE-NAME-SS              PIC X(02).             PPAPTFSR
002700         10  TS-QUEUE-NAME-N1              PIC 9(01).             PPAPTFSR
002800         10  TS-QUEUE-NAME-N2              PIC 9(01).             PPAPTFSR
002900         10  TS-QUEUE-TERMID               PIC X(04).             PPAPTFSR
003000     05  TS-QUEUE-LENGTH                   PIC S9(04) COMP.       PPAPTFSR
003100     05  TS-QUEUE-ITEM                     PIC S9(04) COMP.       PPAPTFSR
003200     05  TS-AUDIT-QUEUE-ID.                                       PPAPTFSR
003300         10  TS-AUDIT-Q-SS-NAME            PIC X(02).             PPAPTFSR
003400         10  TS-AUDIT-Q-VARIABLE           PIC X(02).             PPAPTFSR
003500             88  TS-AUDIT-Q-VAR-REGULAR              VALUE 'AU'.  PPAPTFSR
003600             88  TS-AUDIT-Q-VAR-NESTED               VALUE 'AN'.  PPAPTFSR
003700         10  TS-AUDIT-Q-TERM-ID            PIC X(04).             PPAPTFSR
003800     05  TS-AUDIT-QUEUE-LENGTH             PIC S9(04) COMP        PPAPTFSR
003900                                                      VALUE 8.    PPAPTFSR
004000     05  TS-AUDIT-QUEUE-DATA.                                     PPAPTFSR
004100         10  TS-AUDIT-Q-QUEUE-NAME         PIC X(08).             PPAPTFSR
004200                                                                  PPAPTFSR
004300 01  WS-TS-AREA                            PIC X(24000).          PPAPTFSR
004400                                                                  PPAPTFSR
004500 01  PPDB2MSG-INTERFACE.                                          PPAPTFSR
004600     COPY CPLNKDB2.                                               PPAPTFSR
004700                                                                  PPAPTFSR
004800 01  EXTRN-PCR-RECORD   EXTERNAL.                                 PPAPTFSR
004900     05  EXTRN-PCR-RECORD-224    PIC X(224).                      PPAPTFSR
005000     05  FILLER                  PIC X(800).                      PPAPTFSR
005100                                                                  PPAPTFSR
005200 01  UCCOMMON   EXTERNAL.                                         PPAPTFSR
005300     COPY UCCOMMON.                                               PPAPTFSR
005400                                                                  PPAPTFSR
005500 01  UCPIROSR   EXTERNAL.                                         PPAPTFSR
005600     COPY UCPIROSR.                                               PPAPTFSR
005700                                                                  PPAPTFSR
005800                                                                  PPAPTFSR
005900 01  CPWSWORK   EXTERNAL.                                         PPAPTFSR
006000     COPY CPWSWORK.                                               PPAPTFSR
006100                                                                  PPAPTFSR
006200 01  CPWSKEYS   EXTERNAL.                                         PPAPTFSR
006300     COPY CPWSKEYS.                                               PPAPTFSR
006400                                                                  PPAPTFSR
006500 01  CPWSGTHF   EXTERNAL.                                         PPAPTFSR
006600     COPY CPWSGTHF.                                               PPAPTFSR
006700                                                                  PPAPTFSR
006800 01  CPWSGTHF-SAVE          EXTERNAL.                             PPAPTFSR
006900     05  FILLER             PIC X(1024).                          PPAPTFSR
007000                                                                  PPAPTFSR
007100                                                                  PPAPTFSR
007200 01  CCWSTHFH   EXTERNAL.                                         PPAPTFSR
007310*****05  FILLER                PIC X(3072).                       32021138
007310     05  FILLER                PIC X(3414).                       32021138
007320                                                                  PPAPTFSR
007330 01  CCWSTHFH-DATA REDEFINES CCWSTHFH.                            PPAPTFSR
007340     02  EDIT-TRAN-HOLD OCCURS 19 TIMES.                          PPAPTFSR
007350         05  FILLER              PIC X(02).                       PPAPTFSR
007360         05  EDIT-TRAN-ID        PIC X(9).                        PPAPTFSR
007370         05  FILLER              REDEFINES                        PPAPTFSR
007380             EDIT-TRAN-ID.                                        PPAPTFSR
007390             10  EDIT-ACTN-CD    PIC X.                           PPAPTFSR
007400             10  EDIT-SEQ-NO9    PIC 9(5).                        PPAPTFSR
007410             10  EDIT-ID-FILL    PIC X(3).                        PPAPTFSR
007420         05  EDIT-TRAN-CD        PIC XX.                          PPAPTFSR
007430         05  EDIT-TRAN-IMAGE.                                     PPAPTFSR
007440*****        10  EDIT-TRAN-FILLER-ORG PIC X(69).                  32021138
007440             10  EDIT-TRAN-FILLER-ORG PIC X(87).                  32021138
007450             10  EDIT-TRAN-FILLER-OP  PIC X(02).                  PPAPTFSR
007460             10  EDIT-TRAN-FILLER-COS PIC X(20).                  PPAPTFSR
007470     02  CCWSTHFH-AUDIT-DATA.                                     PPAPTFSR
007480         05 FILLER               PIC X(135).                      PPAPTFSR
007490         05 CCWSTHFH-EXIST-CNT   PIC 9(04) COMP.                  PPAPTFSR
007500     02  HOLD-ATSIGN-IND         PIC X(01)                        PPAPTFSR
007510                   OCCURS 19 TIMES.                               PPAPTFSR
007520     02  CCWSTHFH-FILLER-AREA.                                    PPAPTFSR
007530         05  FILLER              PIC X(940).                      PPAPTFSR
007540                                                                  PPAPTFSR
007550 01  FILLER REDEFINES CCWSTHFH.                                   PPAPTFSR
007560*          "LX" "RX" "AP" "TE" "TX"                               PPAPTFSR
007570     02  CCWSTHFH-ITEM-HOLD OCCURS 19 TIMES.                      PPAPTFSR
007580         05  FILLER           PIC X(01).                          PPAPTFSR
007590         05  LINE-COMMAND     PIC X(01).                          PPAPTFSR
007600                                   COPY CPWSXTAT.                 PPAPTFSR
007610     02  FILLER              PIC X(1096).                         PPAPTFSR
007620                                                                  PPAPTFSR
007630 01  FILLER REDEFINES CCWSTHFH.                                   PPAPTFSR
007640*          "FT" "RA" "ST"                                         PPAPTFSR
007650     02  CCWSTHFH-ITEM-HOLD OCCURS 19 TIMES.                      PPAPTFSR
007660         05  FILLER           PIC X(02).                          PPAPTFSR
007670                                   COPY CPWSXC2T.                 PPAPTFSR
007680     02  FILLER              PIC X(1096).                         PPAPTFSR
007690                                                                  PPAPTFSR
007700 01  FILLER REDEFINES CCWSTHFH.                                   PPAPTFSR
007710*    XC3T-TRAN-IMAGE       >>>> "PS"                              PPAPTFSR
007720*    XC3T-TRAN-IMAGE       >>>> "DS"                              PPAPTFSR
007730*    XC3T-TRAN-IMAGE       >>>> "RF"                              PPAPTFSR
007740*    XC3T-TRAN-IMAGE       >>>> "HA"                              PPAPTFSR
007750*    XC3T-LV-TRAN-IMAGE    >>>> "LA"                              PPAPTFSR
007760*    XC3T-DA-TRAN-IMAGE    >>>> "DA"                              PPAPTFSR
007770     02  CCWSTHFH-ITEM-HOLD OCCURS 19 TIMES.                      PPAPTFSR
007780         05  FILLER           PIC X(02).                          PPAPTFSR
007790                                   COPY CPWSXC3T.                 PPAPTFSR
007800     02  FILLER              PIC X(1096).                         PPAPTFSR
007810                                                                  PPAPTFSR
007820 01  FILLER REDEFINES CCWSTHFH.                                   PPAPTFSR
007830*          "SB" "UB"                                              PPAPTFSR
007840     02  CCWSTHFH-ITEM-HOLD OCCURS 19 TIMES.                      PPAPTFSR
007850         05  FILLER           PIC X(02).                          PPAPTFSR
007860                                   COPY CPWSXSUB.                 PPAPTFSR
007870     02  FILLER              PIC X(1096).                         PPAPTFSR
007880                                                                  PPAPTFSR
007890 01  CCWSTHFT   EXTERNAL.                                         PPAPTFSR
007900*****05  FILLER                PIC X(3072).                       32021138
007900     05  FILLER                PIC X(3414).                       32021138
007910                                                                  PPAPTFSR
007920 01  CCWSTHFT-DATA  REDEFINES CCWSTHFT.                           PPAPTFSR
007930     02  EDIT-TRAN OCCURS 19 TIMES.                               PPAPTFSR
007940         05  FILLER              PIC X(02).                       PPAPTFSR
007950         05  EDIT-TRAN-ID        PIC X(9).                        PPAPTFSR
007960         05  FILLER              REDEFINES                        PPAPTFSR
007970             EDIT-TRAN-ID.                                        PPAPTFSR
007980             10  EDIT-ACTN-CD    PIC X.                           PPAPTFSR
007990             10  EDIT-SEQ-NO9    PIC 9(5).                        PPAPTFSR
008000             10  EDIT-ID-FILL    PIC X(3).                        PPAPTFSR
008010         05  EDIT-TRAN-CD        PIC XX.                          PPAPTFSR
008020         05  EDIT-TRAN-IMAGE.                                     PPAPTFSR
008030*****        10  EDIT-TRAN-FILLER-ORG PIC X(69).                  32021138
008030             10  EDIT-TRAN-FILLER-ORG PIC X(87).                  32021138
008040             10  EDIT-TRAN-FILLER-OP  PIC X(02).                  PPAPTFSR
008050             10  EDIT-TRAN-FILLER-COS PIC X(20).                  PPAPTFSR
008060     02  CCWSTHFT-AUDIT-DATA.                                     PPAPTFSR
008070         05 PAY-PROCESS-ID       PIC X(08).                       PPAPTFSR
008080         05 PAY-CYCLE-END-DATE   PIC X(10).                       PPAPTFSR
008090         05 PAY-CYCLE-CODE       PIC X(02).                       PPAPTFSR
008100         05 CCWSTHFT-RETURN-CD   PIC 9(02).                       PPAPTFSR
008110            88 CCWSTHFT-RETURN-OK       VALUE ZERO.               PPAPTFSR
008120            88 CCWSTHFT-RETURN-ABORT    VALUE 1.                  PPAPTFSR
008130         05 CCWSTHFT-RETURN-REF  PIC X(79).                       PPAPTFSR
008140         05 CHANGED-BY           PIC X(08).                       PPAPTFSR
008150         05 CHANGED-AT           PIC X(26).                       PPAPTFSR
008160         05 CCWSTHFT-EXIST-CNT   PIC 9(04) COMP.                  PPAPTFSR
008170     02  ATSIGN-IND              PIC X(01)                        PPAPTFSR
008180                   OCCURS 19 TIMES.                               PPAPTFSR
008190     02  CCWSTHFT-DIST-NUMS-WRK.                                  PPAPTFSR
008200         05 CCWSTHFT-DIST-NUM    PIC X(02)                        PPAPTFSR
008210                       OCCURS 19 TIMES.                           PPAPTFSR
008220     02  CCWSTHFT-TIMES-WRK.                                      PPAPTFSR
008230         05 CCWSTHFT-CHANGED-AT  PIC X(26)                        PPAPTFSR
008240                       OCCURS 19 TIMES.                           PPAPTFSR
008250     02  CCWSTHFT-FILLER-AREA.                                    PPAPTFSR
008260         05  FILLER              PIC X(408).                      PPAPTFSR
008270                                                                  PPAPTFSR
008280 01  FILLER REDEFINES CCWSTHFT.                                   PPAPTFSR
008290*          "LX" "RX" "AP" "TE" "TX"                               PPAPTFSR
008300     02  CCWSTHFT-ITEM OCCURS 19 TIMES.                           PPAPTFSR
008310         05  HIGHEST-SEV      PIC 9(01).                          PPAPTFSR
008320         05  LINE-COMMAND     PIC X(01).                          PPAPTFSR
008330             88  LINE-COMMAND-ADD          VALUE 'A'.             PPAPTFSR
008340             88  LINE-COMMAND-BLOCK        VALUE 'B'.             PPAPTFSR
008350             88  LINE-COMMAND-CHANGE       VALUE 'C'.             PPAPTFSR
008360             88  LINE-COMMAND-DELETE       VALUE 'D'.             PPAPTFSR
008370                                   COPY CPWSXTAT.                 PPAPTFSR
008380     02  FILLER              PIC X(1096).                         PPAPTFSR
008390                                                                  PPAPTFSR
008400 01  FILLER REDEFINES CCWSTHFT.                                   PPAPTFSR
008410*          "FT" "RA" "ST"                                         PPAPTFSR
008420     02  CCWSTHFT-ITEM OCCURS 19 TIMES.                           PPAPTFSR
008430         05  FILLER           PIC X(02).                          PPAPTFSR
008440                                   COPY CPWSXC2T.                 PPAPTFSR
008450     02  FILLER              PIC X(1096).                         PPAPTFSR
008460                                                                  PPAPTFSR
008470 01  FILLER REDEFINES CCWSTHFT.                                   PPAPTFSR
008480*    XC3T-TRAN-IMAGE       >>>> "PS"                              PPAPTFSR
008490*    XC3T-TRAN-IMAGE       >>>> "DS"                              PPAPTFSR
008500*    XC3T-TRAN-IMAGE       >>>> "RF"                              PPAPTFSR
008510*    XC3T-TRAN-IMAGE       >>>> "HA"                              PPAPTFSR
008520*    XC3T-LV-TRAN-IMAGE    >>>> "LA"                              PPAPTFSR
008530*    XC3T-DA-TRAN-IMAGE    >>>> "DA"                              PPAPTFSR
008540     02  CCWSTHFT-ITEM OCCURS 19 TIMES.                           PPAPTFSR
008550         05  FILLER           PIC X(02).                          PPAPTFSR
008560                                   COPY CPWSXC3T.                 PPAPTFSR
008570     02  FILLER              PIC X(1096).                         PPAPTFSR
008580                                                                  PPAPTFSR
008590 01  FILLER REDEFINES CCWSTHFT.                                   PPAPTFSR
008600*          "SB" "UB"                                              PPAPTFSR
008610     02  CCWSTHFT-ITEM OCCURS 19 TIMES.                           PPAPTFSR
008620         05  FILLER           PIC X(02).                          PPAPTFSR
008630                                   COPY CPWSXSUB.                 PPAPTFSR
008640     02  FILLER              PIC X(1096).                         PPAPTFSR
008650                                                                  PPAPTFSR
008660 01  CPWSTHFC   EXTERNAL.                                         PPAPTFSR
008670     COPY CPWSTHFC.                                               PPAPTFSR
008680                                                                  PPAPTFSR
008690 01  CPWSTHGM               EXTERNAL.                             PPAPTFSR
008700     COPY CPWSTHGM.                                               PPAPTFSR
008710                                                                  PPAPTFSR
008720 01  THMS-MESSAGES          EXTERNAL.                             PPAPTFSR
008730     COPY CPWSTHMS.                                               PPAPTFSR
008740                                                                  PPAPTFSR
008750 01  CPWSSEVX               EXTERNAL.                             PPAPTFSR
008760     COPY CPWSSEVX.                                               PPAPTFSR
008762***************************************************************** UCSD0075
008763* THIS EXTERNAL AREA CONTIANS THE PERIOD END DATE AND CHECK     * UCSD0075
008764* DATES READ BY THE PPGETHFO PROGRAM WHEN ITTL IS PROCESSED.    * UCSD0075
008765***************************************************************** UCSD0075
008766 01  CPWSITTL EXTERNAL.                                           UCSD0075
008767         05  FILLER                 PIC X(267).                   UCSD0075
008768 01  CPWSITTL-DATA  REDEFINES CPWSITTL.                           UCSD0075
008769     02 ITTL-DATES OCCURS 19 TIMES.                               UCSD0075
008770         05  ITTL-PER-END-DATE.                                   UCSD0075
008771             10 ITTL-PER-END-YEAR      PIC X(02).                 UCSD0075
008772             10 ITTL-PER-END-MONTH     PIC X(02).                 UCSD0075
008773             10 ITTL-PER-END-DAY       PIC X(02).                 UCSD0075
008774         05  ITTL-CHECK-DATE.                                     UCSD0075
008775             10 ITTL-CHECK-YEAR        PIC X(02).                 UCSD0075
008776             10 ITTL-CHECK-MONTH       PIC X(02).                 UCSD0075
008777             10 ITTL-CHECK-DAY         PIC X(02).                 UCSD0075
008778         05  ITTL-CYCLE-CODE           PIC X(02).                 UCSD0075
008779     02 ITTL-FLAG                      PIC X(01).                 UCSD0075
008780         88  ITTL-FUNCTION             VALUE 'Y'.                 UCSD0075
008781                                                                  UCSD0075
008770                                                                  PPAPTFSR
008780 01  UCWSABND    EXTERNAL.                                        PPAPTFSR
008800     COPY UCWSABND.                                               PPAPTFSR
008900                                                                  PPAPTFSR
009000 01  PAY-ROW  EXTERNAL.                                           PPAPTFSR
009100     COPY CPWSRPAY.                                               PPAPTFSR
009200                                                                  PPAPTFSR
009300 01  PCM-ROW  EXTERNAL.                                           PPAPTFSR
009400     COPY CPWSRPCM.                                               PPAPTFSR
009500                                                                  PPAPTFSR
009600 01  PER-ROW  EXTERNAL.                                           PPAPTFSR
009700     COPY CPWSRPER.                                               PPAPTFSR
009800                                                                  PPAPTFSR
009900 LINKAGE SECTION.                                                 PPAPTFSR
010000                                                                  PPAPTFSR
010100     EJECT                                                        PPAPTFSR
010200                                                                  PPAPTFSR
010300 PROCEDURE DIVISION.                                              PPAPTFSR
010400                                                                  PPAPTFSR
010500 0000-MAIN-LINE   SECTION.                                        PPAPTFSR
010600**************************************************************    PPAPTFSR
010700*  MAIN LINE PROCESSING SECTION                              *    PPAPTFSR
010800*  PERFORM STORE OR RESTORE FUNCTIONS DEPENDING ON REQUEST   *    PPAPTFSR
010900*  CODE.                                                     *    PPAPTFSR
011000*  IF LOGICAL FUNCTION IS CANCEL, IT IS A REQUEST TO         *    PPAPTFSR
011100*  RESTORE THE EDB FROM THE HOLD VERSION.                    *    PPAPTFSR
011200*                                                            *    PPAPTFSR
011300*  THE FOLLOWING CONVENTIONS ARE USED FOR TEMP STORAGE QUEUE *    PPAPTFSR
011400*  NAMES: SSXYTTTT WHERE:                                    *    PPAPTFSR
011500*    SS = SUBSYSTEM ID PASSED FROM UCROUTER                  *    PPAPTFSR
011600*    X  = NESTING LEVEL PASSED FROM UCROUTER                 *    PPAPTFSR
011700*    Y  = QUEUE IDENTIFIER                                   *    PPAPTFSR
011800*    TTTT = TERMINAL ID                                      *    PPAPTFSR
011900*                                                            *    PPAPTFSR
012000**************************************************************    PPAPTFSR
012100                                                                  PPAPTFSR
012200                                                                  PPAPTFSR
012300     MOVE ZERO TO UCCOMMON-RETURN-CODE.                           PPAPTFSR
012400                                                                  PPAPTFSR
012500     IF UCCOMMON-STORE-DATA                                       PPAPTFSR
012600        PERFORM 1000-STORE-DATA                                   PPAPTFSR
012700     ELSE                                                         PPAPTFSR
012800        PERFORM 2000-RESTORE-DATA                                 PPAPTFSR
012900        MOVE SPACES TO CPWSWORK-DONT-OVERRIDE-MSG-SW              PPAPTFSR
013000     END-IF.                                                      PPAPTFSR
013100                                                                  PPAPTFSR
013200     GOBACK.                                                      PPAPTFSR
013300                                                                  PPAPTFSR
013400 0000-EXIT.                                                       PPAPTFSR
013500     EXIT.                                                        PPAPTFSR
013600                                                                  PPAPTFSR
013700     EJECT                                                        PPAPTFSR
013800                                                                  PPAPTFSR
013900 1000-STORE-DATA   SECTION.                                       PPAPTFSR
014000**************************************************************    PPAPTFSR
014100*  STORE EXTERNAL AREAS IN TEMP STORAGE                      *    PPAPTFSR
014200**************************************************************    PPAPTFSR
014300                                                                  PPAPTFSR
014400     MOVE EIBTRMID TO TS-QUEUE-TERMID.                            PPAPTFSR
014500                                                                  PPAPTFSR
014600     MOVE UCCOMMON-SUBSYSTEM-ID TO TS-QUEUE-NAME-SS.              PPAPTFSR
014610     MOVE UCPIROSR-NESTED-FUNCTION-SW TO TS-QUEUE-NAME-N1.        PPAPTFSR
014800                                                                  PPAPTFSR
014900**************************************************************    PPAPTFSR
015000*  QUEUE 1 CONTAINS MISC EXTERNAL DATA                       *    PPAPTFSR
015100**************************************************************    PPAPTFSR
015200     MOVE 1 TO TS-QUEUE-NAME-N2.                                  PPAPTFSR
015300                                                                  PPAPTFSR
015400     PERFORM 1100-INITIALIZE-QUEUE.                               PPAPTFSR
015500                                                                  PPAPTFSR
015600     MOVE 1 TO TS-QUEUE-ITEM.                                     PPAPTFSR
015700     MOVE LENGTH OF CPWSWORK TO TS-QUEUE-LENGTH.                  PPAPTFSR
015800                                                                  PPAPTFSR
015900     EXEC CICS                                                    PPAPTFSR
016000          WRITEQ                                                  PPAPTFSR
016100          QUEUE  (TS-QUEUE-ID)                                    PPAPTFSR
016200          FROM   (CPWSWORK)                                       PPAPTFSR
016300          ITEM   (TS-QUEUE-ITEM)                                  PPAPTFSR
016400          LENGTH (TS-QUEUE-LENGTH)                                PPAPTFSR
016500          NOHANDLE                                                PPAPTFSR
016600          RESP   (WS-RESP)                                        PPAPTFSR
016700     END-EXEC.                                                    PPAPTFSR
016800                                                                  PPAPTFSR
016900     IF WS-RESP NOT = DFHRESP(NORMAL)                             PPAPTFSR
017000        PERFORM 9999-ABEND                                        PPAPTFSR
017100     END-IF.                                                      PPAPTFSR
017200                                                                  PPAPTFSR
017300     MOVE 2 TO TS-QUEUE-ITEM.                                     PPAPTFSR
017400     MOVE LENGTH OF CPWSKEYS TO TS-QUEUE-LENGTH.                  PPAPTFSR
017500                                                                  PPAPTFSR
017600     EXEC CICS                                                    PPAPTFSR
017700          WRITEQ                                                  PPAPTFSR
017800          QUEUE  (TS-QUEUE-ID)                                    PPAPTFSR
017900          FROM   (CPWSKEYS)                                       PPAPTFSR
018000          ITEM   (TS-QUEUE-ITEM)                                  PPAPTFSR
018100          LENGTH (TS-QUEUE-LENGTH)                                PPAPTFSR
018200          NOHANDLE                                                PPAPTFSR
018300          RESP   (WS-RESP)                                        PPAPTFSR
018400     END-EXEC.                                                    PPAPTFSR
018500                                                                  PPAPTFSR
018600     IF WS-RESP NOT = DFHRESP(NORMAL)                             PPAPTFSR
018700        PERFORM 9999-ABEND                                        PPAPTFSR
018800     END-IF.                                                      PPAPTFSR
018900                                                                  PPAPTFSR
019000     MOVE 3 TO TS-QUEUE-ITEM.                                     PPAPTFSR
019100     MOVE LENGTH OF EXTRN-PCR-RECORD TO TS-QUEUE-LENGTH.          PPAPTFSR
019200                                                                  PPAPTFSR
019300     EXEC CICS                                                    PPAPTFSR
019400          WRITEQ                                                  PPAPTFSR
019500          QUEUE  (TS-QUEUE-ID)                                    PPAPTFSR
019600          FROM   (EXTRN-PCR-RECORD)                               PPAPTFSR
019700          ITEM   (TS-QUEUE-ITEM)                                  PPAPTFSR
019800          LENGTH (TS-QUEUE-LENGTH)                                PPAPTFSR
019900          NOHANDLE                                                PPAPTFSR
020000          RESP   (WS-RESP)                                        PPAPTFSR
020100     END-EXEC.                                                    PPAPTFSR
020200                                                                  PPAPTFSR
020300     IF WS-RESP NOT = DFHRESP(NORMAL)                             PPAPTFSR
020400        PERFORM 9999-ABEND                                        PPAPTFSR
020500     END-IF.                                                      PPAPTFSR
020600                                                                  PPAPTFSR
020700                                                                  PPAPTFSR
020800     MOVE 4 TO TS-QUEUE-ITEM.                                     PPAPTFSR
020900     MOVE LENGTH OF CCWSTHFH TO TS-QUEUE-LENGTH.                  PPAPTFSR
021000                                                                  PPAPTFSR
021100     EXEC CICS                                                    PPAPTFSR
021200          WRITEQ                                                  PPAPTFSR
021300          QUEUE  (TS-QUEUE-ID)                                    PPAPTFSR
021400          FROM   (CCWSTHFH)                                       PPAPTFSR
021500          ITEM   (TS-QUEUE-ITEM)                                  PPAPTFSR
021600          LENGTH (TS-QUEUE-LENGTH)                                PPAPTFSR
021700          NOHANDLE                                                PPAPTFSR
021800          RESP   (WS-RESP)                                        PPAPTFSR
021900     END-EXEC.                                                    PPAPTFSR
022000                                                                  PPAPTFSR
022100     IF WS-RESP NOT = DFHRESP(NORMAL)                             PPAPTFSR
022200        PERFORM 9999-ABEND                                        PPAPTFSR
022300     END-IF.                                                      PPAPTFSR
022400                                                                  PPAPTFSR
022500     MOVE 5 TO TS-QUEUE-ITEM.                                     PPAPTFSR
022600     MOVE LENGTH OF CCWSTHFT TO TS-QUEUE-LENGTH.                  PPAPTFSR
022700                                                                  PPAPTFSR
022800     EXEC CICS                                                    PPAPTFSR
022900          WRITEQ                                                  PPAPTFSR
023000          QUEUE  (TS-QUEUE-ID)                                    PPAPTFSR
023100          FROM   (CCWSTHFT)                                       PPAPTFSR
023200          ITEM   (TS-QUEUE-ITEM)                                  PPAPTFSR
023300          LENGTH (TS-QUEUE-LENGTH)                                PPAPTFSR
023400          NOHANDLE                                                PPAPTFSR
023500          RESP   (WS-RESP)                                        PPAPTFSR
023600     END-EXEC.                                                    PPAPTFSR
023700                                                                  PPAPTFSR
023800     IF WS-RESP NOT = DFHRESP(NORMAL)                             PPAPTFSR
023900        PERFORM 9999-ABEND                                        PPAPTFSR
024000     END-IF.                                                      PPAPTFSR
024100                                                                  PPAPTFSR
024200     MOVE 6 TO TS-QUEUE-ITEM.                                     PPAPTFSR
024300     MOVE LENGTH OF CPWSGTHF TO TS-QUEUE-LENGTH.                  PPAPTFSR
024400                                                                  PPAPTFSR
024500     EXEC CICS                                                    PPAPTFSR
024600          WRITEQ                                                  PPAPTFSR
024700          QUEUE  (TS-QUEUE-ID)                                    PPAPTFSR
024800          FROM   (CPWSGTHF)                                       PPAPTFSR
024900          ITEM   (TS-QUEUE-ITEM)                                  PPAPTFSR
025000          LENGTH (TS-QUEUE-LENGTH)                                PPAPTFSR
025100          NOHANDLE                                                PPAPTFSR
025200          RESP   (WS-RESP)                                        PPAPTFSR
025300     END-EXEC.                                                    PPAPTFSR
025400                                                                  PPAPTFSR
025500     IF WS-RESP NOT = DFHRESP(NORMAL)                             PPAPTFSR
025600        PERFORM 9999-ABEND                                        PPAPTFSR
025700     END-IF.                                                      PPAPTFSR
025800                                                                  PPAPTFSR
025900     MOVE 7 TO TS-QUEUE-ITEM.                                     PPAPTFSR
026000     MOVE LENGTH OF CPWSTHFC TO TS-QUEUE-LENGTH.                  PPAPTFSR
026100                                                                  PPAPTFSR
026200     EXEC CICS                                                    PPAPTFSR
026300          WRITEQ                                                  PPAPTFSR
026400          QUEUE  (TS-QUEUE-ID)                                    PPAPTFSR
026500          FROM   (CPWSTHFC)                                       PPAPTFSR
026600          ITEM   (TS-QUEUE-ITEM)                                  PPAPTFSR
026700          LENGTH (TS-QUEUE-LENGTH)                                PPAPTFSR
026800          NOHANDLE                                                PPAPTFSR
026900          RESP   (WS-RESP)                                        PPAPTFSR
027000     END-EXEC.                                                    PPAPTFSR
027100                                                                  PPAPTFSR
027200     IF WS-RESP NOT = DFHRESP(NORMAL)                             PPAPTFSR
027300        PERFORM 9999-ABEND                                        PPAPTFSR
027400     END-IF.                                                      PPAPTFSR
027500                                                                  PPAPTFSR
027600     MOVE 8 TO TS-QUEUE-ITEM.                                     PPAPTFSR
027700     MOVE LENGTH OF CPWSTHGM TO TS-QUEUE-LENGTH.                  PPAPTFSR
027800                                                                  PPAPTFSR
027900     EXEC CICS                                                    PPAPTFSR
028000          WRITEQ                                                  PPAPTFSR
028100          QUEUE  (TS-QUEUE-ID)                                    PPAPTFSR
028200          FROM   (CPWSTHGM)                                       PPAPTFSR
028300          ITEM   (TS-QUEUE-ITEM)                                  PPAPTFSR
028400          LENGTH (TS-QUEUE-LENGTH)                                PPAPTFSR
028500          NOHANDLE                                                PPAPTFSR
028600          RESP   (WS-RESP)                                        PPAPTFSR
028700     END-EXEC.                                                    PPAPTFSR
028800                                                                  PPAPTFSR
028900     IF WS-RESP NOT = DFHRESP(NORMAL)                             PPAPTFSR
029000        PERFORM 9999-ABEND                                        PPAPTFSR
029100     END-IF.                                                      PPAPTFSR
029200                                                                  PPAPTFSR
029300     MOVE 9 TO TS-QUEUE-ITEM.                                     PPAPTFSR
029400     MOVE LENGTH OF THMS-MESSAGES TO TS-QUEUE-LENGTH.             PPAPTFSR
029500                                                                  PPAPTFSR
029600     EXEC CICS                                                    PPAPTFSR
029700          WRITEQ                                                  PPAPTFSR
029800          QUEUE  (TS-QUEUE-ID)                                    PPAPTFSR
029900          FROM   (THMS-MESSAGES)                                  PPAPTFSR
030000          ITEM   (TS-QUEUE-ITEM)                                  PPAPTFSR
030100          LENGTH (TS-QUEUE-LENGTH)                                PPAPTFSR
030200          NOHANDLE                                                PPAPTFSR
030300          RESP   (WS-RESP)                                        PPAPTFSR
030400     END-EXEC.                                                    PPAPTFSR
030500                                                                  PPAPTFSR
030600     IF WS-RESP NOT = DFHRESP(NORMAL)                             PPAPTFSR
030700        PERFORM 9999-ABEND                                        PPAPTFSR
030800     END-IF.                                                      PPAPTFSR
030900                                                                  PPAPTFSR
031000     MOVE 10 TO TS-QUEUE-ITEM.                                    PPAPTFSR
031100     MOVE LENGTH OF CPWSGTHF-SAVE TO TS-QUEUE-LENGTH.             PPAPTFSR
031200                                                                  PPAPTFSR
031300     EXEC CICS                                                    PPAPTFSR
031400          WRITEQ                                                  PPAPTFSR
031500          QUEUE  (TS-QUEUE-ID)                                    PPAPTFSR
031600          FROM   (CPWSGTHF-SAVE)                                  PPAPTFSR
031700          ITEM   (TS-QUEUE-ITEM)                                  PPAPTFSR
031800          LENGTH (TS-QUEUE-LENGTH)                                PPAPTFSR
031900          NOHANDLE                                                PPAPTFSR
032000          RESP   (WS-RESP)                                        PPAPTFSR
032100     END-EXEC.                                                    PPAPTFSR
032200                                                                  PPAPTFSR
032300     IF WS-RESP NOT = DFHRESP(NORMAL)                             PPAPTFSR
032400        PERFORM 9999-ABEND                                        PPAPTFSR
032500     END-IF.                                                      PPAPTFSR
032600                                                                  PPAPTFSR
032610     MOVE 11 TO TS-QUEUE-ITEM.                                    PPAPTFSR
032620     MOVE LENGTH OF CPWSSEVX TO TS-QUEUE-LENGTH.                  PPAPTFSR
032630                                                                  PPAPTFSR
032640     EXEC CICS                                                    PPAPTFSR
032650          WRITEQ                                                  PPAPTFSR
032660          QUEUE  (TS-QUEUE-ID)                                    PPAPTFSR
032670          FROM   (CPWSSEVX)                                       PPAPTFSR
032680          ITEM   (TS-QUEUE-ITEM)                                  PPAPTFSR
032690          LENGTH (TS-QUEUE-LENGTH)                                PPAPTFSR
032691          NOHANDLE                                                PPAPTFSR
032692          RESP   (WS-RESP)                                        PPAPTFSR
032693     END-EXEC.                                                    PPAPTFSR
032694                                                                  PPAPTFSR
032695     IF WS-RESP NOT = DFHRESP(NORMAL)                             PPAPTFSR
032696        PERFORM 9999-ABEND                                        PPAPTFSR
032697     END-IF.                                                      PPAPTFSR
032698                                                                  UCSD0075
032699     MOVE 12 TO TS-QUEUE-ITEM.                                    UCSD0075
032700     MOVE LENGTH OF CPWSITTL TO TS-QUEUE-LENGTH.                  UCSD0075
032701                                                                  UCSD0075
032702     EXEC CICS                                                    UCSD0075
032703          WRITEQ                                                  UCSD0075
032704          QUEUE  (TS-QUEUE-ID)                                    UCSD0075
032705          FROM   (CPWSITTL)                                       UCSD0075
032706          ITEM   (TS-QUEUE-ITEM)                                  UCSD0075
032707          LENGTH (TS-QUEUE-LENGTH)                                UCSD0075
032708          NOHANDLE                                                UCSD0075
032709          RESP   (WS-RESP)                                        UCSD0075
032710     END-EXEC.                                                    UCSD0075
032711                                                                  UCSD0075
032712     IF WS-RESP NOT = DFHRESP(NORMAL)                             UCSD0075
032713        PERFORM 9999-ABEND                                        UCSD0075
032714     END-IF.                                                      UCSD0075
032715                                                                  UCSD0075
032698                                                                  PPAPTFSR
032700**************************************************************    PPAPTFSR
032800*  QUEUE 2 CONTAINS EDB EXTERNAL DATA                        *    PPAPTFSR
032900**************************************************************    PPAPTFSR
033000     MOVE 2 TO TS-QUEUE-NAME-N2.                                  PPAPTFSR
033100                                                                  PPAPTFSR
033200     PERFORM 1100-INITIALIZE-QUEUE.                               PPAPTFSR
033300                                                                  PPAPTFSR
033400     MOVE 1 TO TS-QUEUE-ITEM.                                     PPAPTFSR
033500     MOVE LENGTH OF PER-ROW TO TS-QUEUE-LENGTH.                   PPAPTFSR
033600                                                                  PPAPTFSR
033700     EXEC CICS                                                    PPAPTFSR
033800          WRITEQ                                                  PPAPTFSR
033900          QUEUE  (TS-QUEUE-ID)                                    PPAPTFSR
034000          FROM   (PER-ROW)                                        PPAPTFSR
034100          ITEM   (TS-QUEUE-ITEM)                                  PPAPTFSR
034200          LENGTH (TS-QUEUE-LENGTH)                                PPAPTFSR
034300          NOHANDLE                                                PPAPTFSR
034400          RESP   (WS-RESP)                                        PPAPTFSR
034500     END-EXEC.                                                    PPAPTFSR
034600                                                                  PPAPTFSR
034700     IF WS-RESP NOT = DFHRESP(NORMAL)                             PPAPTFSR
034800        PERFORM 9999-ABEND                                        PPAPTFSR
034900     END-IF.                                                      PPAPTFSR
035000                                                                  PPAPTFSR
035100     MOVE 2 TO TS-QUEUE-ITEM.                                     PPAPTFSR
035200     MOVE LENGTH OF PAY-ROW TO TS-QUEUE-LENGTH.                   PPAPTFSR
035300                                                                  PPAPTFSR
035400     EXEC CICS                                                    PPAPTFSR
035500          WRITEQ                                                  PPAPTFSR
035600          QUEUE  (TS-QUEUE-ID)                                    PPAPTFSR
035700          FROM   (PAY-ROW)                                        PPAPTFSR
035800          ITEM   (TS-QUEUE-ITEM)                                  PPAPTFSR
035900          LENGTH (TS-QUEUE-LENGTH)                                PPAPTFSR
036000          NOHANDLE                                                PPAPTFSR
036100          RESP   (WS-RESP)                                        PPAPTFSR
036200     END-EXEC.                                                    PPAPTFSR
036300                                                                  PPAPTFSR
036400     IF WS-RESP NOT = DFHRESP(NORMAL)                             PPAPTFSR
036500        PERFORM 9999-ABEND                                        PPAPTFSR
036600     END-IF.                                                      PPAPTFSR
036700                                                                  PPAPTFSR
036800     MOVE 3 TO TS-QUEUE-ITEM.                                     PPAPTFSR
036900     MOVE LENGTH OF PCM-ROW TO TS-QUEUE-LENGTH.                   PPAPTFSR
037000                                                                  PPAPTFSR
037100     EXEC CICS                                                    PPAPTFSR
037200          WRITEQ                                                  PPAPTFSR
037300          QUEUE  (TS-QUEUE-ID)                                    PPAPTFSR
037400          FROM   (PCM-ROW)                                        PPAPTFSR
037500          ITEM   (TS-QUEUE-ITEM)                                  PPAPTFSR
037600          LENGTH (TS-QUEUE-LENGTH)                                PPAPTFSR
037700          NOHANDLE                                                PPAPTFSR
037800          RESP   (WS-RESP)                                        PPAPTFSR
037900     END-EXEC.                                                    PPAPTFSR
038000                                                                  PPAPTFSR
038100     IF WS-RESP NOT = DFHRESP(NORMAL)                             PPAPTFSR
038200        PERFORM 9999-ABEND                                        PPAPTFSR
038300     END-IF.                                                      PPAPTFSR
038400                                                                  PPAPTFSR
038500 1000-EXIT.                                                       PPAPTFSR
038600     EXIT.                                                        PPAPTFSR
038700                                                                  PPAPTFSR
038800     EJECT                                                        PPAPTFSR
038900                                                                  PPAPTFSR
039000 1100-INITIALIZE-QUEUE   SECTION.                                 PPAPTFSR
039100**************************************************************    PPAPTFSR
039200*  DELETE THE TEMP STORAGE QUEUE, IF IT IS THERE. IF IT'S    *    PPAPTFSR
039300*  THE FIRST TIME THROUGH, WRITE THE QUEUE NAME TO THE       *    PPAPTFSR
039400*  TEMP STORAGE AUDIT QUEUE.                                 *    PPAPTFSR
039500**************************************************************    PPAPTFSR
039600                                                                  PPAPTFSR
039700     EXEC CICS                                                    PPAPTFSR
039800          DELETEQ TS                                              PPAPTFSR
039900          QUEUE (TS-QUEUE-ID)                                     PPAPTFSR
040000          NOHANDLE                                                PPAPTFSR
040100          RESP(WS-RESP)                                           PPAPTFSR
040200     END-EXEC.                                                    PPAPTFSR
040300                                                                  PPAPTFSR
040400     IF UCCOMMON-SUBSYSTEM-INIT                                   PPAPTFSR
040500      OR UCPIROSR-NESTED-FUNCTION                                 PPAPTFSR
040600        PERFORM 9000-AUDIT-TS-QUEUE                               PPAPTFSR
040700     END-IF.                                                      PPAPTFSR
040800                                                                  PPAPTFSR
040900 1100-EXIT.                                                       PPAPTFSR
041000     EXIT.                                                        PPAPTFSR
041100                                                                  PPAPTFSR
041200     EJECT                                                        PPAPTFSR
041300                                                                  PPAPTFSR
041400 2000-RESTORE-DATA   SECTION.                                     PPAPTFSR
041500**************************************************************    PPAPTFSR
041600*  READ TEMP STORAGE QUEUES AND POPULATE EXTERNAL AREAS      *    PPAPTFSR
041700**************************************************************    PPAPTFSR
041800     EXEC CICS                                                    PPAPTFSR
041900          ENQ                                                     PPAPTFSR
042000          RESOURCE(WS-ENQ-NAME)                                   PPAPTFSR
042100          LENGTH  (LENGTH OF WS-ENQ-NAME)                         PPAPTFSR
042200          NOHANDLE                                                PPAPTFSR
042300          RESP (WS-RESP)                                          PPAPTFSR
042400     END-EXEC.                                                    PPAPTFSR
042500                                                                  PPAPTFSR
042600     EXEC CICS                                                    PPAPTFSR
042700          DEQ                                                     PPAPTFSR
042800          RESOURCE(WS-ENQ-NAME)                                   PPAPTFSR
042900          LENGTH  (LENGTH OF WS-ENQ-NAME)                         PPAPTFSR
043000          NOHANDLE                                                PPAPTFSR
043100          RESP (WS-RESP)                                          PPAPTFSR
043200     END-EXEC.                                                    PPAPTFSR
043300                                                                  PPAPTFSR
043400     MOVE EIBTRMID TO TS-QUEUE-TERMID.                            PPAPTFSR
043500                                                                  PPAPTFSR
043600     MOVE UCCOMMON-SUBSYSTEM-ID TO TS-QUEUE-NAME-SS.              PPAPTFSR
043610     MOVE UCPIROSR-NESTED-FUNCTION-SW TO TS-QUEUE-NAME-N1.        PPAPTFSR
043800                                                                  PPAPTFSR
043900**************************************************************    PPAPTFSR
044000*  QUEUE 1 CONTAINS THE MISC NON-EDB EXTERNAL DATA           *    PPAPTFSR
044100**************************************************************    PPAPTFSR
044200     MOVE 1 TO TS-QUEUE-NAME-N2.                                  PPAPTFSR
044300                                                                  PPAPTFSR
044400     MOVE 1 TO TS-QUEUE-ITEM.                                     PPAPTFSR
044500                                                                  PPAPTFSR
044600     EXEC CICS                                                    PPAPTFSR
044700          READQ                                                   PPAPTFSR
044800          QUEUE  (TS-QUEUE-ID)                                    PPAPTFSR
044900          INTO   (CPWSWORK)                                       PPAPTFSR
045000          ITEM   (TS-QUEUE-ITEM)                                  PPAPTFSR
045100          NOHANDLE                                                PPAPTFSR
045200          RESP   (WS-RESP)                                        PPAPTFSR
045300     END-EXEC.                                                    PPAPTFSR
045400                                                                  PPAPTFSR
045500     IF WS-RESP = DFHRESP(NORMAL)                                 PPAPTFSR
045600        CONTINUE                                                  PPAPTFSR
045700     ELSE                                                         PPAPTFSR
045800        PERFORM 9999-ABEND                                        PPAPTFSR
045900     END-IF.                                                      PPAPTFSR
046000                                                                  PPAPTFSR
046100     MOVE 2 TO TS-QUEUE-ITEM.                                     PPAPTFSR
046200                                                                  PPAPTFSR
046300     EXEC CICS                                                    PPAPTFSR
046400          READQ                                                   PPAPTFSR
046500          QUEUE  (TS-QUEUE-ID)                                    PPAPTFSR
046600          INTO   (CPWSKEYS)                                       PPAPTFSR
046700          ITEM   (TS-QUEUE-ITEM)                                  PPAPTFSR
046800          NOHANDLE                                                PPAPTFSR
046900          RESP   (WS-RESP)                                        PPAPTFSR
047000     END-EXEC.                                                    PPAPTFSR
047100                                                                  PPAPTFSR
047200     IF WS-RESP = DFHRESP(NORMAL)                                 PPAPTFSR
047300        CONTINUE                                                  PPAPTFSR
047400     ELSE                                                         PPAPTFSR
047500        PERFORM 9999-ABEND                                        PPAPTFSR
047600     END-IF.                                                      PPAPTFSR
047700                                                                  PPAPTFSR
047800     MOVE 3 TO TS-QUEUE-ITEM.                                     PPAPTFSR
047900                                                                  PPAPTFSR
048000     EXEC CICS                                                    PPAPTFSR
048100          READQ                                                   PPAPTFSR
048200          QUEUE  (TS-QUEUE-ID)                                    PPAPTFSR
048300          INTO   (EXTRN-PCR-RECORD)                               PPAPTFSR
048400          ITEM   (TS-QUEUE-ITEM)                                  PPAPTFSR
048500          NOHANDLE                                                PPAPTFSR
048600          RESP   (WS-RESP)                                        PPAPTFSR
048700     END-EXEC.                                                    PPAPTFSR
048800                                                                  PPAPTFSR
048900     IF WS-RESP = DFHRESP(NORMAL)                                 PPAPTFSR
049000        CONTINUE                                                  PPAPTFSR
049100     ELSE                                                         PPAPTFSR
049200        PERFORM 9999-ABEND                                        PPAPTFSR
049300     END-IF.                                                      PPAPTFSR
049400                                                                  PPAPTFSR
049500                                                                  PPAPTFSR
049600     MOVE 4 TO TS-QUEUE-ITEM.                                     PPAPTFSR
049700                                                                  PPAPTFSR
049800     EXEC CICS                                                    PPAPTFSR
049900          READQ                                                   PPAPTFSR
050000          QUEUE  (TS-QUEUE-ID)                                    PPAPTFSR
050100          INTO   (CCWSTHFH)                                       PPAPTFSR
050200          ITEM   (TS-QUEUE-ITEM)                                  PPAPTFSR
050300          NOHANDLE                                                PPAPTFSR
050400          RESP   (WS-RESP)                                        PPAPTFSR
050500     END-EXEC.                                                    PPAPTFSR
050600                                                                  PPAPTFSR
050700     IF WS-RESP = DFHRESP(NORMAL)                                 PPAPTFSR
050800        CONTINUE                                                  PPAPTFSR
050900     ELSE                                                         PPAPTFSR
051000        PERFORM 9999-ABEND                                        PPAPTFSR
051100     END-IF.                                                      PPAPTFSR
051200                                                                  PPAPTFSR
051300     MOVE 5 TO TS-QUEUE-ITEM.                                     PPAPTFSR
051400                                                                  PPAPTFSR
051500     EXEC CICS                                                    PPAPTFSR
051600          READQ                                                   PPAPTFSR
051700          QUEUE  (TS-QUEUE-ID)                                    PPAPTFSR
051800          INTO   (CCWSTHFT)                                       PPAPTFSR
051900          ITEM   (TS-QUEUE-ITEM)                                  PPAPTFSR
052000          NOHANDLE                                                PPAPTFSR
052100          RESP   (WS-RESP)                                        PPAPTFSR
052200     END-EXEC.                                                    PPAPTFSR
052300                                                                  PPAPTFSR
052400     IF WS-RESP = DFHRESP(NORMAL)                                 PPAPTFSR
052500        CONTINUE                                                  PPAPTFSR
052600     ELSE                                                         PPAPTFSR
052700        PERFORM 9999-ABEND                                        PPAPTFSR
052800     END-IF.                                                      PPAPTFSR
052900                                                                  PPAPTFSR
053000     MOVE 6 TO TS-QUEUE-ITEM.                                     PPAPTFSR
053100                                                                  PPAPTFSR
053200     EXEC CICS                                                    PPAPTFSR
053300          READQ                                                   PPAPTFSR
053400          QUEUE  (TS-QUEUE-ID)                                    PPAPTFSR
053500          INTO   (CPWSGTHF)                                       PPAPTFSR
053600          ITEM   (TS-QUEUE-ITEM)                                  PPAPTFSR
053700          NOHANDLE                                                PPAPTFSR
053800          RESP   (WS-RESP)                                        PPAPTFSR
053900     END-EXEC.                                                    PPAPTFSR
054000                                                                  PPAPTFSR
054100     IF WS-RESP = DFHRESP(NORMAL)                                 PPAPTFSR
054200        CONTINUE                                                  PPAPTFSR
054300     ELSE                                                         PPAPTFSR
054400        PERFORM 9999-ABEND                                        PPAPTFSR
054500     END-IF.                                                      PPAPTFSR
054600                                                                  PPAPTFSR
054700     MOVE 7 TO TS-QUEUE-ITEM.                                     PPAPTFSR
054800                                                                  PPAPTFSR
054900     EXEC CICS                                                    PPAPTFSR
055000          READQ                                                   PPAPTFSR
055100          QUEUE  (TS-QUEUE-ID)                                    PPAPTFSR
055200          INTO   (CPWSTHFC)                                       PPAPTFSR
055300          ITEM   (TS-QUEUE-ITEM)                                  PPAPTFSR
055400          NOHANDLE                                                PPAPTFSR
055500          RESP   (WS-RESP)                                        PPAPTFSR
055600     END-EXEC.                                                    PPAPTFSR
055700                                                                  PPAPTFSR
055800     IF WS-RESP = DFHRESP(NORMAL)                                 PPAPTFSR
055900        CONTINUE                                                  PPAPTFSR
056000     ELSE                                                         PPAPTFSR
056100        PERFORM 9999-ABEND                                        PPAPTFSR
056200     END-IF.                                                      PPAPTFSR
056300                                                                  PPAPTFSR
056400     MOVE 8 TO TS-QUEUE-ITEM.                                     PPAPTFSR
056500                                                                  PPAPTFSR
056600     EXEC CICS                                                    PPAPTFSR
056700          READQ                                                   PPAPTFSR
056800          QUEUE  (TS-QUEUE-ID)                                    PPAPTFSR
056900          INTO   (CPWSTHGM)                                       PPAPTFSR
057000          ITEM   (TS-QUEUE-ITEM)                                  PPAPTFSR
057100          NOHANDLE                                                PPAPTFSR
057200          RESP   (WS-RESP)                                        PPAPTFSR
057300     END-EXEC.                                                    PPAPTFSR
057400                                                                  PPAPTFSR
057500     IF WS-RESP = DFHRESP(NORMAL)                                 PPAPTFSR
057600        CONTINUE                                                  PPAPTFSR
057700     ELSE                                                         PPAPTFSR
057800        PERFORM 9999-ABEND                                        PPAPTFSR
057900     END-IF.                                                      PPAPTFSR
058000                                                                  PPAPTFSR
058100     MOVE 9 TO TS-QUEUE-ITEM.                                     PPAPTFSR
058200                                                                  PPAPTFSR
058300     EXEC CICS                                                    PPAPTFSR
058400          READQ                                                   PPAPTFSR
058500          QUEUE  (TS-QUEUE-ID)                                    PPAPTFSR
058600          INTO   (THMS-MESSAGES)                                  PPAPTFSR
058700          ITEM   (TS-QUEUE-ITEM)                                  PPAPTFSR
058800          NOHANDLE                                                PPAPTFSR
058900          RESP   (WS-RESP)                                        PPAPTFSR
059000     END-EXEC.                                                    PPAPTFSR
059100                                                                  PPAPTFSR
059200     IF WS-RESP = DFHRESP(NORMAL)                                 PPAPTFSR
059300        CONTINUE                                                  PPAPTFSR
059400     ELSE                                                         PPAPTFSR
059500        PERFORM 9999-ABEND                                        PPAPTFSR
059600     END-IF.                                                      PPAPTFSR
059700                                                                  PPAPTFSR
059800     MOVE 10 TO TS-QUEUE-ITEM.                                    PPAPTFSR
059900                                                                  PPAPTFSR
060000     EXEC CICS                                                    PPAPTFSR
060100          READQ                                                   PPAPTFSR
060200          QUEUE  (TS-QUEUE-ID)                                    PPAPTFSR
060300          INTO   (CPWSGTHF-SAVE)                                  PPAPTFSR
060400          ITEM   (TS-QUEUE-ITEM)                                  PPAPTFSR
060500          NOHANDLE                                                PPAPTFSR
060600          RESP   (WS-RESP)                                        PPAPTFSR
060700     END-EXEC.                                                    PPAPTFSR
060800                                                                  PPAPTFSR
060900     IF WS-RESP = DFHRESP(NORMAL)                                 PPAPTFSR
061000        CONTINUE                                                  PPAPTFSR
061100     ELSE                                                         PPAPTFSR
061200        PERFORM 9999-ABEND                                        PPAPTFSR
061300     END-IF.                                                      PPAPTFSR
061400                                                                  PPAPTFSR
061410     MOVE 11 TO TS-QUEUE-ITEM.                                    PPAPTFSR
061420                                                                  PPAPTFSR
061430     EXEC CICS                                                    PPAPTFSR
061440          READQ                                                   PPAPTFSR
061450          QUEUE  (TS-QUEUE-ID)                                    PPAPTFSR
061460          INTO   (CPWSSEVX)                                       PPAPTFSR
061470          ITEM   (TS-QUEUE-ITEM)                                  PPAPTFSR
061480          NOHANDLE                                                PPAPTFSR
061490          RESP   (WS-RESP)                                        PPAPTFSR
061491     END-EXEC.                                                    PPAPTFSR
061492                                                                  PPAPTFSR
061493     IF WS-RESP = DFHRESP(NORMAL)                                 PPAPTFSR
061494        CONTINUE                                                  PPAPTFSR
061495     ELSE                                                         PPAPTFSR
061496        PERFORM 9999-ABEND                                        PPAPTFSR
061497     END-IF.                                                      PPAPTFSR
061498                                                                  UCSD0075
061499     MOVE 12 TO TS-QUEUE-ITEM.                                    UCSD0075
061500                                                                  UCSD0075
061501     EXEC CICS                                                    UCSD0075
061502          READQ                                                   UCSD0075
061503          QUEUE  (TS-QUEUE-ID)                                    UCSD0075
061504          INTO   (CPWSITTL)                                       UCSD0075
061505          ITEM   (TS-QUEUE-ITEM)                                  UCSD0075
061506          NOHANDLE                                                UCSD0075
061507          RESP   (WS-RESP)                                        UCSD0075
061508     END-EXEC.                                                    UCSD0075
061509                                                                  UCSD0075
061498                                                                  PPAPTFSR
061500**************************************************************    PPAPTFSR
061600*  QUEUE 2 CONTAINS THE EDB EXTERNAL DATA                    *    PPAPTFSR
061700**************************************************************    PPAPTFSR
061800     MOVE 2 TO TS-QUEUE-NAME-N2.                                  PPAPTFSR
061900                                                                  PPAPTFSR
062000     MOVE 1 TO TS-QUEUE-ITEM.                                     PPAPTFSR
062100                                                                  PPAPTFSR
062200     EXEC CICS                                                    PPAPTFSR
062300          READQ                                                   PPAPTFSR
062400          QUEUE  (TS-QUEUE-ID)                                    PPAPTFSR
062500          INTO   (PER-ROW)                                        PPAPTFSR
062600          ITEM   (TS-QUEUE-ITEM)                                  PPAPTFSR
062700          NOHANDLE                                                PPAPTFSR
062800          RESP   (WS-RESP)                                        PPAPTFSR
062900     END-EXEC.                                                    PPAPTFSR
063000                                                                  PPAPTFSR
063100     IF WS-RESP = DFHRESP(NORMAL)                                 PPAPTFSR
063200        CONTINUE                                                  PPAPTFSR
063300     ELSE                                                         PPAPTFSR
063400        PERFORM 9999-ABEND                                        PPAPTFSR
063500     END-IF.                                                      PPAPTFSR
063600                                                                  PPAPTFSR
063700     MOVE 2 TO TS-QUEUE-ITEM.                                     PPAPTFSR
063800                                                                  PPAPTFSR
063900     EXEC CICS                                                    PPAPTFSR
064000          READQ                                                   PPAPTFSR
064100          QUEUE  (TS-QUEUE-ID)                                    PPAPTFSR
064200          INTO   (PAY-ROW)                                        PPAPTFSR
064300          ITEM   (TS-QUEUE-ITEM)                                  PPAPTFSR
064400          NOHANDLE                                                PPAPTFSR
064500          RESP   (WS-RESP)                                        PPAPTFSR
064600     END-EXEC.                                                    PPAPTFSR
064700                                                                  PPAPTFSR
064800     IF WS-RESP = DFHRESP(NORMAL)                                 PPAPTFSR
064900        CONTINUE                                                  PPAPTFSR
065000     ELSE                                                         PPAPTFSR
065100        PERFORM 9999-ABEND                                        PPAPTFSR
065200     END-IF.                                                      PPAPTFSR
065300                                                                  PPAPTFSR
065400     MOVE 3 TO TS-QUEUE-ITEM.                                     PPAPTFSR
065500                                                                  PPAPTFSR
065600     EXEC CICS                                                    PPAPTFSR
065700          READQ                                                   PPAPTFSR
065800          QUEUE  (TS-QUEUE-ID)                                    PPAPTFSR
065900          INTO   (PCM-ROW)                                        PPAPTFSR
066000          ITEM   (TS-QUEUE-ITEM)                                  PPAPTFSR
066100          NOHANDLE                                                PPAPTFSR
066200          RESP   (WS-RESP)                                        PPAPTFSR
066300     END-EXEC.                                                    PPAPTFSR
066400                                                                  PPAPTFSR
066500     IF WS-RESP = DFHRESP(NORMAL)                                 PPAPTFSR
066600        CONTINUE                                                  PPAPTFSR
066700     ELSE                                                         PPAPTFSR
066800        PERFORM 9999-ABEND                                        PPAPTFSR
066900     END-IF.                                                      PPAPTFSR
067000                                                                  PPAPTFSR
067100                                                                  PPAPTFSR
067200 2000-EXIT.                                                       PPAPTFSR
067300     EXIT.                                                        PPAPTFSR
067400                                                                  PPAPTFSR
067500     EJECT                                                        PPAPTFSR
067600                                                                  PPAPTFSR
067700 2100-DELETE-QUEUE   SECTION.                                     PPAPTFSR
067800**************************************************************    PPAPTFSR
067900***DELETE THE TEMP STORAGE QUEUE                             *    PPAPTFSR
068000**************************************************************    PPAPTFSR
068100                                                                  PPAPTFSR
068200     EXEC CICS                                                    PPAPTFSR
068300          DELETEQ TS                                              PPAPTFSR
068400          QUEUE (TS-QUEUE-ID)                                     PPAPTFSR
068500          NOHANDLE                                                PPAPTFSR
068600          RESP(WS-RESP)                                           PPAPTFSR
068700     END-EXEC.                                                    PPAPTFSR
068800                                                                  PPAPTFSR
068900 2100-EXIT.                                                       PPAPTFSR
069000     EXIT.                                                        PPAPTFSR
069100                                                                  PPAPTFSR
069200     EJECT                                                        PPAPTFSR
069300                                                                  PPAPTFSR
069400                                                                  PPAPTFSR
069500 9000-AUDIT-TS-QUEUE   SECTION.                                   PPAPTFSR
069600**************************************************************    PPAPTFSR
069700*  WRITE THE TEMP STORAGE AUDIT QUEUE CONTAINING THE NAME    *    PPAPTFSR
069800*  OF A TEMP STORAGE QUEUE BEING WRITTEN.                    *    PPAPTFSR
069900**************************************************************    PPAPTFSR
070000                                                                  PPAPTFSR
070100     IF UCPIROSR-NESTED-FUNCTION                                  PPAPTFSR
070200        SET TS-AUDIT-Q-VAR-NESTED TO TRUE                         PPAPTFSR
070300     ELSE                                                         PPAPTFSR
070400        SET TS-AUDIT-Q-VAR-REGULAR TO TRUE                        PPAPTFSR
070500     END-IF.                                                      PPAPTFSR
070600                                                                  PPAPTFSR
070700     MOVE UCCOMMON-SUBSYSTEM-ID TO TS-AUDIT-Q-SS-NAME.            PPAPTFSR
070800     MOVE EIBTRMID TO TS-AUDIT-Q-TERM-ID.                         PPAPTFSR
070900     MOVE TS-QUEUE-ID TO TS-AUDIT-Q-QUEUE-NAME.                   PPAPTFSR
071000                                                                  PPAPTFSR
071100     EXEC CICS                                                    PPAPTFSR
071200          WRITEQ TS                                               PPAPTFSR
071300          QUEUE  (TS-AUDIT-QUEUE-ID)                              PPAPTFSR
071400          FROM   (TS-AUDIT-QUEUE-DATA)                            PPAPTFSR
071500          LENGTH (TS-AUDIT-QUEUE-LENGTH)                          PPAPTFSR
071600          NOHANDLE                                                PPAPTFSR
071700          RESP   (WS-RESP)                                        PPAPTFSR
071800     END-EXEC.                                                    PPAPTFSR
071900                                                                  PPAPTFSR
072000     IF WS-RESP NOT = DFHRESP(NORMAL)                             PPAPTFSR
072100        PERFORM 9999-ABEND                                        PPAPTFSR
072200     END-IF.                                                      PPAPTFSR
072300                                                                  PPAPTFSR
072400 9000-EXIT.                                                       PPAPTFSR
072500     EXIT.                                                        PPAPTFSR
072600                                                                  PPAPTFSR
072700     EJECT                                                        PPAPTFSR
072800                                                                  PPAPTFSR
072900 9999-ABEND    SECTION.                                           PPAPTFSR
073000**************************************************************    PPAPTFSR
073100*  COPIED PROCEDURE DIVISION CODE                            *    PPAPTFSR
073200**************************************************************    PPAPTFSR
073300                                                                  PPAPTFSR
073400     MOVE 'PPAPTFSR' TO UCWSABND-ABENDING-PGM.                    PPAPTFSR
073500                                                                  PPAPTFSR
073600     COPY UCPDABND.                                               PPAPTFSR
073700                                                                  PPAPTFSR
073800 9999-EXIT.                                                       PPAPTFSR
073900     EXIT.                                                        PPAPTFSR
074000                                                                  PPAPTFSR
074100     EXIT.                                                        PPAPTFSR
074200                                                                  PPAPTFSR
074300***************    END OF SOURCE - PPAPTFSR    *******************PPAPTFSR
