000100*==========================================================%      UCSD0058
000101*= UCSD LOCAL CHANGES HAVE BEEN IMPLEMENTED.              =%      UCSD0058
000103*= COLUMN 73 THRU 80 DENOTES CHANGE NUMBER - UCSD0058     =%      UCSD0058
000109*==========================================================%      UCSD0058
000110*==========================================================%      UCSD0102
000111*=    PROGRAM: PPORAUDT                                   =%      UCSD0102
000112*=    CHANGE # UCSD0102     PROJ. REQUEST: RELEASE 1138   =%      UCSD0102
000113*=    NAME: RON BLOCK       MODIFICATION DATE: 01/08/98   =%      UCSD0102
000114*=                                                        =%      UCSD0102
000115*=    DESCRIPTION:                                        =%      UCSD0102
000116*=     CHANGES MADE TO ACCOMODATE THE LOCAL COA           =%      UCSD0102
000117*=                                                        =%      UCSD0102
000118*==========================================================%      UCSD0102
000060*==========================================================%      PPR30905
000070*=    PROGRAM: PPORAUDT                                   =%      PPR30905
000080*=    CHANGE # PPR309       PROJ. REQUEST: PPR309 TASK 05 =%      PPR30905
000090*=    NAME: RON BLOCK       MODIFICATION DATE: 11/30/95   =%      PPR30905
000091*=                                                        =%      PPR30905
000092*=    DESCRIPTION:                                        =%      PPR30905
000093*=     MODIFY CALCULATION OF WK-HRS AND WK-PCT IF THE     =%      PPR30905
000093*=     TRANSACTION CODE EQUALS 'RX'.                      =%      PPR30905
000095*==========================================================%      PPR30905
000128*==========================================================%      UCSD0058
000129*=    PROGRAM: PPORAUDT                                   =%      UCSD0058
000130*=    CHANGE # UCSD0058     PROJ. REQUEST: REL911         =%      UCSD0058
000131*=    NAME: RON BLOCK       MODIFICATION DATE: 09/14/94   =%      UCSD0058
000132*=                                                        =%      UCSD0058
000133*=    DESCRIPTION:                                        =%      UCSD0058
000134*=     CHANGES MADE TO ACCOMODATE IFIS.  INDEX AND        =%      UCSD0058
000135*=     IFIS FUND PRINTED TO AUDIT REPORT.                 =%      UCSD0058
000136*==========================================================%      UCSD0058
000001**************************************************************/   74611376
000002*  PROGRAM: PPORAUDT                                         */   74611376
000003*  RELEASE: ___1376______ SERVICE REQUEST(S): ____17461____  */   74611376
000004*  NAME:___STEINITZ______ MODIFICATION DATE:  ___10/31/01__  */   74611376
000005*  DESCRIPTION:                                              */   74611376
000006*  - ADDED NEEDED LOGIC FOR SUB-LOCATION PROCESSING.         */   74611376
000008**************************************************************/   74611376
000000**************************************************************/   EFIX1235
000001*  PROGRAM: PPORAUDT                                         */   EFIX1235
000002*  RELEASE: ___1235______ ERROR REPORT:       _____1619____  */   EFIX1235
000003*  NAME:____BILL GAYLE___ MODIFICATION DATE:  ___04/06/99__  */   EFIX1235
000004*  DESCRIPTION:                                              */   EFIX1235
000005*                                                            */   EFIX1235
000006*  FIX TO ELIMINATE MESSAGE P0521 INVOCATIONS - IF TEMP      */   EFIX1235
000007*  STORAGE QUEUE ID IS NOT UNIQUE BECAUSE A PREVIOUS PRINT   */   EFIX1235
000008*  ITEM HAS NOT BEEN CLEARED, ADVANCE WS-RUSH-TIMESTAMP BY   */   EFIX1235
000009*  ADDING 1 TO IT.  MESSAGE P0521 IS MADE OBSOLETE WITH THIS */   EFIX1235
000010*  RELEASE.                                                  */   EFIX1235
000011*                                                            */   EFIX1235
000012**************************************************************/   EFIX1235
000140**************************************************************/   32021138
000200*  PROGRAM: PPORAUDT                                         */   32021138
000300*  RELEASE: ___1138______ SERVICE REQUEST(S): ____13202____  */   32021138
000400*  NAME:______PAYJIG_____ MODIFICATION DATE:  ___08/04/97__  */   32021138
000500*  DESCRIPTION:                                              */   32021138
000600*  - MODIFIED FOR FULL ACCOUNTING UNIT                       */   32021138
000700**************************************************************/   32021138
001148**************************************************************/   36430911
001149*  PROGRAM:   PPORAUDT                                       */   36430911
001150*  RELEASE:  ___0911___   SERVICE REQUEST(S): ____3643____   */   36430911
001151*  NAME:  _____SRS_____   MODIFICATION DATE:  __06/30/94__   */   36430911
001152*  DESCRIPTION                                               */   36430911
001153*   REPLACEMENT PROGRAM FOR AI00E ARCHITECTURE               */   36430911
001154**************************************************************/   36430911
000900 IDENTIFICATION DIVISION.                                         PPORAUDT
001000 PROGRAM-ID. PPORAUDT.                                            PPORAUDT
001100 ENVIRONMENT DIVISION.                                            PPORAUDT
001200 DATA DIVISION.                                                   PPORAUDT
001300 WORKING-STORAGE SECTION.                                         PPORAUDT
001300 01  WORK-AREAS.                                                  PPORAUDT
004000**** 05  MP0521                  PIC X(5) VALUE 'P0521'.          EFIX1235
001710     05  MP0595                  PIC X(5) VALUE 'P0595'.          PPORAUDT
001600     05  WS-PRM-NO               PIC S9(04) COMP.                 PPORAUDT
002010     05  WS-DATE                 PIC X(8).                        PPORAUDT
002020     05  WS-TIME                 PIC X(8).                        PPORAUDT
002030     05  WS-ABSTIME              PIC S9(15)               COMP-3. PPORAUDT
002040     05  WS-TIMESTAMP-X          PIC X(6).                        PPORAUDT
002050     05  WS-TIMESTAMP-N REDEFINES WS-TIMESTAMP-X                  PPORAUDT
002060                                 PIC 9(6).                        PPORAUDT
002100     05  PGM-ID                  PIC X(08)     VALUE 'PPORAUDT'.  PPORAUDT
002110     05  WS-PRNTMGR              PIC X(08)     VALUE 'UCPRTMGR'.  PPORAUDT
002500     05  WS-FUNCTION             PIC X(08)     VALUE  SPACES.     PPORAUDT
002600         88  WS-CNCL-FUNC                      VALUE 'CNCL'.      PPORAUDT
002700         88  WS-RVSL-FUNC                      VALUE 'RVSL'.      PPORAUDT
002800         88  WS-OVPY-FUNC                      VALUE 'OVPY'.      PPORAUDT
003510*****                                                          CD 74611376
003700     05  PGM-VERS-DT             PIC X(06)     VALUE '080497'.    32021138
002300     05  PAY-WINDOW-SW           PIC X(01).                       PPORAUDT
002400         88  ORIGINAL-PAY-WINDOW               VALUE '1'.         PPORAUDT
002500         88  CORRECT-PAY-WINDOW                VALUE '2'.         PPORAUDT
002600         88  ORCA-PAY-WINDOW                   VALUE '3'.         PPORAUDT
002700     05  CONTRIBUTION-TAKEN-SW   PIC X(01).                       PPORAUDT
002800         88  CONTRIBUTION-TAKEN                VALUE 'T'.         PPORAUDT
002810     05  INDX1                   PIC 9(04)     VALUE ZERO COMP.   PPORAUDT
002900     05  ORCA-X                  PIC 9(04)     VALUE ZERO COMP.   PPORAUDT
003000     05  RPT-X                   PIC 9(04)     VALUE ZERO COMP.   PPORAUDT
003100     05  RPT-PAGE-CNT            PIC 9(04)     VALUE ZERO COMP.   PPORAUDT
003200     05  RPT-LINES-LEFT PIC 9(04)              VALUE ZERO COMP.   PPORAUDT
003300     05  GROSS-SUM               PIC S9(07)V99 VALUE ZERO COMP-3. PPORAUDT
003400     05  DEDN-AMT-SUM            PIC S9(07)V99 VALUE ZERO COMP-3. PPORAUDT
003410     05  WK-GTN-AMT              PIC S9(05)V99 VALUE ZERO.        PPORAUDT
003411     05  WK-GTN-FORMAT-X.                                         PPORAUDT
003420         10  WK-GTN-FORMAT       PIC ZZ,ZZZ.99- VALUE ZERO.       PPORAUDT
003500     05  WK-SALARY-PAYRATE.                                       PPORAUDT
003600         10  WK-PAYRATE-SAL      PIC ZZ,ZZZ.99 VALUE ZERO.        PPORAUDT
003700         10  FILLER              PIC X(01)     VALUE ' '.         PPORAUDT
003800         10  WK-SAL-TYPE         PIC X(01)     VALUE SPACE.       PPORAUDT
003900     05  WK-HR-PAYRATE.                                           PPORAUDT
004000         10  WK-PAYRATE-HR       PIC ZZZ.9(04) VALUE ZERO.        PPORAUDT
004100         10  FILLER              PIC X(01)     VALUE ' '.         PPORAUDT
004200         10  WK-HR-TYPE          PIC X(01)     VALUE SPACE.       PPORAUDT
004220     05  WK-AMT                  PIC S9(07)V99 VALUE ZERO.        PPORAUDT
004230     05  WK-HRS                  PIC S9(3)V99  VALUE ZERO.        PPORAUDT
004240     05  WK-PCT                  PIC S9V9(4)   VALUE ZERO.        PPORAUDT
004300     05  WS-PRINT-AREA           PIC X(133).                      PPORAUDT
004400     05  WS-RESP                 PIC S9(08)               COMP.   PPORAUDT
004500     05  WS-ORCA-TSQ.                                             PPORAUDT
004600         10  WS-ORCA-QUE.                                         PPORAUDT
004800             15  WS-ORCA-EIBTRMID   PIC X(4)   VALUE SPACE.       PPORAUDT
004810             15  WS-ORCA-TIMESTAMP  PIC S9(6)  COMP-3.            PPORAUDT
004900         10  WS-ORCA-ITEM           PIC S9(4)  VALUE +1   COMP.   PPORAUDT
005000         10  WS-ORCA-LENGTH         PIC S9(4)  VALUE +133 COMP.   PPORAUDT
006500     EJECT                                                        PPORAUDT
005410 01  RPT1-CVR1-LINE.                                              PPORAUDT
005420     05  FILLER                  PIC X(01) VALUE ' '.             PPORAUDT
005430     05  FILLER                  PIC X(08) VALUE SPACES.          PPORAUDT
005440     05  FILLER                  PIC X(01) VALUE '*'.             PPORAUDT
005450     05  FILLER                  PIC X(33) VALUE SPACES.          PPORAUDT
005460     05  FILLER                  PIC X(44) VALUE                  PPORAUDT
005470         'UNIVERSITY OF CALIFORNIA - ORCA AUDIT REPORT'.          PPORAUDT
005491     05  FILLER                  PIC X(34) VALUE SPACES.          PPORAUDT
005492     05  FILLER                  PIC X(01) VALUE '*'.             PPORAUDT
005495 01  RPT1-CVR2-LINE.                                              PPORAUDT
005496     05  FILLER                  PIC X(01) VALUE ' '.             PPORAUDT
005497     05  FILLER                  PIC X(08) VALUE SPACES.          PPORAUDT
005498     05  FILLER                  PIC X(01) VALUE '*'.             PPORAUDT
005499     05  FILLER                  PIC X(42) VALUE SPACES.          PPORAUDT
005500     05  FILLER                  PIC X(27) VALUE                  PPORAUDT
005501         'DISTRIBUTION: PAYROLL DEPT.'.                           PPORAUDT
005502     05  FILLER                  PIC X(42) VALUE SPACES.          PPORAUDT
005503     05  FILLER                  PIC X(01) VALUE '*'.             PPORAUDT
008400 01  RPT1-HD.                    COPY CPWSPSHR.                   PPORAUDT
008500     EJECT                                                        PPORAUDT
005800* AUDIT RECORD - FIRST ID-WINDOW LINE, OPTION1                    PPORAUDT
005900 01  RPT1-ID1.                                                    PPORAUDT
006000     05  FILLER                  PIC X(01) VALUE ' '.             PPORAUDT
006100     05  RPT1-ID1-EMPL-ID        PIC X(09).                       PPORAUDT
006200     05  FILLER                  PIC X(02) VALUE '  '.            PPORAUDT
006300     05  RPT1-ID1-NAME           PIC X(30).                       PPORAUDT
006400     05  FILLER                  REDEFINES RPT1-ID1-NAME.         PPORAUDT
006500         10  RPT1-ID1-NAME-X OCCURS 30 PIC X(01).                 PPORAUDT
006600     05  FILLER                  PIC X(02) VALUE SPACES.          PPORAUDT
006700     05  FILLER              PIC X(16) VALUE 'PAY PERIOD END: '.  PPORAUDT
006800     05  RPT1-PPE-DATE.                                           PPORAUDT
006900         10  RPT1-PPE-MO         PIC X(02).                       PPORAUDT
007000         10  FILLER              PIC X(01) VALUE '/'.             PPORAUDT
007100         10  RPT1-PPE-DA         PIC X(02).                       PPORAUDT
007200         10  FILLER              PIC X(01) VALUE '/'.             PPORAUDT
007300         10  RPT1-PPE-YR         PIC X(02).                       PPORAUDT
007310     05  FILLER                  PIC X(03) VALUE SPACES.          PPORAUDT
007400     05  FILLER                  PIC X(12) VALUE 'CHECK DATE: '.  PPORAUDT
007500     05  RPT1-CHECK-DATE.                                         PPORAUDT
007600         10  RPT1-CHECK-MO       PIC X(02).                       PPORAUDT
007700         10  FILLER              PIC X(01) VALUE '/'.             PPORAUDT
007800         10  RPT1-CHECK-DA       PIC X(02).                       PPORAUDT
007900         10  FILLER              PIC X(01) VALUE '/'.             PPORAUDT
008000         10  RPT1-CHECK-YR       PIC X(02).                       PPORAUDT
008100     05  FILLER                  PIC X(03) VALUE SPACES.          PPORAUDT
008200     05  RPT1-ID1-EUC-D          PIC X(07) VALUE                  PPORAUDT
008300                       ' EUC:  '.                                 PPORAUDT
008400     05  RPT1-ID1-EUC            PIC X(02).                       PPORAUDT
008600     05  FILLER                  PIC X(03) VALUE SPACES.          PPORAUDT
008700     05  RPT1-ID1-EDUC-D         PIC X(08) VALUE                  PPORAUDT
008800                       ' EDUC:  '.                                PPORAUDT
008900     05  RPT1-ID1-EDUC           PIC X(03).                       PPORAUDT
009000     05  RPT1-ID1-EMPRELC-D PIC X(13) VALUE                       PPORAUDT
009100                       '   EMP REL:  '.                           PPORAUDT
009200     05  RPT1-ID1-EMPRELC        PIC X(01).                       PPORAUDT
009300     05  FILLER                  PIC X(02) VALUE SPACES.          PPORAUDT
009500* AUDIT RECORD - SECOND ID-WINDOW LINE, OPTION1                   PPORAUDT
009600 01  RPT1-ID2.                                                    PPORAUDT
009700     05  FILLER                  PIC X(01) VALUE ' '.             PPORAUDT
009800     05  RPT1-ID2-STARS          PIC X(41).                       PPORAUDT
009900     05  FILLER                  REDEFINES RPT1-ID2-STARS.        PPORAUDT
010000         10  RPT1-ID2-STAR       OCCURS 41 PIC X(01).             PPORAUDT
010200* AUDIT REPORT - FIRST PAY-SUMMARY-WINDOW LINE, OPTION1           PPORAUDT
010300 01  RPT1-GR1-LINE.                                               PPORAUDT
010400     05  FILLER                  PIC X(01) VALUE ' '.             PPORAUDT
010500     05  RPT1-GR1-TYPE           PIC X(13).                       PPORAUDT
010600     05  FILLER                  PIC X(09) VALUE '  NET PAY'.     PPORAUDT
010700     05  RPT1-GR1-NET-PAY        PIC ZZZZ,ZZ9.99-.                PPORAUDT
010800     05  FILLER                  PIC X(13)                        PPORAUDT
010900                                     VALUE ' TOTAL GROSS '.       PPORAUDT
011000     05  RPT1-GR1-GRS-PAY        PIC ZZZZ,ZZ9.99-.                PPORAUDT
011100     05  FILLER                  PIC X(12)                        PPORAUDT
011200                                     VALUE '  FWT GROSS '.        PPORAUDT
011300     05  RPT1-GR1-FWT-GRS        PIC ZZZZ,ZZ9.99-.                PPORAUDT
011400     05  FILLER                  PIC X(12)                        PPORAUDT
011500                                     VALUE ' OASDI GROSS'.        PPORAUDT
011600     05  RPT1-GR1-OASDI-GRS PIC ZZZZ,ZZ9.99-.                     PPORAUDT
011700     05  FILLER                  PIC X(13)                        PPORAUDT
011800                                     VALUE ' MEDCR GROSS '.       PPORAUDT
011900     05  RPT1-GR1-MED-GRS        PIC ZZZZ,ZZ9.99-.                PPORAUDT
012100* AUDIT REPORT - SECOND PAY-SUMMARY-WINDOW LINE, OPTION1          PPORAUDT
012200 01  RPT1-GR2-LINE.                                               PPORAUDT
012300     05  FILLER                  PIC X(01) VALUE ' '.             PPORAUDT
012400     05  RPT1-GR2-CHK-NO         PIC X(07).                       PPORAUDT
012500     05  FILLER                  PIC X(01) VALUE SPACES.          PPORAUDT
012600     05  RPT1-GR2-QUARTER-IND PIC X(01).                          PPORAUDT
012700     05  RPT1-GR2-YEAR-IND       PIC X(01).                       PPORAUDT
012800     05  FILLER                  PIC X(22) VALUE SPACES.          PPORAUDT
013100     05  FILLER                  PIC X(15)                        PPORAUDT
013200                                     VALUE '    RETR GROSS '.     PPORAUDT
013300     05  RPT1-GR2-RETR-GRS       PIC ZZZZ,ZZ9.99-.                PPORAUDT
013400     05  FILLER                  PIC X(13)                        PPORAUDT
013500                                     VALUE ' STATE GROSS '.       PPORAUDT
013600     05  RPT1-GR2-ST-GRS         PIC ZZZZ,ZZ9.99-.                PPORAUDT
013700     05  FILLER                  PIC X(24) VALUE SPACES.          PPORAUDT
013800     05  RPT1-GR2-GROSSES-SUM.                                    PPORAUDT
013900         10  FILLER              PIC X(12) VALUE 'SUM GROSSES '.  PPORAUDT
014000         10  RPT1-GR2-SUM-GROSS PIC ZZZZ,ZZ9.99-.                 PPORAUDT
014200* AUDIT REPORT - THIRD PAY-SUMMARY-WINDOW LINE, OPTION1           PPORAUDT
014300 01  RPT1-CHK-DT-LINE.                                            PPORAUDT
014400     05  FILLER                  PIC X(01) VALUE ' '.             PPORAUDT
017410*****                                                          CD 74611376
017700*    05  FILLER                  PIC X(06) VALUE 'FAU:  '.        UCSD0102
017710     05  FILLER                  PIC X(06) VALUE 'ACCT: '.        UCSD0102
017800     05  RPT1-LIAB-FAU           PIC X(06).                       32021138
014700     05  FILLER                  PIC X(02) VALUE SPACES.          PPORAUDT
014800     05  FILLER                  PIC X(12) VALUE 'TAX CD: FED-'.  PPORAUDT
014900     05  RPT1-CK-FWT-MARITAL-STAT                                 PPORAUDT
015000                                 PIC X(01).                       PPORAUDT
015100     05  RPT1-CK-FWT-XMPTNS      PIC X(03).                       PPORAUDT
015200     05  FILLER                  PIC X(05) VALUE '  ST-'.         PPORAUDT
015300     05  RPT1-CK-SWT-MARITAL-STAT                                 PPORAUDT
015400                                 PIC X(01).                       PPORAUDT
015500     05  RPT1-CK-SWT-PERS-XMPTNS                                  PPORAUDT
015600                                 PIC X(03).                       PPORAUDT
015700     05  FILLER                  PIC X(01) VALUE '/'.             PPORAUDT
015800     05  RPT1-CK-SWT-ITMZD-XMPTNS                                 PPORAUDT
015900                                 PIC X(03).                       PPORAUDT
016000     05  FILLER                  PIC X(05) VALUE SPACES.          PPORAUDT
016100     05  FILLER              PIC X(14) VALUE 'STUDENT STAT: '.    PPORAUDT
016200     05  RPT1-STUDENT-STATUS     PIC X(01).                       PPORAUDT
016300     05  FILLER                  PIC X(02) VALUE SPACES.          PPORAUDT
016400     05  FILLER                  PIC X(08) VALUE '   RETR-'.      PPORAUDT
016500     05  RPT1-RETR-CODE          PIC X(01).                       PPORAUDT
016600     05  FILLER                  PIC X(10) VALUE '  SP RETR-'.    PPORAUDT
016700     05  RPT1-ELIG-CD            PIC X(01).                       PPORAUDT
016800     05  FILLER                  PIC X(03) VALUE SPACES.          PPORAUDT
016900     05  RPT1-FICA-CD-AND-LIT.                                    PPORAUDT
017000         10  FILLER              PIC X(07) VALUE '  FICA-'.       PPORAUDT
017100         10  RPT1-FICA-CD        PIC X(01).                       PPORAUDT
017200     05  RPT1-INS-RED.                                            PPORAUDT
017300         10  RPT1-INS-RED-LIT    PIC X(12) VALUE '    INS RED-'.  PPORAUDT
017400         10  RPT1-INS-RED-CD     PIC X(01).                       PPORAUDT
017500         10  FILLER              PIC X(05) VALUE SPACES.          PPORAUDT
017600     05  FILLER                  PIC X(15) VALUE                  PPORAUDT
017700         'PRI PAY SCHED: '.                                       PPORAUDT
017800     05  RPT1-PRI-PAY-SCHED      PIC X(02).                       PPORAUDT
018000* AUDIT REPORT - DEDUCTIONS-WINDOW DEDN-LINE, OPTION1             PPORAUDT
018100 01  RPT1-DED-LINE.                                               PPORAUDT
018200     05  FILLER                  PIC X(01).                       PPORAUDT
018300     05  RPT1-DED-LN-TTL         PIC X(20).                       PPORAUDT
018400     05  RPT1-FILLER     REDEFINES RPT1-DED-LN-TTL.               PPORAUDT
018500       07  FILLER                PIC X(08).                       PPORAUDT
018600       07  RPT1-DED-Q-T     OCCURS 3 TIMES.                       PPORAUDT
018700         10  RPT1-DED-QTR        PIC X(01).                       PPORAUDT
018800         10  RPT1-DED-YR         PIC X(01).                       PPORAUDT
018900         10  FILLER              PIC X(01).                       PPORAUDT
019000       07  FILLER                PIC X(03).                       PPORAUDT
019100     05  RPT1-DED-DTL     OCCURS 3 TIMES.                         PPORAUDT
019200         10 FILLER               PIC X(01).                       PPORAUDT
019300         10 RPT1-DED-ELMT        PIC X(04).                       PPORAUDT
019400         10  FILLER              REDEFINES RPT1-DED-ELMT.         PPORAUDT
019500             15  FILLER          PIC X(01).                       PPORAUDT
019600             15  RPT1-DED-ELEM   PIC X(03).                       PPORAUDT
019700         10 FILLER               PIC X(02).                       PPORAUDT
019800         10 RPT1-DED-DESC        PIC X(17).                       PPORAUDT
019900         10 RPT1-DED-AMT         PIC ZZ,ZZ9.99-.                  PPORAUDT
020000         10 RPT1-DED-CMNTS.                                       PPORAUDT
020010            15 RPT1-DED-SOURCE   PIC X(01).                       PPORAUDT
020100            15 RPT1-SPC-TRNS     PIC X(01).                       PPORAUDT
020200            15 RPT1-CONTR        PIC X(01).                       PPORAUDT
020300     05  FILLER                  PIC X(01).                       PPORAUDT
020500*  AUDIT REPORT - ACCT-DISTRIBUTION-WINDOW TITLE LINE, OPTION1    PPORAUDT
020600 01  RPT1-ACCT-TITLE.                                             PPORAUDT
020700     05  RPT1-TITLE-CC           PIC X(01) VALUE SPACE.           PPORAUDT
022900     05  FILLER                  PIC X(33)     VALUE SPACES.      PPORAUDT
023000     05  FILLER                  PIC X(39)     VALUE              PPORAUDT
024100*****    'ERC TYP TUC DUC SHC COV TITLE  RET  DOS'.               74611376
024110         'ERC TYP TUC DUC SHC COV TTLE SB RET DOS'.               74611376
023200     05  FILLER                  PIC X(38)     VALUE              PPORAUDT
023300         '   GROSS      RATE      TIME H  TIME %'.                PPORAUDT
023400     05  FILLER                  PIC X(06)     VALUE SPACES.      PPORAUDT
023500     05  FILLER                  PIC X(06) VALUE 'PERIOD'.        PPORAUDT
021500     05  FILLER                  PIC X(10) VALUE SPACES.          PPORAUDT
021700* AUDIT REPORT - ACCT-DISTRIBUTION-WINDOW DETAIL LINE, OPTION1    PPORAUDT
021800 01  RPT1-ACCT-LINE.                                              PPORAUDT
021900     05  FILLER                  PIC X(01) VALUE ' '.             PPORAUDT
022000     05  RPT1-TRANS-CODE         PIC X(03) VALUE SPACES.          PPORAUDT
022100     05  RPT1-ACCT-POS.                                           PPORAUDT
025110*****                                                          CD 74611376
026300         10  RPT1-FAU            PIC X(28).                       32021138
026310*        10  RPT1-IFIS-INDEX     PIC X(07).                       UCSD0102
026320*        10  FILLER              PIC X(01) VALUE '-'.             UCSD0102
026330*        10  RPT1-ACCT-FUND      PIC X(06).                       UCSD0102
026360*        10  FILLER              PIC X(01) VALUE '-'.             UCSD0102
026370*        10  RPT1-ACCT-SUB       PIC X(01).                       UCSD0102
026380*        10  FILLER              PIC X(15) VALUE SPACES.          UCSD0102
026400         10  FILLER              PIC X(03) VALUE SPACES.          32021138
025400         10  RPT1-ERC            PIC X(01).                       PPORAUDT
022900         10  FILLER              PIC X(03) VALUE SPACES.          PPORAUDT
023200         10  RPT1-APPT-TYPE      PIC X(01) VALUE SPACES.          PPORAUDT
023300         10  FILLER              PIC X(03) VALUE SPACES.          PPORAUDT
023400     05  RPT1-TUC                PIC X(02).                       PPORAUDT
025900     05  FILLER                  PIC X(02) VALUE SPACES.          PPORAUDT
026000     05  RPT1-DUC                PIC X(01).                       PPORAUDT
024300     05  FILLER                  PIC X(03) VALUE SPACES.          PPORAUDT
026200     05  RPT1-SHC                PIC X(01).                       PPORAUDT
026300     05  FILLER                  PIC X(03) VALUE SPACES.          PPORAUDT
026400     05  RPT1-COV                PIC X(01).                       PPORAUDT
027600*****05  FILLER                  PIC X(03) VALUE SPACES.          74611376
027601*****05  RPT1-TITLE-CD           PIC X(05).                       74611376
027602*****05  FILLER                  PIC X(02) VALUE SPACES.          74611376
027610     05  FILLER                  PIC X(02) VALUE SPACES.          74611376
027620     05  RPT1-TITLE-CD           PIC X(04).                       74611376
027801     05  FILLER                  PIC X(01) VALUE SPACES.          74611376
027810     05  RPT1-SUB-LOCATION       PIC X(02).                       74611376
027820     05  FILLER                  PIC X(02) VALUE SPACES.          74611376
026800     05  RPT1-RETR-ELIG          PIC X(01).                       PPORAUDT
028000*****05  FILLER                  PIC X(03) VALUE SPACES.          74611376
028010     05  FILLER                  PIC X(02) VALUE SPACES.          74611376
024600     05  RPT1-EARN-TYPE          PIC X(03).                       PPORAUDT
024700     05  FILLER                  PIC X(01) VALUE ' '.             PPORAUDT
024800     05  RPT1-EARN-AMT           PIC ZZ,ZZ9.99-.                  PPORAUDT
024900     05  FILLER                  PIC X(01) VALUE SPACES.          PPORAUDT
025000     05  RPT1-PAYRATE            PIC X(11).                       PPORAUDT
025100     05  FILLER                  PIC X(01) VALUE SPACES.          PPORAUDT
025200     05  RPT1-TIME               PIC ZZ9.99.                      PPORAUDT
025300     05  RPT1-TIMEX              REDEFINES RPT1-TIME              PPORAUDT
025400                                 PIC X(06).                       PPORAUDT
025500     05  FILLER                  PIC X(02) VALUE SPACES.          PPORAUDT
025600     05  RPT1-TIME-PCT           PIC 9(01).9(04).                 PPORAUDT
025700     05  RPT1-TIME-PCT-X         REDEFINES RPT1-TIME-PCT          PPORAUDT
025800                                 PIC X(06).                       PPORAUDT
028300     05  FILLER                  PIC X(06) VALUE SPACES.          PPORAUDT
026000     05  RPT1-DIST-PER.                                           PPORAUDT
026100         10  RPT1-DIST-MO        PIC X(02).                       PPORAUDT
026200         10  FILLER              PIC X(01) VALUE '/'.             PPORAUDT
026300         10  RPT1-DIST-DA        PIC X(02).                       PPORAUDT
026400         10  FILLER              PIC X(01) VALUE '/'.             PPORAUDT
026500         10  RPT1-DIST-YR        PIC X(02).                       PPORAUDT
026600     05  RPT1-PAY-CYCL.                                           PPORAUDT
026700         10  RPT1-CYCL-DASH      PIC X(01) VALUE '-'.             PPORAUDT
026800         10  RPT1-CYCL-CODE      PIC X(01).                       PPORAUDT
026900     05  RPT1-RETRO-IND.                                          PPORAUDT
027000         10  RPT1-RET-DASH       PIC X(01) VALUE '-'.             PPORAUDT
027100         10  RPT1-RETRO          PIC X(01).                       PPORAUDT
027200     05  RPT1-WK-STUDY.                                           PPORAUDT
027300         10  RPT1-WKST-DASH      PIC X(01) VALUE '-'.             PPORAUDT
027400         10  RPT1-WKSTUDY        PIC X(01).                       PPORAUDT
027500     05  RPT1-LVACC.                                              PPORAUDT
027600         10  RPT1-LVACC-DASH     PIC X(01) VALUE '-'.             PPORAUDT
027700         10  RPT1-LVACC-CD       PIC X(01).                       PPORAUDT
031300 01  CPWSXFAU.                     COPY CPWSXFAU.                 32021138
031400 01  CPWSFAUR.                     COPY CPWSFAUR.                 32021138
031500 01  CPWSFFAU.                     COPY CPWSFFAU.                 32021138
030200 01  PPDB2MSG-INTERFACE.           COPY CPLNKDB2.                 PPORAUDT
030300 01  PRNT-COMMAREA       EXTERNAL. COPY UCWSCOMP.                 PPORAUDT
030400 01  CPWSORCA            EXTERNAL. COPY CPWSORCA.                 PPORAUDT
030500 01  CPWSSPEC            EXTERNAL. COPY CPWSSPEC.                 PPORAUDT
030600 01  UCCOMMON            EXTERNAL. COPY UCCOMMON.                 PPORAUDT
030700 01  UCWSABND            EXTERNAL.                                PPORAUDT
030800     EXEC SQL                                                     PPORAUDT
030900          INCLUDE UCWSABND                                        PPORAUDT
031000     END-EXEC.                                                    PPORAUDT
031100 01  WS-PRM.                                                      PPORAUDT
031200     EXEC SQL                                                     PPORAUDT
031300          INCLUDE PPPVZPRM                                        PPORAUDT
031400     END-EXEC.                                                    PPORAUDT
031500     EXEC SQL                                                     PPORAUDT
031600          INCLUDE SQLCA                                           PPORAUDT
031700     END-EXEC.                                                    PPORAUDT
027701                                                                  PPORAUDT
031900 PROCEDURE DIVISION.                                              PPORAUDT
027704                                                                  PPORAUDT
028300     EXEC SQL                                                     PPORAUDT
032200        INCLUDE CPPDXE99                                          PPORAUDT
028500     END-EXEC.                                                    PPORAUDT
029900     PERFORM 1000-INITIALIZE.                                     PPORAUDT
032500     PERFORM 2000-ORIGINAL-PAY-WINDOW.                            PPORAUDT
032600     PERFORM 3000-CORRECT-PAY-WINDOW.                             PPORAUDT
032700     PERFORM 4000-ORCA-PAY-WINDOW.                                PPORAUDT
030610     PERFORM 8000-CALL-PRINTER.                                   PPORAUDT
030700                                                                  PPORAUDT
030800 0100-END.                                                        PPORAUDT
031000     GOBACK.                                                      PPORAUDT
031100                                                                  PPORAUDT
031300 1000-INITIALIZE.                                                 PPORAUDT
031400                                                                  PPORAUDT
031520     EXEC CICS                                                    PPORAUDT
031530            ASKTIME                                               PPORAUDT
031540            ABSTIME (WS-ABSTIME)                                  PPORAUDT
031550     END-EXEC.                                                    PPORAUDT
031570     EXEC CICS                                                    PPORAUDT
031580            FORMATTIME                                            PPORAUDT
031590            ABSTIME (WS-ABSTIME)                                  PPORAUDT
031591            MMDDYY  (WS-DATE)                                     PPORAUDT
031592            DATESEP                                               PPORAUDT
031593            TIME    (WS-TIME)                                     PPORAUDT
031594            TIMESEP                                               PPORAUDT
031595     END-EXEC.                                                    PPORAUDT
034700     MOVE EIBTRMID TO WS-ORCA-EIBTRMID.                           PPORAUDT
031710     STRING WS-TIME(1:2) DELIMITED BY SIZE                        PPORAUDT
031720            WS-TIME(4:2) DELIMITED BY SIZE                        PPORAUDT
031730            WS-TIME(7:2) DELIMITED BY SIZE                        PPORAUDT
031740       INTO WS-TIMESTAMP-X.                                       PPORAUDT
035200     MOVE WS-TIMESTAMP-N TO WS-ORCA-TIMESTAMP.                    PPORAUDT
035300     MOVE SPEC-ENTERED-FUNC TO WS-FUNCTION.                       PPORAUDT
031800     STRING SPACE       DELIMITED BY SIZE                         PPORAUDT
031900            PGM-ID      DELIMITED BY SPACE                        PPORAUDT
032000            '1/'        DELIMITED BY SIZE                         PPORAUDT
032100            PGM-ID      DELIMITED BY SPACE                        PPORAUDT
032110            '/'         DELIMITED BY SIZE                         PPORAUDT
032200            PGM-VERS-DT DELIMITED BY SPACE                        PPORAUDT
032300       INTO STND-RPT-HD1.                                         PPORAUDT
032400     MOVE WS-DATE TO STND-RPT-DATE.                               PPORAUDT
032500     MOVE SPACES TO STND-RPT-HD3                                  PPORAUDT
032600     MOVE 'CANCELLATION/OVERPAYMENT/REVERSAL REPORT'              PPORAUDT
032700       TO STND-RPT-TTL.                                           PPORAUDT
032800     PERFORM 8100-READ-TSQ.                                       PPORAUDT
036600     MOVE 149 TO WS-PRM-NO                                        PPORAUDT
036700     PERFORM 9000-SELECT-PRM                                      PPORAUDT
036800     IF PRM-DATA = ZERO                                           PPORAUDT
036900        PERFORM 7100-COVER-PAGE                                   PPORAUDT
037000     END-IF.                                                      PPORAUDT
032810                                                                  PPORAUDT
032900                                                                  PPORAUDT
033100 2000-ORIGINAL-PAY-WINDOW.                                        PPORAUDT
033200                                                                  PPORAUDT
033300     SET ORIGINAL-PAY-WINDOW TO TRUE.                             PPORAUDT
033400     MOVE ORCA-ID-NO TO RPT1-ID1-EMPL-ID.                         PPORAUDT
033500     MOVE ORCA-NAME TO RPT1-ID1-NAME.                             PPORAUDT
033600     MOVE ALL '*' TO RPT1-ID2-STARS.                              PPORAUDT
033700     MOVE 30 TO ORCA-X.                                           PPORAUDT
033800     MOVE 41 TO RPT-X.                                            PPORAUDT
033900     PERFORM WITH TEST BEFORE                                     PPORAUDT
034000       UNTIL RPT1-ID1-NAME-X (ORCA-X) NOT = SPACE                 PPORAUDT
034100         MOVE SPACE TO RPT1-ID2-STAR (RPT-X)                      PPORAUDT
034200         SUBTRACT 1 FROM ORCA-X RPT-X                             PPORAUDT
034300     END-PERFORM.                                                 PPORAUDT
034400     MOVE ORCA-PAY-END-MO TO RPT1-PPE-MO.                         PPORAUDT
034500     MOVE ORCA-PAY-END-DA TO RPT1-PPE-DA.                         PPORAUDT
034600     MOVE ORCA-PAY-END-YR TO RPT1-PPE-YR.                         PPORAUDT
034700     MOVE ORCA-CHECK-MO TO RPT1-CHECK-MO.                         PPORAUDT
034800     MOVE ORCA-CHECK-DA TO RPT1-CHECK-DA.                         PPORAUDT
034900     MOVE ORCA-CHECK-YR TO RPT1-CHECK-YR.                         PPORAUDT
035000     MOVE ORCA-EMP-UNIT-CODE TO  RPT1-ID1-EUC.                    PPORAUDT
035100     MOVE ORCA-EMP-DIST-UNIT-CODE TO RPT1-ID1-EDUC.               PPORAUDT
035200     MOVE ORCA-EMP-REL-CODE TO RPT1-ID1-EMPRELC.                  PPORAUDT
035300     PERFORM 7000-AUDIT-RPT-HDG.                                  PPORAUDT
035500     MOVE 'ORIGINAL PAY ' TO RPT1-GR1-TYPE.                       PPORAUDT
035600     MOVE ORCA-NET-PAY TO RPT1-GR1-NET-PAY.                       PPORAUDT
035700     MOVE ORCA-TOTAL-GROSS TO RPT1-GR1-GRS-PAY.                   PPORAUDT
035800     MOVE ORCA-FWT-GROSS TO RPT1-GR1-FWT-GRS.                     PPORAUDT
035900     MOVE ORCA-MEDICR-GROSS TO RPT1-GR1-MED-GRS.                  PPORAUDT
036000     MOVE ORCA-OASDI-GROSS TO RPT1-GR1-OASDI-GRS.                 PPORAUDT
036100     MOVE RPT1-GR1-LINE TO WS-PRINT-AREA.                         PPORAUDT
036200     PERFORM 8200-WRITE-TSQ                                       PPORAUDT
036300     SUBTRACT 1 FROM RPT-LINES-LEFT.                              PPORAUDT
036500     MOVE ORCA-CHECK-NO TO RPT1-GR2-CHK-NO.                       PPORAUDT
036600     MOVE ORCA-AFFECT-QTR TO RPT1-GR2-QUARTER-IND.                PPORAUDT
036700     MOVE ORCA-AFFECT-YEAR TO RPT1-GR2-YEAR-IND.                  PPORAUDT
036900     MOVE ORCA-RETR-GROSS TO RPT1-GR2-RETR-GRS.                   PPORAUDT
037000     MOVE ORCA-STATE-GROSS TO RPT1-GR2-ST-GRS.                    PPORAUDT
037100     COMPUTE GROSS-SUM = ORCA-TOTAL-GROSS                         PPORAUDT
037200             + ORCA-FWT-GROSS + ORCA-OASDI-GROSS                  PPORAUDT
037300             + ORCA-MEDICR-GROSS                                  PPORAUDT
037400             + ORCA-STATE-GROSS + ORCA-RETR-GROSS.                PPORAUDT
037500     MOVE GROSS-SUM TO RPT1-GR2-SUM-GROSS.                        PPORAUDT
037600     MOVE RPT1-GR2-LINE TO WS-PRINT-AREA.                         PPORAUDT
037700     PERFORM 8200-WRITE-TSQ                                       PPORAUDT
037800     SUBTRACT 1 FROM RPT-LINES-LEFT.                              PPORAUDT
043110*****                                                          CD 74611376
043300     MOVE ORCA-LIABILITY-FAU TO FAUR-FAU.                         32021138
043400     SET FORMAT-ORCA-FAU TO TRUE.                                 32021138
043500     PERFORM 8950-FORMAT-FAU.                                     32021138
043600     MOVE XFAU-FAU-FORMATTED TO RPT1-LIAB-FAU.                    32021138
038100     MOVE ORCA-FED-TX-MARITAL-STATUS TO                           PPORAUDT
038200          RPT1-CK-FWT-MARITAL-STAT.                               PPORAUDT
038300     MOVE ORCA-FED-TX-EXEMPT TO RPT1-CK-FWT-XMPTNS.               PPORAUDT
038400     MOVE ORCA-ST-TX-MARITAL-STATUS TO                            PPORAUDT
038500          RPT1-CK-SWT-MARITAL-STAT.                               PPORAUDT
038600     MOVE ORCA-ST-TX-PER-DED TO RPT1-CK-SWT-PERS-XMPTNS.          PPORAUDT
038700     MOVE ORCA-ST-TX-ITM-DED TO RPT1-CK-SWT-ITMZD-XMPTNS.         PPORAUDT
038800     MOVE ORCA-STUDENT-STAT TO RPT1-STUDENT-STATUS.               PPORAUDT
038900     MOVE ORCA-RET-ELIG-CODE TO RPT1-RETR-CODE.                   PPORAUDT
039000     MOVE ORCA-HGH-RETR-ELIG TO RPT1-ELIG-CD.                     PPORAUDT
039100     MOVE ORCA-FICA-ELG TO RPT1-FICA-CD.                          PPORAUDT
039200     MOVE ORCA-INS-REDUCT-IND TO RPT1-INS-RED-CD.                 PPORAUDT
039300     MOVE ORCA-PRIMARY-PAY-SCHED TO RPT1-PRI-PAY-SCHED.           PPORAUDT
039400     MOVE RPT1-CHK-DT-LINE TO WS-PRINT-AREA.                      PPORAUDT
039500     PERFORM 8200-WRITE-TSQ                                       PPORAUDT
039600     SUBTRACT 1 FROM RPT-LINES-LEFT.                              PPORAUDT
039800     IF ORCA-NO-DED-REF > ZERO                                    PPORAUDT
039900       PERFORM 5000-DEDUCTIONS-WINDOW                             PPORAUDT
040000     END-IF.                                                      PPORAUDT
040200     IF ORCA-NO-ACCTS > ZERO                                      PPORAUDT
040300       PERFORM 6000-EARNINGS-DISTR-WINDOW                         PPORAUDT
040400     END-IF.                                                      PPORAUDT
040500                                                                  PPORAUDT
040600                                                                  PPORAUDT
040700 3000-CORRECT-PAY-WINDOW.                                         PPORAUDT
040800                                                                  PPORAUDT
040900     SET CORRECT-PAY-WINDOW TO TRUE.                              PPORAUDT
041100     IF RPT-LINES-LEFT > 2                                        PPORAUDT
041200        MOVE ALL '-' TO WS-PRINT-AREA                             PPORAUDT
041300        MOVE SPACE TO WS-PRINT-AREA(1:1)                          PPORAUDT
041400        PERFORM 8200-WRITE-TSQ                                    PPORAUDT
041500        SUBTRACT 1 FROM RPT-LINES-LEFT                            PPORAUDT
041600     ELSE                                                         PPORAUDT
041700        PERFORM 7000-AUDIT-RPT-HDG                                PPORAUDT
041800     END-IF.                                                      PPORAUDT
045400     MOVE 'CORRECTED PAY' TO RPT1-GR1-TYPE.                       PPORAUDT
042100     MOVE ORCA-NET-PAY-CORR      TO RPT1-GR1-NET-PAY.             PPORAUDT
042200     MOVE ORCA-TOTAL-GROSS-CORR  TO RPT1-GR1-GRS-PAY.             PPORAUDT
042300     MOVE ORCA-FWT-GROSS-CORR    TO RPT1-GR1-FWT-GRS.             PPORAUDT
042400     MOVE ORCA-MEDICR-GROSS-CORR TO RPT1-GR1-MED-GRS.             PPORAUDT
042500     MOVE ORCA-OASDI-GROSS-CORR  TO RPT1-GR1-OASDI-GRS.           PPORAUDT
042600     MOVE RPT1-GR1-LINE TO WS-PRINT-AREA.                         PPORAUDT
042700     PERFORM 8200-WRITE-TSQ                                       PPORAUDT
042800     SUBTRACT 1 FROM RPT-LINES-LEFT.                              PPORAUDT
043000     MOVE ORCA-RETR-GROSS-CORR   TO RPT1-GR2-RETR-GRS.            PPORAUDT
043100     MOVE ORCA-STATE-GROSS-CORR  TO RPT1-GR2-ST-GRS.              PPORAUDT
043120     COMPUTE GROSS-SUM = ORCA-TOTAL-GROSS-CORR                    PPORAUDT
043130                       + ORCA-FWT-GROSS-CORR                      PPORAUDT
043131                       + ORCA-OASDI-GROSS-CORR                    PPORAUDT
043140                       + ORCA-MEDICR-GROSS-CORR                   PPORAUDT
043150                       + ORCA-STATE-GROSS-CORR                    PPORAUDT
043151                       + ORCA-RETR-GROSS-CORR.                    PPORAUDT
043160     MOVE GROSS-SUM TO RPT1-GR2-SUM-GROSS.                        PPORAUDT
043300     MOVE RPT1-GR2-LINE TO WS-PRINT-AREA.                         PPORAUDT
043400     PERFORM 8200-WRITE-TSQ                                       PPORAUDT
043500     SUBTRACT 1 FROM RPT-LINES-LEFT.                              PPORAUDT
043700     IF ORCA-NO-DED-REF > ZERO                                    PPORAUDT
043701        PERFORM 3100-DELETES-AND-OVERRIDES                        PPORAUDT
043702         VARYING INDX1 FROM 1 BY 1                                PPORAUDT
043703           UNTIL INDX1 > ORCA-NO-DED-REF                          PPORAUDT
043750     END-IF.                                                      PPORAUDT
043810     IF ORCA-NO-ADDS > ZERO                                       PPORAUDT
043820        PERFORM 3200-ADDS                                         PPORAUDT
043830         VARYING INDX1 FROM 1 BY 1                                PPORAUDT
043840           UNTIL INDX1 > ORCA-NO-ADDS                             PPORAUDT
043902     END-IF.                                                      PPORAUDT
048500     IF WS-OVPY-FUNC                                              PPORAUDT
043905        IF ORCA-NO-DED-REF > ZERO                                 PPORAUDT
043906           PERFORM 5000-DEDUCTIONS-WINDOW                         PPORAUDT
043907        END-IF                                                    PPORAUDT
043908     END-IF.                                                      PPORAUDT
043930     IF ORCA-NO-ACCTS > ZERO                                      PPORAUDT
044000       PERFORM 6000-EARNINGS-DISTR-WINDOW                         PPORAUDT
044100     END-IF.                                                      PPORAUDT
044200                                                                  PPORAUDT
044210 3100-DELETES-AND-OVERRIDES.                                      PPORAUDT
044220                                                                  PPORAUDT
044230      IF ORCA-DELETE (INDX1) = 'Y'                                PPORAUDT
044260        IF RPT-LINES-LEFT NOT > ZERO                              PPORAUDT
044270           PERFORM 7000-AUDIT-RPT-HDG                             PPORAUDT
044280        END-IF                                                    PPORAUDT
050000        IF WS-OVPY-FUNC                                           PPORAUDT
044291           MOVE ORCA-DED-AMT (INDX1)       TO WK-GTN-FORMAT       PPORAUDT
044292        ELSE                                                      PPORAUDT
044293           MOVE ORCA-DED-AMT-CORR (INDX1)  TO WK-GTN-FORMAT       PPORAUDT
044294        END-IF                                                    PPORAUDT
044295        STRING ' DELETED FROM ORIGINAL DEDUCTIONS: '              PPORAUDT
044296                                            DELIMITED BY SIZE     PPORAUDT
044297               ORCA-GTN-NUMBER (INDX1)      DELIMITED BY SIZE     PPORAUDT
044298               ' '                          DELIMITED BY SIZE     PPORAUDT
044299               ORCA-GTN-DESC (INDX1)        DELIMITED BY SIZE     PPORAUDT
044300               '  '                         DELIMITED BY SIZE     PPORAUDT
044301               WK-GTN-FORMAT-X              DELIMITED BY SIZE     PPORAUDT
044302          INTO WS-PRINT-AREA                                      PPORAUDT
044303        PERFORM 8200-WRITE-TSQ                                    PPORAUDT
044304        SUBTRACT 1 FROM RPT-LINES-LEFT                            PPORAUDT
044305      END-IF.                                                     PPORAUDT
044307      IF ORCA-OVRD-DED (INDX1) NOT = SPACES                       PPORAUDT
044308         IF RPT-LINES-LEFT NOT > ZERO                             PPORAUDT
044309            PERFORM 7000-AUDIT-RPT-HDG                            PPORAUDT
044310         END-IF                                                   PPORAUDT
044311         STRING ' ORIGINAL DEDUCTION '      DELIMITED BY SIZE     PPORAUDT
044312                ORCA-GTN-NUMBER (INDX1)     DELIMITED BY SIZE     PPORAUDT
044313                ' OVERRIDDEN TO OVERPAID DEDUCTION '              PPORAUDT
044314                                            DELIMITED BY SIZE     PPORAUDT
044315                ORCA-OVRD-DED (INDX1)       DELIMITED BY SIZE     PPORAUDT
044316           INTO WS-PRINT-AREA                                     PPORAUDT
044317         PERFORM 8200-WRITE-TSQ                                   PPORAUDT
044318         SUBTRACT 1 FROM RPT-LINES-LEFT                           PPORAUDT
044319      END-IF.                                                     PPORAUDT
044320                                                                  PPORAUDT
044340 3200-ADDS.                                                       PPORAUDT
044350                                                                  PPORAUDT
044351      IF RPT-LINES-LEFT NOT > ZERO                                PPORAUDT
044352         PERFORM 7000-AUDIT-RPT-HDG                               PPORAUDT
044353      END-IF.                                                     PPORAUDT
053500      MOVE ORCA-ADD-AMT (INDX1) TO WK-GTN-FORMAT.                 PPORAUDT
044357      STRING ' ADDED TO OVERPAID DEDUCTIONS:     '                PPORAUDT
044358                                            DELIMITED BY SIZE     PPORAUDT
044359             ORCA-ADD-GTN  (INDX1)          DELIMITED BY SIZE     PPORAUDT
044360             ' '                            DELIMITED BY SIZE     PPORAUDT
044361             ORCA-ADD-DESC (INDX1)          DELIMITED BY SIZE     PPORAUDT
044362             '  '                           DELIMITED BY SIZE     PPORAUDT
044363             WK-GTN-FORMAT-X                DELIMITED BY SIZE     PPORAUDT
044364        INTO WS-PRINT-AREA.                                       PPORAUDT
044366      PERFORM 8200-WRITE-TSQ.                                     PPORAUDT
044367      SUBTRACT 1 FROM RPT-LINES-LEFT.                             PPORAUDT
044368                                                                  PPORAUDT
044400 4000-ORCA-PAY-WINDOW.                                            PPORAUDT
044500                                                                  PPORAUDT
044600     SET ORCA-PAY-WINDOW TO TRUE.                                 PPORAUDT
044800     IF RPT-LINES-LEFT > 2                                        PPORAUDT
044900        MOVE ALL '-' TO WS-PRINT-AREA                             PPORAUDT
045000        MOVE SPACE TO WS-PRINT-AREA(1:1)                          PPORAUDT
045100        PERFORM 8200-WRITE-TSQ                                    PPORAUDT
045200        SUBTRACT 1 FROM RPT-LINES-LEFT                            PPORAUDT
045300     ELSE                                                         PPORAUDT
045400        PERFORM 7000-AUDIT-RPT-HDG                                PPORAUDT
045500     END-IF.                                                      PPORAUDT
055800     IF WS-CNCL-FUNC                                              PPORAUDT
045700        MOVE ' OVERPAID - ****CANCELLATION-TRANSACTION****'       PPORAUDT
045800          TO WS-PRINT-AREA                                        PPORAUDT
045810     ELSE                                                         PPORAUDT
056200     IF WS-RVSL-FUNC                                              PPORAUDT
045830        MOVE ' OVERPAID - ****REVERSAL-TRANSACTION****'           PPORAUDT
045840          TO WS-PRINT-AREA                                        PPORAUDT
045850     ELSE                                                         PPORAUDT
045860        MOVE ' OVERPAID - ****OVERPAYMENT-TRANSACTION****'        PPORAUDT
045870          TO WS-PRINT-AREA                                        PPORAUDT
045880     END-IF                                                       PPORAUDT
045890     END-IF.                                                      PPORAUDT
045900     PERFORM 8200-WRITE-TSQ.                                      PPORAUDT
046000     MOVE SPACES TO RPT1-GR1-TYPE.                                PPORAUDT
046100     COMPUTE WK-AMT = ORCA-NET-PAY - ORCA-NET-PAY-CORR.           PPORAUDT
046110     MOVE WK-AMT TO RPT1-GR1-NET-PAY.                             PPORAUDT
046120     COMPUTE WK-AMT = ORCA-TOTAL-GROSS - ORCA-TOTAL-GROSS-CORR.   PPORAUDT
046130     MOVE WK-AMT TO RPT1-GR1-GRS-PAY.                             PPORAUDT
046140     COMPUTE WK-AMT = ORCA-FWT-GROSS - ORCA-FWT-GROSS-CORR.       PPORAUDT
046150     MOVE WK-AMT TO RPT1-GR1-FWT-GRS.                             PPORAUDT
046160     COMPUTE WK-AMT = ORCA-MEDICR-GROSS                           PPORAUDT
046161                          - ORCA-MEDICR-GROSS-CORR.               PPORAUDT
046170     MOVE WK-AMT TO RPT1-GR1-MED-GRS.                             PPORAUDT
046180     COMPUTE WK-AMT = ORCA-OASDI-GROSS - ORCA-OASDI-GROSS-CORR.   PPORAUDT
046190     MOVE WK-AMT TO RPT1-GR1-OASDI-GRS.                           PPORAUDT
046600     MOVE RPT1-GR1-LINE TO WS-PRINT-AREA.                         PPORAUDT
046700     PERFORM 8200-WRITE-TSQ                                       PPORAUDT
046800     SUBTRACT 1 FROM RPT-LINES-LEFT.                              PPORAUDT
047000     MOVE ORCA-CHECK-NO TO RPT1-GR2-CHK-NO.                       PPORAUDT
047100     MOVE ORCA-AFFECT-QTR TO RPT1-GR2-QUARTER-IND.                PPORAUDT
047200     MOVE ORCA-AFFECT-YEAR TO RPT1-GR2-YEAR-IND.                  PPORAUDT
047300     COMPUTE WK-AMT = ORCA-RETR-GROSS - ORCA-RETR-GROSS-CORR.     PPORAUDT
047310     MOVE WK-AMT TO RPT1-GR2-RETR-GRS.                            PPORAUDT
047320     COMPUTE WK-AMT = ORCA-STATE-GROSS - ORCA-STATE-GROSS-CORR.   PPORAUDT
047330     MOVE WK-AMT TO RPT1-GR2-ST-GRS.                              PPORAUDT
047600     COMPUTE GROSS-SUM = ORCA-TOTAL-GROSS                         PPORAUDT
047700                       + ORCA-FWT-GROSS                           PPORAUDT
047710                       + ORCA-OASDI-GROSS                         PPORAUDT
047800                       + ORCA-MEDICR-GROSS                        PPORAUDT
047900                       + ORCA-STATE-GROSS                         PPORAUDT
047910                       + ORCA-RETR-GROSS                          PPORAUDT
047920                       - ORCA-TOTAL-GROSS-CORR                    PPORAUDT
047930                       - ORCA-FWT-GROSS-CORR                      PPORAUDT
047940                       - ORCA-OASDI-GROSS-CORR                    PPORAUDT
047950                       - ORCA-MEDICR-GROSS-CORR                   PPORAUDT
047960                       - ORCA-STATE-GROSS-CORR                    PPORAUDT
047970                       - ORCA-RETR-GROSS-CORR.                    PPORAUDT
048000     MOVE GROSS-SUM TO RPT1-GR2-SUM-GROSS.                        PPORAUDT
048100     MOVE RPT1-GR2-LINE TO WS-PRINT-AREA.                         PPORAUDT
048200     PERFORM 8200-WRITE-TSQ                                       PPORAUDT
048300     SUBTRACT 1 FROM RPT-LINES-LEFT.                              PPORAUDT
062610*****                                                          CD 74611376
062800     MOVE ORCA-LIABILITY-FAU TO FAUR-FAU.                         32021138
062900     SET FORMAT-ORCA-FAU TO TRUE.                                 32021138
063000     PERFORM 8950-FORMAT-FAU.                                     32021138
063100     MOVE XFAU-FAU-FORMATTED TO RPT1-LIAB-FAU.                    32021138
048600     MOVE ORCA-FED-TX-MARITAL-STATUS TO                           PPORAUDT
048700          RPT1-CK-FWT-MARITAL-STAT.                               PPORAUDT
048800     MOVE ORCA-FED-TX-EXEMPT TO RPT1-CK-FWT-XMPTNS.               PPORAUDT
048900     MOVE ORCA-ST-TX-MARITAL-STATUS TO                            PPORAUDT
049000          RPT1-CK-SWT-MARITAL-STAT.                               PPORAUDT
049100     MOVE ORCA-ST-TX-PER-DED TO RPT1-CK-SWT-PERS-XMPTNS.          PPORAUDT
049200     MOVE ORCA-ST-TX-ITM-DED TO RPT1-CK-SWT-ITMZD-XMPTNS.         PPORAUDT
049300     MOVE ORCA-STUDENT-STAT TO RPT1-STUDENT-STATUS.               PPORAUDT
049400     MOVE ORCA-RET-ELIG-CODE TO RPT1-RETR-CODE.                   PPORAUDT
049500     MOVE ORCA-HGH-RETR-ELIG TO RPT1-ELIG-CD.                     PPORAUDT
049600     MOVE ORCA-FICA-ELG TO RPT1-FICA-CD.                          PPORAUDT
049700     MOVE ORCA-INS-REDUCT-IND TO RPT1-INS-RED-CD.                 PPORAUDT
049800     MOVE ORCA-PRIMARY-PAY-SCHED TO RPT1-PRI-PAY-SCHED.           PPORAUDT
049900     MOVE RPT1-CHK-DT-LINE TO WS-PRINT-AREA.                      PPORAUDT
050000     PERFORM 8200-WRITE-TSQ                                       PPORAUDT
050100     SUBTRACT 1 FROM RPT-LINES-LEFT.                              PPORAUDT
050300     IF ORCA-NO-DED-REF > ZERO                                    PPORAUDT
050400       PERFORM 5000-DEDUCTIONS-WINDOW                             PPORAUDT
050500     END-IF.                                                      PPORAUDT
050700     IF ORCA-NO-ACCTS > ZERO                                      PPORAUDT
050800       PERFORM 6000-EARNINGS-DISTR-WINDOW                         PPORAUDT
050900     END-IF.                                                      PPORAUDT
051000                                                                  PPORAUDT
051100                                                                  PPORAUDT
051200 5000-DEDUCTIONS-WINDOW.                                          PPORAUDT
051300                                                                  PPORAUDT
051400     IF RPT-LINES-LEFT < 1                                        PPORAUDT
051500       PERFORM 5100-DEDUCTIONS-WINDOW-HDR                         PPORAUDT
051600     ELSE                                                         PPORAUDT
051700       PERFORM 8200-WRITE-TSQ                                     PPORAUDT
051800       SUBTRACT 1 FROM RPT-LINES-LEFT                             PPORAUDT
051900     END-IF.                                                      PPORAUDT
052100     MOVE SPACES TO RPT1-DED-LINE.                                PPORAUDT
052200     INITIALIZE CONTRIBUTION-TAKEN-SW                             PPORAUDT
052400     MOVE ZERO TO RPT-X.                                          PPORAUDT
052500     MOVE ZERO TO DEDN-AMT-SUM.                                   PPORAUDT
064600     PERFORM VARYING ORCA-X FROM 1 BY 1                           PPORAUDT
052800        UNTIL ORCA-X > ORCA-NO-DED-REF                            PPORAUDT
052810       IF ORCA-GTN-TYPE (ORCA-X) = 'C'                            PPORAUDT
052820          SET CONTRIBUTION-TAKEN TO TRUE                          PPORAUDT
052830       ELSE                                                       PPORAUDT
053200          PERFORM 5200-DEDN-PRINT-FORMAT                          PPORAUDT
053300             THRU 5299-DEDN-EXIT                                  PPORAUDT
053600          IF RPT-X > 2                                            PPORAUDT
053700            PERFORM 5300-DEDN-LINE                                PPORAUDT
053800            MOVE SPACES TO RPT1-DED-LINE                          PPORAUDT
053900            MOVE ZERO TO RPT-X                                    PPORAUDT
054000          END-IF                                                  PPORAUDT
054100       END-IF                                                     PPORAUDT
054200     END-PERFORM.                                                 PPORAUDT
054400     IF CONTRIBUTION-TAKEN                                        PPORAUDT
054500        PERFORM 5400-CONTRIBUTIONS                                PPORAUDT
054600     END-IF.                                                      PPORAUDT
066300     IF WS-RVSL-FUNC AND ORCA-PAY-WINDOW                          PPORAUDT
054760        PERFORM 5500-ADDS                                         PPORAUDT
054770           VARYING ORCA-X FROM 1 BY 1                             PPORAUDT
054780           UNTIL ORCA-X > ORCA-NO-ADDS                            PPORAUDT
054790     END-IF.                                                      PPORAUDT
054800     MOVE 'DEDUCTION SUM    ' TO RPT1-DED-DESC (3).               PPORAUDT
054900     MOVE DEDN-AMT-SUM TO RPT1-DED-AMT (3).                       PPORAUDT
055000     PERFORM 5300-DEDN-LINE.                                      PPORAUDT
055100                                                                  PPORAUDT
055110                                                                  PPORAUDT
055200 5100-DEDUCTIONS-WINDOW-HDR.                                      PPORAUDT
055300                                                                  PPORAUDT
055400     PERFORM 7000-AUDIT-RPT-HDG.                                  PPORAUDT
055500     PERFORM 8200-WRITE-TSQ                                       PPORAUDT
055600     SUBTRACT 1 FROM RPT-LINES-LEFT.                              PPORAUDT
055700                                                                  PPORAUDT
055710                                                                  PPORAUDT
055800 5200-DEDN-PRINT-FORMAT.                                          PPORAUDT
055900                                                                  PPORAUDT
055901     IF ORIGINAL-PAY-WINDOW                                       PPORAUDT
055902        MOVE ORCA-DED-AMT (ORCA-X) TO WK-GTN-AMT                  PPORAUDT
055903     ELSE                                                         PPORAUDT
055904     IF CORRECT-PAY-WINDOW                                        PPORAUDT
055905        MOVE ORCA-DED-AMT-CORR (ORCA-X) TO WK-GTN-AMT             PPORAUDT
055906     ELSE                                                         PPORAUDT
055907        COMPUTE WK-GTN-AMT = ORCA-DED-AMT (ORCA-X)                PPORAUDT
055908                             - ORCA-DED-AMT-CORR (ORCA-X)         PPORAUDT
055909     END-IF                                                       PPORAUDT
055910     END-IF.                                                      PPORAUDT
055920     IF WK-GTN-AMT = ZERO                                         PPORAUDT
055930        GO TO 5299-DEDN-EXIT                                      PPORAUDT
055940     END-IF.                                                      PPORAUDT
056000     ADD 1 TO RPT-X.                                              PPORAUDT
056100     MOVE ORCA-DED-QTR-CODE (ORCA-X) TO RPT1-DED-QTR (RPT-X).     PPORAUDT
056200     MOVE ORCA-DED-YR-CODE (ORCA-X) TO RPT1-DED-YR (RPT-X).       PPORAUDT
069800     MOVE WK-GTN-AMT TO RPT1-DED-AMT (RPT-X).                     PPORAUDT
056210     IF ORIGINAL-PAY-WINDOW                                       PPORAUDT
056300        MOVE ORCA-GTN-NUMBER (ORCA-X) TO RPT1-DED-ELEM (RPT-X)    PPORAUDT
056400        MOVE ORCA-GTN-DESC (ORCA-X) TO RPT1-DED-DESC (RPT-X)      PPORAUDT
056510     ELSE                                                         PPORAUDT
056522     IF ORCA-OVRD-DED (ORCA-X) = SPACES                           PPORAUDT
056523        MOVE ORCA-GTN-NUMBER (ORCA-X) TO RPT1-DED-ELEM (RPT-X)    PPORAUDT
056524        MOVE ORCA-GTN-DESC (ORCA-X) TO RPT1-DED-DESC (RPT-X)      PPORAUDT
056525     ELSE                                                         PPORAUDT
056530        MOVE ORCA-OVRD-DED (ORCA-X) TO RPT1-DED-ELEM (RPT-X)      PPORAUDT
056540        MOVE ORCA-OVRD-DESC (ORCA-X) TO RPT1-DED-DESC (RPT-X)     PPORAUDT
056550     END-IF                                                       PPORAUDT
056560     END-IF.                                                      PPORAUDT
056700     IF ORCA-SOURCE-CODE (ORCA-X) = SPACE                         PPORAUDT
056800       MOVE '_' TO RPT1-DED-SOURCE (RPT-X)                        PPORAUDT
056900     ELSE                                                         PPORAUDT
057000       MOVE ORCA-SOURCE-CODE (ORCA-X) TO RPT1-DED-SOURCE (RPT-X)  PPORAUDT
057100     END-IF.                                                      PPORAUDT
057300     IF ORCA-SPEC-TRANS (ORCA-X) = SPACE                          PPORAUDT
057400       MOVE '_' TO RPT1-SPC-TRNS (RPT-X)                          PPORAUDT
057500     ELSE                                                         PPORAUDT
057600       MOVE ORCA-SPEC-TRANS (ORCA-X) TO RPT1-SPC-TRNS (RPT-X)     PPORAUDT
057700     END-IF.                                                      PPORAUDT
057900     IF ORCA-GTN-TYPE (ORCA-X) = 'C'                              PPORAUDT
058000       MOVE 'C' TO RPT1-CONTR (RPT-X)                             PPORAUDT
058100     ELSE                                                         PPORAUDT
058200       MOVE '_' TO RPT1-CONTR (RPT-X)                             PPORAUDT
058300     END-IF.                                                      PPORAUDT
058410     IF ORCA-SOURCE-CODE (ORCA-X) = ' ' OR 'D' OR 'V' OR 'P'      PPORAUDT
058420        ADD WK-GTN-AMT TO DEDN-AMT-SUM                            PPORAUDT
058430     END-IF.                                                      PPORAUDT
058500                                                                  PPORAUDT
058600 5299-DEDN-EXIT.                                                  PPORAUDT
058701      EXIT.                                                       PPORAUDT
058710                                                                  PPORAUDT
058720 5300-DEDN-LINE.                                                  PPORAUDT
058730                                                                  PPORAUDT
058800     IF RPT-LINES-LEFT < 1                                        PPORAUDT
058900        PERFORM 5100-DEDUCTIONS-WINDOW-HDR                        PPORAUDT
059000     END-IF.                                                      PPORAUDT
059200     MOVE RPT1-DED-LINE TO WS-PRINT-AREA.                         PPORAUDT
059300     PERFORM 8200-WRITE-TSQ                                       PPORAUDT
059400     SUBTRACT 1 FROM RPT-LINES-LEFT.                              PPORAUDT
059500                                                                  PPORAUDT
059700 5400-CONTRIBUTIONS.                                              PPORAUDT
059800                                                                  PPORAUDT
074400     PERFORM VARYING ORCA-X FROM 1 BY 1                           PPORAUDT
060100        UNTIL ORCA-X > ORCA-NO-DED-REF                            PPORAUDT
060200       IF ORCA-GTN-TYPE (ORCA-X) = 'C'                            PPORAUDT
060300          PERFORM 5200-DEDN-PRINT-FORMAT                          PPORAUDT
060400             THRU 5299-DEDN-EXIT                                  PPORAUDT
060700          IF RPT-X > 2                                            PPORAUDT
060800            PERFORM 5300-DEDN-LINE                                PPORAUDT
060900            MOVE SPACES TO RPT1-DED-LINE                          PPORAUDT
061000            MOVE ZERO TO RPT-X                                    PPORAUDT
061100          END-IF                                                  PPORAUDT
061200       END-IF                                                     PPORAUDT
061300     END-PERFORM.                                                 PPORAUDT
061500                                                                  PPORAUDT
061510 5500-ADDS.                                                       PPORAUDT
061520                                                                  PPORAUDT
061560     ADD 1 TO RPT-X.                                              PPORAUDT
061570     MOVE ORCA-ADD-GTN (ORCA-X) TO RPT1-DED-ELEM (RPT-X).         PPORAUDT
061580     MOVE ORCA-ADD-DESC (ORCA-X) TO RPT1-DED-DESC (RPT-X).        PPORAUDT
061590     MOVE ORCA-ADD-AMT (ORCA-X) TO RPT1-DED-AMT (RPT-X).          PPORAUDT
061591     ADD  ORCA-ADD-AMT (ORCA-X) TO DEDN-AMT-SUM.                  PPORAUDT
061592     MOVE 'ADD' TO  RPT1-DED-CMNTS (RPT-X).                       PPORAUDT
061594     IF RPT-X > 2                                                 PPORAUDT
061595        PERFORM 5300-DEDN-LINE                                    PPORAUDT
061596        MOVE SPACES TO RPT1-DED-LINE                              PPORAUDT
061597        MOVE ZERO TO RPT-X                                        PPORAUDT
061598     END-IF.                                                      PPORAUDT
061599                                                                  PPORAUDT
061600                                                                  PPORAUDT
061610 6000-EARNINGS-DISTR-WINDOW.                                      PPORAUDT
061700                                                                  PPORAUDT
061800     IF RPT-LINES-LEFT < 3                                        PPORAUDT
061900        PERFORM 7000-AUDIT-RPT-HDG                                PPORAUDT
062000     END-IF.                                                      PPORAUDT
062200     PERFORM 8200-WRITE-TSQ                                       PPORAUDT
062300     MOVE RPT1-ACCT-TITLE TO WS-PRINT-AREA.                       PPORAUDT
062400     PERFORM 8200-WRITE-TSQ                                       PPORAUDT
062500     SUBTRACT 2 FROM RPT-LINES-LEFT.                              PPORAUDT
062600                                                                  PPORAUDT
078200     PERFORM VARYING ORCA-X FROM 1 BY 1                           PPORAUDT
078300       UNTIL ORCA-X > ORCA-NO-ACCTS                               PPORAUDT
078400      IF ORCA-LV-ASSESSMNT-IND (ORCA-X) = 'X'                     PPORAUDT
078500       IF ORIGINAL-PAY-WINDOW                                     PPORAUDT
078600          PERFORM 6500-EARNINGS-DISTR-LINE                        PPORAUDT
078700       ELSE                                                       PPORAUDT
078800        IF CORRECT-PAY-WINDOW                                     PPORAUDT
078900          MOVE ' UNABLE TO PROCESS LEAVE DOS CODE EARNINGS ABOVE' PPORAUDT
079000            TO WS-PRINT-AREA                                      PPORAUDT
079100          PERFORM 8200-WRITE-TSQ                                  PPORAUDT
079200        END-IF                                                    PPORAUDT
079300       END-IF                                                     PPORAUDT
079400      ELSE                                                        PPORAUDT
079500         PERFORM 6500-EARNINGS-DISTR-LINE                         PPORAUDT
079600      END-IF                                                      PPORAUDT
079700     END-PERFORM.                                                 PPORAUDT
063100                                                                  PPORAUDT
063200 6500-EARNINGS-DISTR-LINE.                                        PPORAUDT
063300                                                                  PPORAUDT
082210*****                                                          CD 74611376
082900     MOVE ORCA-FAU (ORCA-X) TO XFAU-FAU-UNFORMATTED.              32021138
083000*    MOVE XFAU-FAU-INDEX OF XFAU-FAU-UNFORMATTED                  UCSD0102
083001*                              TO RPT1-IFIS-INDEX.                UCSD0102
083002*    MOVE XFAU-FAU-FUND OF XFAU-FAU-UNFORMATTED                   UCSD0102
083003*                              TO RPT1-ACCT-FUND.                 UCSD0102
083004*    MOVE XFAU-FAU-ACCOUNT-SUB OF XFAU-FAU-UNFORMATTED            UCSD0102
083005*                              TO RPT1-ACCT-SUB.                  UCSD0102
083010     MOVE CORR XFAU-FAU-UNFORMATTED TO XFAU-FAU-HYPHEN-FORMAT.    32021138
083100     MOVE XFAU-FAU-HYPHEN-FORMAT TO RPT1-FAU.                     32021138
063800     MOVE ORCA-INTRANS-CD (ORCA-X) TO RPT1-TRANS-CODE.            PPORAUDT
063900     MOVE ORCA-EARN-EMP-REL-CODE (ORCA-X) TO RPT1-ERC.            PPORAUDT
064000     MOVE ORCA-TITLE-UNIT-CODE (ORCA-X) TO RPT1-TUC.              PPORAUDT
064100     MOVE ORCA-EARN-DIST-UNIT-CODE (ORCA-X) TO RPT1-DUC.          PPORAUDT
064200     MOVE ORCA-EARN-SPCL-HNDLG-CODE (ORCA-X) TO RPT1-SHC.         PPORAUDT
064400     IF ORCA-EARN-COVERAGE-IND (ORCA-X) = 'S'                     PPORAUDT
064500       MOVE 'U' TO RPT1-COV                                       PPORAUDT
064600     ELSE                                                         PPORAUDT
064700       MOVE ORCA-EARN-COVERAGE-IND (ORCA-X) TO RPT1-COV           PPORAUDT
064800     END-IF.                                                      PPORAUDT
065000     MOVE '-' TO RPT1-CYCL-DASH                                   PPORAUDT
065100                 RPT1-RET-DASH                                    PPORAUDT
065200                 RPT1-WKST-DASH                                   PPORAUDT
065300                 RPT1-LVACC-DASH.                                 PPORAUDT
065400     MOVE ORCA-APPT-TYPE (ORCA-X) TO RPT1-APPT-TYPE.              PPORAUDT
065500     MOVE ORCA-TTL-CD (ORCA-X) TO RPT1-TITLE-CD.                  PPORAUDT
084710     MOVE ORCA-SUB-LOCATION (ORCA-X) TO RPT1-SUB-LOCATION.        74611376
065600     MOVE ORCA-RETR-ELIG (ORCA-X) TO RPT1-RETR-ELIG.              PPORAUDT
065700     MOVE ORCA-DOS (ORCA-X) TO RPT1-EARN-TYPE.                    PPORAUDT
065900     IF ORIGINAL-PAY-WINDOW                                       PPORAUDT
066000        MOVE ORCA-EARN-AMT (ORCA-X) TO RPT1-EARN-AMT              PPORAUDT
066010        MOVE ORCA-TIME-HRS (ORCA-X) TO WK-HRS                     PPORAUDT
066020        MOVE ORCA-EARN-PCT (ORCA-X) TO WK-PCT                     PPORAUDT
066100     ELSE                                                         PPORAUDT
066200     IF CORRECT-PAY-WINDOW                                        PPORAUDT
066300        MOVE ORCA-EARN-AMT-CORR (ORCA-X) TO RPT1-EARN-AMT         PPORAUDT
066301        MOVE ORCA-TIME-HRS-CORR (ORCA-X) TO WK-HRS                PPORAUDT
066302        MOVE ORCA-EARN-PCT-CORR (ORCA-X) TO WK-PCT                PPORAUDT
066310     ELSE                                                         PPORAUDT
066320        COMPUTE WK-AMT = ORCA-EARN-AMT (ORCA-X)                   PPORAUDT
066330                           - ORCA-EARN-AMT-CORR (ORCA-X)          PPORAUDT
066340        MOVE WK-AMT TO RPT1-EARN-AMT                              PPORAUDT
066341        COMPUTE WK-HRS = ORCA-TIME-HRS (ORCA-X)                   PPORAUDT
066342                         - ORCA-TIME-HRS-CORR (ORCA-X)            PPORAUDT
066343        COMPUTE WK-PCT = ORCA-EARN-PCT (ORCA-X)                   PPORAUDT
066344                         - ORCA-EARN-PCT-CORR (ORCA-X)            PPORAUDT
086610        IF ORCA-INTRANS-CD (ORCA-X) = 'RX'                        UCSD0102
086620          AND ORCA-TIME-HRS-CORR (ORCA-X) > 0                     UCSD0102
086630           COMPUTE WK-HRS = ORCA-TIME-HRS (ORCA-X)                UCSD0102
086640                            - (ORCA-TIME-HRS-CORR (ORCA-X) * -1)  UCSD0102
086650        END-IF                                                    UCSD0102
086651        IF ORCA-INTRANS-CD (ORCA-X) = 'RX'                        UCSD0102
086652          AND ORCA-EARN-PCT-CORR (ORCA-X) > 0                     UCSD0102
086653           COMPUTE WK-PCT = ORCA-EARN-PCT (ORCA-X)                UCSD0102
086654                            - (ORCA-EARN-PCT-CORR (ORCA-X) * -1)  UCSD0102
086655        END-IF                                                    UCSD0102
066350     END-IF                                                       PPORAUDT
066360     END-IF.                                                      PPORAUDT
066380     IF WK-HRS = ZERO                                             PPORAUDT
066390        MOVE 'N/A' TO RPT1-TIMEX                                  PPORAUDT
066391     ELSE                                                         PPORAUDT
066392        MOVE WK-HRS TO RPT1-TIME                                  PPORAUDT
066393     END-IF.                                                      PPORAUDT
066395     IF WK-PCT = ZERO                                             PPORAUDT
066396        MOVE SPACES TO RPT1-TIME-PCT-X                            PPORAUDT
066397     ELSE                                                         PPORAUDT
066398        MOVE WK-PCT TO RPT1-TIME-PCT                              PPORAUDT
066399     END-IF.                                                      PPORAUDT
066410     IF ORIGINAL-PAY-WINDOW                                       PPORAUDT
066500        IF ORCA-RATE-TYPE (ORCA-X) = '4'                          PPORAUDT
066600           MOVE ORCA-PAYRATE-HR (ORCA-X) TO WK-PAYRATE-HR         PPORAUDT
066700           MOVE 'H' TO WK-HR-TYPE                                 PPORAUDT
066800           MOVE WK-HR-PAYRATE TO RPT1-PAYRATE                     PPORAUDT
066900        ELSE                                                      PPORAUDT
067000        IF ORCA-RATE-TYPE (ORCA-X) = '2'                          PPORAUDT
067100           MOVE ORCA-PAYRATE-SAL (ORCA-X) TO WK-PAYRATE-SAL       PPORAUDT
067200           MOVE '%' TO WK-SAL-TYPE                                PPORAUDT
067300           MOVE WK-SALARY-PAYRATE TO RPT1-PAYRATE                 PPORAUDT
067400        END-IF                                                    PPORAUDT
067500        END-IF                                                    PPORAUDT
067510     ELSE                                                         PPORAUDT
067520        IF ORCA-RATE-TYPE-CORR (ORCA-X) = 'H'                     PPORAUDT
067530           MOVE ORCA-PAYRATE-HR-CORR (ORCA-X) TO WK-PAYRATE-HR    PPORAUDT
067540           MOVE 'H' TO WK-HR-TYPE                                 PPORAUDT
067550           MOVE WK-HR-PAYRATE TO RPT1-PAYRATE                     PPORAUDT
067560        ELSE                                                      PPORAUDT
067570        IF ORCA-RATE-TYPE-CORR (ORCA-X) = '%'                     PPORAUDT
067580           MOVE ORCA-PAYRATE-SAL-CORR (ORCA-X) TO WK-PAYRATE-SAL  PPORAUDT
067590           MOVE '%' TO WK-SAL-TYPE                                PPORAUDT
067591           MOVE WK-SALARY-PAYRATE TO RPT1-PAYRATE                 PPORAUDT
067592        END-IF                                                    PPORAUDT
067593        END-IF                                                    PPORAUDT
067594     END-IF.                                                      PPORAUDT
069400     MOVE ORCA-PER-END-YR (ORCA-X) TO RPT1-DIST-YR.               PPORAUDT
069500     MOVE ORCA-PER-END-MO (ORCA-X) TO RPT1-DIST-MO.               PPORAUDT
069600     MOVE ORCA-PER-END-DA (ORCA-X) TO RPT1-DIST-DA.               PPORAUDT
069700     MOVE '-' TO RPT1-CYCL-DASH.                                  PPORAUDT
069800     MOVE ORCA-PAYCY-CODE (ORCA-X) TO RPT1-CYCL-CODE.             PPORAUDT
069900     MOVE ORCA-RATE-ADJ-IND (ORCA-X) TO RPT1-RETRO.               PPORAUDT
070000     MOVE ORCA-WK-STDY-CD (ORCA-X) TO RPT1-WKSTUDY.               PPORAUDT
070100     MOVE ORCA-LV-AC-CODE (ORCA-X) TO RPT1-LVACC-CD.              PPORAUDT
070300     IF RPT-LINES-LEFT < 1                                        PPORAUDT
070400       PERFORM 7000-AUDIT-RPT-HDG                                 PPORAUDT
070500       PERFORM 8200-WRITE-TSQ                                     PPORAUDT
070600       MOVE RPT1-ACCT-TITLE TO WS-PRINT-AREA                      PPORAUDT
070700       PERFORM 8200-WRITE-TSQ                                     PPORAUDT
070800       SUBTRACT 2 FROM RPT-LINES-LEFT                             PPORAUDT
070900     END-IF.                                                      PPORAUDT
071100     MOVE RPT1-ACCT-LINE TO WS-PRINT-AREA.                        PPORAUDT
071200     PERFORM 8200-WRITE-TSQ                                       PPORAUDT
071300     SUBTRACT 1 FROM RPT-LINES-LEFT.                              PPORAUDT
071400                                                                  PPORAUDT
071600 7000-AUDIT-RPT-HDG.                                              PPORAUDT
071700                                                                  PPORAUDT
071800     ADD 1 TO RPT-PAGE-CNT.                                       PPORAUDT
071900     MOVE RPT-PAGE-CNT TO STND-PAGE-NO.                           PPORAUDT
072000     MOVE STND-RPT-HD1 TO WS-PRINT-AREA.                          PPORAUDT
072100     MOVE '1'      TO WS-PRINT-AREA(1:1)                          PPORAUDT
072200     PERFORM 8200-WRITE-TSQ                                       PPORAUDT
072300     MOVE STND-RPT-HD2 TO WS-PRINT-AREA.                          PPORAUDT
072400     PERFORM 8200-WRITE-TSQ                                       PPORAUDT
072500     MOVE STND-RPT-HD3 TO WS-PRINT-AREA.                          PPORAUDT
072600     PERFORM 8200-WRITE-TSQ                                       PPORAUDT
072700     MOVE 54 TO RPT-LINES-LEFT.                                   PPORAUDT
072900     PERFORM 8200-WRITE-TSQ                                       PPORAUDT
073000     MOVE RPT1-ID1 TO WS-PRINT-AREA                               PPORAUDT
073100     PERFORM 8200-WRITE-TSQ                                       PPORAUDT
073200     MOVE RPT1-ID2 TO WS-PRINT-AREA.                              PPORAUDT
073300     PERFORM 8200-WRITE-TSQ                                       PPORAUDT
073400     SUBTRACT 3 FROM RPT-LINES-LEFT.                              PPORAUDT
073410                                                                  PPORAUDT
073420                                                                  PPORAUDT
073430 7100-COVER-PAGE.                                                 PPORAUDT
073440                                                                  PPORAUDT
073450     MOVE SPACES TO WS-PRINT-AREA.                                PPORAUDT
073451     MOVE '1' TO WS-PRINT-AREA (1:1).                             PPORAUDT
073460     PERFORM 8200-WRITE-TSQ 10 TIMES.                             PPORAUDT
073470     MOVE ALL '*' TO WS-PRINT-AREA (10:113).                      PPORAUDT
073480     PERFORM 8200-WRITE-TSQ.                                      PPORAUDT
073490     PERFORM 5 TIMES                                              PPORAUDT
073491       MOVE '*' TO WS-PRINT-AREA (10:1)                           PPORAUDT
073492       MOVE '*' TO WS-PRINT-AREA (122:1)                          PPORAUDT
073493       PERFORM 8200-WRITE-TSQ                                     PPORAUDT
073494     END-PERFORM.                                                 PPORAUDT
073495     MOVE RPT1-CVR1-LINE TO WS-PRINT-AREA.                        PPORAUDT
073496     PERFORM 8200-WRITE-TSQ.                                      PPORAUDT
073497     MOVE RPT1-CVR2-LINE TO WS-PRINT-AREA.                        PPORAUDT
073498     PERFORM 8200-WRITE-TSQ.                                      PPORAUDT
073499     PERFORM 5 TIMES                                              PPORAUDT
073500       MOVE '*' TO WS-PRINT-AREA (10:1)                           PPORAUDT
073501       MOVE '*' TO WS-PRINT-AREA (122:1)                          PPORAUDT
073502       PERFORM 8200-WRITE-TSQ                                     PPORAUDT
073503     END-PERFORM.                                                 PPORAUDT
073504     MOVE ALL '*' TO WS-PRINT-AREA (10:113).                      PPORAUDT
073505     PERFORM 8200-WRITE-TSQ.                                      PPORAUDT
073510                                                                  PPORAUDT
073600                                                                  PPORAUDT
073601 8000-CALL-PRINTER.                                               PPORAUDT
073602                                                                  PPORAUDT
073603     INITIALIZE PRNT-COMMAREA.                                    PPORAUDT
073605     MOVE PGM-ID TO CA-PRNT-RETURN-PROGRAM                        PPORAUDT
073606                    CA-PRNT-LAST-PROGRAM.                         PPORAUDT
094800     MOVE UCCOMMON-USERID TO CA-PRNT-USER-ID.                     PPORAUDT
073609     MOVE WS-ORCA-QUE TO CA-PRNT-SOURCE.                          PPORAUDT
073610     MOVE 'Y' TO CA-PRNT-REQUEST-IND.                             PPORAUDT
073611     MOVE 'T' TO CA-PRNT-TYPE.                                    PPORAUDT
095200     CALL WS-PRNTMGR USING DFHEIBLK PRNT-COMMAREA.                PPORAUDT
095300     IF CA-PRNT-RETURN-CODE NOT = ZERO                            PPORAUDT
095400        ADD 1 TO SPEC-MSSG-PTR                                    PPORAUDT
095500        MOVE MP0595 TO SPEC-MSSG-NO (SPEC-MSSG-PTR)               PPORAUDT
095600        MOVE 1 TO SPEC-MSSG-PAGE (SPEC-MSSG-PTR)                  PPORAUDT
095700     END-IF.                                                      PPORAUDT
073612                                                                  PPORAUDT
073700 8100-READ-TSQ.                                                   PPORAUDT
073800                                                                  PPORAUDT
073900     MOVE +1 TO WS-ORCA-ITEM.                                     PPORAUDT
074100     EXEC CICS                                                    PPORAUDT
074200            READQ TS                                              PPORAUDT
074300            QUEUE (WS-ORCA-QUE)                                   PPORAUDT
074400            INTO  (WS-PRINT-AREA)                                 PPORAUDT
074500            ITEM  (WS-ORCA-ITEM)                                  PPORAUDT
074600            LENGTH (WS-ORCA-LENGTH)                               PPORAUDT
074700            NOHANDLE                                              PPORAUDT
074800            RESP(WS-RESP)                                         PPORAUDT
074900     END-EXEC.                                                    PPORAUDT
075100     IF WS-RESP = DFHRESP(QIDERR)                                 PPORAUDT
075200        MOVE SPACES TO WS-PRINT-AREA                              PPORAUDT
075300     ELSE                                                         PPORAUDT
075400       IF WS-RESP = DFHRESP(NORMAL)                               PPORAUDT
000100****      ADD 1 TO SPEC-MSSG-PTR                                  EFIX1235
000200****      MOVE MP0521 TO SPEC-MSSG-NO (SPEC-MSSG-PTR)             EFIX1235
000300****      MOVE 1 TO SPEC-MSSG-PAGE (SPEC-MSSG-PTR)                EFIX1235
000400****      GO TO 0100-END                                          EFIX1235
000500          ADD +1 TO WS-ORCA-TIMESTAMP                             EFIX1235
075900       ELSE                                                       PPORAUDT
076000          GO TO 9999-ABEND                                        PPORAUDT
076100       END-IF                                                     PPORAUDT
076200     END-IF.                                                      PPORAUDT
076300                                                                  PPORAUDT
076400 8200-WRITE-TSQ.                                                  PPORAUDT
076500                                                                  PPORAUDT
076600     EXEC CICS                                                    PPORAUDT
076700            WRITEQ TS                                             PPORAUDT
076800            FROM  (WS-PRINT-AREA)                                 PPORAUDT
076900            QUEUE (WS-ORCA-QUE)                                   PPORAUDT
077000            ITEM  (WS-ORCA-ITEM)                                  PPORAUDT
077100            NOHANDLE                                              PPORAUDT
077200            RESP(WS-RESP)                                         PPORAUDT
077300     END-EXEC.                                                    PPORAUDT
077500     IF WS-RESP = DFHRESP(NORMAL)                                 PPORAUDT
077600        MOVE SPACES TO WS-PRINT-AREA                              PPORAUDT
077700        ADD +1 TO WS-ORCA-ITEM                                    PPORAUDT
077800     ELSE                                                         PPORAUDT
077900        GO TO 9999-ABEND                                          PPORAUDT
078000     END-IF.                                                      PPORAUDT
078100                                                                  PPORAUDT
102700 8950-FORMAT-FAU.                                                 32021138
102800**************************************************************    32021138
102900*  COPIED PROCEDURE DIVISION CODE FOR FAU FORMATTING.        *    32021138
103000**************************************************************    32021138
103100     COPY CPPDFFAU.                                               32021138
103200     EJECT                                                        32021138
100100 9000-SELECT-PRM.                                                 PPORAUDT
078300                                                                  PPORAUDT
100300     MOVE '9000-SELECT-PRM' TO DB2MSG-TAG.                        PPORAUDT
100400     EXEC SQL                                                     PPORAUDT
100500         SELECT  PRM_NUMBER,                                      PPORAUDT
100600                 PRM_DATA                                         PPORAUDT
100700           INTO :PRM-NUMBER,                                      PPORAUDT
100800                :PRM-DATA                                         PPORAUDT
100900           FROM  PPPVZPRM_PRM                                     PPORAUDT
101000          WHERE  PRM_NUMBER = :WS-PRM-NO                          PPORAUDT
101100     END-EXEC.                                                    PPORAUDT
101200     IF SQLCODE NOT = ZERO                                        PPORAUDT
101300        MOVE ZERO TO PRM-DATA                                     PPORAUDT
101400     END-IF.                                                      PPORAUDT
101600 9999-ABEND.                                                      PPORAUDT
101700**************************************************************    PPORAUDT
101800*  COPIED PROCEDURE DIVISION CODE FOR ABEND HANDLING         *    PPORAUDT
101900**************************************************************    PPORAUDT
102000     MOVE 'PPORAUDT' TO UCWSABND-ABENDING-PGM.                    PPORAUDT
102100     COPY UCPDABND.                                               PPORAUDT
102200                                                                  PPORAUDT
102300*999999-SQL-ERROR.                                                PPORAUDT
102400**************************************************************    PPORAUDT
102500*  COPIED PROCEDURE DIVISION CODE FOR SQL ERROR HANDLING     *    PPORAUDT
102600**************************************************************    PPORAUDT
102700      EXEC SQL                                                    PPORAUDT
102800           INCLUDE CPPDXP99                                       PPORAUDT
102900      END-EXEC.                                                   PPORAUDT
103000      MOVE 'SQL ERROR - SEE PRECEDING DB2 MESSAGES'               PPORAUDT
103100                                      TO UCWSABND-ABEND-DATA (1). PPORAUDT
103200      PERFORM 9999-ABEND.                                         PPORAUDT
