000197**************************************************************/   48071211
000200*  PROGRAM: PPTRNGTO                                         */   48071211
000300*  RELEASE: ___1211______ SERVICE REQUEST(S): ____14807____  */   48071211
000400*  NAME:__PHIL THOMPSON__ CREATION DATE:      ___10/13/98__  */   48071211
000500*  DESCRIPTION:                                              */   48071211
000600*  - PERFORM CONSISTENCY EDITS ON THE DB2 GROSS-TO-NET TABLE.*/   48071211
000700*    FOR PRETAX PARKING AND TRANSIT.                         */   48071211
001200**************************************************************/   48071211
001300 IDENTIFICATION DIVISION.                                         PPTRNGTO
001400 PROGRAM-ID. PPTRNGTO.                                            PPTRNGTO
001500 AUTHOR. UCOP                                                     PPTRNGTO
001600                                                                  PPTRNGTO
001700*REMARKS.                                                         PPTRNGTO
001800                                                                  PPTRNGTO
001810***********************************************************       PPTRNGTO
001822*                                                         *       PPTRNGTO
001823*   PPTRNGTO IS A SUBROUTINE CALLED TO PERFORM CONSISTENCY*       PPTRNGTO
001830*   EDITS ON THE PRETAX PARKING AND TRANSIT GTN'S ON THE  *       PPTRNGTO
001840*   GROSS-TO-NET TABLE.                                   *       PPTRNGTO
001850*                                                         *       PPTRNGTO
001920***********************************************************       PPTRNGTO
002000*        E N V I R O N M E N T     D I V I S I O N        *       PPTRNGTO
002100***********************************************************       PPTRNGTO
002200                                                                  PPTRNGTO
002300 ENVIRONMENT DIVISION.                                            PPTRNGTO
002400 CONFIGURATION SECTION.                                           PPTRNGTO
002500                                                                  PPTRNGTO
002900 INPUT-OUTPUT SECTION.                                            PPTRNGTO
003000 FILE-CONTROL.                                                    PPTRNGTO
003100                                                                  PPTRNGTO
006500 DATA DIVISION.                                                   PPTRNGTO
006600 FILE SECTION.                                                    PPTRNGTO
006700                                                                  PPTRNGTO
016800     EJECT                                                        PPTRNGTO
016900 WORKING-STORAGE SECTION.                                         PPTRNGTO
017000***********************************************************       PPTRNGTO
017100*    WORKING STORAGE                                      *       PPTRNGTO
017200***********************************************************       PPTRNGTO
020400 01  WS-WORK-MISC.                                                PPTRNGTO
020510     05  STND-PROG-ID             PIC X(08)  VALUE 'PPTRNGTO'.    PPTRNGTO
020611     05  WS-CALC-ROUTINE-16       PIC X(02)  VALUE '16'.          PPTRNGTO
020620     05  WS-CALC-ROUTINE-17       PIC X(02)  VALUE '17'.          PPTRNGTO
020621     05  WS-PRM-NUMBER            PIC S9(04) USAGE COMP.          PPTRNGTO
020623     05  WS-COUNT                 PIC S9(08) COMP VALUE 0.        PPTRNGTO
020630     05  LIM-SUB                  PIC S9(04).                     PPTRNGTO
020631     05  GTN-SUB                  PIC S9(04).                     PPTRNGTO
020640     05  WS-GTN-NUMBER            PIC 9(03).                      PPTRNGTO
020641     05  WS-GTN-NUMBER-X REDEFINES                                PPTRNGTO
020642         WS-GTN-NUMBER            PIC X(03).                      PPTRNGTO
020643     05  WS-GTN-SEQUENCE          PIC 9(04).                      PPTRNGTO
020644     05  WS-GTN-LIMIT             PIC S9(05)V9(04) VALUE ZERO.    PPTRNGTO
020650     05  WS-FWT-REMAIN            PIC S9(05)V9(04) VALUE ZERO.    PPTRNGTO
020660     05  WS-SWT-REMAIN            PIC S9(05)V9(04) VALUE ZERO.    PPTRNGTO
020670     05  WS-FICA-REMAIN           PIC S9(05)V9(04) VALUE ZERO.    PPTRNGTO
020800     05  WS-SAVE-GTN-PRIORITY     PIC X(04) VALUE ZEROS.          PPTRNGTO
020900     05  WS-SAVE-SP-CALC-NO       PIC X(02) VALUE ZEROS.          PPTRNGTO
021000     05  WS-INIT-LINK-FLAG        PIC X(01) VALUE 'Y'.            PPTRNGTO
021800 01  WS-ACCUMULATORS             COMP-3.                          PPTRNGTO
021810     05  WS-NUMBER-EDITED         PIC S9(09)V9(09) VALUE ZERO.    PPTRNGTO
023712 01  WS-MESSAGES.                                                 PPTRNGTO
023715     05  M40041                   PIC X(05)  VALUE '40041'.       PPTRNGTO
023716     05  M40042                   PIC X(05)  VALUE '40042'.       PPTRNGTO
023717     05  M40043                   PIC X(05)  VALUE '40043'.       PPTRNGTO
023718     05  M40044                   PIC X(05)  VALUE '40044'.       PPTRNGTO
023719     05  M40045                   PIC X(05)  VALUE '40045'.       PPTRNGTO
023720     05  M40046                   PIC X(05)  VALUE '40046'.       PPTRNGTO
023730     05  M40047                   PIC X(05)  VALUE '40047'.       PPTRNGTO
023740     05  M40048                   PIC X(05)  VALUE '40048'.       PPTRNGTO
023750     05  M40049                   PIC X(05)  VALUE '40049'.       PPTRNGTO
023780     05  M40054                   PIC X(05)  VALUE '40054'.       PPTRNGTO
023790     05  M40055                   PIC X(05)  VALUE '40055'.       PPTRNGTO
023800     05  M40056                   PIC X(05)  VALUE '40056'.       PPTRNGTO
023900     05  M40057                   PIC X(05)  VALUE '40057'.       PPTRNGTO
023910     05  M40058                   PIC X(05)  VALUE '40058'.       PPTRNGTO
023920     05  M40059                   PIC X(05)  VALUE '40059'.       PPTRNGTO
024000***********************************************************       PPTRNGTO
024100*    SWITCHES                                             *       PPTRNGTO
024200***********************************************************       PPTRNGTO
024300 01  WS-SWITCHES.                                                 PPTRNGTO
024600     05  HERE-BEFORE-SW          PIC X(01)  VALUE SPACE.          PPTRNGTO
024700         88 HERE-BEFORE                     VALUE 'Y'.            PPTRNGTO
024800     05  FIRST-TIME-SW           PIC X(01)  VALUE 'Y'.            PPTRNGTO
024900         88  FIRST-TIME                     VALUE 'Y'.            PPTRNGTO
025000         88  NOT-FIRST-TIME                 VALUE 'N'.            PPTRNGTO
025010     05  EOF-GTN-CURSOR-SW       PIC X(01)  VALUE 'Y'.            PPTRNGTO
025020         88  EOF-GTN-CURSOR                 VALUE 'Y'.            PPTRNGTO
025030         88  NOT-EOF-GTN-CURSOR             VALUE 'N'.            PPTRNGTO
025040     05  LAST-GTN-SW             PIC X(01)  VALUE 'N'.            PPTRNGTO
025050         88  LAST-GTN                       VALUE 'Y'.            PPTRNGTO
025060         88  NOT-LAST-GTN                   VALUE 'N'.            PPTRNGTO
025061     05  EOF-LINK-GROUP-SW       PIC X(01)  VALUE 'N'.            PPTRNGTO
025062         88  EOF-LINK-GROUP                 VALUE 'Y'.            PPTRNGTO
025063         88  NOT-EOF-LINK-GROUP             VALUE 'N'.            PPTRNGTO
026200     EJECT                                                        PPTRNGTO
026210***********************************************************       PPTRNGTO
026220*    EXTERNAL USED TO HOLD PPTRNGTO DATA.                 *       PPTRNGTO
026230***********************************************************       PPTRNGTO
026240 01  TRANSIT-GTN-DATA            EXTERNAL.  COPY CPWSTGTN.        PPTRNGTO
026250     EJECT                                                        PPTRNGTO
026260 01  CPWSXIC2.                              COPY CPWSXIC2.        PPTRNGTO
026270     EJECT                                                        PPTRNGTO
026280 01  CPWSSEVX                    EXTERNAL.  COPY CPWSSEVX.        PPTRNGTO
026290     EJECT                                                        PPTRNGTO
026291 01  ONLINE-SIGNALS              EXTERNAL.  COPY CPWSONLI.        PPTRNGTO
026292     EJECT                                                        PPTRNGTO
043920***********************************************************       PPTRNGTO
044000*        S T A N D A R D    C O P Y   M E M B E R S       *       PPTRNGTO
044100***********************************************************       PPTRNGTO
044300 01  MESSAGE-TABLE-INTERFACE.               COPY CPWSXMTI.        PPTRNGTO
044400     EJECT                                                        PPTRNGTO
046200 01  PPDB2MSG-INTERFACE.                    COPY CPLNKDB2.        PPTRNGTO
048000     EJECT                                                        PPTRNGTO
048030 01  CALLED-ROUTINES.                       COPY CPWSXRTN.        PPTRNGTO
048040     EJECT                                                        PPTRNGTO
048100***********************************************************       PPTRNGTO
048200*    SQL WORKING STORAGE                                  *       PPTRNGTO
048300***********************************************************       PPTRNGTO
050900 01  GTN-ROW-DATA.                                                PPTRNGTO
051000     EXEC SQL                                                     PPTRNGTO
051100          INCLUDE PPPVZGTN                                        PPTRNGTO
051200     END-EXEC.                                                    PPTRNGTO
051600                                                                  PPTRNGTO
051700 01  PRM-ROW.                                                     PPTRNGTO
051800     EXEC SQL                                                     PPTRNGTO
051900          INCLUDE PPPVZPRM                                        PPTRNGTO
052000     END-EXEC.                                                    PPTRNGTO
052100                                                                  PPTRNGTO
052200 01  MSG-ROW.                                                     PPTRNGTO
052300     EXEC SQL                                                     PPTRNGTO
052400          INCLUDE PPPVZMSG                                        PPTRNGTO
052500     END-EXEC.                                                    PPTRNGTO
052800                                                                  PPTRNGTO
052900     EXEC SQL                                                     PPTRNGTO
053000          INCLUDE SQLCA                                           PPTRNGTO
053100     END-EXEC.                                                    PPTRNGTO
053200                                                                  PPTRNGTO
053500***********************************************************       PPTRNGTO
053600*          SQL - CURSORS                                  *       PPTRNGTO
053700***********************************************************       PPTRNGTO
054100     EXEC SQL                                                     PPTRNGTO
054200       DECLARE GTN_CURSOR CURSOR FOR                              PPTRNGTO
054300         SELECT                                                   PPTRNGTO
054310            GTN_PRIORITY                                          PPTRNGTO
054320           ,GTN_NUMBER                                            PPTRNGTO
054321           ,GTN_DESCRIPTION                                       PPTRNGTO
054330           ,GTN_TYPE                                              PPTRNGTO
054340           ,GTN_USAGE                                             PPTRNGTO
054350           ,GTN_SP_CALC_NO                                        PPTRNGTO
054351           ,GTN_SP_UPDATE_NO                                      PPTRNGTO
054360           ,GTN_VALUE_RNG_EDIT                                    PPTRNGTO
054361           ,GTN_VALUE1                                            PPTRNGTO
054362           ,GTN_VALUE2                                            PPTRNGTO
054370           ,GTN_REDUCTION_FWT                                     PPTRNGTO
054390           ,GTN_REDUCTION_SWT                                     PPTRNGTO
054392           ,GTN_REDUCTION_FICA                                    PPTRNGTO
054394           ,GTN_CON_EDIT_RTN                                      PPTRNGTO
054396           ,GTN_LINK_GTN_NUM                                      PPTRNGTO
054398           ,GTN_INIT_LINK_FLAG                                    PPTRNGTO
054500         FROM  PPPVZGTN_GTN                                       PPTRNGTO
054762         WHERE GTN_INIT_LINK_FLAG = :WS-INIT-LINK-FLAG            PPTRNGTO
054764         ORDER BY GTN_NUMBER                                      PPTRNGTO
054765                 ,GTN_PRIORITY                                    PPTRNGTO
054770     END-EXEC.                                                    PPTRNGTO
054850     EJECT                                                        PPTRNGTO
054900                                                                  PPTRNGTO
055000 PROCEDURE DIVISION.                                              PPTRNGTO
055100     EXEC SQL                                                     PPTRNGTO
055200          INCLUDE CPPDXE99                                        PPTRNGTO
055300     END-EXEC.                                                    PPTRNGTO
055400                                                                  PPTRNGTO
055410 0000-MAINLINE.                                                   PPTRNGTO
055500***********************************************************       PPTRNGTO
055600*                    M A I N L I N E                      *       PPTRNGTO
055700***********************************************************       PPTRNGTO
056100     PERFORM 0100-INITIALIZATION.                                 PPTRNGTO
056200                                                                  PPTRNGTO
056300     IF NOT TGTN-FATAL-ERROR                                      PPTRNGTO
056500        PERFORM 1000-OBTAIN-LIMITS                                PPTRNGTO
056510        PERFORM 2000-GENERIC-STRUCTURE                            PPTRNGTO
056600        PERFORM 3000-GTN-CURSOR                                   PPTRNGTO
056800     END-IF.                                                      PPTRNGTO
057300                                                                  PPTRNGTO
057301 0099-GOBACK.                                                     PPTRNGTO
057310     GOBACK.                                                      PPTRNGTO
057600     EJECT                                                        PPTRNGTO
057700                                                                  PPTRNGTO
058100 0100-INITIALIZATION       SECTION.                               PPTRNGTO
058110***********************************************************       PPTRNGTO
058120*                   I N I T I A L I Z E                   *       PPTRNGTO
058130***********************************************************       PPTRNGTO
058200                                                                  PPTRNGTO
058500     MOVE STND-PROG-ID TO DB2MSG-PGM-ID.                          PPTRNGTO
058902     MOVE ZERO TO TGTN-ERROR-CODE                                 PPTRNGTO
058903                  TGTN-MAX-LOADED.                                PPTRNGTO
058910                                                                  PPTRNGTO
059000 1000-OBTAIN-LIMITS        SECTION.                               PPTRNGTO
059100***********************************************************       PPTRNGTO
059200*    OBTAIN LIMITS PASSED FROM SYSTEM PARAMETERS          *       PPTRNGTO
059300***********************************************************       PPTRNGTO
059308                                                                  PPTRNGTO
059310     MOVE FWT-PARK-RED-LIMIT TO WS-PRM-NUMBER.                    PPTRNGTO
059320     PERFORM 8000-SELECT-PARAMETER.                               PPTRNGTO
059330     MOVE PRM-DATA TO TGTN-FWT-PARK-RED-LIMIT.                    PPTRNGTO
059331                                                                  PPTRNGTO
059350     MOVE SWT-PARK-RED-LIMIT TO WS-PRM-NUMBER.                    PPTRNGTO
059360     PERFORM 8000-SELECT-PARAMETER.                               PPTRNGTO
059370     MOVE PRM-DATA TO TGTN-SWT-PARK-RED-LIMIT.                    PPTRNGTO
059371                                                                  PPTRNGTO
059390     MOVE FWT-TRAN-RED-LIMIT TO WS-PRM-NUMBER.                    PPTRNGTO
059391     PERFORM 8000-SELECT-PARAMETER.                               PPTRNGTO
059392     MOVE PRM-DATA TO TGTN-FWT-TRAN-RED-LIMIT.                    PPTRNGTO
059393                                                                  PPTRNGTO
059406     MOVE SWT-TRAN-RED-LIMIT TO WS-PRM-NUMBER.                    PPTRNGTO
059410     PERFORM 8000-SELECT-PARAMETER.                               PPTRNGTO
059500     MOVE PRM-DATA TO TGTN-SWT-TRAN-RED-LIMIT.                    PPTRNGTO
059600                                                                  PPTRNGTO
075741                                                                  PPTRNGTO
075750 2000-GENERIC-STRUCTURE    SECTION.                               PPTRNGTO
075760***********************************************************       PPTRNGTO
075770*    EVALUATE LIMITS TO DETERMINE REQUIRED GTN STRUCTURE. *       PPTRNGTO
075780***********************************************************       PPTRNGTO
075790                                                                  PPTRNGTO
075791***********************************************************       PPTRNGTO
075792*    MOVE LIMITS DEFINED BY SYSTEM PARAMETERS TO          *       PPTRNGTO
075793*    REMAINING LIMITS AS THE STARTING POINT.              *       PPTRNGTO
075794*    FICA IS SET TO FWT LIMITS.                           *       PPTRNGTO
075796***********************************************************       PPTRNGTO
075797     MOVE TGTN-FWT-PARK-RED-LIMIT TO WS-FWT-REMAIN.               PPTRNGTO
075798     MOVE TGTN-SWT-PARK-RED-LIMIT TO WS-SWT-REMAIN.               PPTRNGTO
075799     MOVE TGTN-FWT-PARK-RED-LIMIT TO WS-FICA-REMAIN.              PPTRNGTO
075810     SET NOT-LAST-GTN TO TRUE.                                    PPTRNGTO
075811                                                                  PPTRNGTO
075812***********************************************************       PPTRNGTO
075813*    DEFINE GTN REQUIREMENTS FOR PRETAX PARKING BASED ON  *       PPTRNGTO
075814*    LIMIT STRUCTURE.                                     *       PPTRNGTO
075815***********************************************************       PPTRNGTO
075816     MOVE +1 TO LIM-SUB.                                          PPTRNGTO
075817     PERFORM 2100-DEFINE-LIMITS                                   PPTRNGTO
075818       VARYING GTN-SUB FROM +1 BY +1                              PPTRNGTO
075819         UNTIL GTN-SUB > 4.                                       PPTRNGTO
075820                                                                  PPTRNGTO
075837                                                                  PPTRNGTO
075838***********************************************************       PPTRNGTO
075839*    MOVE LIMITS DEFINED BY SYSTEM PARAMETERS TO          *       PPTRNGTO
075840*    REMAINING LIMITS AS THE STARTING POINT.              *       PPTRNGTO
075841*    FICA IS SET TO FWT LIMITS.                           *       PPTRNGTO
075842*    MOVE HIGHEST VALUE INTO WS-GTN-LIMIT INITIALLY.      *       PPTRNGTO
075843***********************************************************       PPTRNGTO
075844     MOVE TGTN-FWT-TRAN-RED-LIMIT TO WS-FWT-REMAIN.               PPTRNGTO
075845     MOVE TGTN-SWT-TRAN-RED-LIMIT TO WS-SWT-REMAIN.               PPTRNGTO
075850     MOVE TGTN-FWT-TRAN-RED-LIMIT TO WS-FICA-REMAIN.              PPTRNGTO
075862     SET NOT-LAST-GTN TO TRUE.                                    PPTRNGTO
075863                                                                  PPTRNGTO
075864***********************************************************       PPTRNGTO
075865*    DEFINE GTN REQUIREMENTS FOR PRETAX TRANSIT BASED ON  *       PPTRNGTO
075866*    LIMIT STRUCTURE.                                     *       PPTRNGTO
075867***********************************************************       PPTRNGTO
075871     MOVE +2 TO LIM-SUB.                                          PPTRNGTO
075872     PERFORM 2100-DEFINE-LIMITS                                   PPTRNGTO
075873       VARYING GTN-SUB FROM +1 BY +1                              PPTRNGTO
075874         UNTIL GTN-SUB > 4.                                       PPTRNGTO
075892     EJECT                                                        PPTRNGTO
075893                                                                  PPTRNGTO
075900 2100-DEFINE-LIMITS          SECTION.                             PPTRNGTO
075910***********************************************************       PPTRNGTO
075920*    IF LAST GTN ALREADY DEFINED, MOVE SPACES TO GTN      *       PPTRNGTO
075921*    NUMBER AND GO TO EXIT. THIS ROW WILL NOT BE REPORTED.*       PPTRNGTO
075930***********************************************************       PPTRNGTO
076001     IF LAST-GTN                                                  PPTRNGTO
076004        MOVE SPACES TO TGTN-LIM-NUMBER (LIM-SUB GTN-SUB)          PPTRNGTO
076005                       TGTN-LIM-LINK-GTN-NUM (LIM-SUB GTN-SUB)    PPTRNGTO
076006                       TGTN-LIM-TYPE (LIM-SUB GTN-SUB)            PPTRNGTO
076007                       TGTN-LIM-REDUCTION-FWT (LIM-SUB GTN-SUB)   PPTRNGTO
076008                       TGTN-LIM-REDUCTION-SWT (LIM-SUB GTN-SUB)   PPTRNGTO
076009                       TGTN-LIM-REDUCTION-FICA (LIM-SUB GTN-SUB)  PPTRNGTO
076010                       TGTN-LIM-USAGE (LIM-SUB GTN-SUB)           PPTRNGTO
076011                       TGTN-LIM-SP-CALC-NO (LIM-SUB GTN-SUB)      PPTRNGTO
076012                       TGTN-LIM-SP-UPDATE-NO (LIM-SUB GTN-SUB)    PPTRNGTO
076013                       TGTN-LIM-CON-EDIT-RTN (LIM-SUB GTN-SUB)    PPTRNGTO
076014        MOVE ZEROS  TO TGTN-LIM-LIMIT (LIM-SUB GTN-SUB)           PPTRNGTO
076015                       TGTN-LIM-LIMIT-TAKEN (LIM-SUB GTN-SUB)     PPTRNGTO
076016        GO TO 2100-EXIT                                           PPTRNGTO
076017     END-IF.                                                      PPTRNGTO
076018***********************************************************       PPTRNGTO
076019*    ESTABLISH LIMITS ALLOWED AT EACH GTN LEVEL FOR       *       PPTRNGTO
076020*    PARKING.                                             *       PPTRNGTO
076021***********************************************************       PPTRNGTO
076022     MOVE +99999.9999 TO WS-GTN-LIMIT.                            PPTRNGTO
076023***********************************************************       PPTRNGTO
076024*    FIRST SET REDUCTION INDICATORS TO YES IF SOME LIMIT  *       PPTRNGTO
076025*    REMAINS.                                             *       PPTRNGTO
076026***********************************************************       PPTRNGTO
076032     IF WS-FWT-REMAIN > ZERO                                      PPTRNGTO
076033        MOVE 'Y' TO TGTN-LIM-REDUCTION-FWT (LIM-SUB GTN-SUB)      PPTRNGTO
076036     ELSE                                                         PPTRNGTO
076037        MOVE 'N' TO TGTN-LIM-REDUCTION-FWT (LIM-SUB GTN-SUB)      PPTRNGTO
076040     END-IF.                                                      PPTRNGTO
076041     IF WS-SWT-REMAIN > ZERO                                      PPTRNGTO
076042        MOVE 'Y' TO TGTN-LIM-REDUCTION-SWT (LIM-SUB GTN-SUB)      PPTRNGTO
076045     ELSE                                                         PPTRNGTO
076046        MOVE 'N' TO TGTN-LIM-REDUCTION-SWT (LIM-SUB GTN-SUB)      PPTRNGTO
076049     END-IF.                                                      PPTRNGTO
076050     IF WS-FICA-REMAIN > ZERO                                     PPTRNGTO
076051        MOVE 'Y' TO TGTN-LIM-REDUCTION-FICA (LIM-SUB GTN-SUB)     PPTRNGTO
076054     ELSE                                                         PPTRNGTO
076055        MOVE 'N' TO TGTN-LIM-REDUCTION-FICA (LIM-SUB GTN-SUB)     PPTRNGTO
076058     END-IF.                                                      PPTRNGTO
076059                                                                  PPTRNGTO
076060***********************************************************       PPTRNGTO
076061*    SET THE AMOUNT OF LIMIT TO BE TAKEN AGAINST THIS GTN *       PPTRNGTO
076062*    LEVEL TO THE LOWEST NON-ZERO AMOUNT.                 *       PPTRNGTO
076063***********************************************************       PPTRNGTO
076064     IF  TGTN-LIM-REDUCTION-FWT (LIM-SUB GTN-SUB) = 'Y'           PPTRNGTO
076065     AND WS-FWT-REMAIN < WS-GTN-LIMIT                             PPTRNGTO
076066        MOVE WS-FWT-REMAIN TO WS-GTN-LIMIT                        PPTRNGTO
076068     END-IF.                                                      PPTRNGTO
076069                                                                  PPTRNGTO
076070     IF  TGTN-LIM-REDUCTION-SWT (LIM-SUB GTN-SUB) = 'Y'           PPTRNGTO
076071     AND WS-SWT-REMAIN < WS-GTN-LIMIT                             PPTRNGTO
076072        MOVE WS-SWT-REMAIN TO WS-GTN-LIMIT                        PPTRNGTO
076074     END-IF.                                                      PPTRNGTO
076075                                                                  PPTRNGTO
076076     IF  TGTN-LIM-REDUCTION-FICA (LIM-SUB GTN-SUB) = 'Y'          PPTRNGTO
076077     AND WS-FICA-REMAIN < WS-GTN-LIMIT                            PPTRNGTO
076078        MOVE WS-FICA-REMAIN TO WS-GTN-LIMIT                       PPTRNGTO
076080     END-IF.                                                      PPTRNGTO
076081                                                                  PPTRNGTO
076082     MOVE WS-GTN-LIMIT TO TGTN-LIM-LIMIT (LIM-SUB GTN-SUB).       PPTRNGTO
076085                                                                  PPTRNGTO
076086***********************************************************       PPTRNGTO
076087*    SUBTRACT THE LIMIT TO BE TAKEN AGAINST THIS GTN      *       PPTRNGTO
076088*    LEVEL FROM THE REMAINING AMOUNTS UNLESS THEY ARE     *       PPTRNGTO
076089*    ALREADY ZERO OR UNLIMITED, I.E. 99999.99.            *       PPTRNGTO
076090***********************************************************       PPTRNGTO
076091     IF  TGTN-LIM-REDUCTION-FWT (LIM-SUB GTN-SUB) = 'Y'           PPTRNGTO
076092     AND WS-FWT-REMAIN NOT = 99999.99                             PPTRNGTO
076093        COMPUTE WS-FWT-REMAIN =                                   PPTRNGTO
076094                WS-FWT-REMAIN - WS-GTN-LIMIT                      PPTRNGTO
076096     END-IF.                                                      PPTRNGTO
076097                                                                  PPTRNGTO
076098     IF  TGTN-LIM-REDUCTION-SWT (LIM-SUB GTN-SUB) = 'Y'           PPTRNGTO
076099     AND WS-SWT-REMAIN NOT = 99999.99                             PPTRNGTO
076100        COMPUTE WS-SWT-REMAIN =                                   PPTRNGTO
076101                WS-SWT-REMAIN - WS-GTN-LIMIT                      PPTRNGTO
076103     END-IF.                                                      PPTRNGTO
076104                                                                  PPTRNGTO
076105     IF  TGTN-LIM-REDUCTION-FICA (LIM-SUB GTN-SUB) = 'Y'          PPTRNGTO
076106     AND WS-FICA-REMAIN NOT = 99999.99                            PPTRNGTO
076107        COMPUTE WS-FICA-REMAIN =                                  PPTRNGTO
076108                WS-FICA-REMAIN - WS-GTN-LIMIT                     PPTRNGTO
076110     END-IF.                                                      PPTRNGTO
076111                                                                  PPTRNGTO
076112     IF TGTN-LIM-REDUCTION-FWT (LIM-SUB GTN-SUB) = 'Y'            PPTRNGTO
076113     OR TGTN-LIM-REDUCTION-SWT (LIM-SUB GTN-SUB) = 'Y'            PPTRNGTO
076114     OR TGTN-LIM-REDUCTION-FICA (LIM-SUB GTN-SUB) = 'Y'           PPTRNGTO
076115        MOVE 'R' TO TGTN-LIM-TYPE (LIM-SUB GTN-SUB)               PPTRNGTO
076118     ELSE                                                         PPTRNGTO
076119        MOVE 'D' TO TGTN-LIM-TYPE (LIM-SUB GTN-SUB)               PPTRNGTO
076120        MOVE ' ' TO TGTN-LIM-REDUCTION-FWT (LIM-SUB GTN-SUB)      PPTRNGTO
076121        MOVE ' ' TO TGTN-LIM-REDUCTION-SWT (LIM-SUB GTN-SUB)      PPTRNGTO
076122        MOVE ' ' TO TGTN-LIM-REDUCTION-FICA (LIM-SUB GTN-SUB)     PPTRNGTO
076125     END-IF.                                                      PPTRNGTO
076126                                                                  PPTRNGTO
076127***********************************************************       PPTRNGTO
076128*    DEFAULT INITIAL FLAG AND USAGE CODES FOR FIRST OR    *       PPTRNGTO
076129*    SUBSEQUENT GTN'S.                                    *       PPTRNGTO
076130***********************************************************       PPTRNGTO
076131     IF GTN-SUB = +1                                              PPTRNGTO
076132        MOVE 'Y'   TO TGTN-LIM-LINK-INIT-FLAG (LIM-SUB GTN-SUB)   PPTRNGTO
076133        MOVE '?' TO TGTN-LIM-USAGE (LIM-SUB GTN-SUB)              PPTRNGTO
076138     ELSE                                                         PPTRNGTO
076139        MOVE SPACE TO TGTN-LIM-LINK-INIT-FLAG (LIM-SUB GTN-SUB)   PPTRNGTO
076140        MOVE 'F' TO TGTN-LIM-USAGE (LIM-SUB GTN-SUB)              PPTRNGTO
076145     END-IF.                                                      PPTRNGTO
076146                                                                  PPTRNGTO
076147***********************************************************       PPTRNGTO
076148*    DEFAULT CALC ROUTINE                                 *       PPTRNGTO
076149***********************************************************       PPTRNGTO
076150     IF LIM-SUB = +1                                              PPTRNGTO
076151        MOVE WS-CALC-ROUTINE-16                                   PPTRNGTO
076152                  TO TGTN-LIM-SP-CALC-NO (LIM-SUB GTN-SUB)        PPTRNGTO
076155     ELSE                                                         PPTRNGTO
076156        MOVE WS-CALC-ROUTINE-17                                   PPTRNGTO
076157                  TO TGTN-LIM-SP-CALC-NO (LIM-SUB GTN-SUB)        PPTRNGTO
076160     END-IF.                                                      PPTRNGTO
076161                                                                  PPTRNGTO
076162***********************************************************       PPTRNGTO
076163*    DEFAULT UPDATE ROUTINE                               *       PPTRNGTO
076164***********************************************************       PPTRNGTO
076165     MOVE '78' TO TGTN-LIM-SP-UPDATE-NO (LIM-SUB GTN-SUB)         PPTRNGTO
076168                                                                  PPTRNGTO
076169***********************************************************       PPTRNGTO
076170*    DEFAULT CON EDIT ROUTINE                             *       PPTRNGTO
076171***********************************************************       PPTRNGTO
076172     MOVE '002' TO TGTN-LIM-CON-EDIT-RTN (LIM-SUB GTN-SUB)        PPTRNGTO
076175                                                                  PPTRNGTO
076176***********************************************************       PPTRNGTO
076177*    IF THE LIMIT IS 99999.99 OR THE REDUCTION FLAGS ARE  *       PPTRNGTO
076178*    ALL OFF THEN THIS IS THE LAST GTN WHICH WILL TAKE    *       PPTRNGTO
076179*    ALL OF THE REMAINING DEDUCTION AMOUNT.               *       PPTRNGTO
076180***********************************************************       PPTRNGTO
076181     IF  WS-GTN-LIMIT = 99999.99                                  PPTRNGTO
076182     OR (TGTN-LIM-REDUCTION-FWT (LIM-SUB GTN-SUB) = ' '           PPTRNGTO
076183         AND TGTN-LIM-REDUCTION-SWT (LIM-SUB GTN-SUB) = ' '       PPTRNGTO
076184         AND TGTN-LIM-REDUCTION-FICA (LIM-SUB GTN-SUB) = ' ')     PPTRNGTO
076185         SET LAST-GTN TO TRUE                                     PPTRNGTO
076187     END-IF.                                                      PPTRNGTO
076188                                                                  PPTRNGTO
076189 2100-EXIT. EXIT.                                                 PPTRNGTO
076190                                                                  PPTRNGTO
076240                                                                  DPTRNGTO
076289 3000-GTN-CURSOR           SECTION.                               PPTRNGTO
076290***********************************************************       PPTRNGTO
076291*    PROCESS THE MAIN CURSOR FOR THE GTN'S.               *       PPTRNGTO
076292***********************************************************       PPTRNGTO
076299                                                                  PPTRNGTO
076300***********************************************************       PPTRNGTO
076301*    LOOP FOR CURSOR                                      *       PPTRNGTO
076302***********************************************************       PPTRNGTO
076303     SET NOT-EOF-GTN-CURSOR TO TRUE.                              PPTRNGTO
076304     PERFORM 8300-OPEN-GTN-CURSOR.                                PPTRNGTO
076310     PERFORM 8310-FETCH-GTN-CURSOR.                               PPTRNGTO
076400                                                                  PPTRNGTO
076710     PERFORM 3100-PROCESS-GTN-CURSOR                              PPTRNGTO
076800         UNTIL EOF-GTN-CURSOR.                                    PPTRNGTO
077000                                                                  PPTRNGTO
077100     PERFORM 8320-CLOSE-GTN-CURSOR.                               PPTRNGTO
077200                                                                  PPTRNGTO
077300 3000-EXIT. EXIT.                                                 PPTRNGTO
077400     EJECT                                                        PPTRNGTO
077500                                                                  PPTRNGTO
077600 3100-PROCESS-GTN-CURSOR   SECTION.                               PPTRNGTO
081200***********************************************************       PPTRNGTO
081510*    PERFORM EDITS ON GTN ROW                             *       PPTRNGTO
081600***********************************************************       PPTRNGTO
081700     PERFORM 4000-ASSIGN-TO-TGTN-GTN-TABLE.                       PPTRNGTO
082204     MOVE ZERO TO GTN-SUB.                                        PPTRNGTO
082205     MOVE ZERO TO WS-SAVE-GTN-PRIORITY.                           PPTRNGTO
082206     MOVE GTN-SP-CALC-NO TO WS-SAVE-SP-CALC-NO.                   PPTRNGTO
082207                                                                  PPTRNGTO
082209     SET NOT-EOF-LINK-GROUP TO TRUE.                              PPTRNGTO
082210     PERFORM 3200-GTN-EDITS                                       PPTRNGTO
082211       UNTIL EOF-LINK-GROUP.                                      PPTRNGTO
082220                                                                  PPTRNGTO
082300***********************************************************       PPTRNGTO
082400*    FETCH THE NEXT MAIN CURSOR ROW.                      *       PPTRNGTO
082500***********************************************************       PPTRNGTO
082600     PERFORM 8310-FETCH-GTN-CURSOR.                               PPTRNGTO
082700                                                                  PPTRNGTO
082800 3100-EXIT. EXIT.                                                 PPTRNGTO
113820                                                                  PPTRNGTO
113830 3200-GTN-EDITS            SECTION.                               PPTRNGTO
113840***********************************************************       PPTRNGTO
113850*      EDIT GTN DATA IN GTN-ROW.                          *       PPTRNGTO
113860***********************************************************       PPTRNGTO
113861     ADD +1 TO GTN-SUB.                                           PPTRNGTO
113896***********************************************************       PPTRNGTO
113897*      PRETAX GTN'S IN LINKED GROUP MUST HAVE ASCENDING   *       PPTRNGTO
113898*      PRIORITY SEQUENCE.                                 *       PPTRNGTO
113899***********************************************************       PPTRNGTO
113900     IF GTN-PRIORITY NOT > WS-SAVE-GTN-PRIORITY                   PPTRNGTO
113901        MOVE M40043 TO MESSAGE-NUMBER                             PPTRNGTO
113902        PERFORM 9100-SELECT-MESSAGE                               PPTRNGTO
113903     END-IF.                                                      PPTRNGTO
113904     MOVE GTN-PRIORITY TO WS-SAVE-GTN-PRIORITY.                   PPTRNGTO
113906***********************************************************       PPTRNGTO
113907*      ALL PRETAX GTN'S AFTER INITIAL GTN MUST HAVE USAGE *       PPTRNGTO
113908*      CODE F FOR FIXED AMOUNT.                           *       PPTRNGTO
113909***********************************************************       PPTRNGTO
113910     IF GTN-INIT-LINK-FLAG NOT = 'Y'                              PPTRNGTO
113911     AND GTN-USAGE NOT = 'F'                                      PPTRNGTO
113912        MOVE M40046 TO MESSAGE-NUMBER                             PPTRNGTO
113913        PERFORM 9100-SELECT-MESSAGE                               PPTRNGTO
113914     END-IF.                                                      PPTRNGTO
113915***********************************************************       PPTRNGTO
113916*      ALL PRETAX GTN'S MUST HAVE CONEDIT ROUTINE 002     *       PPTRNGTO
113917***********************************************************       PPTRNGTO
113918     IF GTN-CON-EDIT-RTN NOT = '002'                              PPTRNGTO
113919        MOVE M40044 TO MESSAGE-NUMBER                             PPTRNGTO
113920        PERFORM 9100-SELECT-MESSAGE                               PPTRNGTO
113921     END-IF.                                                      PPTRNGTO
113922***********************************************************       PPTRNGTO
113923*      ALL PRETAX GTN'S MUST HAVE SPECIAL UPDATE ROUTINE  *       PPTRNGTO
113924*      78.                                                *       PPTRNGTO
113925***********************************************************       PPTRNGTO
113926     IF GTN-SP-UPDATE-NO NOT = '78'                               PPTRNGTO
113927        MOVE M40059 TO MESSAGE-NUMBER                             PPTRNGTO
113928        PERFORM 9100-SELECT-MESSAGE                               PPTRNGTO
113929     END-IF.                                                      PPTRNGTO
113930***********************************************************       PPTRNGTO
113931*      ALL PRETAX GTN'S AFTER INITIAL GTN MUST HAVE VALUE *       PPTRNGTO
113932*      SET TO 1.0. A NON-ZERO VALUE IS NEEDED TO TRIGGER  *       PPTRNGTO
113933*      FILE MAINTENANCE EDITS.                            *       PPTRNGTO
113934***********************************************************       PPTRNGTO
113943     IF GTN-INIT-LINK-FLAG NOT = 'Y'                              PPTRNGTO
113944        IF GTN-VALUE-RNG-EDIT NOT = 'V' AND 'R'                   PPTRNGTO
113945        OR GTN-VALUE1 NOT > ZERO                                  PPTRNGTO
113946           MOVE M40058 TO MSSG-DESIRED                            PPTRNGTO
113947           PERFORM 9100-SELECT-MESSAGE                            PPTRNGTO
113948        END-IF                                                    PPTRNGTO
113949     END-IF.                                                      PPTRNGTO
113950***********************************************************       PPTRNGTO
113951*      ALL LINKED PRETAX GTN'S MUST HAVE THE SAME SPECIAL *       PPTRNGTO
113952*      CALCULATION ROUTINE.                               *       PPTRNGTO
113953***********************************************************       PPTRNGTO
113954     IF GTN-SP-CALC-NO NOT = WS-SAVE-SP-CALC-NO                   PPTRNGTO
113955        MOVE M40047 TO MESSAGE-NUMBER                             PPTRNGTO
113956        PERFORM 9100-SELECT-MESSAGE                               PPTRNGTO
113957     END-IF.                                                      PPTRNGTO
113958***********************************************************       PPTRNGTO
113959*      ALL LINKED PRETAX GTN'S MUST HAVE THE SPECIAL      *       PPTRNGTO
113960*      CALCULATION ROUTINE 16 OR 17. IF NOT, CANNOT       *       PPTRNGTO
113961*      CHECK AGAINST GENERIC, SO BYPASS EDITS BASED       *       PPTRNGTO
113962*      CALCULATION ROUTINE NUMBER AND LIM-SUB.            *       PPTRNGTO
113963***********************************************************       PPTRNGTO
113964     IF  GTN-SP-CALC-NO NOT = WS-CALC-ROUTINE-16                  PPTRNGTO
113965     AND GTN-SP-CALC-NO NOT = WS-CALC-ROUTINE-17                  PPTRNGTO
113966        MOVE M40056 TO MESSAGE-NUMBER                             PPTRNGTO
113967        PERFORM 9100-SELECT-MESSAGE                               PPTRNGTO
113968        GO TO 3100-BYPASS                                         PPTRNGTO
113969     ELSE                                                         PPTRNGTO
113970     IF GTN-SP-CALC-NO = WS-CALC-ROUTINE-16                       PPTRNGTO
113971        MOVE +1 TO LIM-SUB                                        PPTRNGTO
113972     ELSE                                                         PPTRNGTO
113973        MOVE +2 TO LIM-SUB                                        PPTRNGTO
113974     END-IF                                                       PPTRNGTO
113975     END-IF.                                                      PPTRNGTO
113976***********************************************************       PPTRNGTO
113977*      IF GTN NUMBER OF MATCHING GENERIC LEVEL IS SPACES  *       PPTRNGTO
113978*      THEN THIS IS AN UNEXPECTED LEVEL OF LINKAGE.       *       PPTRNGTO
113979***********************************************************       PPTRNGTO
113980     IF TGTN-LIM-NUMBER (LIM-SUB GTN-SUB) = SPACES                PPTRNGTO
113981        MOVE M40057 TO MESSAGE-NUMBER                             PPTRNGTO
113982        PERFORM 9100-SELECT-MESSAGE                               PPTRNGTO
113983     END-IF.                                                      PPTRNGTO
113984***********************************************************       PPTRNGTO
113985*      ALL LINKED PRETAX GTN'S MUST MATCH THE GENERIC     *       PPTRNGTO
113986*      GTN STRUCTURE FOR TYPE AND REDUCTION INDICATORS.   *       PPTRNGTO
113987***********************************************************       PPTRNGTO
113988     IF GTN-REDUCTION-FWT NOT =                                   PPTRNGTO
113989                      TGTN-LIM-REDUCTION-FWT (LIM-SUB GTN-SUB)    PPTRNGTO
113990     OR GTN-REDUCTION-SWT NOT =                                   PPTRNGTO
113991                      TGTN-LIM-REDUCTION-SWT (LIM-SUB GTN-SUB)    PPTRNGTO
113992     OR GTN-REDUCTION-FICA NOT =                                  PPTRNGTO
113993                      TGTN-LIM-REDUCTION-FICA (LIM-SUB GTN-SUB)   PPTRNGTO
113994        MOVE M40042 TO MESSAGE-NUMBER                             PPTRNGTO
113995        PERFORM 9100-SELECT-MESSAGE                               PPTRNGTO
113996     END-IF.                                                      PPTRNGTO
113997     IF GTN-TYPE NOT = TGTN-LIM-TYPE (LIM-SUB GTN-SUB)            PPTRNGTO
113998        MOVE M40054 TO MESSAGE-NUMBER                             PPTRNGTO
113999        PERFORM 9100-SELECT-MESSAGE                               PPTRNGTO
114000     END-IF.                                                      PPTRNGTO
114001 3100-BYPASS.                                                     PPTRNGTO
114002***********************************************************       PPTRNGTO
114003*    GTN IS DEFINED AS A LINKED GTN. IF IT IS THE INITIAL *       PPTRNGTO
114004*    GTN THEN THE COUNT SHOULD BE ZERO, I.E. AN INITIAL   *       PPTRNGTO
114005*    GTN SHOULD NOT BE LINKED TO. IF IT IS A LATER GTN    *       PPTRNGTO
114006*    THEN THE COUNT SHOULD BE ONE, I.E. A GTN SHOULD NOT  *       PPTRNGTO
114007*    BE DEFINED IN MORE THAN ONE GROUP.                   *       PPTRNGTO
114008***********************************************************       PPTRNGTO
114009     MOVE GTN-NUMBER TO WS-GTN-NUMBER.                            PPTRNGTO
114010     PERFORM 8600-COUNT-GTN.                                      PPTRNGTO
114011     IF GTN-SUB = +1                                              PPTRNGTO
114012        IF WS-COUNT > ZERO                                        PPTRNGTO
114013           MOVE M40045 TO MESSAGE-NUMBER                          PPTRNGTO
114014           PERFORM 9100-SELECT-MESSAGE                            PPTRNGTO
114015        END-IF                                                    PPTRNGTO
114016     ELSE                                                         PPTRNGTO
114017        IF WS-COUNT > +1                                          PPTRNGTO
114018           MOVE M40045 TO MESSAGE-NUMBER                          PPTRNGTO
114019           PERFORM 9100-SELECT-MESSAGE                            PPTRNGTO
114020        END-IF                                                    PPTRNGTO
114021     END-IF.                                                      PPTRNGTO
114022***********************************************************       PPTRNGTO
114023*      IF NEXT LINKED GTN IS 000 THEN IT IS THE END OF    *       PPTRNGTO
114024*      THE GROUP. IF NOT 000, THEN TRY TO SELECT IT FROM  *       PPTRNGTO
114025*      THE GTN TABLE. IF IT DOES NOT EXIST, ISSUE MESSAGE *       PPTRNGTO
114026*      AND END THE GROUP. IF FOUND, PRINT THE DATA.       *       PPTRNGTO
114027***********************************************************       PPTRNGTO
114028     IF GTN-LINK-GTN-NUM = 000                                    PPTRNGTO
114029        SET EOF-LINK-GROUP TO TRUE                                PPTRNGTO
114030     ELSE                                                         PPTRNGTO
114031        PERFORM 8500-SELECT-LINK-GTN                              PPTRNGTO
114032        IF SQLCODE = +100                                         PPTRNGTO
114033           SET EOF-LINK-GROUP TO TRUE                             PPTRNGTO
114034           MOVE M40041 TO MESSAGE-NUMBER                          PPTRNGTO
114035           PERFORM 9100-SELECT-MESSAGE                            PPTRNGTO
114036        ELSE                                                      PPTRNGTO
114037           PERFORM 4000-ASSIGN-TO-TGTN-GTN-TABLE                  PPTRNGTO
114038        END-IF                                                    PPTRNGTO
114039     END-IF.                                                      PPTRNGTO
114057                                                                  PPTRNGTO
114058 4000-ASSIGN-TO-TGTN-GTN-TABLE SECTION.                           PPTRNGTO
114059***********************************************************       PPTRNGTO
114060*      LOAD TABLE WITH PARKING/TRANSIT DATA FOR COMPUTE   *       PPTRNGTO
114061*      PPNET* PROCESSING.                                 *       PPTRNGTO
114062***********************************************************       PPTRNGTO
114063                                                                  PPTRNGTO
114066     ADD 1 TO TGTN-MAX-LOADED.                                    PPTRNGTO
114069                                                                  PPTRNGTO
114070     MOVE GTN-PRIORITY                                            PPTRNGTO
114071                     TO TGTN-GTN-PRIORITY (TGTN-MAX-LOADED).      PPTRNGTO
114072     MOVE GTN-NUMBER                                              PPTRNGTO
114073                     TO TGTN-GTN-NUMBER   (TGTN-MAX-LOADED).      PPTRNGTO
114074     MOVE GTN-TYPE                                                PPTRNGTO
114075                     TO TGTN-GTN-TYPE     (TGTN-MAX-LOADED).      PPTRNGTO
114076     MOVE GTN-USAGE                                               PPTRNGTO
114077                     TO TGTN-GTN-USAGE    (TGTN-MAX-LOADED).      PPTRNGTO
114078     MOVE GTN-SP-CALC-NO                                          PPTRNGTO
114079              TO TGTN-GTN-SP-CALC-NO      (TGTN-MAX-LOADED).      PPTRNGTO
114080     MOVE GTN-REDUCTION-FWT                                       PPTRNGTO
114081              TO TGTN-GTN-REDUCTION-FWT   (TGTN-MAX-LOADED).      PPTRNGTO
114082     MOVE GTN-REDUCTION-SWT                                       PPTRNGTO
114083              TO TGTN-GTN-REDUCTION-SWT   (TGTN-MAX-LOADED).      PPTRNGTO
114084     MOVE GTN-REDUCTION-FICA                                      PPTRNGTO
114085              TO TGTN-GTN-REDUCTION-FICA  (TGTN-MAX-LOADED).      PPTRNGTO
114086     MOVE GTN-CON-EDIT-RTN                                        PPTRNGTO
114087              TO TGTN-GTN-CON-EDIT-RTN    (TGTN-MAX-LOADED).      PPTRNGTO
114088     MOVE GTN-LINK-GTN-NUM                                        PPTRNGTO
114089              TO TGTN-GTN-LINK-GTN-NUM    (TGTN-MAX-LOADED).      PPTRNGTO
114090     MOVE GTN-INIT-LINK-FLAG                                      PPTRNGTO
114091              TO TGTN-GTN-INIT-LINK-FLAG  (TGTN-MAX-LOADED).      PPTRNGTO
114096                                                                  PPTRNGTO
123550     EJECT                                                        PPTRNGTO
126600                                                                  PPTRNGTO
126610 8000-SELECT-PARAMETER     SECTION.                               PPTRNGTO
126611***********************************************************       PPTRNGTO
126612*    SELECT VALUE FROM SYSTEM PARAMETER TABLE             *       PPTRNGTO
126613***********************************************************       PPTRNGTO
126614                                                                  PPTRNGTO
126615     MOVE 'SELECT PRM-ROW' TO DB2MSG-TAG.                         PPTRNGTO
126616     EXEC SQL                                                     PPTRNGTO
126617       SELECT  PRM_NUMBER                                         PPTRNGTO
126619              ,PRM_DESCRIPTION                                    PPTRNGTO
126620              ,PRM_DATA                                           PPTRNGTO
126621         INTO :PRM-NUMBER                                         PPTRNGTO
126623             ,:PRM-DESCRIPTION                                    PPTRNGTO
126624             ,:PRM-DATA                                           PPTRNGTO
126625       FROM PPPVZPRM_PRM                                          PPTRNGTO
126626       WHERE PRM_NUMBER = :WS-PRM-NUMBER                          PPTRNGTO
126627     END-EXEC.                                                    PPTRNGTO
126628                                                                  PPTRNGTO
126629     IF SQLCODE NOT = ZERO                                        PPTRNGTO
126632        MOVE M40055 TO MESSAGE-NUMBER                             PPTRNGTO
126633        PERFORM 9100-SELECT-MESSAGE                               PPTRNGTO
126634     END-IF.                                                      PPTRNGTO
126635                                                                  PPTRNGTO
126636 8300-OPEN-GTN-CURSOR      SECTION.                               PPTRNGTO
126637***********************************************************       PPTRNGTO
126638*    OPEN MAIN GTN_CURSOR                                 *       PPTRNGTO
126639***********************************************************       PPTRNGTO
126640                                                                  PPTRNGTO
126641     MOVE 'OPEN MAIN CURSOR' TO DB2MSG-TAG                        PPTRNGTO
126650     EXEC SQL                                                     PPTRNGTO
126660       OPEN GTN_CURSOR                                            PPTRNGTO
126670     END-EXEC.                                                    PPTRNGTO
126680                                                                  PPTRNGTO
126700 8310-FETCH-GTN-CURSOR     SECTION.                               PPTRNGTO
126710***********************************************************       PPTRNGTO
126720*    FETCH MAIN GTN_CURSOR.                               *       PPTRNGTO
126721*    THIS ONLY SELECTS THE GTN'S THAT ARE CALCULATION     *       PPTRNGTO
126722*    ROUTINES 16 AND 17 WITH THE INITIAL FLAG = Y.        *       PPTRNGTO
126723*    THE LINKED GTN'S ARE DIRECTLY SELECTED SEPARATELY.   *       PPTRNGTO
126730***********************************************************       PPTRNGTO
126800                                                                  PPTRNGTO
126900     MOVE 'FETCH GTN_CURSOR' TO DB2MSG-TAG.                       PPTRNGTO
127000     EXEC SQL                                                     PPTRNGTO
127100       FETCH GTN_CURSOR                                           PPTRNGTO
127110       INTO :GTN-PRIORITY                                         PPTRNGTO
127120           ,:GTN-NUMBER                                           PPTRNGTO
127121           ,:GTN-DESCRIPTION                                      PPTRNGTO
127130           ,:GTN-TYPE                                             PPTRNGTO
127140           ,:GTN-USAGE                                            PPTRNGTO
127150           ,:GTN-SP-CALC-NO                                       PPTRNGTO
127151           ,:GTN-SP-UPDATE-NO                                     PPTRNGTO
127152           ,:GTN-VALUE-RNG-EDIT                                   PPTRNGTO
127153           ,:GTN-VALUE1                                           PPTRNGTO
127154           ,:GTN-VALUE2                                           PPTRNGTO
127160           ,:GTN-REDUCTION-FWT                                    PPTRNGTO
127170           ,:GTN-REDUCTION-SWT                                    PPTRNGTO
127180           ,:GTN-REDUCTION-FICA                                   PPTRNGTO
127190           ,:GTN-CON-EDIT-RTN                                     PPTRNGTO
127191           ,:GTN-LINK-GTN-NUM                                     PPTRNGTO
127192           ,:GTN-INIT-LINK-FLAG                                   PPTRNGTO
127300     END-EXEC                                                     PPTRNGTO
127400                                                                  PPTRNGTO
127500     IF SQLCODE = +100                                            PPTRNGTO
127600        SET EOF-GTN-CURSOR TO TRUE                                PPTRNGTO
127700     END-IF.                                                      PPTRNGTO
127800                                                                  PPTRNGTO
127900 8320-CLOSE-GTN-CURSOR     SECTION.                               PPTRNGTO
127910***********************************************************       PPTRNGTO
127920*    CLOSE MAIN GTN_CURSOR                                *       PPTRNGTO
127930***********************************************************       PPTRNGTO
128000                                                                  PPTRNGTO
128100     MOVE 'CLOSE MAIN CURSOR' TO DB2MSG-TAG                       PPTRNGTO
128200     EXEC SQL                                                     PPTRNGTO
128300       CLOSE GTN_CURSOR                                           PPTRNGTO
128400     END-EXEC.                                                    PPTRNGTO
130900                                                                  PPTRNGTO
131000 8500-SELECT-LINK-GTN      SECTION.                               PPTRNGTO
131100***********************************************************       PPTRNGTO
131200*    SELECT GTN DATA FOR LINKED GTN'S IN GROUP.           *       PPTRNGTO
131300***********************************************************       PPTRNGTO
131400                                                                  PPTRNGTO
131500     MOVE 'SELECT LINK GTN' TO DB2MSG-TAG.                        PPTRNGTO
131600     EXEC SQL                                                     PPTRNGTO
131700       SELECT                                                     PPTRNGTO
131710             GTN_PRIORITY                                         PPTRNGTO
131720            ,GTN_NUMBER                                           PPTRNGTO
131730            ,GTN_DESCRIPTION                                      PPTRNGTO
131731            ,GTN_TYPE                                             PPTRNGTO
131740            ,GTN_USAGE                                            PPTRNGTO
131750            ,GTN_SP_CALC_NO                                       PPTRNGTO
131751            ,GTN_SP_UPDATE_NO                                     PPTRNGTO
131760            ,GTN_VALUE_RNG_EDIT                                   PPTRNGTO
131761            ,GTN_VALUE1                                           PPTRNGTO
131762            ,GTN_VALUE2                                           PPTRNGTO
131763            ,GTN_REDUCTION_FWT                                    PPTRNGTO
131770            ,GTN_REDUCTION_SWT                                    PPTRNGTO
131780            ,GTN_REDUCTION_FICA                                   PPTRNGTO
131790            ,GTN_CON_EDIT_RTN                                     PPTRNGTO
131791            ,GTN_LINK_GTN_NUM                                     PPTRNGTO
131792            ,GTN_INIT_LINK_FLAG                                   PPTRNGTO
131800       INTO :GTN-PRIORITY                                         PPTRNGTO
131900           ,:GTN-NUMBER                                           PPTRNGTO
132000           ,:GTN-DESCRIPTION                                      PPTRNGTO
132010           ,:GTN-TYPE                                             PPTRNGTO
132100           ,:GTN-USAGE                                            PPTRNGTO
132200           ,:GTN-SP-CALC-NO                                       PPTRNGTO
132201           ,:GTN-SP-UPDATE-NO                                     PPTRNGTO
132210           ,:GTN-VALUE-RNG-EDIT                                   PPTRNGTO
132220           ,:GTN-VALUE1                                           PPTRNGTO
132230           ,:GTN-VALUE2                                           PPTRNGTO
132300           ,:GTN-REDUCTION-FWT                                    PPTRNGTO
132400           ,:GTN-REDUCTION-SWT                                    PPTRNGTO
132500           ,:GTN-REDUCTION-FICA                                   PPTRNGTO
132600           ,:GTN-CON-EDIT-RTN                                     PPTRNGTO
132700           ,:GTN-LINK-GTN-NUM                                     PPTRNGTO
132800           ,:GTN-INIT-LINK-FLAG                                   PPTRNGTO
132810       FROM PPPVZGTN_GTN                                          PPTRNGTO
132820       WHERE GTN_NUMBER = :GTN-LINK-GTN-NUM                       PPTRNGTO
132900     END-EXEC.                                                    PPTRNGTO
133400                                                                  PPTRNGTO
133600 8600-COUNT-GTN            SECTION.                               PPTRNGTO
133700***********************************************************       PPTRNGTO
133800*    COUNT LINKED GTN'S.                                  *       PPTRNGTO
133900***********************************************************       PPTRNGTO
134000                                                                  PPTRNGTO
134100     MOVE 'COUNT LINK GTN' TO DB2MSG-TAG.                         PPTRNGTO
134102     EXEC SQL                                                     PPTRNGTO
134103       SELECT COUNT (*)                                           PPTRNGTO
134104         INTO :WS-COUNT                                           PPTRNGTO
134105         FROM PPPVZGTN_GTN                                        PPTRNGTO
134107         WHERE GTN_LINK_GTN_NUM = :WS-GTN-NUMBER-X                PPTRNGTO
134109     END-EXEC.                                                    PPTRNGTO
134110     EJECT                                                        PPTRNGTO
134200                                                                  PPTRNGTO
138710 9100-SELECT-MESSAGE        SECTION.                              PPTRNGTO
138711***********************************************************       PPTRNGTO
138712*               GET MESSAGE DATA                          *       PPTRNGTO
138713***********************************************************       PPTRNGTO
138731                                                                  PPTRNGTO
138732     MOVE 'SELECT MSG   ' TO DB2MSG-TAG.                          PPTRNGTO
138733     EXEC SQL                                                     PPTRNGTO
138734        SELECT                                                    PPTRNGTO
138735           MESSAGE_NUMBER                                         PPTRNGTO
138736          ,MSG_ONLIN_SEVERITY                                     PPTRNGTO
138737          ,MESSAGE_TEXT                                           PPTRNGTO
138738       INTO :MESSAGE-NUMBER                                       PPTRNGTO
138739           ,:MSG-ONLIN-SEVERITY                                   PPTRNGTO
138740           ,:MESSAGE-TEXT                                         PPTRNGTO
138741       FROM PPPVZMSG_MSG                                          PPTRNGTO
138742       WHERE MESSAGE_NUMBER = :MESSAGE-NUMBER                     PPTRNGTO
138743     END-EXEC.                                                    PPTRNGTO
138744                                                                  PPTRNGTO
138745     IF SQLCODE = ZERO                                            PPTRNGTO
138746        IF MSG-ONLIN-SEVERITY > TGTN-ERROR-CODE                   PPTRNGTO
138747           MOVE MSG-ONLIN-SEVERITY TO TGTN-ERROR-CODE             PPTRNGTO
138748        END-IF                                                    PPTRNGTO
138749     END-IF.                                                      PPTRNGTO
138750     EJECT                                                        PPTRNGTO
138900                                                                  PPTRNGTO
142100*999999-SQL-ERROR.                                               *PPTRNGTO
142110***********************************************************       PPTRNGTO
142120*               NEGATIVE SQL SECTION                      *       PPTRNGTO
142130***********************************************************       PPTRNGTO
142300     EXEC SQL                                                     PPTRNGTO
142400          INCLUDE CPPDXP99                                        PPTRNGTO
142500     END-EXEC.                                                    PPTRNGTO
142600                                                                  PPTRNGTO
142700     IF NOT HERE-BEFORE                                           PPTRNGTO
142800        SET HERE-BEFORE TO TRUE                                   PPTRNGTO
142810        MOVE 8 TO TGTN-ERROR-CODE                                 PPTRNGTO
142900     END-IF.                                                      PPTRNGTO
143000     GOBACK.                                                      PPTRNGTO
143100*************** END OF PPTRNGTO ***************************       PPTRNGTO
