000100**************************************************************/   36430911
000200*  PROGRAM: PPWDLTE                                          */   36430911
000300*  RELEASE # ___0911___   SERVICE REQUEST NO(S)____3643______*/   36430911
000400*  NAME ____SRS________   MODIFICATION DATE ____06/30/94_____*/   36430911
000500*  DESCRIPTION                                               */   36430911
000600*   REPLACEMENT MODULE FOR AIOOE ARCHITECTURE                */   36430911
000700**************************************************************/   36430911
001000 IDENTIFICATION DIVISION.                                         PPWDLTE
001100 PROGRAM-ID. PPWDLTE.                                             PPWDLTE
001200 ENVIRONMENT DIVISION.                                            PPWDLTE
001300 DATA DIVISION.                                                   PPWDLTE
001400 WORKING-STORAGE SECTION.                                         PPWDLTE
001300 01  WS-MISC.                                                     PPWDLTE
001400     05  MP0407                    PIC X(5)    VALUE 'P0407'.     PPWDLTE
001500     05  MP0417                    PIC X(5)    VALUE 'P0417'.     PPWDLTE
001600     05  MP0421                    PIC X(5)    VALUE 'P0421'.     PPWDLTE
001700     05  MP0507                    PIC X(5)    VALUE 'P0507'.     PPWDLTE
001800     05  MP0598                    PIC X(5)    VALUE 'P0598'.     PPWDLTE
001900     05  IX1                       PIC 9(4)                COMP.  PPWDLTE
006500     05  WS-REMAINDER              PIC 9(1).                      PPWDLTE
006810     05  WS-LAST-TRANS-ID          PIC X(02).                     PPWDLTE
006820     05  WS-LAST-SEQ-NO            PIC X(03).                     PPWDLTE
009600     05  WS-PAGE-FLAG              PIC X       VALUE 'Y'.         PPWDLTE
009700         88 PAGE-FILLED                        VALUE 'Y'.         PPWDLTE
009800         88 PAGE-NOT-FILLED                    VALUE 'N'.         PPWDLTE
002600     05  ERASE-EOF                 PIC X       VALUE X'80'.       PPWDLTE
002700     05  WS-RELEASE-NUMBER         PIC X(5)    VALUE 'E0911'.     PPWDLTE
002800     05  WS-ROW-COUNT              PIC S9(08)  COMP SYNC.         PPWDLTE
002900     05  WS-TOTAL-GROSS-X         PIC X(9).                       PPWDLTE
003000     05  WS-TOTAL-GROSS-N REDEFINES WS-TOTAL-GROSS-X              PPWDLTE
003100                                  PIC 9(7)V99.                    PPWDLTE
003200     05  WS-TOTAL-NET-X           PIC X(9).                       PPWDLTE
003300     05  WS-TOTAL-NET-N REDEFINES WS-TOTAL-NET-X                  PPWDLTE
003400                                  PIC 9(7)V99.                    PPWDLTE
003500 01  ABEYANCE-ORCA-RECORD.         COPY CPWSABEY.                 PPWDLTE
003600 01  PPDB2MSG-INTERFACE.           COPY CPLNKDB2.                 PPWDLTE
003700 01  CPWSSPEC        EXTERNAL.                                    PPWDLTE
003800      EXEC SQL                                                    PPWDLTE
003900         INCLUDE CPWSSPEC                                         PPWDLTE
004000      END-EXEC.                                                   PPWDLTE
004100 01  UCCOMMON        EXTERNAL.                                    PPWDLTE
004200      EXEC SQL                                                    PPWDLTE
004300         INCLUDE UCCOMMON                                         PPWDLTE
004400      END-EXEC.                                                   PPWDLTE
004500 01  UCPISCRN        EXTERNAL.                                    PPWDLTE
004600      EXEC SQL                                                    PPWDLTE
004700         INCLUDE UCPISCRN                                         PPWDLTE
004800      END-EXEC.                                                   PPWDLTE
004900 01 UCWSABND         EXTERNAL.                                    PPWDLTE
005000      EXEC SQL                                                    PPWDLTE
005100         INCLUDE UCWSABND                                         PPWDLTE
005200      END-EXEC.                                                   PPWDLTE
005300 01 UCDTLARE         EXTERNAL.                                    PPWDLTE
005400      EXEC SQL                                                    PPWDLTE
005500         INCLUDE UCDTLARE                                         PPWDLTE
005600      END-EXEC.                                                   PPWDLTE
005700 01 DLTE-SCRN REDEFINES UCDTLARE.                                 PPWDLTE
005800      EXEC SQL                                                    PPWDLTE
005900         INCLUDE PPDLTE0                                          PPWDLTE
006000      END-EXEC.                                                   PPWDLTE
013500 01  WS-ABE.                                                      PPWDLTE
013600      EXEC SQL                                                    PPWDLTE
013700           INCLUDE PPPVZABE                                       PPWDLTE
013800      END-EXEC.                                                   PPWDLTE
006500      EXEC SQL                                                    PPWDLTE
006600           INCLUDE SQLCA                                          PPWDLTE
006700      END-EXEC.                                                   PPWDLTE
006800******************************************************************PPWDLTE
006900*    CURSOR FOR PAGE 1 OF SCREEN                                 *PPWDLTE
007000******************************************************************PPWDLTE
017300      EXEC SQL DECLARE                                            PPWDLTE
017400            ABE-CURS CURSOR FOR                                   PPWDLTE
017500            SELECT TRANSACTION_CODE,                              PPWDLTE
017600                   ENTRY_SEQUENCE_NO,                             PPWDLTE
017610                   EMPLOYEE_NAME,                                 PPWDLTE
017700                   TRANSACTION_IMAGE                              PPWDLTE
017800            FROM PPPVZABE_ABE                                     PPWDLTE
007800            WHERE EMPLOYEE_ID        = :SPEC-ENTERED-ID           PPWDLTE
007900              AND PAR_CONTROL_NUMBER = :SPEC-ENTERED-PAR          PPWDLTE
018100            ORDER BY TRANSACTION_CODE,                            PPWDLTE
018200                     ENTRY_SEQUENCE_NO                            PPWDLTE
018300      END-EXEC.                                                   PPWDLTE
018500******************************************************************PPWDLTE
018600*    CURSOR FOR PF8 - THIS CURSOR SELECTS THE NEXT RECORDS IN    *PPWDLTE
018700*    THE SAME ORDER, PRESERVING THE HEIRARCHY OF SEQUENCE NUMBER *PPWDLTE
018800*    WITHIN TRANSACTION CODES.                                   *PPWDLTE
018900******************************************************************PPWDLTE
019000      EXEC SQL DECLARE                                            PPWDLTE
019100            ABE-PF8-CURS CURSOR FOR                               PPWDLTE
019110            SELECT TRANSACTION_CODE,                              PPWDLTE
019120                   ENTRY_SEQUENCE_NO,                             PPWDLTE
019121                   EMPLOYEE_NAME,                                 PPWDLTE
019130                   TRANSACTION_IMAGE                              PPWDLTE
019300            FROM PPPVZABE_ABE                                     PPWDLTE
009500            WHERE (EMPLOYEE_ID        = :SPEC-ENTERED-ID)         PPWDLTE
009600              AND (PAR_CONTROL_NUMBER = :SPEC-ENTERED-PAR)        PPWDLTE
009700              AND ((TRANSACTION_CODE      = :SPEC-LAST-TRANS-CD   PPWDLTE
009800                    AND ENTRY_SEQUENCE_NO > :SPEC-LAST-SEQ-NO)    PPWDLTE
009900                    OR (TRANSACTION_CODE  > :SPEC-LAST-TRANS-CD)) PPWDLTE
019900            ORDER BY TRANSACTION_CODE,                            PPWDLTE
020000                     ENTRY_SEQUENCE_NO                            PPWDLTE
020100      END-EXEC.                                                   PPWDLTE
020300******************************************************************PPWDLTE
020400*    CURSOR FOR PF7                                              *PPWDLTE
020500******************************************************************PPWDLTE
020600      EXEC SQL DECLARE                                            PPWDLTE
020700            ABE-PF7-CURS CURSOR FOR                               PPWDLTE
020710            SELECT TRANSACTION_CODE,                              PPWDLTE
020720                   ENTRY_SEQUENCE_NO,                             PPWDLTE
020721                   EMPLOYEE_NAME,                                 PPWDLTE
020730                   TRANSACTION_IMAGE                              PPWDLTE
020900            FROM PPPVZABE_ABE                                     PPWDLTE
011300            WHERE (EMPLOYEE_ID        = :SPEC-ENTERED-ID)         PPWDLTE
011400              AND (PAR_CONTROL_NUMBER = :SPEC-ENTERED-PAR)        PPWDLTE
011500              AND ((TRANSACTION_CODE      = :SPEC-LAST-TRANS-CD   PPWDLTE
011600                    AND ENTRY_SEQUENCE_NO < :SPEC-LAST-SEQ-NO)    PPWDLTE
011700                  OR (TRANSACTION_CODE  < :SPEC-LAST-TRANS-CD))   PPWDLTE
021500            ORDER BY TRANSACTION_CODE DESC,                       PPWDLTE
021600                     ENTRY_SEQUENCE_NO DESC                       PPWDLTE
021700      END-EXEC.                                                   PPWDLTE
021800                                                                  PPWDLTE
022300 PROCEDURE DIVISION.                                              PPWDLTE
022400                                                                  PPWDLTE
012400 0000-MAINLINE.                                                   PPWDLTE
022900                                                                  PPWDLTE
012600     EXEC SQL                                                     PPWDLTE
012700          INCLUDE CPPDXE99                                        PPWDLTE
012800     END-EXEC.                                                    PPWDLTE
012900     MOVE SPACE TO UCPISCRN-MORE-MESSAGES-SW.                     PPWDLTE
013000     SET UCPISCRN-FORWARD-NOT-AVAIL TO TRUE.                      PPWDLTE
013100     SET UCPISCRN-BACKWARD-NOT-AVAIL TO TRUE.                     PPWDLTE
013200     SET UCCOMMON-NO-EDIT-ERRORS TO TRUE.                         PPWDLTE
013300     MOVE WS-RELEASE-NUMBER TO UCPISCRN-DTL-REL-NO.               PPWDLTE
013400     EVALUATE TRUE                                                PPWDLTE
013500        WHEN UCCOMMON-DISPLAY-REQUEST                             PPWDLTE
013600          IF UCCOMMON-LOGIC-FUNC-CANCEL                           PPWDLTE
013700             MOVE SPACE TO SPEC-DELETE-IND                        PPWDLTE
013800          END-IF                                                  PPWDLTE
013900          IF UCCOMMON-DISPLAY-PAGE-1                              PPWDLTE
014000             PERFORM 1000-DISPLAY-REQUEST                         PPWDLTE
014100          ELSE                                                    PPWDLTE
014200             PERFORM 1800-DISPLAY-CURRENT                         PPWDLTE
014300          END-IF                                                  PPWDLTE
014400        WHEN UCCOMMON-EDIT-REQUEST                                PPWDLTE
014500             PERFORM 4000-EDIT-REQUEST                            PPWDLTE
014600        WHEN UCCOMMON-BACKWARD-REQUEST                            PPWDLTE
014700             PERFORM 2000-BACKWARD-REQUEST                        PPWDLTE
014800        WHEN UCCOMMON-FORWARD-REQUEST                             PPWDLTE
014900             PERFORM 3000-FORWARD-REQUEST                         PPWDLTE
015000        WHEN OTHER                                                PPWDLTE
015100          PERFORM 9000-INVALID-REQUEST-CODE                       PPWDLTE
015200     END-EVALUATE.                                                PPWDLTE
015300     MOVE LENGTH OF PPDLTE0O TO UCPISCRN-DETAIL-MAP-LENGTH.       PPWDLTE
015400     MOVE SPEC-ENTERED-ID TO HDR-IDO                              PPWDLTE
015500     MOVE SPEC-ENTERED-PAR TO PARO                                PPWDLTE
015600     MOVE SPEC-SSN TO HDR-SSNO                                    PPWDLTE
015700     MOVE SPEC-NAME TO HDR-NAMEO                                  PPWDLTE
015800     MOVE SPEC-ENTERED-CHECK TO CHK-NOO                           PPWDLTE
015900     MOVE SPEC-CURRENT-PAGE TO CURRENT-PAGEO                      PPWDLTE
016000     MOVE SPEC-TOTAL-PAGES  TO TOTAL-PAGESO.                      PPWDLTE
016100     IF SPEC-CURRENT-PAGE > 1                                     PPWDLTE
016200        SET UCPISCRN-BACKWARD TO TRUE                             PPWDLTE
016300     END-IF.                                                      PPWDLTE
016400     IF SPEC-CURRENT-PAGE < SPEC-TOTAL-PAGES                      PPWDLTE
016500        SET UCPISCRN-FORWARD TO TRUE                              PPWDLTE
016600     END-IF.                                                      PPWDLTE
023200     GOBACK.                                                      PPWDLTE
023300                                                                  PPWDLTE
016900 0500-INIT-SCREEN.                                                PPWDLTE
023400                                                                  PPWDLTE
017100     MOVE UCCOMMON-CLR-FLD-LABEL TO                               PPWDLTE
017200                            SCALEC                                PPWDLTE
028700                            L-CURRENT-PAGEC                       PPWDLTE
028800                            L-TOTAL-PAGESC                        PPWDLTE
017500                            L-PARC                                PPWDLTE
029700                            L-CHK-NOC                             PPWDLTE
029800                            L-CHK-DTC                             PPWDLTE
029900                            L-PAY-SCHC                            PPWDLTE
030000                            L-TOTAL-GROSSC                        PPWDLTE
030100                            L-TOTAL-NETC                          PPWDLTE
030200                            L-YEAR-INDC                           PPWDLTE
030300                            L-YTD-BAL-INDC                        PPWDLTE
018300                            L-DELETE-INDC.                        PPWDLTE
018400     MOVE UCCOMMON-ATR-FLD-LABEL TO                               PPWDLTE
018500                            SCALEA                                PPWDLTE
018600                            L-CURRENT-PAGEA                       PPWDLTE
018700                            L-TOTAL-PAGESA                        PPWDLTE
018800                            L-PARA                                PPWDLTE
018900                            L-CHK-NOA                             PPWDLTE
019000                            L-CHK-DTA                             PPWDLTE
019100                            L-PAY-SCHA                            PPWDLTE
019200                            L-TOTAL-GROSSA                        PPWDLTE
019300                            L-TOTAL-NETA                          PPWDLTE
019400                            L-YEAR-INDA                           PPWDLTE
019500                            L-YTD-BAL-INDA                        PPWDLTE
019600                            L-DELETE-INDA.                        PPWDLTE
019700     MOVE UCCOMMON-HLT-FLD-LABEL TO                               PPWDLTE
019800                            SCALEH                                PPWDLTE
019900                            L-CURRENT-PAGEH                       PPWDLTE
020000                            L-TOTAL-PAGESH                        PPWDLTE
020100                            L-PARH                                PPWDLTE
020200                            L-CHK-NOH                             PPWDLTE
020300                            L-CHK-DTH                             PPWDLTE
020400                            L-PAY-SCHH                            PPWDLTE
020500                            L-TOTAL-GROSSH                        PPWDLTE
020600                            L-TOTAL-NETH                          PPWDLTE
020700                            L-YEAR-INDH                           PPWDLTE
020800                            L-YTD-BAL-INDH                        PPWDLTE
020900                            L-DELETE-INDH.                        PPWDLTE
021000     MOVE UCCOMMON-CLR-NORM-DISPL TO                              PPWDLTE
021100                            HDR-IDC                               PPWDLTE
021200                            HDR-NAMEC                             PPWDLTE
021300                            HDR-SSNC                              PPWDLTE
021400                            PARC                                  PPWDLTE
021500                            CHK-NOC                               PPWDLTE
021600                            CHK-DTC                               PPWDLTE
021700                            PAY-SCHC                              PPWDLTE
021800                            TOTAL-GROSSC                          PPWDLTE
021900                            TOTAL-NETC                            PPWDLTE
022000                            YEAR-INDC                             PPWDLTE
022100                            YTD-BAL-INDC                          PPWDLTE
022200                            CURRENT-PAGEC                         PPWDLTE
022300                            TOTAL-PAGESC.                         PPWDLTE
022400     MOVE UCCOMMON-ATR-NORM-DISPL TO                              PPWDLTE
022500                            HDR-IDA                               PPWDLTE
022600                            HDR-NAMEA                             PPWDLTE
022700                            HDR-SSNA                              PPWDLTE
022800                            PARA                                  PPWDLTE
022900                            CHK-NOA                               PPWDLTE
023000                            CHK-DTA                               PPWDLTE
023100                            PAY-SCHA                              PPWDLTE
023200                            TOTAL-GROSSA                          PPWDLTE
023300                            TOTAL-NETA                            PPWDLTE
023400                            YEAR-INDA                             PPWDLTE
023500                            YTD-BAL-INDA                          PPWDLTE
023600                            CURRENT-PAGEA                         PPWDLTE
023700                            TOTAL-PAGESA.                         PPWDLTE
023800     MOVE UCCOMMON-HLT-NORM-DISPL TO                              PPWDLTE
023900                            HDR-IDH                               PPWDLTE
024000                            HDR-NAMEH                             PPWDLTE
024100                            HDR-SSNH                              PPWDLTE
024200                            PARH                                  PPWDLTE
024300                            CHK-NOH                               PPWDLTE
024400                            CHK-DTH                               PPWDLTE
024500                            PAY-SCHH                              PPWDLTE
024600                            TOTAL-GROSSH                          PPWDLTE
024700                            TOTAL-NETH                            PPWDLTE
024800                            YEAR-INDH                             PPWDLTE
024900                            YTD-BAL-INDH                          PPWDLTE
025000                            CURRENT-PAGEH                         PPWDLTE
025100                            TOTAL-PAGESH.                         PPWDLTE
025200     MOVE UCCOMMON-CLR-ENTRY TO                                   PPWDLTE
025300                            DELETE-INDC.                          PPWDLTE
025400     MOVE UCCOMMON-ATR-ENTRY TO                                   PPWDLTE
025500                            DELETE-INDA.                          PPWDLTE
025600     MOVE UCCOMMON-HLT-ENTRY TO                                   PPWDLTE
025700                            DELETE-INDH.                          PPWDLTE
025800     PERFORM VARYING IX1 FROM 1 BY 1 UNTIL IX1 > 8                PPWDLTE
025900       MOVE UCCOMMON-CLR-NORM-DISPL TO TRANS-LINEC (IX1)          PPWDLTE
026000       MOVE UCCOMMON-ATR-NORM-DISPL TO TRANS-LINEA (IX1)          PPWDLTE
026100       MOVE UCCOMMON-HLT-NORM-DISPL TO TRANS-LINEH (IX1)          PPWDLTE
036500     END-PERFORM.                                                 PPWDLTE
036600                                                                  PPWDLTE
026400 1000-DISPLAY-REQUEST.                                            PPWDLTE
036800                                                                  PPWDLTE
026600     MOVE LOW-VALUES TO PPDLTE0O.                                 PPWDLTE
026700     PERFORM 0500-INIT-SCREEN.                                    PPWDLTE
026800     PERFORM 8500-OPEN-ABE-CURS.                                  PPWDLTE
026900     PERFORM 8600-FETCH-ABE-CURS.                                 PPWDLTE
027000     IF SQLCODE = 100                                             PPWDLTE
027100        MOVE MP0507 TO UCCOMMON-MSG-NUMBER                        PPWDLTE
027200     ELSE                                                         PPWDLTE
027300        IF ABEY-TRANSACTION-CODE-2 = '0'                          PPWDLTE
027400           PERFORM 1200-BUILD-DISPLAY                             PPWDLTE
027500        ELSE                                                      PPWDLTE
027600           MOVE MP0598 TO UCCOMMON-MSG-NUMBER                     PPWDLTE
027700        END-IF                                                    PPWDLTE
027800     END-IF.                                                      PPWDLTE
027900     PERFORM 8700-CLOSE-ABE-CURS.                                 PPWDLTE
028000     MOVE 1 TO SPEC-CURRENT-PAGE                                  PPWDLTE
028100     IF SPEC-DELETE-IND = 'Y' OR 'N' OR ' '                       PPWDLTE
028200        MOVE UCCOMMON-ATR-ENTRY     TO DELETE-INDA                PPWDLTE
028300        MOVE UCCOMMON-CLR-ENTRY     TO DELETE-INDC                PPWDLTE
028400        MOVE UCCOMMON-HLT-ENTRY     TO DELETE-INDH                PPWDLTE
028500     ELSE                                                         PPWDLTE
028600        MOVE UCCOMMON-ATR-ERROR     TO DELETE-INDA                PPWDLTE
028700        MOVE UCCOMMON-CLR-ERROR     TO DELETE-INDC                PPWDLTE
028800        MOVE UCCOMMON-HLT-ERROR     TO DELETE-INDH                PPWDLTE
028900        MOVE -1 TO DELETE-INDL                                    PPWDLTE
029000     END-IF.                                                      PPWDLTE
029100     MOVE SPEC-DELETE-IND TO DELETE-INDO.                         PPWDLTE
029200     MOVE -1 TO DELETE-INDL.                                      PPWDLTE
029300                                                                  PPWDLTE
029400 1200-BUILD-DISPLAY.                                              PPWDLTE
029500                                                                  PPWDLTE
029600     MOVE ABEY-EMPLOYEE-NAME       TO SPEC-NAME                   PPWDLTE
029700     MOVE ABEY-SOC-SEC-NO          TO SPEC-SSN                    PPWDLTE
029800     MOVE ABEY-TRANS-CHK-NUMBER    TO SPEC-ENTERED-CHECK          PPWDLTE
029900     MOVE ABEY-TRANS-CHK-DATE      TO CHK-DTO(1:2).               PPWDLTE
030000     MOVE ABEY-TRANS-CHK-DATE(4:2) TO CHK-DTO(3:2).               PPWDLTE
030100     MOVE ABEY-TRANS-CHK-DATE(9:2) TO CHK-DTO(5:2).               PPWDLTE
030200     MOVE ABEY-TRANS-PAY-SCH       TO PAY-SCHO.                   PPWDLTE
030300     MOVE TOTAL-ORCA-GROSS         TO WS-TOTAL-GROSS-N.           PPWDLTE
030400     MOVE TOTAL-ORCA-NET           TO WS-TOTAL-NET-N.             PPWDLTE
030500     MOVE WS-TOTAL-GROSS-X         TO TOTAL-GROSSO.               PPWDLTE
030600     MOVE WS-TOTAL-NET-X           TO TOTAL-NETO.                 PPWDLTE
030700     MOVE ABEY-TRANS-YTD-BAL-IND   TO YTD-BAL-INDO.               PPWDLTE
030800     MOVE ABEY-EDB-PROCESS-YEAR (1:1) TO YEAR-INDO.               PPWDLTE
030900     DIVIDE TOTAL-ORCA-RECORDS BY 8                               PPWDLTE
031000       GIVING SPEC-TOTAL-PAGES REMAINDER WS-REMAINDER.            PPWDLTE
031100     IF WS-REMAINDER > ZERO                                       PPWDLTE
031200        ADD 1 TO SPEC-TOTAL-PAGES.                                PPWDLTE
031300     MOVE TRANSACTION-CODE TO SPEC-FIRST-TRANS-CD                 PPWDLTE
031400     MOVE ENTRY-SEQUENCE-NO TO SPEC-FIRST-SEQ-NO                  PPWDLTE
031500     PERFORM VARYING IX1 FROM 1 BY 1                              PPWDLTE
031600       UNTIL IX1 > 8                                              PPWDLTE
031700          OR SQLCODE = 100                                        PPWDLTE
031800      MOVE TRANSACTION-IMAGE TO SPEC-TRANS-LINES (IX1)            PPWDLTE
031900                                TRANS-LINEO (IX1)                 PPWDLTE
032000      MOVE TRANSACTION-CODE TO SPEC-LAST-TRANS-CD                 PPWDLTE
032100      MOVE ENTRY-SEQUENCE-NO TO SPEC-LAST-SEQ-NO                  PPWDLTE
032200      PERFORM 8600-FETCH-ABE-CURS                                 PPWDLTE
032300     END-PERFORM.                                                 PPWDLTE
032400                                                                  PPWDLTE
032500 1800-DISPLAY-CURRENT.                                            PPWDLTE
032600                                                                  PPWDLTE
032700     IF DELETE-INDL > ZERO                                        PPWDLTE
032800        MOVE DELETE-INDI TO SPEC-DELETE-IND                       PPWDLTE
032900     ELSE                                                         PPWDLTE
033000      IF DELETE-INDF = ERASE-EOF                                  PPWDLTE
033100         MOVE SPACES TO SPEC-DELETE-IND                           PPWDLTE
033200      END-IF                                                      PPWDLTE
033300     END-IF.                                                      PPWDLTE
033400     MOVE LOW-VALUES TO PPDLTE0O.                                 PPWDLTE
033500     PERFORM 0500-INIT-SCREEN.                                    PPWDLTE
033600     MOVE SPEC-ENTERED-CHECK TO CHK-NOO.                          PPWDLTE
033700     MOVE SPEC-CURR-PRIOR-YR TO YEAR-INDO.                        PPWDLTE
033800     PERFORM VARYING IX1 FROM 1 BY 1 UNTIL IX1 > 8                PPWDLTE
033900      MOVE SPEC-TRANS-LINES (IX1) TO TRANS-LINEO (IX1)            PPWDLTE
034000     END-PERFORM.                                                 PPWDLTE
034100     IF SPEC-DELETE-IND = 'Y' OR 'N'                              PPWDLTE
034200        MOVE UCCOMMON-ATR-ENTRY     TO DELETE-INDA                PPWDLTE
034300        MOVE UCCOMMON-CLR-ENTRY     TO DELETE-INDC                PPWDLTE
034400        MOVE UCCOMMON-HLT-ENTRY     TO DELETE-INDH                PPWDLTE
034500     ELSE                                                         PPWDLTE
034600        MOVE UCCOMMON-ATR-ERROR     TO DELETE-INDA                PPWDLTE
034700        MOVE UCCOMMON-CLR-ERROR     TO DELETE-INDC                PPWDLTE
034800        MOVE UCCOMMON-HLT-ERROR     TO DELETE-INDH                PPWDLTE
034900        MOVE -1 TO DELETE-INDL                                    PPWDLTE
035000     END-IF.                                                      PPWDLTE
035100     MOVE SPEC-DELETE-IND TO DELETE-INDO.                         PPWDLTE
035200     MOVE -1 TO DELETE-INDL.                                      PPWDLTE
035300                                                                  PPWDLTE
035400 2000-BACKWARD-REQUEST.                                           PPWDLTE
035500                                                                  PPWDLTE
035600     IF DELETE-INDL > ZERO                                        PPWDLTE
035700        MOVE DELETE-INDI TO SPEC-DELETE-IND                       PPWDLTE
035800     ELSE                                                         PPWDLTE
035900      IF DELETE-INDF = ERASE-EOF                                  PPWDLTE
036000         MOVE SPACES TO SPEC-DELETE-IND                           PPWDLTE
036100      END-IF                                                      PPWDLTE
036200     END-IF.                                                      PPWDLTE
036300     PERFORM 0500-INIT-SCREEN.                                    PPWDLTE
036400     MOVE SPEC-ENTERED-CHECK TO CHK-NOO.                          PPWDLTE
036500     MOVE SPEC-CURR-PRIOR-YR TO YEAR-INDO.                        PPWDLTE
036600     IF SPEC-DELETE-IND = 'Y' OR 'N'                              PPWDLTE
036700        MOVE UCCOMMON-ATR-ENTRY     TO DELETE-INDA                PPWDLTE
036800        MOVE UCCOMMON-CLR-ENTRY     TO DELETE-INDC                PPWDLTE
036900        MOVE UCCOMMON-HLT-ENTRY     TO DELETE-INDH                PPWDLTE
037000     ELSE                                                         PPWDLTE
037100        MOVE UCCOMMON-ATR-ERROR     TO DELETE-INDA                PPWDLTE
037200        MOVE UCCOMMON-CLR-ERROR     TO DELETE-INDC                PPWDLTE
037300        MOVE UCCOMMON-HLT-ERROR     TO DELETE-INDH                PPWDLTE
037400        MOVE -1 TO DELETE-INDL                                    PPWDLTE
037500     END-IF.                                                      PPWDLTE
037600     MOVE SPEC-DELETE-IND TO DELETE-INDO                          PPWDLTE
037700     PERFORM 8100-OPEN-ABE-PF7-CURS.                              PPWDLTE
037800     PERFORM 8200-FETCH-ABE-PF7-CURS                              PPWDLTE
037900     MOVE TRANSACTION-CODE TO SPEC-LAST-TRANS-CD                  PPWDLTE
038000     MOVE ENTRY-SEQUENCE-NO TO SPEC-LAST-SEQ-NO                   PPWDLTE
038100     PERFORM VARYING IX1 FROM 8 BY -1                             PPWDLTE
038200       UNTIL IX1 < 1                                              PPWDLTE
038300       OR SQLCODE = +100                                          PPWDLTE
038400      MOVE TRANSACTION-IMAGE TO TRANS-LINEO (IX1)                 PPWDLTE
038500                                SPEC-TRANS-LINES (IX1)            PPWDLTE
038600      MOVE TRANSACTION-CODE TO SPEC-FIRST-TRANS-CD                PPWDLTE
038700      MOVE ENTRY-SEQUENCE-NO TO SPEC-FIRST-SEQ-NO                 PPWDLTE
038800      PERFORM 8200-FETCH-ABE-PF7-CURS                             PPWDLTE
038900     END-PERFORM.                                                 PPWDLTE
039000     PERFORM 8250-CLOSE-ABE-PF7-CURS                              PPWDLTE
039100     SUBTRACT 1 FROM SPEC-CURRENT-PAGE.                           PPWDLTE
039200                                                                  PPWDLTE
039300 3000-FORWARD-REQUEST.                                            PPWDLTE
039400                                                                  PPWDLTE
039500     IF DELETE-INDL > ZERO                                        PPWDLTE
039600        MOVE DELETE-INDI TO SPEC-DELETE-IND                       PPWDLTE
039700     ELSE                                                         PPWDLTE
039800      IF DELETE-INDF = ERASE-EOF                                  PPWDLTE
039900         MOVE SPACES TO SPEC-DELETE-IND                           PPWDLTE
040000      END-IF                                                      PPWDLTE
040100     END-IF.                                                      PPWDLTE
040200     PERFORM 0500-INIT-SCREEN.                                    PPWDLTE
040300     MOVE SPEC-ENTERED-CHECK TO CHK-NOO.                          PPWDLTE
040400     MOVE SPEC-CURR-PRIOR-YR TO YEAR-INDO.                        PPWDLTE
040500     IF SPEC-DELETE-IND = 'Y' OR 'N'                              PPWDLTE
040600        MOVE UCCOMMON-ATR-ENTRY     TO DELETE-INDA                PPWDLTE
040700        MOVE UCCOMMON-CLR-ENTRY     TO DELETE-INDC                PPWDLTE
040800        MOVE UCCOMMON-HLT-ENTRY     TO DELETE-INDH                PPWDLTE
040900     ELSE                                                         PPWDLTE
041000        MOVE UCCOMMON-ATR-ERROR     TO DELETE-INDA                PPWDLTE
041100        MOVE UCCOMMON-CLR-ERROR     TO DELETE-INDC                PPWDLTE
041200        MOVE UCCOMMON-HLT-ERROR     TO DELETE-INDH                PPWDLTE
041300        MOVE -1 TO DELETE-INDL                                    PPWDLTE
041400     END-IF.                                                      PPWDLTE
041500     MOVE SPEC-DELETE-IND TO DELETE-INDO.                         PPWDLTE
041600     PERFORM 8300-OPEN-ABE-PF8-CURS.                              PPWDLTE
041700     PERFORM 8400-FETCH-ABE-PF8-CURS                              PPWDLTE
041800     MOVE TRANSACTION-CODE TO SPEC-FIRST-TRANS-CD                 PPWDLTE
041900     MOVE ENTRY-SEQUENCE-NO TO SPEC-FIRST-SEQ-NO                  PPWDLTE
042000     PERFORM VARYING IX1 FROM 1 BY 1                              PPWDLTE
042100       UNTIL IX1 > 8                                              PPWDLTE
042200          OR SQLCODE = +100                                       PPWDLTE
042300      MOVE TRANSACTION-IMAGE TO TRANS-LINEO (IX1)                 PPWDLTE
042400                                SPEC-TRANS-LINES (IX1)            PPWDLTE
042500      MOVE TRANSACTION-CODE TO SPEC-LAST-TRANS-CD                 PPWDLTE
042600      MOVE ENTRY-SEQUENCE-NO TO SPEC-LAST-SEQ-NO                  PPWDLTE
042700      PERFORM 8400-FETCH-ABE-PF8-CURS                             PPWDLTE
042800     END-PERFORM.                                                 PPWDLTE
042900     PERFORM 8450-CLOSE-ABE-PF8-CURS                              PPWDLTE
043000     ADD 1 TO SPEC-CURRENT-PAGE.                                  PPWDLTE
043100                                                                  PPWDLTE
043200 4000-EDIT-REQUEST.                                               PPWDLTE
043300                                                                  PPWDLTE
043400     IF DELETE-INDL > ZERO                                        PPWDLTE
043500        MOVE DELETE-INDI TO SPEC-DELETE-IND                       PPWDLTE
043600     ELSE                                                         PPWDLTE
043700      IF DELETE-INDF = ERASE-EOF                                  PPWDLTE
043800         MOVE SPACES TO SPEC-DELETE-IND                           PPWDLTE
043900      END-IF                                                      PPWDLTE
044000     END-IF.                                                      PPWDLTE
044100     PERFORM 0500-INIT-SCREEN.                                    PPWDLTE
044200     MOVE SPEC-ENTERED-CHECK TO CHK-NOO.                          PPWDLTE
044300     IF SPEC-DELETE-IND = 'Y' OR 'N'                              PPWDLTE
044400        MOVE MP0417 TO UCCOMMON-MSG-NUMBER                        PPWDLTE
044500        MOVE UCCOMMON-ATR-ENTRY     TO DELETE-INDA                PPWDLTE
044600        MOVE UCCOMMON-CLR-ENTRY     TO DELETE-INDC                PPWDLTE
044700        MOVE UCCOMMON-HLT-ENTRY     TO DELETE-INDH                PPWDLTE
044800     ELSE                                                         PPWDLTE
044900        MOVE MP0421 TO UCCOMMON-MSG-NUMBER                        PPWDLTE
045000        SET UCCOMMON-EDIT-ERRORS-FOUND TO TRUE                    PPWDLTE
045100        MOVE UCCOMMON-ATR-ERROR     TO DELETE-INDA                PPWDLTE
045200        MOVE UCCOMMON-CLR-ERROR     TO DELETE-INDC                PPWDLTE
045300        MOVE UCCOMMON-HLT-ERROR     TO DELETE-INDH                PPWDLTE
045400     END-IF.                                                      PPWDLTE
045500     MOVE -1 TO DELETE-INDL.                                      PPWDLTE
045600     MOVE SPEC-DELETE-IND TO DELETE-INDO.                         PPWDLTE
045700     PERFORM 8500-OPEN-ABE-CURS.                                  PPWDLTE
045800     PERFORM 8600-FETCH-ABE-CURS.                                 PPWDLTE
045900     IF SQLCODE = 100                                             PPWDLTE
046000        MOVE MP0407 TO UCCOMMON-MSG-NUMBER                        PPWDLTE
046100     ELSE                                                         PPWDLTE
046200        IF ABEY-TRANSACTION-CODE-2 = '0'                          PPWDLTE
046300           PERFORM 1200-BUILD-DISPLAY                             PPWDLTE
046400        ELSE                                                      PPWDLTE
046500           MOVE MP0598 TO UCCOMMON-MSG-NUMBER                     PPWDLTE
046600        END-IF                                                    PPWDLTE
046700     END-IF.                                                      PPWDLTE
046800     PERFORM 8700-CLOSE-ABE-CURS.                                 PPWDLTE
046900                                                                  PPWDLTE
047000                                                                  PPWDLTE
047100 8100-OPEN-ABE-PF7-CURS.                                          PPWDLTE
047200                                                                  PPWDLTE
047300     MOVE '8150-OPEN-ABE-PF7' TO DB2MSG-TAG.                      PPWDLTE
055431     EXEC SQL                                                     PPWDLTE
055432       OPEN ABE-PF7-CURS                                          PPWDLTE
055433     END-EXEC.                                                    PPWDLTE
055434                                                                  PPWDLTE
047800 8200-FETCH-ABE-PF7-CURS.                                         PPWDLTE
055447                                                                  PPWDLTE
048000     MOVE '8200-FETCH-ABE-PF7' TO DB2MSG-TAG.                     PPWDLTE
055451     EXEC SQL                                                     PPWDLTE
055452       FETCH ABE-PF7-CURS                                         PPWDLTE
055453         INTO :TRANSACTION-CODE,                                  PPWDLTE
055454              :ENTRY-SEQUENCE-NO,                                 PPWDLTE
055455              :EMPLOYEE-NAME,                                     PPWDLTE
055456              :TRANSACTION-IMAGE                                  PPWDLTE
055457     END-EXEC.                                                    PPWDLTE
055459     IF  SQLCODE  = ZERO                                          PPWDLTE
055460         MOVE WS-ABE TO ABEYANCE-ORCA-RECORD                      PPWDLTE
055464     END-IF.                                                      PPWDLTE
055800                                                                  PPWDLTE
049200 8250-CLOSE-ABE-PF7-CURS.                                         PPWDLTE
055810                                                                  PPWDLTE
049400     MOVE '8250-CLOSE-ABE-PF7' TO DB2MSG-TAG.                     PPWDLTE
049500     EXEC SQL                                                     PPWDLTE
049600       CLOSE ABE-PF7-CURS                                         PPWDLTE
049700     END-EXEC.                                                    PPWDLTE
056532                                                                  PPWDLTE
049900 8300-OPEN-ABE-PF8-CURS.                                          PPWDLTE
056533                                                                  PPWDLTE
050100     MOVE '8300-OPEN-ABE-PF8' TO DB2MSG-TAG.                      PPWDLTE
056550     EXEC SQL                                                     PPWDLTE
056560       OPEN ABE-PF8-CURS                                          PPWDLTE
056570     END-EXEC.                                                    PPWDLTE
056580                                                                  PPWDLTE
050600 8400-FETCH-ABE-PF8-CURS.                                         PPWDLTE
056602                                                                  PPWDLTE
050800     MOVE '8300-FETCH-ABE-PF8' TO DB2MSG-TAG.                     PPWDLTE
056606     EXEC SQL                                                     PPWDLTE
056607       FETCH ABE-PF8-CURS                                         PPWDLTE
056608         INTO :TRANSACTION-CODE,                                  PPWDLTE
056609              :ENTRY-SEQUENCE-NO,                                 PPWDLTE
056610              :EMPLOYEE-NAME,                                     PPWDLTE
056611              :TRANSACTION-IMAGE                                  PPWDLTE
056612     END-EXEC.                                                    PPWDLTE
056614     IF  SQLCODE  = ZERO                                          PPWDLTE
056615         MOVE WS-ABE TO ABEYANCE-ORCA-RECORD                      PPWDLTE
056619     END-IF.                                                      PPWDLTE
056620                                                                  PPWDLTE
052000 8450-CLOSE-ABE-PF8-CURS.                                         PPWDLTE
056621                                                                  PPWDLTE
052200     MOVE '8450-CLOSE-ABE-PF8' TO DB2MSG-TAG.                     PPWDLTE
052300     EXEC SQL                                                     PPWDLTE
052400      CLOSE ABE-PF8-CURS                                          PPWDLTE
063730     END-EXEC.                                                    PPWDLTE
063800                                                                  PPWDLTE
052700 8500-OPEN-ABE-CURS.                                              PPWDLTE
064300                                                                  PPWDLTE
052900     MOVE '8500-OPEN-ABE-CURS' TO DB2MSG-TAG.                     PPWDLTE
084800     EXEC SQL                                                     PPWDLTE
084900       OPEN ABE-CURS                                              PPWDLTE
085000     END-EXEC.                                                    PPWDLTE
085100                                                                  PPWDLTE
053400 8600-FETCH-ABE-CURS.                                             PPWDLTE
086400                                                                  PPWDLTE
053600     MOVE '8600-FETCH-ABE-CURS' TO DB2MSG-TAG.                    PPWDLTE
086530     EXEC SQL                                                     PPWDLTE
086540       FETCH ABE-CURS                                             PPWDLTE
086541         INTO :TRANSACTION-CODE,                                  PPWDLTE
086542              :ENTRY-SEQUENCE-NO,                                 PPWDLTE
086543              :EMPLOYEE-NAME,                                     PPWDLTE
086544              :TRANSACTION-IMAGE                                  PPWDLTE
086550     END-EXEC.                                                    PPWDLTE
086570     IF  SQLCODE  = ZERO                                          PPWDLTE
086580         MOVE WS-ABE TO ABEYANCE-ORCA-RECORD                      PPWDLTE
086599     END-IF.                                                      PPWDLTE
086600                                                                  PPWDLTE
054800 8700-CLOSE-ABE-CURS.                                             PPWDLTE
086601                                                                  PPWDLTE
055000     MOVE '8700-CLOSE-ABE-CURS' TO DB2MSG-TAG.                    PPWDLTE
087700     EXEC SQL                                                     PPWDLTE
055200      CLOSE ABE-CURS                                              PPWDLTE
087900     END-EXEC.                                                    PPWDLTE
088000                                                                  PPWDLTE
055500 9000-INVALID-REQUEST-CODE.                                       PPWDLTE
088500                                                                  PPWDLTE
055700     MOVE 'INVALID UCCOMMON-REQUEST-CODE'                         PPWDLTE
055800       TO UCWSABND-MSG-DATA.                                      PPWDLTE
055900     MOVE 'PPWDLTE'        TO UCWSABND-ABENDING-PGM.              PPWDLTE
056000     MOVE SPACES          TO UCWSABND-ABEND-DATA(1)               PPWDLTE
056100                             UCWSABND-ABEND-DATA(2).              PPWDLTE
056200     STRING                                                       PPWDLTE
056300           'INVALID REQUEST CODE = '  DELIMITED BY SIZE           PPWDLTE
056400            UCCOMMON-REQUEST-CODE     DELIMITED BY SIZE           PPWDLTE
056500       INTO UCWSABND-ABEND-DATA(1)                                PPWDLTE
056600     END-STRING.                                                  PPWDLTE
089000     PERFORM 9999-ABEND.                                          PPWDLTE
056800                                                                  PPWDLTE
056900 9999-ABEND    SECTION.                                           PPWDLTE
057000**************************************************************    PPWDLTE
057100*  COPIED PROCEDURE DIVISION CODE FOR ABEND HANDLING         *    PPWDLTE
057200**************************************************************    PPWDLTE
057300     MOVE 'PPWDLTE' TO UCWSABND-ABENDING-PGM.                     PPWDLTE
057400     COPY UCPDABND.                                               PPWDLTE
057500                                                                  PPWDLTE
057600*99999-SQL-ERROR.                                                 PPWDLTE
057700**************************************************************    PPWDLTE
057800*  COPIED PROCEDURE DIVISION CODE FOR SQL ERROR HANDLING     *    PPWDLTE
057900**************************************************************    PPWDLTE
058000      EXEC SQL                                                    PPWDLTE
058100           INCLUDE CPPDXP99                                       PPWDLTE
058200      END-EXEC.                                                   PPWDLTE
058300      MOVE 'SQL ERROR - SEE PRECEDING DB2 MESSAGES'               PPWDLTE
058400                                      TO UCWSABND-ABEND-DATA (1). PPWDLTE
058500      PERFORM 9999-ABEND.                                         PPWDLTE
