000000**************************************************************/   28521265
000001*  PROGRAM: PPWELEM                                          */   28521265
000002*  RELEASE: ___1265______ SERVICE REQUEST(S): ____12852____  */   28521265
000003*  NAME:_______QUAN______ MODIFICATION DATE:  ___11/17/99__  */   28521265
000004*  DESCRIPTION:                                              */   28521265
000005*  - REMOVED HARD-CODED CENTURY VALUE '19' FROM WS-NUM-DATE  */   28521265
000006*    DATA STRUCTURE. IF THE VALUE IN TEMP-DATA-VALUE RETURNED*/   28521265
000007*    FROM FETCH COMPLEX IS A DATE, CALL DATE ROUTINE TO      */   28521265
000008*    CONVERT THE DATE TO USA. MOVE THE USA DATE TO WS-NUM-DATE/   28521265
000009*    PRIOR TO EXECUTING COMPARE LOGIC.                       */   28521265
000010**************************************************************/   28521265
000100**************************************************************/   36430911
000200*  PROGRAM: PPWELEM                                          */   36430911
000300*  RELEASE # ___0911___   SERVICE REQUEST NO(S)____3643______*/   36430911
000400*  NAME _PHIL THOMPSON_   MODIFICATION DATE ____06/30/94_____*/   36430911
000500*  DESCRIPTION                                               */   36430911
000600*                                                            */   36430911
000700*        THIS IS A COMPLETE REPLACEMENT OF PPWELEM           */   36430911
000800*                AS ISSUED IN RELEASE 0795                   */   36430911
000900*                                                            */   36430911
001000**************************************************************/   36430911
003100 IDENTIFICATION DIVISION.                                         PPWELEM
001200 PROGRAM-ID. PPWELEM.                                             PPWELEM
003300 ENVIRONMENT DIVISION.                                            PPWELEM
001400 CONFIGURATION SECTION.                                           PPWELEM
001500 SOURCE-COMPUTER.                                                 PPWELEM
001600 COPY  CPOTXUCS.                                                  PPWELEM
003400 DATA DIVISION.                                                   PPWELEM
003500 WORKING-STORAGE SECTION.                                         PPWELEM
003600                                                                  PPWELEM
002000 01  WS-COMN.                                                     PPWELEM
002100     05  WS-START             PIC X(27) VALUE                     PPWELEM
002200         'WORKING STORAGE STARTS HERE'.                           PPWELEM
002300     05  WS-PGM-NAME          PIC X(08) VALUE 'PPWELEM'.          PPWELEM
002400     05  WS-REL-NO            PIC X(05) VALUE 'I0911'.            PPWELEM
002500     05  WS-PPEDBFET                 PIC X(08)   VALUE 'PPEDBFET'.PPWELEM
008000     05  WS-PPDEXLAT                 PIC X(08)   VALUE 'PPDEXLAT'.PPWELEM
002700     05  WS-UNIQUE-EE-ID             PIC X(09).                   PPWELEM
002800     05  WS-CURSOR-SET-SW            PIC X(01) VALUE SPACE.       PPWELEM
002900         88  WS-CURSOR-SET           VALUE 'Y'.                   PPWELEM
003000         88  WS-CURSOR-NOT-SET       VALUE 'N'.                   PPWELEM
008200     05  WS-RATE-CODE                PIC X.                       PPWELEM
008300     05  WS-GTN-NUMBER               PIC X(3).                    PPWELEM
008400     05  WS-GTN-DESCRIPTION          PIC X(15).                   PPWELEM
008500     05  WS-ERR-1               PIC X(15) VALUE 'INVALID ELEM NO'.PPWELEM
008600     05  WS-ERR-2               PIC X(15) VALUE 'INVALID KEY'.    PPWELEM
008700     05  WS-ERR-3               PIC X(15) VALUE 'ELEMENT NO REQD'.PPWELEM
008800     05  WS-SUB1                     PIC S9(4) COMP.              PPWELEM
008900     05  WS-SUB2                     PIC S9(4) COMP.              PPWELEM
009000     05  WS-NUM-DEC-PLACES           PIC S9(4) COMP.              PPWELEM
009100     05  WS-DEC-COUNT                PIC S9(4) COMP.              PPWELEM
009200     05  WS-APPT-SLCT-KEY            PIC S9(4) COMP.              PPWELEM
009300     05  WS-IN-RATE-APP              PIC X(8).                    PPWELEM
009400     05  WS-RATE-H-APP REDEFINES WS-IN-RATE-APP PIC 9(4)V9(4).    PPWELEM
009500     05  WS-RATE-OTHER-APP REDEFINES WS-IN-RATE-APP PIC 9(6)V9(2).PPWELEM
009600     05  WS-IN-RATE-DIS              PIC X(7).                    PPWELEM
009700     05  WS-RATE-H-DIS REDEFINES WS-IN-RATE-DIS PIC 9(3)V9(4).    PPWELEM
009800     05  WS-RATE-OTHER-DIS REDEFINES WS-IN-RATE-DIS PIC 9(5)V9(2).PPWELEM
009900     05  WS-NUM-6                    PIC 9(6).                    PPWELEM
010000     05  WS-CHAR-6 REDEFINES WS-NUM-6.                            PPWELEM
010100         10  WS-CHAR-12              PIC XX.                      PPWELEM
010200         10  WS-CHAR-34              PIC XX.                      PPWELEM
010300         10  WS-CHAR-56              PIC XX.                      PPWELEM
010400     05  WS-NUM-DATE.                                             PPWELEM
010500         10  WS-MM                   PIC XX.                      PPWELEM
010600         10  FILLER                  PIC X VALUE '/'.             PPWELEM
010700         10  WS-DD                   PIC XX.                      PPWELEM
010800         10  FILLER                  PIC X VALUE '/'.             PPWELEM
005800******   10  FILLER                  PIC XX VALUE '19'.           28521265
005810         10  WS-CC                   PIC XX.                      28521265
011000         10  WS-YY                   PIC XX.                      PPWELEM
011100     05  WS-SCRN-ENTRIES.                                         PPWELEM
011200         10 FILLER  OCCURS 13 TIMES.                              PPWELEM
011300            15  WS-SCRN-ELEM-NO      PIC X(4).                    PPWELEM
011400            15  WS-SCRN-KEY          PIC X(4).                    PPWELEM
011500     05  WS-NUM-6000                PIC X(4) VALUE '6000'.        PPWELEM
011600     05  WS-NUM-7000                PIC X(4) VALUE '7000'.        PPWELEM
011700     05  WS-DEC-PT                  PIC X    VALUE '.'.           PPWELEM
012000     05  WS-RETURN-NUM-VALUE        PIC -(9)9.9(9).               PPWELEM
012100     05  WS-RETURN-CHAR-VALUE REDEFINES WS-RETURN-NUM-VALUE.      PPWELEM
012200         10  WS-RETURN-CHAR         PIC X OCCURS 20 TIMES.        PPWELEM
012300     05  WS-RETURN-REFORM-VALUE.                                  PPWELEM
012400         10  WS-RETURN-REFORM       PIC X OCCURS 20 TIMES.        PPWELEM
012500     05  WS-PTR-REF                 PIC S9(8) COMP.               PPWELEM
012600     05  WS-ELEM-NO-COUNT           PIC S9(4) COMP VALUE ZERO.    PPWELEM
012700     05  WS-REQ-LIST-SIZE           PIC S9(4) COMP VALUE ZERO.    PPWELEM
012800     05  WS-DATA-AREA               PIC S9(8) COMP.               PPWELEM
012900     05  WS-DB2-DATE.                                             PPWELEM
013000         10  FILLER             PIC X(6).                         PPWELEM
013100         10  WS-DB2-DATE-7-8    PIC X(2).                         PPWELEM
013200         10  WS-DB2-DATE-9-10   PIC X(2).                         PPWELEM
013500     05  WS-SCREEN-SUB         PIC S9(4) COMP.                    PPWELEM
013600     05  WS-INIT-SUB           PIC S9(4) COMP.                    PPWELEM
013700     05  WS-SUB                PIC S9(4) COMP.                    PPWELEM
013900     05  WS-RETURN-SUB         PIC S9(4) COMP VALUE ZERO.         PPWELEM
015900     05  WS-ERROR-FLAG          PIC X  VALUE 'N'.                 PPWELEM
016000         88  NO-ERROR           VALUE 'N'.                        PPWELEM
016100         88  AN-ERROR           VALUE 'Y'.                        PPWELEM
016200     05  WS-END-OF-VALUE-FLAG   PIC X  VALUE 'N'.                 PPWELEM
016300         88  WS-END-OF-VALUE    VALUE 'Y'.                        PPWELEM
016400     05  WS-DEC-PT-FLAG         PIC X  VALUE 'N'.                 PPWELEM
016500         88  WS-DEC-PT-FND      VALUE 'Y'.                        PPWELEM
009100 COPY CPWSCOMN.                                                   PPWELEM
016600                                                                  PPWELEM
009300 01  WS-MESS-NOS.                                                 PPWELEM
009400     05  MP0009                 PIC X(5) VALUE 'P0009'.           PPWELEM
016900                                                                  PPWELEM
009600 01  UCDTLARE  EXTERNAL.                                          PPWELEM
009700     COPY UCDTLARE.                                               PPWELEM
009800 01  WS-PPELEM0 REDEFINES UCDTLARE.                               PPWELEM
009900     COPY PPELEM0.                                                PPWELEM
017200                                                                  PPWELEM
010100 01  UCCOMMON    EXTERNAL.                                        PPWELEM
010200     EXEC SQL                                                     PPWELEM
010300      INCLUDE UCCOMMON                                            PPWELEM
010400     END-EXEC.                                                    PPWELEM
017500                                                                  PPWELEM
010600 01  CPWSWORK    EXTERNAL.                                        PPWELEM
017700     EXEC SQL                                                     PPWELEM
010800      INCLUDE CPWSWORK                                            PPWELEM
017900     END-EXEC.                                                    PPWELEM
018000                                                                  PPWELEM
011100 01  UCPISCRN    EXTERNAL.                                        PPWELEM
011200     COPY UCPISCRN.                                               PPWELEM
018300                                                                  PPWELEM
011400 01  UCWSABND    EXTERNAL.                                        PPWELEM
011500     COPY UCWSABND.                                               PPWELEM
018600                                                                  PPWELEM
011700 01  PPDB2MSG-INTERFACE.                                          PPWELEM
011800     COPY CPLNKDB2.                                               PPWELEM
018800                                                                  PPWELEM
012000 01  WS-CPLNXLAT.                                                 PPWELEM
012100 COPY CPLNXLAT.                                                   PPWELEM
019000                                                                  PPWELEM
012210     EJECT                                                        28521265
012220 01  DATE-CONVERSION-WORK-AREAS.                   COPY CPWSXDC3. 28521265
012300 01  TEMP-DATA-AREA.                                              PPWELEM
012400 COPY CPWSXMMM.                                                   PPWELEM
012500                                                                  PPWELEM
012600 01  PPEDBFET-REQUEST-ARRAY      EXTERNAL.                        PPWELEM
012700 COPY CPWSEREQ.                                                   PPWELEM
012800                                                                  PPWELEM
012900 01  PPEDBFET-INTERFACE          EXTERNAL.                        PPWELEM
013000 COPY CPLNEFET.                                                   PPWELEM
013100                                                                  PPWELEM
013200 01  PPEDBFET-D-E-RETURN-ARRAY   EXTERNAL.                        PPWELEM
013300 COPY CPWSERET.                                                   PPWELEM
013400                                                                  PPWELEM
013500 01  WS-TEST.                                                     PPWELEM
013600 COPY CPWSELEM.                                                   PPWELEM
013700                                                                  PPWELEM
019100******************************************************************PPWELEM
019200*          SQL - WORKING STORAGE                                 *PPWELEM
019300******************************************************************PPWELEM
019400                                                                  PPWELEM
020000 01  WS-PPPVAPP.                                                  PPWELEM
020100     EXEC SQL                                                     PPWELEM
020200           INCLUDE PPPVZAPP                                       PPWELEM
020300     END-EXEC.                                                    PPWELEM
020400                                                                  PPWELEM
020500 01  WS-PPPVGTN.                                                  PPWELEM
020600     EXEC SQL                                                     PPWELEM
020700           INCLUDE PPPVZGTN                                       PPWELEM
020800     END-EXEC.                                                    PPWELEM
020900                                                                  PPWELEM
015200 01  WS-PPPVDET.                                                  PPWELEM
021000     EXEC SQL                                                     PPWELEM
015400           INCLUDE PPPVZDET                                       PPWELEM
021200     END-EXEC.                                                    PPWELEM
021300                                                                  PPWELEM
015700     EXEC SQL                                                     PPWELEM
015800           INCLUDE SQLCA                                          PPWELEM
015900     END-EXEC.                                                    PPWELEM
022900                                                                  PPWELEM
023000 LINKAGE SECTION.                                                 PPWELEM
023100                                                                  PPWELEM
023400 PROCEDURE DIVISION.                                              PPWELEM
016400 0000-MAIN-LINE        SECTION.                                   PPWELEM
016500**************************************************************    PPWELEM
016600*                                                            *    PPWELEM
016700*    MAIN PROCESSING LOOP.                                   *    PPWELEM
016800*                                                            *    PPWELEM
016900**************************************************************    PPWELEM
023500                                                                  PPWELEM
017100     EXEC SQL                                                     PPWELEM
017200          INCLUDE CPPDXE99                                        PPWELEM
023900     END-EXEC.                                                    PPWELEM
024000                                                                  PPWELEM
017500     PERFORM 1000-INITIALIZATION.                                 PPWELEM
017600     PERFORM 2000-INIT-SCREEN.                                    PPWELEM
017700     PERFORM 3000-DISPLAY-DATA.                                   PPWELEM
024100                                                                  PPWELEM
026300     GOBACK.                                                      PPWELEM
026400                                                                  PPWELEM
018100 0000-EXIT.                                                       PPWELEM
018200     EXIT.                                                        PPWELEM
026600                                                                  PPWELEM
018400     EJECT                                                        PPWELEM
026900                                                                  PPWELEM
018600 1000-INITIALIZATION   SECTION.                                   PPWELEM
018700**************************************************************    PPWELEM
018800*                                                            *    PPWELEM
018900*    UCROUTER CALLS THIS PROGRAM TWICE WHEN PROCESSING FROM  *    PPWELEM
019000*    THE SAME SCREEN. WORKING STORAGE IS NOT REFRESHED THE   *    PPWELEM
019100*    SECOND TIME SO EXPLICIT INITIALIZATION MUST OCCUR HERE  *    PPWELEM
019200*    FOR OBJECTS WHICH CONTROL PROCESSING LOGIC.             *    PPWELEM
019300*                                                            *    PPWELEM
019400**************************************************************    PPWELEM
028200                                                                  PPWELEM
019600     MOVE WS-PGM-NAME TO UCWSABND-ABENDING-PGM.                   PPWELEM
019700     MOVE WS-PGM-NAME TO DB2MSG-PGM-ID.                           PPWELEM
028400                                                                  PPWELEM
019900     SET WS-CURSOR-NOT-SET TO TRUE.                               PPWELEM
020000     MOVE ZERO TO UCCOMMON-RETURN-CODE.                           PPWELEM
020100     IF NOT CPWSWORK-DONT-OVERRIDE-MSG                            PPWELEM
020200        SET UCCOMMON-MSG-NUMBER-NOT-SET TO TRUE                   PPWELEM
020300     END-IF.                                                      PPWELEM
020400     MOVE LENGTH OF PPELEM0O TO UCPISCRN-DETAIL-MAP-LENGTH.       PPWELEM
020500     MOVE WS-REL-NO TO UCPISCRN-DTL-REL-NO.                       PPWELEM
020600                                                                  PPWELEM
020700     MOVE 'BROWSE' TO UCPISCRN-ADDL-LOGIC-FUNC (1).               PPWELEM
020800                                                                  PPWELEM
020900 1000-EXIT.                                                       PPWELEM
021000     EXIT.                                                        PPWELEM
021100                                                                  PPWELEM
021200     EJECT                                                        PPWELEM
021300                                                                  PPWELEM
021400 2000-INIT-SCREEN      SECTION.                                   PPWELEM
021500**************************************************************    PPWELEM
021600*                                                            *    PPWELEM
021700*    INITIALIZE 'C' AND 'H' ATTRIBUTES. 'A' ATTRIBUTES ARE   *    PPWELEM
021800*    DEFINED IN THE MAP.                                     *    PPWELEM
021900*                                                            *    PPWELEM
022000**************************************************************    PPWELEM
022100                                                                  PPWELEM
022200     MOVE UCCOMMON-CLR-FLD-LABEL TO                               PPWELEM
029900                                  L-NUMBERC                       PPWELEM
030000                                  L-KEYC                          PPWELEM
030100                                  L-DESCRIPTIONC                  PPWELEM
022600                                  L-VALUEC.                       PPWELEM
022700     MOVE UCCOMMON-HLT-FLD-LABEL TO                               PPWELEM
022800                                  L-NUMBERH                       PPWELEM
022900                                  L-KEYH                          PPWELEM
023000                                  L-DESCRIPTIONH                  PPWELEM
023100                                  L-VALUEH.                       PPWELEM
031900                                                                  PPWELEM
033600     PERFORM VARYING WS-INIT-SUB FROM 1 BY 1                      PPWELEM
033700             UNTIL WS-INIT-SUB > +13                              PPWELEM
023500                  MOVE UCCOMMON-CLR-NORM-DISPL TO                 PPWELEM
034100                       DESCRIPTIONC (WS-INIT-SUB)                 PPWELEM
034200                       VALUEC (WS-INIT-SUB)                       PPWELEM
023800                  MOVE UCCOMMON-HLT-NORM-DISPL TO                 PPWELEM
023900                       DESCRIPTIONH (WS-INIT-SUB)                 PPWELEM
024000                       VALUEH (WS-INIT-SUB)                       PPWELEM
034300     END-PERFORM.                                                 PPWELEM
034400                                                                  PPWELEM
024300     PERFORM VARYING WS-INIT-SUB FROM 1 BY 1                      PPWELEM
024400             UNTIL WS-INIT-SUB > +13                              PPWELEM
024500                  MOVE UCCOMMON-CLR-ENTRY TO                      PPWELEM
024600                       NUMBERC (WS-INIT-SUB)                      PPWELEM
024700                       KEYC (WS-INIT-SUB)                         PPWELEM
024800                  MOVE UCCOMMON-HLT-ENTRY TO                      PPWELEM
024900                       NUMBERH (WS-INIT-SUB)                      PPWELEM
025000                       KEYH (WS-INIT-SUB)                         PPWELEM
025100     END-PERFORM.                                                 PPWELEM
025200                                                                  PPWELEM
025300 2000-EXIT.                                                       PPWELEM
025400     EXIT.                                                        PPWELEM
025500                                                                  PPWELEM
025600     EJECT                                                        PPWELEM
025700                                                                  PPWELEM
025800 3000-DISPLAY-DATA     SECTION.                                   PPWELEM
025900**************************************************************/   PPWELEM
026000* THIS PARAGRAPH PERFORMS THE SELECTS ON THE VARIOUS EDB     */   PPWELEM
026100* TABLES USING THE PPEDBFET LIST PROCESS TO OBTAIN VALUES    */   PPWELEM
026200* FOR THE ENTERED DATA ELEMENT NUMBERS.                      */   PPWELEM
026300**************************************************************/   PPWELEM
026400                                                                  PPWELEM
026500     MOVE CPWSWORK-UNIQUE-EE-ID TO WS-UNIQUE-EE-ID.               PPWELEM
026600     MOVE ZERO TO WS-ELEM-NO-COUNT.                               PPWELEM
026700     MOVE ZERO TO WS-REQ-LIST-SIZE.                               PPWELEM
026800     MOVE ZERO TO WS-RETURN-SUB.                                  PPWELEM
026900                                                                  PPWELEM
027000     PERFORM 6100-COUNT-ELEM-NOS.                                 PPWELEM
027100     PERFORM 6200-PROCESS-PPEDBFET-ROUTINE.                       PPWELEM
027200                                                                  PPWELEM
027300 6100-COUNT-ELEM-NOS   SECTION.                                   PPWELEM
027400**************************************************************/   PPWELEM
027500*                                                            */   PPWELEM
027600*    COUNT THE DATA ELEMNT FIELDS THAT CONTAIN VALUES.       */   PPWELEM
027700*    SET MDT ATTRIBUTE FOR THOSE THAT HAVE ENTRIES.          */   PPWELEM
027800*                                                            */   PPWELEM
027900**************************************************************/   PPWELEM
028000                                                                  PPWELEM
048600     PERFORM VARYING WS-SCREEN-SUB FROM 1 BY 1 UNTIL              PPWELEM
048700                     WS-SCREEN-SUB > 13                           PPWELEM
048800        IF NUMBERI(WS-SCREEN-SUB) = (SPACES OR LOW-VALUES) AND    PPWELEM
048900           KEYI(WS-SCREEN-SUB) = (SPACES OR LOW-VALUES)           PPWELEM
049000           CONTINUE                                               PPWELEM
049100        ELSE                                                      PPWELEM
049200           ADD 1 TO WS-ELEM-NO-COUNT                              PPWELEM
028800           MOVE UCCOMMON-ATR-ENTRY-MDT TO NUMBERA(WS-SCREEN-SUB)  PPWELEM
028900           IF KEYI(WS-SCREEN-SUB) NOT = (SPACES OR LOW-VALUES)    PPWELEM
029000              MOVE UCCOMMON-ATR-ENTRY-MDT TO KEYA(WS-SCREEN-SUB)  PPWELEM
029100           END-IF                                                 PPWELEM
049300        END-IF                                                    PPWELEM
049800     END-PERFORM.                                                 PPWELEM
049900                                                                  PPWELEM
029500 6100-EXIT.                                                       PPWELEM
029600     EXIT.                                                        PPWELEM
050100                                                                  PPWELEM
029800     EJECT                                                        PPWELEM
050300                                                                  PPWELEM
030000 6200-PROCESS-PPEDBFET-ROUTINE SECTION.                           PPWELEM
030100**************************************************************/   PPWELEM
030200*                                                            */   PPWELEM
030300*    CALL PPEDBFET TO PROCESS THE LIST OF DATA ELEMENTS.     */   PPWELEM
030400*                                                            */   PPWELEM
030500**************************************************************/   PPWELEM
050600                                                                  PPWELEM
030700**************************************************************/   PPWELEM
030800*    PROCESS THE INPUT MAP FIELDS. EDIT FOR NUMERIC.         */   PPWELEM
030900*    CREATE THE REQUEST LIST.                                */   PPWELEM
031000**************************************************************/   PPWELEM
053600     PERFORM 6400-PROCESS-INPUT-SCREEN VARYING WS-SCREEN-SUB      PPWELEM
053700             FROM +1 BY +1 UNTIL                                  PPWELEM
053800             WS-SCREEN-SUB > +13.                                 PPWELEM
053900                                                                  PPWELEM
054000     IF WS-ELEM-NO-COUNT = ZERO                                   PPWELEM
031600        IF UCCOMMON-EDIT-REQUEST                                  PPWELEM
031700         AND NOT CPWSWORK-DONT-OVERRIDE-MSG                       PPWELEM
031800           MOVE MP0009 TO UCCOMMON-MSG-NUMBER                     PPWELEM
031900        END-IF                                                    PPWELEM
032000        SET UCPISCRN-CURSOR-NOT-SET TO TRUE                       PPWELEM
032100        MOVE -1 TO NUMBERL (1)                                    PPWELEM
032200     ELSE                                                         PPWELEM
032300        SET UCPISCRN-CURSOR-IN-FOOTER TO TRUE                     PPWELEM
032400        IF WS-REQ-LIST-SIZE > ZERO                                PPWELEM
032500**************************************************************/   PPWELEM
032600*          INITIALIZE THE RETURN ARRAY.                      */   PPWELEM
032700**************************************************************/   PPWELEM
032800           PERFORM 7200-INIT VARYING WS-SUB FROM                  PPWELEM
032900                   1 BY 1 UNTIL WS-SUB > 13                       PPWELEM
033000           MOVE CPWSWORK-UNIQUE-EE-ID TO PPEDBFET-EMPLOYEE-ID     PPWELEM
033100           MOVE 'L'              TO  PPEDBFET-FUNCTION-CODE       PPWELEM
033200           MOVE 'Y'              TO  PPEDBFET-DET-MODE-SW         PPWELEM
033300           MOVE 'O'              TO  PPEDBFET-CALLER-MODE         PPWELEM
033400           MOVE 'U'              TO  PPEDBFET-DATE-RETURN         PPWELEM
033500           MOVE WS-REQ-LIST-SIZE TO  PPEDBFET-REQUEST-LIST-SIZE   PPWELEM
033600**************************************************************/   PPWELEM
033700*          CALL THE EDB FETCH MODULE FOR REQUESTING LIST     */   PPWELEM
033800*          PROCESSING.                                       */   PPWELEM
033900**************************************************************/   PPWELEM
034000           PERFORM 7300-CALL-INTERFACE                            PPWELEM
034100        END-IF                                                    PPWELEM
055500     END-IF.                                                      PPWELEM
055600                                                                  PPWELEM
034400**************************************************************/   PPWELEM
034500*    PROCESS THE RETURNED DATA FOR DISPLAY ON THE SCREEN.    */   PPWELEM
034600**************************************************************/   PPWELEM
055700     PERFORM 6600-MOVE-OUTPUT-TO-SCREEN VARYING WS-SCREEN-SUB     PPWELEM
055800             FROM +1 BY +1 UNTIL                                  PPWELEM
055900             WS-SCREEN-SUB > +13.                                 PPWELEM
056000                                                                  PPWELEM
035100 6200-EXIT.                                                       PPWELEM
035200     EXIT.                                                        PPWELEM
056400                                                                  PPWELEM
035400     EJECT                                                        PPWELEM
056600                                                                  PPWELEM
035600 6400-PROCESS-INPUT-SCREEN SECTION.                               PPWELEM
035700**************************************************************/   PPWELEM
035800*                                                            */   PPWELEM
035900*    PROCESS THE INPUT MAP DATA ELEMENT FIELDS.              */   PPWELEM
036000*                                                            */   PPWELEM
036100**************************************************************/   PPWELEM
036200                                                                  PPWELEM
056700     IF  NUMBERI(WS-SCREEN-SUB) = SPACES OR LOW-VALUES            PPWELEM
056800         NEXT SENTENCE                                            PPWELEM
056900     ELSE                                                         PPWELEM
057000         IF  NUMBERI(WS-SCREEN-SUB)  NUMERIC                      PPWELEM
057100             PERFORM 6450-NUMBERI-EDIT                            PPWELEM
057200         END-IF                                                   PPWELEM
057300     END-IF.                                                      PPWELEM
057400                                                                  PPWELEM
037100 6400-EXIT.                                                       PPWELEM
037200     EXIT.                                                        PPWELEM
057600                                                                  PPWELEM
037400     EJECT                                                        PPWELEM
037500                                                                  PPWELEM
037600 6450-NUMBERI-EDIT     SECTION.                                   PPWELEM
037700**************************************************************/   PPWELEM
037800*                                                            */   PPWELEM
037900*    EDIT THE INPUT DATA ELEMNT FIELDS. EVALUATE THE KEY     */   PPWELEM
038000*    FIELDS FOR VALID OCCURRENCE KEYS.                       */   PPWELEM
038100*                                                            */   PPWELEM
038200**************************************************************/   PPWELEM
038300                                                                  PPWELEM
057700     MOVE NUMBERI (WS-SCREEN-SUB)  TO WS-NUMBER-SAVE.             PPWELEM
057800     MOVE KEYI (WS-SCREEN-SUB)     TO WS-KEY-SAVE.                PPWELEM
057900                                                                  PPWELEM
058000     IF   WS-ACT-NUM                                              PPWELEM
058100          IF  WS-KEY-ACT12-OK                                     PPWELEM
058200                  AND                                             PPWELEM
058300              WS-KEY-ACT34-OK                                     PPWELEM
058400              PERFORM 6475-MOVE-TO-REQUEST-ARRAY                  PPWELEM
058500          END-IF                                                  PPWELEM
058600     ELSE                                                         PPWELEM
058700     IF   WS-NUMBER-PREF-6                                        PPWELEM
058800          IF  WS-KEY-GTN-BAL                                      PPWELEM
058900                  AND                                             PPWELEM
059000              WS-KEY-GTN234-OK                                    PPWELEM
059100              PERFORM 6475-MOVE-TO-REQUEST-ARRAY                  PPWELEM
059200          END-IF                                                  PPWELEM
059300     ELSE                                                         PPWELEM
059400     IF  WS-APPT-10                                               PPWELEM
059500         IF WS-KEY-SAVE = SPACES OR LOW-VALUES                    PPWELEM
059600            PERFORM 6475-MOVE-TO-REQUEST-ARRAY                    PPWELEM
059700         ELSE                                                     PPWELEM
059800         IF WS-KEY-APPT1-OK                                       PPWELEM
059900                AND                                               PPWELEM
060000            WS-KEY-APPT2-OK                                       PPWELEM
060100                AND                                               PPWELEM
060200            WS-KEY-APPT34-OK                                      PPWELEM
060300            PERFORM 6475-MOVE-TO-REQUEST-ARRAY                    PPWELEM
060400         END-IF                                                   PPWELEM
060500         END-IF                                                   PPWELEM
060600     ELSE                                                         PPWELEM
060700     IF  WS-DIST-11                                               PPWELEM
060800         IF WS-KEY-SAVE = SPACES OR LOW-VALUES                    PPWELEM
060900            PERFORM 6475-MOVE-TO-REQUEST-ARRAY                    PPWELEM
061000         ELSE                                                     PPWELEM
061100         IF WS-KEY-APPT1-OK                                       PPWELEM
061200                AND                                               PPWELEM
061300            WS-KEY-DIST2-OK                                       PPWELEM
061400                AND                                               PPWELEM
061500            WS-KEY-APPT34-OK                                      PPWELEM
061600            PERFORM 6475-MOVE-TO-REQUEST-ARRAY                    PPWELEM
061700         END-IF                                                   PPWELEM
061800         END-IF                                                   PPWELEM
061900     ELSE                                                         PPWELEM
062000     IF  WS-KEY-SAVE = SPACES OR LOW-VALUES                       PPWELEM
062100         PERFORM 6475-MOVE-TO-REQUEST-ARRAY                       PPWELEM
062200     END-IF.                                                      PPWELEM
062300                                                                  PPWELEM
043100 6450-EXIT.                                                       PPWELEM
043200     EXIT.                                                        PPWELEM
062500                                                                  PPWELEM
043400     EJECT                                                        PPWELEM
043500                                                                  PPWELEM
043600 6475-MOVE-TO-REQUEST-ARRAY SECTION.                              PPWELEM
043700**************************************************************/   PPWELEM
043800*                                                            */   PPWELEM
043900*    MOVE VALID ENTERED DATA TO THE REQUEST ARRAY PASSED TO  */   PPWELEM
044000*    PPEDBFET PROCESSING.                                    */   PPWELEM
044100*    INCREMENT THE LIST SIZE COUNTER.                        */   PPWELEM
044200*                                                            */   PPWELEM
044300**************************************************************/   PPWELEM
044400                                                                  PPWELEM
062600     ADD +1 TO WS-REQ-LIST-SIZE.                                  PPWELEM
062700                                                                  PPWELEM
062800     IF   WS-ACT-NUM                                              PPWELEM
062900          MOVE WS-KEY-SAVE    TO                                  PPWELEM
063000          PPEDBFET-REQ-OCCUR-KEY (WS-REQ-LIST-SIZE)               PPWELEM
063100          MOVE WS-NUMBER-SAVE          TO                         PPWELEM
063200          PPEDBFET-REQ-DATA-ELEM-NO (WS-REQ-LIST-SIZE)            PPWELEM
063300     ELSE                                                         PPWELEM
063400     IF   WS-NUMBER-PREF-6                                        PPWELEM
063500          MOVE WS-KEY-PREF   TO WS-KEYOUT-SUF                     PPWELEM
063600          MOVE WS-NUMBER-SUF TO WS-KEYOUT-PREF                    PPWELEM
063700          MOVE WS-KEYOUT-SAVE TO                                  PPWELEM
063800          PPEDBFET-REQ-OCCUR-KEY (WS-REQ-LIST-SIZE)               PPWELEM
063900          MOVE WS-NUM-6000             TO                         PPWELEM
064000          PPEDBFET-REQ-DATA-ELEM-NO (WS-REQ-LIST-SIZE)            PPWELEM
064100     ELSE                                                         PPWELEM
064200     IF   WS-NUMBER-PREF-7                                        PPWELEM
064300          MOVE WS-NUMBER-SUF TO WS-KEYOUT-SAVE                    PPWELEM
064400          MOVE WS-KEYOUT-SAVE TO                                  PPWELEM
064500          PPEDBFET-REQ-OCCUR-KEY (WS-REQ-LIST-SIZE)               PPWELEM
064600          MOVE WS-NUM-7000             TO                         PPWELEM
064700          PPEDBFET-REQ-DATA-ELEM-NO (WS-REQ-LIST-SIZE)            PPWELEM
064800     ELSE                                                         PPWELEM
064900     IF  (WS-APPT-10                                              PPWELEM
065000             OR                                                   PPWELEM
065100          WS-DIST-11)                                             PPWELEM
065200          IF  WS-KEY-SAVE = SPACES OR LOW-VALUES                  PPWELEM
065300              MOVE WS-NUMBER-SAVE          TO                     PPWELEM
065400              PPEDBFET-REQ-DATA-ELEM-NO (WS-REQ-LIST-SIZE)        PPWELEM
065500              MOVE SPACES                   TO                    PPWELEM
065600              PPEDBFET-REQ-OCCUR-KEY (WS-REQ-LIST-SIZE)           PPWELEM
065700          ELSE                                                    PPWELEM
065800              MOVE WS-NUMBER-SAVE    TO INPUT-ELEM-NO             PPWELEM
065900              MOVE WS-KEY-SAVE       TO INPUT-KEY-OCCUR           PPWELEM
066000              IF WS-APPT-NO                                       PPWELEM
066100                 MOVE 'A' TO APPT-DIST-IND                        PPWELEM
066200              ELSE                                                PPWELEM
066300                 MOVE 'D' TO APPT-DIST-IND                        PPWELEM
066400              END-IF                                              PPWELEM
066500              CALL WS-PPDEXLAT       USING WS-CPLNXLAT            PPWELEM
066600              MOVE OUTPUT-ELEM-NO    TO                           PPWELEM
066700              PPEDBFET-REQ-DATA-ELEM-NO (WS-REQ-LIST-SIZE)        PPWELEM
066800              MOVE SPACES                   TO                    PPWELEM
066900              PPEDBFET-REQ-OCCUR-KEY (WS-REQ-LIST-SIZE)           PPWELEM
067000          END-IF                                                  PPWELEM
067100     ELSE                                                         PPWELEM
067200          MOVE WS-NUMBER-SAVE          TO                         PPWELEM
067300          PPEDBFET-REQ-DATA-ELEM-NO (WS-REQ-LIST-SIZE)            PPWELEM
067400          MOVE SPACES                   TO                        PPWELEM
067500          PPEDBFET-REQ-OCCUR-KEY (WS-REQ-LIST-SIZE)               PPWELEM
049500          IF WS-KEY-SAVE > SPACES                                 PPWELEM
049600              MOVE WS-KEY-SAVE TO                                 PPWELEM
049700              PPEDBFET-REQ-OCCUR-KEY (WS-REQ-LIST-SIZE)           PPWELEM
049800          END-IF                                                  PPWELEM
067600     END-IF.                                                      PPWELEM
067700                                                                  PPWELEM
050100 6475-EXIT.                                                       PPWELEM
050200     EXIT.                                                        PPWELEM
067900                                                                  PPWELEM
050400     EJECT                                                        PPWELEM
050500                                                                  PPWELEM
050600 6600-MOVE-OUTPUT-TO-SCREEN SECTION.                              PPWELEM
050700**************************************************************/   PPWELEM
050800*                                                            */   PPWELEM
050900*    PROCESS THE RETURNED DATA FOR DISPLAY ON THE SCREEN.    */   PPWELEM
051000*                                                            */   PPWELEM
051100**************************************************************/   PPWELEM
051200                                                                  PPWELEM
068000     IF   NUMBERI(WS-SCREEN-SUB)   = (SPACES OR LOW-VALUES)       PPWELEM
068100          IF  KEYI(WS-SCREEN-SUB) = (SPACES OR LOW-VALUES)        PPWELEM
068200              NEXT SENTENCE                                       PPWELEM
068300          ELSE                                                    PPWELEM
068400              MOVE WS-ERR-3  TO DESCRIPTIONO (WS-SCREEN-SUB)      PPWELEM
068500          END-IF                                                  PPWELEM
068600     ELSE                                                         PPWELEM
068700     IF   NUMBERI(WS-SCREEN-SUB)  NUMERIC                         PPWELEM
068800          PERFORM 6650-NUMBERI-EDIT                               PPWELEM
068900     ELSE                                                         PPWELEM
069000          MOVE WS-ERR-1  TO DESCRIPTIONO (WS-SCREEN-SUB)          PPWELEM
069100     END-IF.                                                      PPWELEM
069200                                                                  PPWELEM
052600 6600-EXIT.                                                       PPWELEM
052700     EXIT.                                                        PPWELEM
069400                                                                  PPWELEM
052900     EJECT                                                        PPWELEM
053000                                                                  PPWELEM
053100 6650-NUMBERI-EDIT     SECTION.                                   PPWELEM
053200**************************************************************/   PPWELEM
053300*                                                            */   PPWELEM
053400*    EDIT THE RETURNED DATA, INCLUDING THE KEY FIELDS.       */   PPWELEM
053500*                                                            */   PPWELEM
053600**************************************************************/   PPWELEM
053700                                                                  PPWELEM
069500     MOVE NUMBERI (WS-SCREEN-SUB)  TO WS-NUMBER-SAVE.             PPWELEM
069600     MOVE KEYI (WS-SCREEN-SUB)     TO WS-KEY-SAVE.                PPWELEM
069700                                                                  PPWELEM
069800     IF   WS-ACT-NUM                                              PPWELEM
069900          IF  WS-KEY-ACT12-OK                                     PPWELEM
070000                  AND                                             PPWELEM
070100              WS-KEY-ACT34-OK                                     PPWELEM
054500              AND WS-KEY-ACT56-OK                                 PPWELEM
070200              PERFORM 6675-MOVE-FROM-RETURN-ARRAY                 PPWELEM
070300          ELSE                                                    PPWELEM
070400              MOVE WS-ERR-2  TO DESCRIPTIONO (WS-SCREEN-SUB)      PPWELEM
070500          END-IF                                                  PPWELEM
070600     ELSE                                                         PPWELEM
070700     IF   WS-NUMBER-PREF-6                                        PPWELEM
070800          IF  WS-KEY-GTN-BAL                                      PPWELEM
070900                  AND                                             PPWELEM
071000              WS-KEY-GTN234-OK                                    PPWELEM
071100              PERFORM 6675-MOVE-FROM-RETURN-ARRAY                 PPWELEM
071200          ELSE                                                    PPWELEM
071300              MOVE WS-ERR-2  TO DESCRIPTIONO (WS-SCREEN-SUB)      PPWELEM
071400          END-IF                                                  PPWELEM
071500     ELSE                                                         PPWELEM
071600     IF  WS-APPT-10                                               PPWELEM
071700         IF WS-KEY-SAVE = SPACES OR LOW-VALUES                    PPWELEM
071800            PERFORM 6675-MOVE-FROM-RETURN-ARRAY                   PPWELEM
071900         ELSE                                                     PPWELEM
072000         IF WS-KEY-APPT1-OK                                       PPWELEM
072100                AND                                               PPWELEM
072200            WS-KEY-APPT2-OK                                       PPWELEM
072300                AND                                               PPWELEM
072400            WS-KEY-APPT34-OK                                      PPWELEM
072500            PERFORM 6675-MOVE-FROM-RETURN-ARRAY                   PPWELEM
072600         ELSE                                                     PPWELEM
072700            MOVE WS-ERR-2  TO DESCRIPTIONO (WS-SCREEN-SUB)        PPWELEM
072800         END-IF                                                   PPWELEM
072900         END-IF                                                   PPWELEM
073000     ELSE                                                         PPWELEM
073100     IF  WS-DIST-11                                               PPWELEM
073200         IF WS-KEY-SAVE = SPACES OR LOW-VALUES                    PPWELEM
073300            PERFORM 6675-MOVE-FROM-RETURN-ARRAY                   PPWELEM
073400         ELSE                                                     PPWELEM
073500         IF WS-KEY-APPT1-OK                                       PPWELEM
073600                AND                                               PPWELEM
073700            WS-KEY-DIST2-OK                                       PPWELEM
073800                AND                                               PPWELEM
073900            WS-KEY-APPT34-OK                                      PPWELEM
074000            PERFORM 6675-MOVE-FROM-RETURN-ARRAY                   PPWELEM
074100         ELSE                                                     PPWELEM
074200            MOVE WS-ERR-2  TO DESCRIPTIONO (WS-SCREEN-SUB)        PPWELEM
074300         END-IF                                                   PPWELEM
074400         END-IF                                                   PPWELEM
074500     ELSE                                                         PPWELEM
074600     IF  WS-KEY-SAVE = SPACES OR LOW-VALUES                       PPWELEM
074700          PERFORM 6675-MOVE-FROM-RETURN-ARRAY                     PPWELEM
074800     ELSE                                                         PPWELEM
074900          MOVE WS-ERR-2  TO DESCRIPTIONO (WS-SCREEN-SUB)          PPWELEM
075000     END-IF.                                                      PPWELEM
075100                                                                  PPWELEM
059600 6650-EXIT.                                                       PPWELEM
059700     EXIT.                                                        PPWELEM
075300                                                                  PPWELEM
059900     EJECT                                                        PPWELEM
060000                                                                  PPWELEM
060100 6675-MOVE-FROM-RETURN-ARRAY SECTION.                             PPWELEM
060200**************************************************************/   PPWELEM
060300*                                                            */   PPWELEM
060400*    GET THE DATA ELEMENT DESCRIPTION FROM THE DET TABLE.    */   PPWELEM
060500*    MOVE THE RETURNED DATA TO THE OUTPUT MAP FIELDS.        */   PPWELEM
060600*                                                            */   PPWELEM
060700**************************************************************/   PPWELEM
060800                                                                  PPWELEM
060900     MOVE NUMBERI (WS-SCREEN-SUB)  TO DET-ELEM-NO.                PPWELEM
061000     PERFORM 8200-SELECT-DET.                                     PPWELEM
061100     IF SQLCODE = ZERO                                            PPWELEM
061200         MOVE DET-ELEMENT-NAME TO DESCRIPTIONO(WS-SCREEN-SUB)     PPWELEM
061300     ELSE                                                         PPWELEM
061400         MOVE SPACE TO DESCRIPTIONO(WS-SCREEN-SUB)                PPWELEM
061500         MOVE ZERO TO DET-DEC-PLACE                               PPWELEM
061600     END-IF.                                                      PPWELEM
061700                                                                  PPWELEM
075400     ADD 1 TO WS-RETURN-SUB.                                      PPWELEM
075500                                                                  PPWELEM
075600     IF  PPEDBFET-RETURN-DE-NUM-ERR (WS-RETURN-SUB)               PPWELEM
075700         MOVE WS-ERR-1     TO DESCRIPTIONO (WS-SCREEN-SUB)        PPWELEM
075800         MOVE SPACES       TO VALUEO (WS-SCREEN-SUB)              PPWELEM
062300         MOVE SPACE TO DESCRIPTIONO(WS-SCREEN-SUB)                PPWELEM
075900     ELSE                                                         PPWELEM
076300     IF WS-NUMBER-PREF-6                                          PPWELEM
062600**************************************************************/   PPWELEM
062700*       PROCESS GTN NUMBERS.                                 */   PPWELEM
062800**************************************************************/   PPWELEM
076400        MOVE WS-NUMBER-SUF TO WS-GTN-NUMBER                       PPWELEM
063000        PERFORM 8100-SELECT-GTN                                   PPWELEM
076600        MOVE WS-GTN-DESCRIPTION                                   PPWELEM
076700                           TO DESCRIPTIONO (WS-SCREEN-SUB)        PPWELEM
076800     END-IF                                                       PPWELEM
063400**************************************************************/   PPWELEM
063500*       TRANSLATE VARIOUS TYPES OF RETURNED DATA.            */   PPWELEM
063600**************************************************************/   PPWELEM
076900     IF PPEDBFET-RETURN-DATA-NUM (WS-RETURN-SUB)                  PPWELEM
077000         MOVE PPEDBFET-RETURN-VALUE (WS-RETURN-SUB)               PPWELEM
077100                           TO TEMP-DATA-VALUE                     PPWELEM
077200         IF WS-LAP-END-DT                                         PPWELEM
077300                 OR                                               PPWELEM
077400            WS-LPH-START-DT                                       PPWELEM
077500            MOVE TEMP-NUMBER  TO WS-NUM-6                         PPWELEM
077600            MOVE WS-CHAR-34   TO WS-MM                            PPWELEM
077700            MOVE WS-CHAR-56   TO WS-DD                            PPWELEM
077800            MOVE WS-CHAR-12   TO WS-YY                            PPWELEM
064610            MOVE WS-MM TO XDC3-STD-MM                             28521265
064611            MOVE WS-DD TO XDC3-STD-DD                             28521265
064612            MOVE WS-YY TO XDC3-STD-YY                             28521265
064620            PERFORM XDC3-CONVERT-STD-TO-USA                       28521265
064630            MOVE XDC3-USA-DATE TO WS-NUM-DATE                     28521265
077900            IF   WS-NUM-DATE = WS-NULL-DATE                       PPWELEM
078000                MOVE SPACES       TO VALUEO (WS-SCREEN-SUB)       PPWELEM
078100            ELSE                                                  PPWELEM
078200            IF   WS-NUM-DATE = WS-9999-DATE                       PPWELEM
078300                MOVE WS-999999-DATE TO VALUEO (WS-SCREEN-SUB)     PPWELEM
078400            ELSE                                                  PPWELEM
078500                MOVE WS-NUM-DATE                                  PPWELEM
078600                           TO VALUEO (WS-SCREEN-SUB)              PPWELEM
078700            END-IF                                                PPWELEM
078800            END-IF                                                PPWELEM
078900         ELSE                                                     PPWELEM
079000            MOVE TEMP-NUMBER  TO WS-RETURN-NUM-VALUE              PPWELEM
079100            IF WS-NUMBER-PREF-6                                   PPWELEM
079200               MOVE 2 TO  WS-NUM-DEC-PLACES                       PPWELEM
079300            ELSE                                                  PPWELEM
066200               MOVE DET-DEC-PLACE TO                              PPWELEM
079500                 WS-NUM-DEC-PLACES                                PPWELEM
079600            END-IF                                                PPWELEM
079700            PERFORM 6685-MOVE-NUMERIC                             PPWELEM
079800            MOVE WS-RETURN-REFORM-VALUE                           PPWELEM
079900                           TO VALUEO (WS-SCREEN-SUB)              PPWELEM
080000         END-IF                                                   PPWELEM
080100     ELSE                                                         PPWELEM
080200     IF PPEDBFET-RETURN-DATA-DATE (WS-RETURN-SUB)                 PPWELEM
080300         IF   PPEDBFET-RETURN-VALUE (WS-RETURN-SUB)               PPWELEM
080400                    = WS-NULL-DATE                                PPWELEM
080500             MOVE SPACES       TO VALUEO (WS-SCREEN-SUB)          PPWELEM
080600         ELSE                                                     PPWELEM
080700         IF   PPEDBFET-RETURN-VALUE (WS-RETURN-SUB)               PPWELEM
080800                    = WS-9999-DATE                                PPWELEM
080900             MOVE WS-999999-DATE TO VALUEO (WS-SCREEN-SUB)        PPWELEM
081000         ELSE                                                     PPWELEM
081100             MOVE PPEDBFET-RETURN-VALUE (WS-RETURN-SUB)           PPWELEM
081200                           TO VALUEO (WS-SCREEN-SUB)              PPWELEM
081300         END-IF                                                   PPWELEM
081400         END-IF                                                   PPWELEM
081500     ELSE                                                         PPWELEM
081600     IF WS-APPT-RATE                                              PPWELEM
081700            OR                                                    PPWELEM
081800        WS-DIST-RATE                                              PPWELEM
081900         MOVE PPEDBFET-RETURN-DATA-ELEM-NO (WS-RETURN-SUB)        PPWELEM
082000                           TO WS-NUMBER-SAVE                      PPWELEM
082100         PERFORM 6680-FORMAT-RATE                                 PPWELEM
082200         PERFORM 6685-MOVE-NUMERIC                                PPWELEM
082300         MOVE WS-RETURN-REFORM-VALUE                              PPWELEM
082400                           TO VALUEO (WS-SCREEN-SUB)              PPWELEM
082500     ELSE                                                         PPWELEM
082600         MOVE PPEDBFET-RETURN-VALUE (WS-RETURN-SUB)               PPWELEM
082700                           TO VALUEO (WS-SCREEN-SUB)              PPWELEM
082800     END-IF                                                       PPWELEM
082900     END-IF                                                       PPWELEM
083000     END-IF                                                       PPWELEM
083100     END-IF.                                                      PPWELEM
083200                                                                  PPWELEM
070100 6675-EXIT.                                                       PPWELEM
070200     EXIT.                                                        PPWELEM
083400                                                                  PPWELEM
070400     EJECT                                                        PPWELEM
070500                                                                  PPWELEM
070600 6680-FORMAT-RATE      SECTION.                                   PPWELEM
070700**************************************************************/   PPWELEM
070800*                                                            */   PPWELEM
070900*    TRANSLATE RATE DATA ELEMENT NUMBER TO APPROPRIATE       */   PPWELEM
071000*    APPOINTMENT VALUE FOR SUBSEQUENT SELECT.                */   PPWELEM
071100*                                                            */   PPWELEM
071200**************************************************************/   PPWELEM
071300                                                                  PPWELEM
083500     EVALUATE TRUE                                                PPWELEM
083600     WHEN WS-RATE-10                                              PPWELEM
083700          MOVE 10  TO WS-APPT-SLCT-KEY                            PPWELEM
083800     WHEN WS-RATE-20                                              PPWELEM
083900          MOVE 20  TO WS-APPT-SLCT-KEY                            PPWELEM
084000     WHEN WS-RATE-30                                              PPWELEM
084100          MOVE 30  TO WS-APPT-SLCT-KEY                            PPWELEM
084200     WHEN WS-RATE-40                                              PPWELEM
084300          MOVE 40  TO WS-APPT-SLCT-KEY                            PPWELEM
084400     WHEN WS-RATE-50                                              PPWELEM
084500          MOVE 50  TO WS-APPT-SLCT-KEY                            PPWELEM
084600     WHEN WS-RATE-60                                              PPWELEM
084700          MOVE 60  TO WS-APPT-SLCT-KEY                            PPWELEM
084800     WHEN WS-RATE-70                                              PPWELEM
084900          MOVE 70  TO WS-APPT-SLCT-KEY                            PPWELEM
085000     WHEN WS-RATE-80                                              PPWELEM
085100          MOVE 80  TO WS-APPT-SLCT-KEY                            PPWELEM
085200     WHEN WS-RATE-90                                              PPWELEM
085300          MOVE 90  TO WS-APPT-SLCT-KEY                            PPWELEM
085400     END-EVALUATE.                                                PPWELEM
085500                                                                  PPWELEM
073500**************************************************************/   PPWELEM
073600*    SELECT THE RATE FROM THE APPROPRIATE APPOINTMENT.       */   PPWELEM
073700**************************************************************/   PPWELEM
085600     PERFORM 8000-SLCT-APPT.                                      PPWELEM
085700                                                                  PPWELEM
085800     IF SQLCODE = 100                                             PPWELEM
085900        NEXT SENTENCE                                             PPWELEM
086000     ELSE                                                         PPWELEM
074300**************************************************************/   PPWELEM
074400*    TRANSLATE RATE PER HOURLY, ETC.                         */   PPWELEM
074500**************************************************************/   PPWELEM
086100     IF WS-APPT-RATE                                              PPWELEM
086200        MOVE PPEDBFET-RETURN-VALUE (WS-RETURN-SUB)                PPWELEM
086300                           TO WS-IN-RATE-APP                      PPWELEM
086400        IF WS-RATE-CODE = 'H'                                     PPWELEM
086500           MOVE WS-RATE-H-APP TO WS-RETURN-NUM-VALUE              PPWELEM
086600           MOVE 4 TO WS-NUM-DEC-PLACES                            PPWELEM
086700        ELSE                                                      PPWELEM
086800           MOVE WS-RATE-OTHER-APP TO WS-RETURN-NUM-VALUE          PPWELEM
086900           MOVE 2 TO WS-NUM-DEC-PLACES                            PPWELEM
087000        END-IF                                                    PPWELEM
087100     ELSE                                                         PPWELEM
087200     IF WS-DIST-RATE                                              PPWELEM
087300        MOVE PPEDBFET-RETURN-VALUE (WS-RETURN-SUB)                PPWELEM
087400                           TO WS-IN-RATE-DIS                      PPWELEM
087500        IF WS-RATE-CODE = 'H'                                     PPWELEM
087600           MOVE WS-RATE-H-DIS TO WS-RETURN-NUM-VALUE              PPWELEM
087700           MOVE 4 TO WS-NUM-DEC-PLACES                            PPWELEM
087800        ELSE                                                      PPWELEM
087900           MOVE WS-RATE-OTHER-DIS TO WS-RETURN-NUM-VALUE          PPWELEM
088000           MOVE 2 TO WS-NUM-DEC-PLACES                            PPWELEM
088100        END-IF                                                    PPWELEM
088200     END-IF                                                       PPWELEM
088300     END-IF.                                                      PPWELEM
088400                                                                  PPWELEM
077000 6680-EXIT.                                                       PPWELEM
077100     EXIT.                                                        PPWELEM
088600                                                                  PPWELEM
077300     EJECT                                                        PPWELEM
077400                                                                  PPWELEM
077500 6685-MOVE-NUMERIC     SECTION.                                   PPWELEM
077600**************************************************************/   PPWELEM
077700*                                                            */   PPWELEM
077800*    FORMAT NUMERIC RETURNED DATA.                           */   PPWELEM
077900*                                                            */   PPWELEM
078000**************************************************************/   PPWELEM
078100                                                                  PPWELEM
088700     MOVE SPACES  TO WS-RETURN-REFORM-VALUE.                      PPWELEM
088800     MOVE ZERO TO WS-SUB2.                                        PPWELEM
088900     MOVE 'N' TO WS-END-OF-VALUE-FLAG                             PPWELEM
089000                 WS-DEC-PT-FLAG.                                  PPWELEM
089100                                                                  PPWELEM
089200     PERFORM VARYING WS-SUB1 FROM 1 BY 1 UNTIL WS-SUB1 > 20       PPWELEM
089300                                         OR WS-END-OF-VALUE       PPWELEM
089400        IF WS-RETURN-CHAR (WS-SUB1) = SPACES OR LOW-VALUES        PPWELEM
089500           CONTINUE                                               PPWELEM
089600        ELSE                                                      PPWELEM
089700        IF WS-RETURN-CHAR (WS-SUB1) = WS-DEC-PT                   PPWELEM
089800           IF WS-NUM-DEC-PLACES = ZERO                            PPWELEM
089900              MOVE 'Y' TO WS-END-OF-VALUE-FLAG                    PPWELEM
090000           ELSE                                                   PPWELEM
090100              MOVE 'Y' TO WS-DEC-PT-FLAG                          PPWELEM
090200              MOVE ZERO TO WS-DEC-COUNT                           PPWELEM
090300              ADD 1 TO WS-SUB2                                    PPWELEM
090400              MOVE WS-RETURN-CHAR (WS-SUB1) TO                    PPWELEM
090500                   WS-RETURN-REFORM (WS-SUB2)                     PPWELEM
090600           END-IF                                                 PPWELEM
090700        ELSE                                                      PPWELEM
090800        IF WS-DEC-PT-FND                                          PPWELEM
090900           IF WS-DEC-COUNT < WS-NUM-DEC-PLACES                    PPWELEM
091000              ADD 1 TO WS-DEC-COUNT                               PPWELEM
091100              ADD 1 TO WS-SUB2                                    PPWELEM
091200              MOVE WS-RETURN-CHAR (WS-SUB1) TO                    PPWELEM
091300                   WS-RETURN-REFORM (WS-SUB2)                     PPWELEM
091400           ELSE                                                   PPWELEM
091500              MOVE 'Y' TO WS-END-OF-VALUE-FLAG                    PPWELEM
091600           END-IF                                                 PPWELEM
091700        ELSE                                                      PPWELEM
091800              ADD 1 TO WS-SUB2                                    PPWELEM
091900              MOVE WS-RETURN-CHAR (WS-SUB1) TO                    PPWELEM
092000                   WS-RETURN-REFORM (WS-SUB2)                     PPWELEM
092100        END-IF                                                    PPWELEM
092200        END-IF                                                    PPWELEM
092300        END-IF                                                    PPWELEM
092400     END-PERFORM.                                                 PPWELEM
092500                                                                  PPWELEM
082100 6685-EXIT.                                                       PPWELEM
082200     EXIT.                                                        PPWELEM
092700                                                                  PPWELEM
082400     EJECT                                                        PPWELEM
082500                                                                  PPWELEM
082600 7200-INIT             SECTION.                                   PPWELEM
082700**************************************************************/   PPWELEM
082800*                                                            */   PPWELEM
082900*    INITIALIZE THE PPEDBFET RETURN ARRAY.                   */   PPWELEM
083000*                                                            */   PPWELEM
083100**************************************************************/   PPWELEM
083200                                                                  PPWELEM
092800     MOVE SPACES TO PPEDBFET-RETURN-DE-NUM-SW(WS-SUB).            PPWELEM
092900                                                                  PPWELEM
083500 7200-EXIT.                                                       PPWELEM
083600     EXIT.                                                        PPWELEM
093100                                                                  PPWELEM
083800 7300-CALL-INTERFACE   SECTION.                                   PPWELEM
083900**************************************************************/   PPWELEM
084000*                                                            */   PPWELEM
084100*    CALL PPEDBFET.                                          */   PPWELEM
084200*                                                            */   PPWELEM
084300**************************************************************/   PPWELEM
093400                                                                  PPWELEM
084500     CALL WS-PPEDBFET USING                                       PPWELEM
084600                            PPEDBFET-INTERFACE.                   PPWELEM
093600                                                                  PPWELEM
084800 7300-EXIT.                                                       PPWELEM
084900     EXIT.                                                        PPWELEM
093800                                                                  PPWELEM
085100     EJECT                                                        PPWELEM
085200                                                                  PPWELEM
085300 8000-SLCT-APPT        SECTION.                                   PPWELEM
085400**************************************************************/   PPWELEM
085500*                                                            */   PPWELEM
085600*    SELECT APPOINTMENT RATE DATA.                           */   PPWELEM
085700*                                                            */   PPWELEM
085800**************************************************************/   PPWELEM
085900                                                                  PPWELEM
086000     MOVE CPWSWORK-UNIQUE-EE-ID TO WS-UNIQUE-EE-ID.               PPWELEM
086100                                                                  PPWELEM
086200     MOVE 'SELECT APP DATA' TO DB2MSG-TAG.                        PPWELEM
093900     EXEC SQL                                                     PPWELEM
094000        SELECT                                                    PPWELEM
094100           RATE_CODE                                              PPWELEM
094200       INTO :WS-RATE-CODE                                         PPWELEM
094300       FROM PPPVZAPP_APP                                          PPWELEM
086800       WHERE EMPLOYEE_ID    = :WS-UNIQUE-EE-ID                    PPWELEM
094500         AND APPT_NUM       = :WS-APPT-SLCT-KEY                   PPWELEM
094600     END-EXEC.                                                    PPWELEM
094700                                                                  PPWELEM
094800     IF  SQLCODE  = ZERO OR 100                                   PPWELEM
094900         NEXT SENTENCE                                            PPWELEM
087400     END-IF.                                                      PPWELEM
087500                                                                  PPWELEM
087600 8000-EXIT.                                                       PPWELEM
087700     EXIT.                                                        PPWELEM
087800                                                                  PPWELEM
087900     EJECT                                                        PPWELEM
088000                                                                  PPWELEM
088100 8100-SELECT-GTN       SECTION.                                   PPWELEM
088200**************************************************************/   PPWELEM
088300*                                                            */   PPWELEM
088400*    SELECT THE GTN DESCRIPTION.                             */   PPWELEM
088500*                                                            */   PPWELEM
088600**************************************************************/   PPWELEM
088700                                                                  PPWELEM
096500     EXEC SQL                                                     PPWELEM
096600        SELECT                                                    PPWELEM
096700           GTN_DESCRIPTION                                        PPWELEM
096800       INTO :WS-GTN-DESCRIPTION                                   PPWELEM
096900       FROM PPPVZGTN_GTN                                          PPWELEM
097000       WHERE GTN_NUMBER     = :WS-GTN-NUMBER                      PPWELEM
097100     END-EXEC.                                                    PPWELEM
097200                                                                  PPWELEM
097300     IF  SQLCODE  = ZERO                                          PPWELEM
097400         NEXT SENTENCE                                            PPWELEM
097500     ELSE                                                         PPWELEM
097600     IF  SQLCODE  = 100                                           PPWELEM
097700         MOVE SPACES TO WS-GTN-DESCRIPTION                        PPWELEM
090100     END-IF                                                       PPWELEM
101000     END-IF.                                                      PPWELEM
101100                                                                  PPWELEM
090400 8100-EXIT.                                                       PPWELEM
090500     EXIT.                                                        PPWELEM
101300                                                                  PPWELEM
090700     EJECT                                                        PPWELEM
101600                                                                  PPWELEM
090900 8200-SELECT-DET       SECTION.                                   PPWELEM
091000**************************************************************/   PPWELEM
091100*                                                            */   PPWELEM
091200*    SELECT THE DET DESCRIPTION.                             */   PPWELEM
091300*                                                            */   PPWELEM
091400**************************************************************/   PPWELEM
101800                                                                  PPWELEM
091600     MOVE 'SELECT DET DATA' TO DB2MSG-TAG.                        PPWELEM
182400     EXEC SQL                                                     PPWELEM
182500        SELECT                                                    PPWELEM
091900           DET_CARD_TYPE                                          PPWELEM
092000          ,DET_ELEM_NO                                            PPWELEM
092100          ,DET_ELEMENT_NAME                                       PPWELEM
092200          ,DET_DATA_TYPE                                          PPWELEM
092300          ,DET_DATE_EDIT                                          PPWELEM
092400          ,DET_EXT_LENGTH                                         PPWELEM
092500          ,DET_DEC_PLACE                                          PPWELEM
092600       INTO :DET-CARD-TYPE                                        PPWELEM
092700           ,:DET-ELEM-NO                                          PPWELEM
092800           ,:DET-ELEMENT-NAME                                     PPWELEM
092900           ,:DET-DATA-TYPE                                        PPWELEM
093000           ,:DET-DATE-EDIT                                        PPWELEM
093100           ,:DET-EXT-LENGTH                                       PPWELEM
093200           ,:DET-DEC-PLACE                                        PPWELEM
093300       FROM PPPVZDET_DET                                          PPWELEM
093400       WHERE DET_ELEM_NO = :DET-ELEM-NO                           PPWELEM
093500       AND DET_CARD_TYPE = '  '                                   PPWELEM
183200     END-EXEC.                                                    PPWELEM
183300                                                                  PPWELEM
093800 8200-EXIT.                                                       PPWELEM
093900     EXIT.                                                        PPWELEM
185400                                                                  PPWELEM
094010     EJECT                                                        28521265
094020*----------------------------------------------------------------*28521265
094030 9300-DATE-CONVERSION-DB2  SECTION.                               28521265
094040*----------------------------------------------------------------*28521265
094050                                                                  28521265
094060*                                                 *-------------* 28521265
094070                                                   COPY CPPDXDC3. 28521265
094080*                                                 *-------------* 28521265
094100     EJECT                                                        PPWELEM
185600                                                                  PPWELEM
094300 9999-ABEND            SECTION.                                   PPWELEM
094400******************************************************************PPWELEM
094500*  COPIED PROCEDURE DIVISION CODE FOR ABEND HANDLING             *PPWELEM
094600******************************************************************PPWELEM
185800                                                                  PPWELEM
094800     MOVE 'PPWELEM' TO UCWSABND-ABENDING-PGM.                     PPWELEM
186700                                                                  PPWELEM
095000     COPY UCPDABND.                                               PPWELEM
187700                                                                  PPWELEM
095200 9999-EXIT.                                                       PPWELEM
095300     EXIT.                                                        PPWELEM
187900                                                                  PPWELEM
095500*999999-SQL-ERROR      SECTION.                                   PPWELEM
095600**************************************************************    PPWELEM
095700*  COPIED PROCEDURE DIVISION CODE FOR SQL ERROR HANDLING     *    PPWELEM
095800**************************************************************    PPWELEM
188700                                                                  PPWELEM
096000      EXEC SQL                                                    PPWELEM
096100           INCLUDE CPPDXP99                                       PPWELEM
096200      END-EXEC.                                                   PPWELEM
189500                                                                  PPWELEM
096400      MOVE 'SQL ERROR - SEE PRECEDING DB2 MESSAGES'               PPWELEM
096500                                      TO UCWSABND-ABEND-DATA (1). PPWELEM
189700                                                                  PPWELEM
096700      PERFORM 9999-ABEND.                                         PPWELEM
190300                                                                  PPWELEM
096900 999999-EXIT.                                                     PPWELEM
097000       EXIT.                                                      PPWELEM
097100***************    END OF SOURCE - PPWELEM    ******************* PPWELEM
