000000**************************************************************/   36430889
000001*  PROGRAM: PPWEMIS                                          */   36430889
000002*  RELEASE: ___0889______ SERVICE REQUEST(S): _____3643____  */   36430889
000003*  NAME:_______DXS_______ MODIFICATION DATE:  __04/08/94____ */   36430889
000004*  DESCRIPTION:                                              */   36430889
000005*    CODE CLEANUP                                            */   36430889
000006*                                                            */   36430889
000007**************************************************************/   36430889
000100**************************************************************/   36430795
000200*  PROGRAM: PPWEMIS                                          */   36430795
000300*  RELEASE # ___0795___   SERVICE REQUEST NO(S)____3643______*/   36430795
000400*  NAME __DXS__________   MODIFICATION DATE ____07/15/93_____*/   36430795
000500*  DESCRIPTION                                               */   36430795
000600*   SCREEN DETAIL PROCESSOR FOR EMIS                         */   36430795
000700*                                                            */   36430795
000800*                                                            */   36430795
000900**************************************************************/   36430795
001000 IDENTIFICATION DIVISION.                                         PPWEMIS
001100 PROGRAM-ID. PPWEMIS.                                             PPWEMIS
001200 ENVIRONMENT DIVISION.                                            PPWEMIS
001210 CONFIGURATION SECTION.                                           PPWEMIS
001220 SOURCE-COMPUTER.                                                 PPWEMIS
001230 COPY  CPOTXUCS.                                                  PPWEMIS
001300 DATA DIVISION.                                                   PPWEMIS
001400 WORKING-STORAGE SECTION.                                         PPWEMIS
001500                                                                  PPWEMIS
001600 COPY  CPYRIGHT.                                                  PPWEMIS
001700                                                                  PPWEMIS
001800*01  WS-MESS-NOS.                                                 36430889
001900*****05  MP0000                     PIC X(5) VALUE 'P0000'.       36430889
002000                                                                  PPWEMIS
002100 01 WS-MISC.                                                      PPWEMIS
002200    05  WS-THIS-PGM-NAME       PIC X(08) VALUE 'PPWEMIS '.        PPWEMIS
002300    05  WS-RELEASE-NUMBER      PIC X(05) VALUE 'E0889'.           36430889
002310****05  WS-RELEASE-NUMBER      PIC X(05) VALUE 'E0795'.           36430889
002400    05  EDIT-SUB               PIC S9(04) COMP VALUE ZERO.        PPWEMIS
002410    05  WS-ATR                 PIC X(01).                         PPWEMIS
002500    05  ERASE-EOF              PIC X(01) VALUE X'80'.             PPWEMIS
002600****                                                           CD 36430889
002700    05  WS-FIELD-IN-ERROR-FLAG PIC X VALUE 'N'.                   PPWEMIS
002800        88  NO-ERRORS-FLAGGED        VALUE 'N'.                   PPWEMIS
002900        88  ERRORS-FLAGGED           VALUE 'Y'.                   PPWEMIS
003000 01 WS-CALLED-PROGRAMS.                                           PPWEMIS
003100    05 WS-PGM-VREDIT           PIC X(08) VALUE 'PPPVREDO'.        PPWEMIS
003200 01 UCCOMMON         EXTERNAL.                                    PPWEMIS
003300      EXEC SQL                                                    PPWEMIS
003400         INCLUDE UCCOMMON                                         PPWEMIS
003500      END-EXEC.                                                   PPWEMIS
003600                                                                  PPWEMIS
003700 01 UCPISCRN         EXTERNAL.                                    PPWEMIS
003800      EXEC SQL                                                    PPWEMIS
003900         INCLUDE UCPISCRN                                         PPWEMIS
004000      END-EXEC.                                                   PPWEMIS
004100                                                                  PPWEMIS
004200 01 CPWSDEHI         EXTERNAL.                                    PPWEMIS
004300      EXEC SQL                                                    PPWEMIS
004400         INCLUDE CPWSDEHI                                         PPWEMIS
004500      END-EXEC.                                                   PPWEMIS
004600                                                                  PPWEMIS
004700 01 PCC-ROW          EXTERNAL.                                    PPWEMIS
004800      EXEC SQL                                                    PPWEMIS
004900        INCLUDE CPWSRPCC                                          PPWEMIS
005000      END-EXEC.                                                   PPWEMIS
005100                                                                  PPWEMIS
005200 01 PCC-ROW-HOLD     EXTERNAL.                                    PPWEMIS
005300      EXEC SQL                                                    PPWEMIS
005400        INCLUDE CPWSRPCC                                          PPWEMIS
005500      END-EXEC.                                                   PPWEMIS
005510                                                                  PPWEMIS
005520 01 BEN-ROW          EXTERNAL.                                    PPWEMIS
005530      EXEC SQL                                                    PPWEMIS
005540        INCLUDE CPWSRBEN                                          PPWEMIS
005550      END-EXEC.                                                   PPWEMIS
005560                                                                  PPWEMIS
005570 01 BEN-ROW-HOLD     EXTERNAL.                                    PPWEMIS
005580      EXEC SQL                                                    PPWEMIS
005590        INCLUDE CPWSRBEN                                          PPWEMIS
005591      END-EXEC.                                                   PPWEMIS
005600                                                                  PPWEMIS
005700 01 CPWSDEED         EXTERNAL.                                    PPWEMIS
005800      EXEC SQL                                                    PPWEMIS
005900         INCLUDE CPWSDEED                                         PPWEMIS
006000      END-EXEC.                                                   PPWEMIS
006100                                                                  PPWEMIS
006200 01 CPWSWORK         EXTERNAL.                                    PPWEMIS
006300      EXEC SQL                                                    PPWEMIS
006400         INCLUDE CPWSWORK                                         PPWEMIS
006500      END-EXEC.                                                   PPWEMIS
006600                                                                  PPWEMIS
006700 01 UCWSABND         EXTERNAL.                                    PPWEMIS
006800      EXEC SQL                                                    PPWEMIS
006900         INCLUDE UCWSABND                                         PPWEMIS
007000      END-EXEC.                                                   PPWEMIS
007100                                                                  PPWEMIS
007200 01 UCDTLARE         EXTERNAL.                                    PPWEMIS
007300      EXEC SQL                                                    PPWEMIS
007400         INCLUDE UCDTLARE                                         PPWEMIS
007500      END-EXEC.                                                   PPWEMIS
007600                                                                  PPWEMIS
007700 01 EMIS-SCRN REDEFINES UCDTLARE.                                 PPWEMIS
007800      EXEC SQL                                                    PPWEMIS
007900         INCLUDE PPEMIS0                                          PPWEMIS
008000      END-EXEC.                                                   PPWEMIS
008100                                                                  PPWEMIS
008200******************************************************************PPWEMIS
008300*          SQL - WORKING STORAGE                                 *PPWEMIS
008400******************************************************************PPWEMIS
008500     EXEC SQL                                                     PPWEMIS
008600           INCLUDE SQLCA                                          PPWEMIS
008700     END-EXEC.                                                    PPWEMIS
008800 LINKAGE SECTION.                                                 PPWEMIS
008900                                                                  PPWEMIS
009000 PROCEDURE DIVISION.                                              PPWEMIS
009100                                                                  PPWEMIS
009200 0000-MAINLINE   SECTION.                                         PPWEMIS
009300                                                                  PPWEMIS
009400     MOVE WS-RELEASE-NUMBER TO UCPISCRN-DTL-REL-NO.               PPWEMIS
009500     INITIALIZE CPWSDEED-EXT-DATA.                                PPWEMIS
009600                                                                  PPWEMIS
009700     EVALUATE TRUE                                                PPWEMIS
009800        WHEN UCCOMMON-DISPLAY-REQUEST                             PPWEMIS
010000             MOVE LOW-VALUES TO PPEMIS0O                          PPWEMIS
010100             PERFORM 0100-INITIALIZE-FIELDS                       PPWEMIS
010200             PERFORM 0200-INITIALIZE-LABELS                       PPWEMIS
010300             IF UCCOMMON-BUNDLE-NAME NOT = SPACES                 PPWEMIS
010400                PERFORM 0500-SET-BUNDLE-HIGHLIGHTS                PPWEMIS
010500             END-IF                                               PPWEMIS
010600             PERFORM 1000-FORMAT-DATA                             PPWEMIS
010700             PERFORM 2200-CALL-VREDIT                             PPWEMIS
010800             PERFORM 1500-FORMAT-SCREEN                           PPWEMIS
010900                VARYING EDIT-SUB FROM 1 BY 1                      PPWEMIS
011000                UNTIL EDIT-SUB > CPWSDEED-CNT                     PPWEMIS
011100             MOVE -1  TO DE0133-CREDIT-CARDTYPEL                  PPWEMIS
011300        WHEN UCCOMMON-EDIT-REQUEST                                PPWEMIS
011500             PERFORM 0200-INITIALIZE-LABELS                       PPWEMIS
011600             IF UCCOMMON-BUNDLE-NAME NOT = SPACES                 PPWEMIS
011700                PERFORM 0500-SET-BUNDLE-HIGHLIGHTS                PPWEMIS
011800             END-IF                                               PPWEMIS
011900             PERFORM 2000-EDIT-DATA                               PPWEMIS
012000             IF CPWSDEED-CNT > ZERO                               PPWEMIS
012100                PERFORM 2200-CALL-VREDIT                          PPWEMIS
012200                PERFORM 1500-FORMAT-SCREEN                        PPWEMIS
012300                  VARYING EDIT-SUB FROM 1 BY 1                    PPWEMIS
012400                  UNTIL EDIT-SUB > CPWSDEED-CNT                   PPWEMIS
012500                IF UCCOMMON-NO-EDIT-ERRORS                        PPWEMIS
012600                   MOVE  -1 TO DE0133-CREDIT-CARDTYPEL            PPWEMIS
012700                   PERFORM 2400-UPDATE-EMPLOYEE                   PPWEMIS
012800                      VARYING EDIT-SUB FROM 1 BY 1                PPWEMIS
012900                      UNTIL EDIT-SUB > CPWSDEED-CNT               PPWEMIS
013000                ELSE                                              PPWEMIS
013100                   PERFORM 2300-EDIT-ERROR-ROUTINE                PPWEMIS
013200                      VARYING EDIT-SUB FROM 1 BY 1                PPWEMIS
013300                      UNTIL EDIT-SUB > CPWSDEED-CNT               PPWEMIS
013400                END-IF                                            PPWEMIS
013500             END-IF                                               PPWEMIS
013600             PERFORM 0110-SET-PROTECTED-FIELDS                    PPWEMIS
013700        WHEN OTHER                                                PPWEMIS
013800             PERFORM 9000-INVALID-REQUEST-CODE                    PPWEMIS
013900     END-EVALUATE.                                                PPWEMIS
014000                                                                  PPWEMIS
014100     MOVE LENGTH OF PPEMIS0O TO UCPISCRN-DETAIL-MAP-LENGTH.       PPWEMIS
014200     GOBACK.                                                      PPWEMIS
014300                                                                  PPWEMIS
014400 0000-EXIT.                                                       PPWEMIS
014500     EXIT.                                                        PPWEMIS
014501 0100-INITIALIZE-FIELDS SECTION.                                  PPWEMIS
014502                                                                  PPWEMIS
014503                                                                  PPWEMIS
014504     MOVE UCCOMMON-CLR-ENTRY TO                                   PPWEMIS
017300                                DE0133-CREDIT-CARDTYPEC           PPWEMIS
017301                                DE0168-CREDIT-CARDSTATUSC         PPWEMIS
017302                                DE0169-CREDIT-CARDDATEC           PPWEMIS
017303                                DE0185-CAL-CAS-DED-INDC           PPWEMIS
017310                                                                  PPWEMIS
017320     IF UCCOMMON-RECORD-AUTH-UPDATE                               PPWEMIS
017330        MOVE UCCOMMON-ATR-ENTRY TO WS-ATR                         PPWEMIS
017340     ELSE                                                         PPWEMIS
017350        MOVE UCCOMMON-ATR-ENTRY-PRO TO WS-ATR                     PPWEMIS
017360     END-IF.                                                      PPWEMIS
017370                                                                  PPWEMIS
017500     MOVE WS-ATR TO             DE0133-CREDIT-CARDTYPEA           PPWEMIS
017501                                DE0168-CREDIT-CARDSTATUSA         PPWEMIS
017502                                DE0169-CREDIT-CARDDATEA           PPWEMIS
017503                                DE0185-CAL-CAS-DED-INDA           PPWEMIS
020100                                                                  PPWEMIS
020200     MOVE UCCOMMON-HLT-ENTRY TO                                   PPWEMIS
020210                                DE0133-CREDIT-CARDTYPEH           PPWEMIS
020211                                DE0168-CREDIT-CARDSTATUSH         PPWEMIS
020212                                DE0169-CREDIT-CARDDATEH           PPWEMIS
020213                                DE0185-CAL-CAS-DED-INDH           PPWEMIS
020300                                                                  PPWEMIS
020800     PERFORM 0110-SET-PROTECTED-FIELDS.                           PPWEMIS
020810                                                                  PPWEMIS
020900 0100-EXIT.                                                       PPWEMIS
021000     EXIT.                                                        PPWEMIS
022900     EJECT                                                        PPWEMIS
022901                                                                  PPWEMIS
022902 0110-SET-PROTECTED-FIELDS   SECTION.                             PPWEMIS
022906                                                                  PPWEMIS
022907     IF CPWSDEHI-PROTECT-IND(0133) = 'Y'                          PPWEMIS
022908        MOVE UCCOMMON-ATR-ENTRY-PRO TO DE0133-CREDIT-CARDTYPEA    PPWEMIS
022909     END-IF.                                                      PPWEMIS
022910     IF CPWSDEHI-PROTECT-IND(0168) = 'Y'                          PPWEMIS
022911        MOVE UCCOMMON-ATR-ENTRY-PRO TO DE0168-CREDIT-CARDSTATUSA  PPWEMIS
022912     END-IF.                                                      PPWEMIS
022913     IF CPWSDEHI-PROTECT-IND(0169) = 'Y'                          PPWEMIS
022914        MOVE UCCOMMON-ATR-ENTRY-PRO TO DE0169-CREDIT-CARDDATEA    PPWEMIS
022915     END-IF.                                                      PPWEMIS
022916     IF CPWSDEHI-PROTECT-IND(0185) = 'Y'                          PPWEMIS
022917        MOVE UCCOMMON-ATR-ENTRY-PRO TO DE0185-CAL-CAS-DED-INDA    PPWEMIS
022918     END-IF.                                                      PPWEMIS
022919                                                                  PPWEMIS
022920 0110-EXIT.                                                       PPWEMIS
022921     EXIT.                                                        PPWEMIS
022922                                                                  PPWEMIS
022923     EJECT                                                        PPWEMIS
022924                                                                  PPWEMIS
022930 0200-INITIALIZE-LABELS SECTION.                                  PPWEMIS
023000     MOVE UCCOMMON-CLR-FLD-LABEL TO                               PPWEMIS
023100                                    DE0133-L-CREDIT-CARDTYPEC     PPWEMIS
023101                                    DE0168-L-CREDIT-CARDSTATUSC   PPWEMIS
023102                                    DE0169-L-CREDIT-CARDDATEC     PPWEMIS
023103                                    DE0185-L-CAL-CAS-DED-INDC     PPWEMIS
025700                                                                  PPWEMIS
025800     MOVE UCCOMMON-ATR-FLD-LABEL TO                               PPWEMIS
025900                                    DE0133-L-CREDIT-CARDTYPEA     PPWEMIS
025901                                    DE0168-L-CREDIT-CARDSTATUSA   PPWEMIS
025902                                    DE0169-L-CREDIT-CARDDATEA     PPWEMIS
025903                                    DE0185-L-CAL-CAS-DED-INDA     PPWEMIS
028500                                                                  PPWEMIS
028600     MOVE UCCOMMON-HLT-FLD-LABEL TO                               PPWEMIS
028700                                    DE0133-L-CREDIT-CARDTYPEH     PPWEMIS
028701                                    DE0168-L-CREDIT-CARDSTATUSH   PPWEMIS
028702                                    DE0169-L-CREDIT-CARDDATEH     PPWEMIS
028703                                    DE0185-L-CAL-CAS-DED-INDH.    PPWEMIS
042200                                                                  PPWEMIS
042210 0200-EXIT.                                                       PPWEMIS
042220     EXIT.                                                        PPWEMIS
042221     EJECT                                                        PPWEMIS
042230                                                                  PPWEMIS
042300 0500-SET-BUNDLE-HIGHLIGHTS     SECTION.                          PPWEMIS
042400     IF CPWSDEHI-BUNDLE-IND(0133) = 'Y'                           PPWEMIS
042500        MOVE UCCOMMON-CLR-BUNDLE TO DE0133-L-CREDIT-CARDTYPEC     PPWEMIS
042600        MOVE UCCOMMON-HLT-BUNDLE TO DE0133-L-CREDIT-CARDTYPEH     PPWEMIS
042700        MOVE UCCOMMON-ATR-BUNDLE TO DE0133-L-CREDIT-CARDTYPEA     PPWEMIS
042800     END-IF.                                                      PPWEMIS
042810                                                                  PPWEMIS
042811     IF CPWSDEHI-BUNDLE-IND(0168) = 'Y'                           PPWEMIS
042812        MOVE UCCOMMON-CLR-BUNDLE TO DE0168-L-CREDIT-CARDSTATUSC   PPWEMIS
042813        MOVE UCCOMMON-HLT-BUNDLE TO DE0168-L-CREDIT-CARDSTATUSH   PPWEMIS
042814        MOVE UCCOMMON-ATR-BUNDLE TO DE0168-L-CREDIT-CARDSTATUSA   PPWEMIS
042815     END-IF.                                                      PPWEMIS
042816                                                                  PPWEMIS
042817     IF CPWSDEHI-BUNDLE-IND(0169) = 'Y'                           PPWEMIS
042818        MOVE UCCOMMON-CLR-BUNDLE TO DE0169-L-CREDIT-CARDDATEC     PPWEMIS
042819        MOVE UCCOMMON-HLT-BUNDLE TO DE0169-L-CREDIT-CARDDATEH     PPWEMIS
042820        MOVE UCCOMMON-ATR-BUNDLE TO DE0169-L-CREDIT-CARDDATEA     PPWEMIS
042821     END-IF.                                                      PPWEMIS
042822                                                                  PPWEMIS
042823     IF CPWSDEHI-BUNDLE-IND(0185) = 'Y'                           PPWEMIS
042824        MOVE UCCOMMON-CLR-BUNDLE TO DE0185-L-CAL-CAS-DED-INDC     PPWEMIS
042825        MOVE UCCOMMON-HLT-BUNDLE TO DE0185-L-CAL-CAS-DED-INDH     PPWEMIS
042826        MOVE UCCOMMON-ATR-BUNDLE TO DE0185-L-CAL-CAS-DED-INDA     PPWEMIS
042827     END-IF.                                                      PPWEMIS
042828                                                                  PPWEMIS
042900                                                                  PPWEMIS
043000 0500-EXIT.                                                       PPWEMIS
058500     EXIT.                                                        PPWEMIS
058520     EJECT                                                        PPWEMIS
058600 1000-FORMAT-DATA           SECTION.                              PPWEMIS
058700                                                                  PPWEMIS
058800                                                                  PPWEMIS
058840     ADD +1  TO CPWSDEED-CNT.                                     PPWEMIS
058900     MOVE CREDIT-CARDTYPE OF PCC-ROW                              PPWEMIS
059000       TO CPWSDEED-EDB-DATA(CPWSDEED-CNT).                        PPWEMIS
059100     MOVE 0133 TO CPWSDEED-ELEM-NUMBER(CPWSDEED-CNT).             PPWEMIS
059200     SET CPWSDEED-ELEM-REQUEST-DISPLAY(CPWSDEED-CNT) TO TRUE.     PPWEMIS
059201                                                                  PPWEMIS
059202     ADD +1  TO CPWSDEED-CNT.                                     PPWEMIS
059203     MOVE CREDIT-CARDSTATUS OF PCC-ROW                            PPWEMIS
059204       TO CPWSDEED-EDB-DATA(CPWSDEED-CNT).                        PPWEMIS
059205     MOVE 0168 TO CPWSDEED-ELEM-NUMBER(CPWSDEED-CNT).             PPWEMIS
059206     SET CPWSDEED-ELEM-REQUEST-DISPLAY(CPWSDEED-CNT) TO TRUE.     PPWEMIS
059207                                                                  PPWEMIS
059208     ADD +1  TO CPWSDEED-CNT.                                     PPWEMIS
059209     MOVE CREDIT-CARDDATE OF PCC-ROW                              PPWEMIS
059210       TO CPWSDEED-EDB-DATA(CPWSDEED-CNT).                        PPWEMIS
059211     MOVE 0169 TO CPWSDEED-ELEM-NUMBER(CPWSDEED-CNT).             PPWEMIS
059212     SET CPWSDEED-ELEM-REQUEST-DISPLAY(CPWSDEED-CNT) TO TRUE.     PPWEMIS
059213                                                                  PPWEMIS
059214     ADD +1  TO CPWSDEED-CNT.                                     PPWEMIS
059215     MOVE CAL-CAS-DED-IND OF BEN-ROW                              PPWEMIS
059216       TO CPWSDEED-EDB-DATA(CPWSDEED-CNT).                        PPWEMIS
059217     MOVE 0185 TO CPWSDEED-ELEM-NUMBER(CPWSDEED-CNT).             PPWEMIS
059218     SET CPWSDEED-ELEM-REQUEST-DISPLAY(CPWSDEED-CNT) TO TRUE.     PPWEMIS
059219                                                                  PPWEMIS
059220                                                                  PPWEMIS
059300 1000-EXIT.                                                       PPWEMIS
059400     EXIT.                                                        PPWEMIS
059500     EJECT                                                        PPWEMIS
061801 1500-FORMAT-SCREEN         SECTION.                              PPWEMIS
062000                                                                  PPWEMIS
062002     EVALUATE TRUE                                                PPWEMIS
062010        WHEN CPWSDEED-ELEM-NUMBER(EDIT-SUB) = 0133                PPWEMIS
062021            MOVE CPWSDEED-SCREEN-DATA(EDIT-SUB)                   PPWEMIS
062022              TO DE0133-CREDIT-CARDTYPEO                          PPWEMIS
062023                                                                  PPWEMIS
062024        WHEN CPWSDEED-ELEM-NUMBER(EDIT-SUB) = 0168                PPWEMIS
062025            MOVE CPWSDEED-SCREEN-DATA(EDIT-SUB)                   PPWEMIS
062026              TO DE0168-CREDIT-CARDSTATUSO                        PPWEMIS
062027                                                                  PPWEMIS
062028        WHEN CPWSDEED-ELEM-NUMBER(EDIT-SUB) = 0169                PPWEMIS
062029            MOVE CPWSDEED-SCREEN-DATA(EDIT-SUB)                   PPWEMIS
062030              TO DE0169-CREDIT-CARDDATEO                          PPWEMIS
062031                                                                  PPWEMIS
062032        WHEN CPWSDEED-ELEM-NUMBER(EDIT-SUB) = 0185                PPWEMIS
062033            MOVE CPWSDEED-SCREEN-DATA(EDIT-SUB)                   PPWEMIS
062034              TO DE0185-CAL-CAS-DED-INDO                          PPWEMIS
062035                                                                  PPWEMIS
062036     END-EVALUATE.                                                PPWEMIS
062100                                                                  PPWEMIS
062110 1500-EXIT.                                                       PPWEMIS
062120     EXIT.                                                        PPWEMIS
062121     EJECT                                                        PPWEMIS
062200 2000-EDIT-DATA   SECTION.                                        PPWEMIS
062300                                                                  PPWEMIS
062310***************************************************************** PPWEMIS
062320*  ALL ALTERED MAP FIELDS WILL BE PASSED TO VREDIT FOR          * PPWEMIS
062330*  VALUE-RANGE EDITING.                                         * PPWEMIS
062340*                                                               * PPWEMIS
062341*  FOR MAP FIELDS NOT ALTERED, VALUES FROM THE EDB EXTERNALS    * PPWEMIS
062342*  WILL BE PASSED TO VREDIT FOR DATA FORMATTING.                * PPWEMIS
062343*                                                               * PPWEMIS
062350***************************************************************** PPWEMIS
062360                                                                  PPWEMIS
062400     MOVE ZERO                     TO CPWSDEED-CNT.               PPWEMIS
062500                                                                  PPWEMIS
062520     ADD +1                      TO CPWSDEED-CNT.                 PPWEMIS
062530     MOVE 0133 TO CPWSDEED-ELEM-NUMBER(CPWSDEED-CNT).             PPWEMIS
062540     MOVE UCCOMMON-CLR-ENTRY TO                                   PPWEMIS
062550                      DE0133-CREDIT-CARDTYPEC.                    PPWEMIS
062560     MOVE UCCOMMON-HLT-ENTRY TO                                   PPWEMIS
062570                      DE0133-CREDIT-CARDTYPEH.                    PPWEMIS
062600     IF DE0133-CREDIT-CARDTYPEL > ZERO    OR                      PPWEMIS
062700        DE0133-CREDIT-CARDTYPEF = ERASE-EOF                       PPWEMIS
063210        SET CPWSDEED-ELEM-REQUEST-EDIT(CPWSDEED-CNT) TO TRUE      PPWEMIS
063300        IF DE0133-CREDIT-CARDTYPEF = ERASE-EOF                    PPWEMIS
063400           SET CPWSDEED-ERASE-EOF-YES(CPWSDEED-CNT) TO TRUE       PPWEMIS
063401           MOVE CREDIT-CARDTYPE OF PCC-ROW-HOLD                   PPWEMIS
063402             TO CPWSDEED-EDB-DATA(CPWSDEED-CNT)                   PPWEMIS
063407           MOVE UCCOMMON-ATR-ENTRY TO                             PPWEMIS
063408                       DE0133-CREDIT-CARDTYPEA                    PPWEMIS
063409        ELSE                                                      PPWEMIS
063410           MOVE UCCOMMON-ATR-ENTRY-MDT TO                         PPWEMIS
063411                       DE0133-CREDIT-CARDTYPEA                    PPWEMIS
063416           MOVE DE0133-CREDIT-CARDTYPEI                           PPWEMIS
063417                       TO CPWSDEED-ENTERED-DATA(CPWSDEED-CNT)     PPWEMIS
063500        END-IF                                                    PPWEMIS
063501     ELSE                                                         PPWEMIS
063510        SET CPWSDEED-ELEM-REQUEST-DISPLAY(CPWSDEED-CNT) TO TRUE   PPWEMIS
063520        MOVE CREDIT-CARDTYPE OF PCC-ROW                           PPWEMIS
063530         TO CPWSDEED-EDB-DATA(CPWSDEED-CNT)                       PPWEMIS
063600     END-IF.                                                      PPWEMIS
063610                                                                  PPWEMIS
063611     ADD +1                      TO CPWSDEED-CNT.                 PPWEMIS
063612     MOVE 0168 TO CPWSDEED-ELEM-NUMBER(CPWSDEED-CNT).             PPWEMIS
063613     MOVE UCCOMMON-CLR-ENTRY TO                                   PPWEMIS
063614                      DE0168-CREDIT-CARDSTATUSC.                  PPWEMIS
063615     MOVE UCCOMMON-HLT-ENTRY TO                                   PPWEMIS
063616                      DE0168-CREDIT-CARDSTATUSH.                  PPWEMIS
063617     IF DE0168-CREDIT-CARDSTATUSL > ZERO    OR                    PPWEMIS
063618        DE0168-CREDIT-CARDSTATUSF = ERASE-EOF                     PPWEMIS
063619        SET CPWSDEED-ELEM-REQUEST-EDIT(CPWSDEED-CNT) TO TRUE      PPWEMIS
063620        IF DE0168-CREDIT-CARDSTATUSF = ERASE-EOF                  PPWEMIS
063621           SET CPWSDEED-ERASE-EOF-YES(CPWSDEED-CNT) TO TRUE       PPWEMIS
063622           MOVE CREDIT-CARDSTATUS OF PCC-ROW-HOLD                 PPWEMIS
063623             TO CPWSDEED-EDB-DATA(CPWSDEED-CNT)                   PPWEMIS
063624           MOVE UCCOMMON-ATR-ENTRY TO                             PPWEMIS
063625                       DE0168-CREDIT-CARDSTATUSA                  PPWEMIS
063626        ELSE                                                      PPWEMIS
063627           MOVE UCCOMMON-ATR-ENTRY-MDT TO                         PPWEMIS
063628                       DE0168-CREDIT-CARDSTATUSA                  PPWEMIS
063629           MOVE DE0168-CREDIT-CARDSTATUSI                         PPWEMIS
063630                       TO CPWSDEED-ENTERED-DATA(CPWSDEED-CNT)     PPWEMIS
063631        END-IF                                                    PPWEMIS
063632     ELSE                                                         PPWEMIS
063633        SET CPWSDEED-ELEM-REQUEST-DISPLAY(CPWSDEED-CNT) TO TRUE   PPWEMIS
063634        MOVE CREDIT-CARDSTATUS OF PCC-ROW                         PPWEMIS
063635         TO CPWSDEED-EDB-DATA(CPWSDEED-CNT)                       PPWEMIS
063636     END-IF.                                                      PPWEMIS
063637                                                                  PPWEMIS
063638     ADD +1                      TO CPWSDEED-CNT.                 PPWEMIS
063639     MOVE 0169 TO CPWSDEED-ELEM-NUMBER(CPWSDEED-CNT).             PPWEMIS
063640     MOVE UCCOMMON-CLR-ENTRY TO                                   PPWEMIS
063641                      DE0169-CREDIT-CARDDATEC.                    PPWEMIS
063642     MOVE UCCOMMON-HLT-ENTRY TO                                   PPWEMIS
063643                      DE0169-CREDIT-CARDDATEH.                    PPWEMIS
063644     IF DE0169-CREDIT-CARDDATEL > ZERO    OR                      PPWEMIS
063645        DE0169-CREDIT-CARDDATEF = ERASE-EOF                       PPWEMIS
063646        SET CPWSDEED-ELEM-REQUEST-EDIT(CPWSDEED-CNT) TO TRUE      PPWEMIS
063647        IF DE0169-CREDIT-CARDDATEF = ERASE-EOF                    PPWEMIS
063648           SET CPWSDEED-ERASE-EOF-YES(CPWSDEED-CNT) TO TRUE       PPWEMIS
063649           MOVE CREDIT-CARDDATE OF PCC-ROW-HOLD                   PPWEMIS
063650             TO CPWSDEED-EDB-DATA(CPWSDEED-CNT)                   PPWEMIS
063651           MOVE UCCOMMON-ATR-ENTRY TO                             PPWEMIS
063652                       DE0169-CREDIT-CARDDATEA                    PPWEMIS
063653        ELSE                                                      PPWEMIS
063654           MOVE UCCOMMON-ATR-ENTRY-MDT TO                         PPWEMIS
063655                       DE0169-CREDIT-CARDDATEA                    PPWEMIS
063656           MOVE DE0169-CREDIT-CARDDATEI                           PPWEMIS
063657                       TO CPWSDEED-ENTERED-DATA(CPWSDEED-CNT)     PPWEMIS
063658        END-IF                                                    PPWEMIS
063659     ELSE                                                         PPWEMIS
063660        SET CPWSDEED-ELEM-REQUEST-DISPLAY(CPWSDEED-CNT) TO TRUE   PPWEMIS
063661        MOVE CREDIT-CARDDATE OF PCC-ROW                           PPWEMIS
063662         TO CPWSDEED-EDB-DATA(CPWSDEED-CNT)                       PPWEMIS
063663     END-IF.                                                      PPWEMIS
063664                                                                  PPWEMIS
063665     ADD +1                      TO CPWSDEED-CNT.                 PPWEMIS
063666     MOVE 0185 TO CPWSDEED-ELEM-NUMBER(CPWSDEED-CNT).             PPWEMIS
063667     MOVE UCCOMMON-CLR-ENTRY TO                                   PPWEMIS
063668                      DE0185-CAL-CAS-DED-INDC.                    PPWEMIS
063669     MOVE UCCOMMON-HLT-ENTRY TO                                   PPWEMIS
063670                      DE0185-CAL-CAS-DED-INDH.                    PPWEMIS
063671     IF DE0185-CAL-CAS-DED-INDL > ZERO    OR                      PPWEMIS
063672        DE0185-CAL-CAS-DED-INDF = ERASE-EOF                       PPWEMIS
063673        SET CPWSDEED-ELEM-REQUEST-EDIT(CPWSDEED-CNT) TO TRUE      PPWEMIS
063674        IF DE0185-CAL-CAS-DED-INDF = ERASE-EOF                    PPWEMIS
063675           SET CPWSDEED-ERASE-EOF-YES(CPWSDEED-CNT) TO TRUE       PPWEMIS
063676           MOVE CAL-CAS-DED-IND OF BEN-ROW-HOLD                   PPWEMIS
063677             TO CPWSDEED-EDB-DATA(CPWSDEED-CNT)                   PPWEMIS
063678           MOVE UCCOMMON-ATR-ENTRY TO                             PPWEMIS
063679                       DE0185-CAL-CAS-DED-INDA                    PPWEMIS
063680        ELSE                                                      PPWEMIS
063681           MOVE UCCOMMON-ATR-ENTRY-MDT TO                         PPWEMIS
063682                       DE0185-CAL-CAS-DED-INDA                    PPWEMIS
063683           MOVE DE0185-CAL-CAS-DED-INDI                           PPWEMIS
063684                       TO CPWSDEED-ENTERED-DATA(CPWSDEED-CNT)     PPWEMIS
063685        END-IF                                                    PPWEMIS
063686     ELSE                                                         PPWEMIS
063687        SET CPWSDEED-ELEM-REQUEST-DISPLAY(CPWSDEED-CNT) TO TRUE   PPWEMIS
063688        MOVE CAL-CAS-DED-IND OF BEN-ROW                           PPWEMIS
063689         TO CPWSDEED-EDB-DATA(CPWSDEED-CNT)                       PPWEMIS
063690     END-IF.                                                      PPWEMIS
063691                                                                  PPWEMIS
063700                                                                  PPWEMIS
063800 2000-EXIT.                                                       PPWEMIS
063900     EXIT.                                                        PPWEMIS
064000     EJECT                                                        PPWEMIS
096100 2200-CALL-VREDIT     SECTION.                                    PPWEMIS
096200                                                                  PPWEMIS
096300     CALL WS-PGM-VREDIT.                                          PPWEMIS
096400                                                                  PPWEMIS
096600                                                                  PPWEMIS
096610 2200-EXIT.                                                       PPWEMIS
096620     EXIT.                                                        PPWEMIS
096630     EJECT                                                        PPWEMIS
096800 2300-EDIT-ERROR-ROUTINE    SECTION.                              PPWEMIS
096900                                                                  PPWEMIS
097000     EVALUATE TRUE                                                PPWEMIS
097100        WHEN CPWSDEED-ELEM-NUMBER(EDIT-SUB) = 0133                PPWEMIS
097300            IF CPWSDEED-ELEM-ERRORS-FOUND(EDIT-SUB)               PPWEMIS
097400               MOVE UCCOMMON-HLT-ERROR                            PPWEMIS
097500                 TO DE0133-CREDIT-CARDTYPEH                       PPWEMIS
097600               MOVE UCCOMMON-ATR-ERROR-MDT                        PPWEMIS
097700                 TO DE0133-CREDIT-CARDTYPEA                       PPWEMIS
097800               MOVE UCCOMMON-CLR-ERROR                            PPWEMIS
097900                 TO DE0133-CREDIT-CARDTYPEC                       PPWEMIS
098000               MOVE CPWSDEED-SCREEN-DATA(EDIT-SUB)                PPWEMIS
098100                 TO DE0133-CREDIT-CARDTYPEO                       PPWEMIS
098200               IF NO-ERRORS-FLAGGED                               PPWEMIS
098300                  MOVE  -1 TO DE0133-CREDIT-CARDTYPEL             PPWEMIS
098400                  SET ERRORS-FLAGGED TO TRUE                      PPWEMIS
098500               END-IF                                             PPWEMIS
098600            END-IF                                                PPWEMIS
098800                                                                  PPWEMIS
098801        WHEN CPWSDEED-ELEM-NUMBER(EDIT-SUB) = 0168                PPWEMIS
098802            IF CPWSDEED-ELEM-ERRORS-FOUND(EDIT-SUB)               PPWEMIS
098803               MOVE UCCOMMON-HLT-ERROR                            PPWEMIS
098804                 TO DE0168-CREDIT-CARDSTATUSH                     PPWEMIS
098805               MOVE UCCOMMON-ATR-ERROR-MDT                        PPWEMIS
098806                 TO DE0168-CREDIT-CARDSTATUSA                     PPWEMIS
098807               MOVE UCCOMMON-CLR-ERROR                            PPWEMIS
098808                 TO DE0168-CREDIT-CARDSTATUSC                     PPWEMIS
098809               MOVE CPWSDEED-SCREEN-DATA(EDIT-SUB)                PPWEMIS
098810                 TO DE0168-CREDIT-CARDSTATUSO                     PPWEMIS
098811               IF NO-ERRORS-FLAGGED                               PPWEMIS
098812                  MOVE  -1 TO DE0168-CREDIT-CARDSTATUSL           PPWEMIS
098813                  SET ERRORS-FLAGGED TO TRUE                      PPWEMIS
098814               END-IF                                             PPWEMIS
098815            END-IF                                                PPWEMIS
098816                                                                  PPWEMIS
098817        WHEN CPWSDEED-ELEM-NUMBER(EDIT-SUB) = 0169                PPWEMIS
098818            IF CPWSDEED-ELEM-ERRORS-FOUND(EDIT-SUB)               PPWEMIS
098819               MOVE UCCOMMON-HLT-ERROR                            PPWEMIS
098820                 TO DE0169-CREDIT-CARDDATEH                       PPWEMIS
098821               MOVE UCCOMMON-ATR-ERROR-MDT                        PPWEMIS
098822                 TO DE0169-CREDIT-CARDDATEA                       PPWEMIS
098823               MOVE UCCOMMON-CLR-ERROR                            PPWEMIS
098824                 TO DE0169-CREDIT-CARDDATEC                       PPWEMIS
098825               MOVE CPWSDEED-SCREEN-DATA(EDIT-SUB)                PPWEMIS
098826                 TO DE0169-CREDIT-CARDDATEO                       PPWEMIS
098827               IF NO-ERRORS-FLAGGED                               PPWEMIS
098828                  MOVE  -1 TO DE0169-CREDIT-CARDDATEL             PPWEMIS
098829                  SET ERRORS-FLAGGED TO TRUE                      PPWEMIS
098830               END-IF                                             PPWEMIS
098831            END-IF                                                PPWEMIS
098832                                                                  PPWEMIS
098833        WHEN CPWSDEED-ELEM-NUMBER(EDIT-SUB) = 0185                PPWEMIS
098834            IF CPWSDEED-ELEM-ERRORS-FOUND(EDIT-SUB)               PPWEMIS
098835               MOVE UCCOMMON-HLT-ERROR                            PPWEMIS
098836                 TO DE0185-CAL-CAS-DED-INDH                       PPWEMIS
098837               MOVE UCCOMMON-ATR-ERROR-MDT                        PPWEMIS
098838                 TO DE0185-CAL-CAS-DED-INDA                       PPWEMIS
098839               MOVE UCCOMMON-CLR-ERROR                            PPWEMIS
098840                 TO DE0185-CAL-CAS-DED-INDC                       PPWEMIS
098841               MOVE CPWSDEED-SCREEN-DATA(EDIT-SUB)                PPWEMIS
098842                 TO DE0185-CAL-CAS-DED-INDO                       PPWEMIS
098843               IF NO-ERRORS-FLAGGED                               PPWEMIS
098844                  MOVE  -1 TO DE0185-CAL-CAS-DED-INDL             PPWEMIS
098845                  SET ERRORS-FLAGGED TO TRUE                      PPWEMIS
098846               END-IF                                             PPWEMIS
098847            END-IF                                                PPWEMIS
098848                                                                  PPWEMIS
145600     END-EVALUATE.                                                PPWEMIS
145700                                                                  PPWEMIS
145710 2300-EXIT.                                                       PPWEMIS
145720     EXIT.                                                        PPWEMIS
145721     EJECT                                                        PPWEMIS
145800 2400-UPDATE-EMPLOYEE      SECTION.                               PPWEMIS
145900                                                                  PPWEMIS
146000     EVALUATE TRUE                                                PPWEMIS
146100        WHEN CPWSDEED-ELEM-NUMBER(EDIT-SUB) = 0133                PPWEMIS
146510           IF CPWSDEED-ELEM-REQUEST-EDIT(EDIT-SUB)                PPWEMIS
146600              MOVE CPWSDEED-EDB-DATA(EDIT-SUB)                    PPWEMIS
146700                 TO CREDIT-CARDTYPE OF PCC-ROW                    PPWEMIS
146800           END-IF                                                 PPWEMIS
146900                                                                  PPWEMIS
146901        WHEN CPWSDEED-ELEM-NUMBER(EDIT-SUB) = 0168                PPWEMIS
146902           IF CPWSDEED-ELEM-REQUEST-EDIT(EDIT-SUB)                PPWEMIS
146903              MOVE CPWSDEED-EDB-DATA(EDIT-SUB)                    PPWEMIS
146904                 TO CREDIT-CARDSTATUS OF PCC-ROW                  PPWEMIS
146905           END-IF                                                 PPWEMIS
146906                                                                  PPWEMIS
146907        WHEN CPWSDEED-ELEM-NUMBER(EDIT-SUB) = 0169                PPWEMIS
146908           IF CPWSDEED-ELEM-REQUEST-EDIT(EDIT-SUB)                PPWEMIS
146909              MOVE CPWSDEED-EDB-DATA(EDIT-SUB)                    PPWEMIS
146910                 TO CREDIT-CARDDATE OF PCC-ROW                    PPWEMIS
146911           END-IF                                                 PPWEMIS
146912                                                                  PPWEMIS
146913        WHEN CPWSDEED-ELEM-NUMBER(EDIT-SUB) = 0185                PPWEMIS
146914           IF CPWSDEED-ELEM-REQUEST-EDIT(EDIT-SUB)                PPWEMIS
146915              MOVE CPWSDEED-EDB-DATA(EDIT-SUB)                    PPWEMIS
146916                 TO CAL-CAS-DED-IND OF BEN-ROW                    PPWEMIS
146917           END-IF                                                 PPWEMIS
146918                                                                  PPWEMIS
159600     END-EVALUATE.                                                PPWEMIS
159700                                                                  PPWEMIS
159710 2400-EXIT.                                                       PPWEMIS
159720     EXIT.                                                        PPWEMIS
159721     EJECT                                                        PPWEMIS
159800 9000-INVALID-REQUEST-CODE SECTION.                               PPWEMIS
159900                                                                  PPWEMIS
160000     MOVE 'INVALID UCCOMMON-REQUEST-CODE'                         PPWEMIS
160100       TO UCWSABND-MSG-DATA.                                      PPWEMIS
160200                                                                  PPWEMIS
160300     MOVE WS-THIS-PGM-NAME TO UCWSABND-ABENDING-PGM.              PPWEMIS
160400                                                                  PPWEMIS
160500     MOVE SPACES          TO UCWSABND-ABEND-DATA(1)               PPWEMIS
160600                             UCWSABND-ABEND-DATA(2).              PPWEMIS
160700                                                                  PPWEMIS
160800     STRING                                                       PPWEMIS
160900           'INVALID REQUEST CODE = '  DELIMITED BY SIZE           PPWEMIS
161000            UCCOMMON-REQUEST-CODE     DELIMITED BY SIZE           PPWEMIS
161100       INTO UCWSABND-ABEND-DATA(1)                                PPWEMIS
161200     END-STRING.                                                  PPWEMIS
161300                                                                  PPWEMIS
161400     PERFORM 9999-ABEND.                                          PPWEMIS
161500                                                                  PPWEMIS
161510 9000-EXIT.                                                       PPWEMIS
161520     EXIT.                                                        PPWEMIS
161521     EJECT                                                        PPWEMIS
161600 9999-ABEND                SECTION.                               PPWEMIS
161700 COPY UCPDABND.                                                   PPWEMIS
161710                                                                  PPWEMIS
161800 9999-EXIT.                                                       PPWEMIS
161900      EXIT.                                                       PPWEMIS
161910     EJECT                                                        PPWEMIS
