000100*==========================================================%      UCSDXXXX
000200*=  UCSD LOCAL CHANGES HAVE BEEN IMPLEMENTED.             =%      UCSDXXXX
000300*=  COLUMN 73 THRU 80 DENOTES CHANGE NUMBER - UCSDXXXX    =%      UCSDXXXX
000400*=                                                        =%      UCSDXXXX
000500*==========================================================%      UCSDXXXX
000600*==========================================================%      UCSD0155
000700*=    PROGRAM: PPWIGEN                                    =%      UCSD0155
000701*=    CHANGE # UCSD0155     PROJ. REQUEST: PAYROLL OFFICE =%      UCSD0155
000093*=    NAME: G CHIU          MODIFICATION DATE: 12/06/01   =%      UCSD0155
001000*=                                                        =%      UCSD0155
000095*=  IF THE PREVIOUS RETRIEVED EMPLOYEE HAD AN ANTICIPATED =%      UCSD0155
000096*=  RETIREMENT DATE, THE CURRENT EMPLOYEE DISPLAYED       =%      UCSD0155
000096*=  WITH THE SAME DATE. PARA 3150- SHOULD NOT PROCESS     =%      UCSD0155
000096*=  ANTICIPATED-RETIREMENT-DATE.                          =%      UCSD0155
001600*==========================================================%      UCSD0155
000600*==========================================================%      UCSD0072
000700*=    PROGRAM: PPWIGEN                                    =%      UCSD0072
000092*=    CHANGE # 0072         PROJ. REQUEST: 0072           =%      UCSD0072
000093*=    NAME: RON BLOCK       MODIFICATION DATE: 05/24/95   =%      UCSD0072
001000*=                                                        =%      UCSD0072
000095*=  ADDED ALT-DEPT-CD AND LOCAL FIELDS ALT-DEPT-2-CD AND  =%      UCSD0072
000096*=  ALT-DEPT-3-CD.                                        =%      UCSD0072
001600*==========================================================%      UCSD0072
000600*==========================================================%      UCSD0056
000700*=    PROGRAM: PPWIGEN                                    =%      UCSD0056
000092*=    CHANGE # 0056         PROJ. REQUEST: 0056           =%      UCSD0056
000093*=    NAME: RON BLOCK       MODIFICATION DATE: 12/01/94   =%      UCSD0056
001000*=                                                        =%      UCSD0056
000095*=  ADD LOGIC TO SUPPORT INQUIRY SECURITY:                =%      UCSD0056
001625*=      MOVE SPACES TO CERTAIN DISPLAYED FIELDS IF THE    =%      UCSD0056
000097*=      USER DOES NOT HAVE UNIVERSAL-ACCESS OR            =%      UCSD0056
000098*=      CENTRAL-ACCESS AUTHORITY.                         =%      UCSD0056
001600*==========================================================%      UCSD0056
000000**************************************************************/   02561450
000001*  PROGRAM: PPWIGEN                                          */   02561450
000002*  RELEASE: ___1450______ SERVICE REQUEST(S): ____80256____  */   02561450
000003*  NAME:____J KENNEDY____ MODIFICATION DATE:  ___11/15/02__  */   02561450
000004*  DESCRIPTION:                                              */   02561450
000005*   - ADD RECENTLY SEPARATED VETERAN DATE TO SCREEN          */   02561450
000006*   ( DE 0381 RECENT_VET_SEPDT )                             */   02561450
000007**************************************************************/   02561450
000001**************************************************************/   51231302
000002*  PROGRAM: PPWIGEN                                          */   51231302
000003*  RELEASE: ___1302______ SERVICE REQUEST(S): ____15123____  */   51231302
000004*  NAME:___ROY STAPLES___ MODIFICATION DATE:  ___08/03/00__  */   51231302
000005*  DESCRIPTION:                                              */   51231302
000006*  - ADDED WCE-VETERAN-STATUS (EDB0345)                      */   51231302
000007**************************************************************/   51231302
000001**************************************************************/   32171197
000002*  PROGRAM: PPWIGEN                                          */   32171197
000003*  RELEASE: ___1197______ SERVICE REQUEST(S): ____13217____  */   32171197
000004*  NAME:___ROY STAPLES___ MODIFICATION DATE:  ___06/30/98__  */   32171197
000005*  DESCRIPTION:                                              */   32171197
000006*  - ADDED NEW US-DATE-OF-ENTRY (DE 1169) TO SCREEN          */   32171197
000007**************************************************************/   32171197
000000**************************************************************/   49031194
000001*  PROGRAM: PPWIGEN                                          */   49031194
000002*  RELEASE: ___1194______ SERVICE REQUEST(S): ____14903____  */   49031194
000003*  NAME:_______QUAN______ MODIFICATION DATE:  ___06/08/98__  */   49031194
000004*  DESCRIPTION:                                              */   49031194
000005*   ADDED ANTICIPATED RETIREMENT DATE (DE 0765)              */   49031194
000006*                                                            */   49031194
000007**************************************************************/   49031194
000000**************************************************************/   25991140
000001*  PROGRAM: PPWIGEN                                          */   25991140
000002*  RELEASE: ___1140______ SERVICE REQUEST(S): ____12599____  */   25991140
000003*  NAME:______M SANO_____ MODIFICATION DATE:  ___04/24/97__  */   25991140
000004*  DESCRIPTION:                                              */   25991140
000005*   ADDED DISPLAY OF PIN SIGN DATE (EDB 0750)                */   25991140
000006*                                                            */   25991140
000007**************************************************************/   25991140
000100**************************************************************/   17810964
000200*  PROGRAM: PPWIGEN                                          */   17810964
000300*  RELEASE: ___0964______ SERVICE REQUEST(S): ____11781____  */   17810964
000400*  NAME:_____M. SANO_____ MODIFICATION DATE:  ___02/23/95__  */   17810964
000500*  DESCRIPTION:                                              */   17810964
000600*  ADDED DISPLAY OF NUMBER OF REGISTERED UNITS (EDB 0237)    */   17810964
000700*                                                            */   17810964
000800**************************************************************/   17810964
000000**************************************************************/   17690915
000001*  PROGRAM: PPWIGEN                                          */   17690915
000002*  RELEASE: ___0915______ SERVICE REQUEST(S): _____1769____  */   17690915
000003*  NAME:___H. TRUONG ____ MODIFICATION DATE:  ___08/01/94__  */   17690915
000004*  DESCRIPTION:                                              */   17690915
000005*  MODIFIED CODE TO DISPLAY ACADEMIC PROGRAMMATIC UNIT CODE. */   17690915
000006*                                                            */   17690915
000007**************************************************************/   17690915
000100**************************************************************/   36430911
000200*  PROGRAM: PPWIGEN                                          */   36430911
000300*  RELEASE # ___0911___   SERVICE REQUEST NO(S)____3643______*/   36430911
000400*  NAME __MLG__________   MODIFICATION DATE ____06/30/94_____*/   36430911
000500*  DESCRIPTION                                               */   36430911
000600*                                                            */   36430911
000700*        THIS IS A COMPLETE REPLACEMENT OF PPWIGEN           */   36430911
000800*                AS ISSUED IN RELEASE 0889                   */   36430911
000900*                                                            */   36430911
001000**************************************************************/   36430911
001100 IDENTIFICATION DIVISION.                                         PPWIGEN
001200 PROGRAM-ID. PPWIGEN.                                             PPWIGEN
001300 ENVIRONMENT DIVISION.                                            PPWIGEN
001400 CONFIGURATION SECTION.                                           PPWIGEN
001500 SOURCE-COMPUTER.                                                 PPWIGEN
001600 COPY  CPOTXUCS.                                                  PPWIGEN
001400 DATA DIVISION.                                                   PPWIGEN
001500 WORKING-STORAGE SECTION.                                         PPWIGEN
001600                                                                  PPWIGEN
002000 01  WS-COMN.                                                     PPWIGEN
002100   05  WS-START             PIC X(27) VALUE                       PPWIGEN
002200       'WORKING STORAGE STARTS HERE'.                             PPWIGEN
002300   05  WS-PGM-NAME          PIC X(08) VALUE 'PPWIGEN'.            PPWIGEN
002400   05  WS-REL-NO            PIC X(05)                             PPWIGEN
004100*****                                                          CD 02561450
004310*****                           VALUE 'I1302'.                    02561450
004320                                VALUE 'I1450'.                    02561450
001800                                                                  PPWIGEN
003400 01  WS-COMMON-CICS-DATA.                                         PPWIGEN
003500 COPY CPWSCOMN.                                                   PPWIGEN
003600                                                                  PPWIGEN
003700 01  WS-MISC.                                                     PPWIGEN
004300     05  WS-UNIQUE-EE-ID        PIC X(09) VALUE SPACES.           PPWIGEN
004400     05  WS-ADJUST-DATE.                                          PPWIGEN
004500         10 WS-ADJUST-PRE       PIC X(06) VALUE SPACES.           PPWIGEN
004600         10 WS-ADJUST-SUF.                                        PPWIGEN
004700            15 WS-ADJUST-SUF1 PIC X(02) VALUE SPACES.             PPWIGEN
004800            15 WS-ADJUST-SUF2 PIC X(02) VALUE SPACES.             PPWIGEN
004900     05  WS-INTER-N             PIC ZZZ   VALUE ZERO.             PPWIGEN
005000     05  WS-INTER-NN            PIC 999   VALUE ZERO.             PPWIGEN
005100     05  WS-SALREV.                                               PPWIGEN
005200         10 WS-SALREV-1         PIC X(02) VALUE SPACES.           PPWIGEN
005300         10 FILLER              PIC X(06) VALUE SPACES.           PPWIGEN
005400         10 WS-SALREV-2         PIC X(02) VALUE SPACES.           PPWIGEN
005500     05  WS-NEXT-SALREV-DATE.                                     PPWIGEN
005600         10 WS-NEXT-SALREV-DATE1  PIC X(02) VALUE SPACES.         PPWIGEN
005700         10 FILLER                PIC X(01) VALUE '/'.            PPWIGEN
005800         10 WS-NEXT-SALREV-DATE2  PIC X(02) VALUE SPACES.         PPWIGEN
006410     05  WS-VETSEP.                                               02561450
006420         10 WS-VETSEP-1         PIC X(02) VALUE SPACES.           02561450
006430         10 FILLER              PIC X(06) VALUE SPACES.           02561450
006440         10 WS-VETSEP-2         PIC X(02) VALUE SPACES.           02561450
006450     05  WS-RECENT-VET-SEPDT.                                     02561450
006460         10 WS-REC-VET-SEPDT1     PIC X(02) VALUE SPACES.         02561450
006470         10 FILLER                PIC X(01) VALUE '/'.            02561450
006480         10 WS-REC-VET-SEPDT2     PIC X(02) VALUE SPACES.         02561450
005900     05  WS-ADJUST-SCR.                                           PPWIGEN
006000         10  WS-ADJUST-SCR1      PIC X(06)  VALUE SPACES.         PPWIGEN
006100         10  WS-ADJUST-SCR2      PIC X(02)  VALUE SPACES.         PPWIGEN
006200     05  WS-99-99-DATE           PIC X(05)  VALUE '99/99'.        PPWIGEN
008000     05  WS-PAY-DATE.                                             PPWIGEN
008100         10 WS-PAY-DATE-1-6     PIC X(6)  VALUE SPACES.           PPWIGEN
008200         10 WS-PAY-DATE-7-8     PIC X(2)  VALUE SPACES.           PPWIGEN
008300         10 WS-PAY-DATE-9-10    PIC X(2)  VALUE SPACES.           PPWIGEN
008400     05  WS-PAY-DPAY.                                             PPWIGEN
008500         10 WS-PAY-DPAY-1-6     PIC X(6)  VALUE SPACES.           PPWIGEN
008600         10 WS-PAY-DPAY-7-8     PIC X(2)  VALUE SPACES.           PPWIGEN
007600     05  WS-9-UNITS             PIC 99.9.                         17810964
007600     05  WS-FORMATTED-VET-CDS   PIC X(05) VALUE SPACE.            51231302
007600                                                                  51231302
008700 01  WS-MAP-FIELDS.                                               PPWIGEN
008800     05  WS-ADJUST-REASONO.                                       PPWIGEN
008900         10 WS-ADJUST-REASON    PIC X(2)  VALUE SPACE.            PPWIGEN
009000         10 FILLER              PIC X(1)  VALUE '/'.              PPWIGEN
009100         10 WS-ADJUST-DESTIN    PIC X(2)  VALUE SPACE.            PPWIGEN
009200     05  WS-EMP-REL-CODEO.                                        PPWIGEN
009300         10 WS-EMP-REL-CODE     PIC X(1)  VALUE SPACE.            PPWIGEN
009400         10 FILLER              PIC X(1)  VALUE '/'.              PPWIGEN
006600         10 WS-EMP-CBUC         PIC X(2)  VALUE SPACE.            PPWIGEN
006700         10 FILLER              PIC X(1)  VALUE '/'.              PPWIGEN
009500         10 WS-EMP-REL-UNIT     PIC X(2)  VALUE SPACE.            PPWIGEN
009600     05  WS-EMP-REP-CODEO.                                        PPWIGEN
009700         10 WS-EMP-REP-CODE     PIC X(1)  VALUE SPACE.            PPWIGEN
009800         10 FILLER              PIC X(1)  VALUE '/'.              PPWIGEN
009900         10 WS-EMP-SPEC-HAND    PIC X(1)  VALUE SPACE.            PPWIGEN
010000         10 FILLER              PIC X(1)  VALUE '/'.              PPWIGEN
010100         10 WS-EMP-DIST-UNT-CD  PIC X(1)  VALUE SPACE.            PPWIGEN
010200     05  WS-BELI-INDO.                                            PPWIGEN
010300         10 WS-BELI-IND         PIC X(1)  VALUE SPACE.            PPWIGEN
010400         10 FILLER              PIC X(1)  VALUE '/'.              PPWIGEN
010500         10 WS-BELI-DERIVED-IND PIC X(1)  VALUE SPACE.            PPWIGEN
009800     05  WS-STUDENT-UNITSO.                                       17810964
009900         10 WS-STUDENT-STATUS   PIC X(1)  VALUE SPACE.            17810964
010000         10 FILLER              PIC X(1)  VALUE '/'.              17810964
010100         10 WS-REGISTERD-UNITS  PIC X(4)  VALUE SPACE.            17810964
010600                                                                  PPWIGEN
008000 01  UCDTLARE  EXTERNAL.                                          PPWIGEN
008100     COPY UCDTLARE.                                               PPWIGEN
008200 01  WS-PPIGEN0 REDEFINES UCDTLARE.                               PPWIGEN
008300     COPY PPIGEN0.                                                PPWIGEN
011500                                                                  PPWIGEN
008500 01  UCCOMMON    EXTERNAL.                                        PPWIGEN
008600     EXEC SQL                                                     PPWIGEN
008700      INCLUDE UCCOMMON                                            PPWIGEN
008800     END-EXEC.                                                    PPWIGEN
011600                                                                  PPWIGEN
009000 01  CPWSWORK    EXTERNAL.                                        PPWIGEN
012400     EXEC SQL                                                     PPWIGEN
009200      INCLUDE CPWSWORK                                            PPWIGEN
012600     END-EXEC.                                                    PPWIGEN
012700                                                                  PPWIGEN
009500 01  UCPISCRN    EXTERNAL.                                        PPWIGEN
009600     COPY UCPISCRN.                                               PPWIGEN
013000                                                                  PPWIGEN
009800 01  UCWSABND    EXTERNAL.                                        PPWIGEN
009900     COPY UCWSABND.                                               PPWIGEN
013300                                                                  PPWIGEN
010100 01  PPDB2MSG-INTERFACE.                                          PPWIGEN
010200     COPY CPLNKDB2.                                               PPWIGEN
013500                                                                  PPWIGEN
013800******************************************************************PPWIGEN
013900*          SQL - WORKING STORAGE                                 *PPWIGEN
014000******************************************************************PPWIGEN
014100                                                                  PPWIGEN
010800 01   WS-PPPPAY.                                                  PPWIGEN
010900      EXEC SQL                                                    PPWIGEN
011000           INCLUDE PPPVZPAY                                       PPWIGEN
011100      END-EXEC.                                                   PPWIGEN
011200                                                                  PPWIGEN
011300 01   WS-PPPPCM.                                                  PPWIGEN
011400      EXEC SQL                                                    PPWIGEN
011500           INCLUDE PPPVZPCM                                       PPWIGEN
011600      END-EXEC.                                                   PPWIGEN
011700                                                                  PPWIGEN
011800 01   WS-PPPPER.                                                  PPWIGEN
011900      EXEC SQL                                                    PPWIGEN
012000           INCLUDE PPPVZPER                                       PPWIGEN
012100      END-EXEC.                                                   PPWIGEN
012200                                                                  PPWIGEN
014200 01  WS-PPPBEL.                                                   PPWIGEN
014300      EXEC SQL                                                    PPWIGEN
014400           INCLUDE PPPVZBEL                                       PPWIGEN
014500      END-EXEC.                                                   PPWIGEN
014600                                                                  PPWIGEN
014700 01  WS-PPPBEN.                                                   PPWIGEN
014800      EXEC SQL                                                    PPWIGEN
014900           INCLUDE PPPVZBEN                                       PPWIGEN
015000      END-EXEC.                                                   PPWIGEN
017100                                                                  PPWIGEN
013210 01  WS-PPPEBT.                                                   17690915
013220      EXEC SQL                                                    17690915
013230           INCLUDE PPPVZEBT                                       17690915
013240      END-EXEC.                                                   17690915
013250                                                                  17690915
017200      EXEC SQL                                                    PPWIGEN
017300           INCLUDE SQLCA                                          PPWIGEN
017400      END-EXEC.                                                   PPWIGEN
017500                                                                  PPWIGEN
017600******************************************************************PPWIGEN
017700*                                                                *PPWIGEN
017800*                  SQL - SELECTS                                 *PPWIGEN
017900*                                                                *PPWIGEN
018000******************************************************************PPWIGEN
018100*                                                                *PPWIGEN
018200*        THE VIEW USED IN THIS PROGRAM ARE:                      *PPWIGEN
018300*                                                                *PPWIGEN
018400*    VIEW               VIEW DDL AND DCL INCLUDE                 *PPWIGEN
018500*                        MEMBER NAMES                            *PPWIGEN
018600*                                                                *PPWIGEN
014800*  PPPVZBEL_PER          PPPVZPER                                *PPWIGEN
014900*  PPPVZBEL_PAY          PPPVZPAY                                *PPWIGEN
015000*  PPPVZBEL_PCM          PPPVZPCM                                *PPWIGEN
018700*  PPPVZBEL_BEL          PPPVZBEL                                *PPWIGEN
018800*  PPPVZBEN_BEN          PPPVZBEN                                *PPWIGEN
015210*  PPPVZEBT_EBT          PPPVZEBT                                *17690915
019300******************************************************************PPWIGEN
019400                                                                  PPWIGEN
019500 LINKAGE SECTION.                                                 PPWIGEN
019600                                                                  PPWIGEN
015700     EJECT                                                        PPWIGEN
019800                                                                  PPWIGEN
019900 PROCEDURE DIVISION.                                              PPWIGEN
020000                                                                  PPWIGEN
016100 0000-MAIN-LINE   SECTION.                                        PPWIGEN
016200**************************************************************    PPWIGEN
016300*  MAIN LINE PROCESSING                                      *    PPWIGEN
016400**************************************************************    PPWIGEN
016500                                                                  PPWIGEN
016600     EXEC SQL                                                     PPWIGEN
016700          INCLUDE CPPDXE99                                        PPWIGEN
020400     END-EXEC.                                                    PPWIGEN
020500                                                                  PPWIGEN
017000     PERFORM 1000-INITIALIZATION.                                 PPWIGEN
017100     PERFORM 2000-INIT-SCREEN                                     PPWIGEN
017200     PERFORM 3000-DISPLAY-DATA.                                   PPWIGEN
020700                                                                  PPWIGEN
020800     GOBACK.                                                      PPWIGEN
020900                                                                  PPWIGEN
017600 0000-EXIT.                                                       PPWIGEN
017700     EXIT.                                                        PPWIGEN
021000                                                                  PPWIGEN
017900     EJECT                                                        PPWIGEN
021200                                                                  PPWIGEN
018100 1000-INITIALIZATION   SECTION.                                   PPWIGEN
018200**************************************************************    PPWIGEN
018300*  INITIALIZE WORK AREAS                                     *    PPWIGEN
018400**************************************************************    PPWIGEN
022200                                                                  PPWIGEN
018600     MOVE WS-PGM-NAME TO UCWSABND-ABENDING-PGM.                   PPWIGEN
018700     MOVE WS-PGM-NAME TO DB2MSG-PGM-ID.                           PPWIGEN
018800                                                                  PPWIGEN
018900     MOVE LOW-VALUES TO UCDTLARE.                                 PPWIGEN
019000     MOVE ZERO TO UCCOMMON-RETURN-CODE.                           PPWIGEN
019100     MOVE LENGTH OF PPIGEN0O TO UCPISCRN-DETAIL-MAP-LENGTH.       PPWIGEN
019200     MOVE WS-REL-NO TO UCPISCRN-DTL-REL-NO.                       PPWIGEN
019300                                                                  PPWIGEN
019400     MOVE 'BROWSE' TO UCPISCRN-ADDL-LOGIC-FUNC (1).               PPWIGEN
019500                                                                  PPWIGEN
019600 1000-EXIT.                                                       PPWIGEN
019700     EXIT.                                                        PPWIGEN
019800                                                                  PPWIGEN
019900     EJECT                                                        PPWIGEN
023100                                                                  PPWIGEN
023200                                                                  PPWIGEN
020200 2000-INIT-SCREEN SECTION.                                        PPWIGEN
020300**************************************************************    PPWIGEN
020400*  SET COLOR AND HIGHLIGHT BYTES FOR EACH FIELD              *    PPWIGEN
020500**************************************************************    PPWIGEN
023400                                                                  PPWIGEN
020700     MOVE UCCOMMON-CLR-FLD-LABEL TO                               PPWIGEN
026300                            LPAFC                                 PPWIGEN
026400                            LHIREC                                PPWIGEN
026500                            LLAST-PAYC                            PPWIGEN
026600                            LSEPC                                 PPWIGEN
024010*****                                                          CD 02561450
026800                            LCITC                                 PPWIGEN
026900                            LSEP-REAC                             PPWIGEN
027000                            LBIRTHC                               PPWIGEN
027100                            LVISA-TC                              PPWIGEN
027200                            LLOA-BC                               PPWIGEN
027300                            LSEX-CC                               PPWIGEN
027400                            LVISA-EC                              PPWIGEN
024810                            L-US-DT-OF-EC                         32171197
027500                            LLOA-TC                               PPWIGEN
027600                            LETHNIC-IC                            PPWIGEN
027700                            LFEDTAX-MARC                          PPWIGEN
027800                            LLOA-TYC                              PPWIGEN
027900                            LVETC                                 PPWIGEN
025310                            LRECENT-VET-SEPDTC                    02561450
022500                            LI-9-DATEC                            PPWIGEN
022600                            LOATH-SIGN-DATEC                      PPWIGEN
028000                            LMAXFED-EC                            PPWIGEN
028100                            LNEXT-SAL-DC                          PPWIGEN
028200                            LHANDICAPC                            PPWIGEN
028300                            LSTATE-TAX-MPC                        PPWIGEN
028400                            LNEXT-SAL-RC                          PPWIGEN
028500                            LSTUDENTC                             PPWIGEN
028600                            LSTATE-TAX-IC                         PPWIGEN
028700                            LEMP-RELC                             PPWIGEN
028800                            LUI-ELIGC                             PPWIGEN
028900                            LSTATE-TAX-MAXC                       PPWIGEN
029000                            LEMP-REPC                             PPWIGEN
029100                            LRET-ELIGC                            PPWIGEN
029200                            LFICAC                                PPWIGEN
029300                            LPRIORC                               PPWIGEN
029400                            LEMP-PRIORC                           PPWIGEN
029500                            LBELIC                                PPWIGEN
029600                            LCHK-DISPC                            PPWIGEN
024500                            DE0170-L-OTH-ST-RESC                  PPWIGEN
024600                            DE0186-L-OTH-ST-NAMEC                 PPWIGEN
024610                            LACAD-PROG-UNIT-CDC                   17690915
027610                            LPIN-SIGN-DATEC                       25991140
027620                            LANTCP-RET-DATEC                      49031194
024610                            DE0235-L-ALT-DEPT-CDC                 UCSD0072
031300                                                                  PPWIGEN
024800     MOVE UCCOMMON-CLR-NORM-DISPL TO                              PPWIGEN
024900                            ETHNIC-IDC                            PPWIGEN
025000                            PAF-GEN-NUMC                          PPWIGEN
028010*****                                                          CD 02561450
025200                            BIRTH-DATEC                           PPWIGEN
025300                            HIRE-DATEC                            PPWIGEN
025400                            LAST-PAYC                             PPWIGEN
025500                            SEPARATE-DATEC                        PPWIGEN
025600                            SEXCODEC                              PPWIGEN
025700                            SEPARATE-REASONC                      PPWIGEN
025800                            FEDTAX-MARITALC                       PPWIGEN
025900                            FEDTAX-EXEMPTC                        PPWIGEN
026000                            VET-STATUSC                           PPWIGEN
029010                            RECENT-VET-SEPDTC                     02561450
026100                            I-9-DATEC                             PPWIGEN
026200                            OATH-SIGN-DATEC                       PPWIGEN
026300                            HANDICAP-STATUSC                      PPWIGEN
026400                            STATE-TAX-MARITALC                    PPWIGEN
026500                            STATE-TAX-PERDEDC                     PPWIGEN
029700                            STUDENT-UNITSC                        17810964
026700                            CITIZEN-CODEC                         PPWIGEN
026800                            LOA-BEGIN-DATEC                       PPWIGEN
026900                            VISA-TYPEC                            PPWIGEN
027000                            LOA-RETURN-DATEC                      PPWIGEN
027100                            VISA-END-DATEC                        PPWIGEN
030210                            US-DATE-OF-ENTRYC                     32171197
027200                            LOA-TYPE-CODEC                        PPWIGEN
027300                            UI-ELIG-CODEC                         PPWIGEN
027400                            MAXFED-EXEMPTC                        PPWIGEN
027500                            NEXT-SALREV-DATEC                     PPWIGEN
027600                            RET-ELIG-CODEC                        PPWIGEN
027700                            NEXT-SALARY-REVC                      PPWIGEN
027800                            FICA-ELIG-CODEC                       PPWIGEN
027900                            STATE-TAX-ITMDEDC                     PPWIGEN
028000                            EMP-REL-CODEC                         PPWIGEN
028100                            BELI-INDC                             PPWIGEN
028200                            STATE-TAX-MAXEXMPTC                   PPWIGEN
028400                            EMP-REP-CODEC                         PPWIGEN
028500                            CHK-DISP-CODEC                        PPWIGEN
028600                            DE0170-OTH-ST-RESC                    PPWIGEN
028700                            DE0186-OTH-ST-NAMEC                   PPWIGEN
028800                            PRIOR-EMP-IDC                         PPWIGEN
028900                            EMP-PRIOR-NAMEC                       PPWIGEN
028910                            ACAD-PROG-UNIT-CDC                    17690915
027610                            PIN-SIGN-DATEC                        25991140
032120                            ANTCPD-RETIRE-DATEC                   49031194
028910                            DE0235-ALT-DEPT-CDC                   UCSD0072
028910                            DE0511-ALT-DEPT-2-CDC                 UCSD0072
028910                            DE0512-ALT-DEPT-3-CDC                 UCSD0072
031600                                                                  PPWIGEN
036400                                                                  PPWIGEN
029200     MOVE UCCOMMON-HLT-FLD-LABEL TO                               PPWIGEN
029300                            LPAFH                                 PPWIGEN
029400                            LHIREH                                PPWIGEN
029500                            LLAST-PAYH                            PPWIGEN
029600                            LSEPH                                 PPWIGEN
032910*****                                                          CD 02561450
029800                            LCITH                                 PPWIGEN
029900                            LSEP-REAH                             PPWIGEN
030000                            LBIRTHH                               PPWIGEN
030100                            LVISA-TH                              PPWIGEN
030200                            LLOA-BH                               PPWIGEN
030300                            LSEX-CH                               PPWIGEN
030400                            LVISA-EH                              PPWIGEN
033610                            L-US-DT-OF-EH                         32171197
030500                            LLOA-TH                               PPWIGEN
030600                            LETHNIC-IH                            PPWIGEN
030700                            LFEDTAX-MARH                          PPWIGEN
030800                            LLOA-TYH                              PPWIGEN
030900                            LVETH                                 PPWIGEN
031000                            LI-9-DATEH                            PPWIGEN
031100                            LOATH-SIGN-DATEH                      PPWIGEN
031200                            LMAXFED-EH                            PPWIGEN
031300                            LNEXT-SAL-DH                          PPWIGEN
031400                            LHANDICAPH                            PPWIGEN
031500                            LSTATE-TAX-MPH                        PPWIGEN
031600                            LNEXT-SAL-RH                          PPWIGEN
031700                            LSTUDENTH                             PPWIGEN
031800                            LSTATE-TAX-IH                         PPWIGEN
031900                            LEMP-RELH                             PPWIGEN
032000                            LUI-ELIGH                             PPWIGEN
032100                            LSTATE-TAX-MAXH                       PPWIGEN
032300                            LEMP-REPH                             PPWIGEN
032400                            LRET-ELIGH                            PPWIGEN
032500                            LFICAH                                PPWIGEN
032600                            LPRIORH                               PPWIGEN
032700                            LEMP-PRIORH                           PPWIGEN
032800                            LBELIH                                PPWIGEN
032900                            LCHK-DISPH                            PPWIGEN
033000                            DE0170-L-OTH-ST-RESH                  PPWIGEN
033100                            DE0186-L-OTH-ST-NAMEH                 PPWIGEN
033110                            LACAD-PROG-UNIT-CDH                   17690915
027610                            LPIN-SIGN-DATEH                       25991140
036420                            LANTCP-RET-DATEH                      49031194
024610                            DE0235-L-ALT-DEPT-CDH                 UCSD0072
037100                                                                  PPWIGEN
033300     MOVE UCCOMMON-HLT-NORM-DISPL TO                              PPWIGEN
033400                            ETHNIC-IDH                            PPWIGEN
033500                            PAF-GEN-NUMH                          PPWIGEN
036810*****                                                          CD 02561450
033700                            BIRTH-DATEH                           PPWIGEN
033800                            HIRE-DATEH                            PPWIGEN
033900                            LAST-PAYH                             PPWIGEN
034000                            SEPARATE-DATEH                        PPWIGEN
034100                            SEXCODEH                              PPWIGEN
034200                            SEPARATE-REASONH                      PPWIGEN
034300                            FEDTAX-MARITALH                       PPWIGEN
034400                            FEDTAX-EXEMPTH                        PPWIGEN
034500                            VET-STATUSH                           PPWIGEN
037810                            RECENT-VET-SEPDTH                     02561450
034600                            I-9-DATEH                             PPWIGEN
034700                            OATH-SIGN-DATEH                       PPWIGEN
027610                            PIN-SIGN-DATEH                        25991140
034800                            HANDICAP-STATUSH                      PPWIGEN
034900                            STATE-TAX-MARITALH                    PPWIGEN
035000                            STATE-TAX-PERDEDH                     PPWIGEN
038500                            STUDENT-UNITSH                        17810964
035200                            CITIZEN-CODEH                         PPWIGEN
035300                            LOA-BEGIN-DATEH                       PPWIGEN
035400                            VISA-TYPEH                            PPWIGEN
035500                            LOA-RETURN-DATEH                      PPWIGEN
035600                            VISA-END-DATEH                        PPWIGEN
039010                            US-DATE-OF-ENTRYH                     32171197
035700                            LOA-TYPE-CODEH                        PPWIGEN
035800                            UI-ELIG-CODEH                         PPWIGEN
035900                            MAXFED-EXEMPTH                        PPWIGEN
036000                            NEXT-SALREV-DATEH                     PPWIGEN
036100                            RET-ELIG-CODEH                        PPWIGEN
036200                            NEXT-SALARY-REVH                      PPWIGEN
036300                            FICA-ELIG-CODEH                       PPWIGEN
036400                            STATE-TAX-ITMDEDH                     PPWIGEN
036500                            EMP-REL-CODEH                         PPWIGEN
036600                            BELI-INDH                             PPWIGEN
036700                            STATE-TAX-MAXEXMPTH                   PPWIGEN
036900                            EMP-REP-CODEH                         PPWIGEN
037000                            CHK-DISP-CODEH                        PPWIGEN
037100                            DE0170-OTH-ST-RESH                    PPWIGEN
037200                            DE0186-OTH-ST-NAMEH                   PPWIGEN
037300                            PRIOR-EMP-IDH                         PPWIGEN
037310                            ACAD-PROG-UNIT-CD                     17690915
040810                            ANTCPD-RETIRE-DATEH                   49031194
028910                            DE0235-ALT-DEPT-CDH                   UCSD0072
028910                            DE0511-ALT-DEPT-2-CDH                 UCSD0072
028910                            DE0512-ALT-DEPT-3-CDH                 UCSD0072
037400                            EMP-PRIOR-NAMEH.                      PPWIGEN
049300                                                                  PPWIGEN
037600 2000-EXIT.                                                       PPWIGEN
037700     EXIT.                                                        PPWIGEN
049500                                                                  PPWIGEN
037900     EJECT                                                        PPWIGEN
056200                                                                  PPWIGEN
038100 3000-DISPLAY-DATA    SECTION.                                    PPWIGEN
038200**************************************************************    PPWIGEN
038300* THIS PARAGRAPH PERFORMS THE SELECTS ON THE PER, PAY,       *    PPWIGEN
038400* PCM, BEL, BEN AND EBT TABLES.                              *    PPWIGEN
038500**************************************************************    PPWIGEN
056800                                                                  PPWIGEN
038700     MOVE CPWSWORK-UNIQUE-EE-ID TO WS-UNIQUE-EE-ID.               PPWIGEN
056900                                                                  PPWIGEN
038900     PERFORM 3100-GET-PERSONNEL-DATA.                             PPWIGEN
039000     PERFORM 3200-GET-PAYROLL-DATA.                               PPWIGEN
056903     PERFORM 3300-GET-PAYROLL-COMP-DATA.                          PPWIGEN
039200     PERFORM 3400-GET-BEN-ELIG-DATA.                              PPWIGEN
039300     PERFORM 3500-GET-BENPLAN-DATA.                               PPWIGEN
057500     IF UCCOMMON-UNIVERSAL-ACCESS                                 UCSD0056
057500      OR UCCOMMON-CENTRAL-ACCESS                                  UCSD0056
057500         CONTINUE                                                 UCSD0056
057500     ELSE                                                         UCSD0056
057500         PERFORM 8990-UCSD-SECURITY                               UCSD0056
057500     END-IF.                                                      UCSD0056
039310     PERFORM 3600-GET-EBTAPUC-DATA.                               17690915
057500                                                                  PPWIGEN
039500 3000-EXIT.                                                       PPWIGEN
039600     EXIT.                                                        PPWIGEN
057700                                                                  PPWIGEN
039800     EJECT                                                        PPWIGEN
057900                                                                  PPWIGEN
040000 3100-GET-PERSONNEL-DATA  SECTION.                                PPWIGEN
040100**************************************************************    PPWIGEN
040200*  SELECT PER TABLE DATA AND MOVE TO THE MAP                 *    PPWIGEN
040300**************************************************************    PPWIGEN
058300                                                                  PPWIGEN
040500     PERFORM 8100-SELECT-PER.                                     PPWIGEN
058600                                                                  PPWIGEN
040700     MOVE PAF-GEN-NUM       TO PAF-GEN-NUMO                       PPWIGEN
040800     MOVE SEPARATE-REASON TO WS-ADJUST-REASON                     PPWIGEN
040900     MOVE SEPARATE-DESTIN TO WS-ADJUST-DESTIN                     PPWIGEN
041000     MOVE SEXCODE           TO SEXCODEO                           PPWIGEN
041100     MOVE ETHNIC-ID         TO ETHNIC-IDO                         PPWIGEN
044710*****                                                          CD 02561450
041300     PERFORM 3120-FORMAT-VET-CODES.                               51231302
041300     MOVE WS-FORMATTED-VET-CDS                                    51231302
041300                            TO VET-STATUSO.                       51231302
041400     MOVE HANDICAP-STAT     TO HANDICAP-STATUSO                   PPWIGEN
045200     MOVE STUDENT-STATUS TO WS-STUDENT-STATUS                     17810964
041600     MOVE EMP-REL-CODE      TO WS-EMP-REL-CODE                    PPWIGEN
041700     MOVE EMP-CBUC          TO WS-EMP-CBUC                        PPWIGEN
041800     MOVE EMP-REL-UNIT      TO WS-EMP-REL-UNIT                    PPWIGEN
041900     MOVE WS-EMP-REL-CODEO TO EMP-REL-CODEO                       PPWIGEN
042000     MOVE EMP-REP-CODE      TO WS-EMP-REP-CODE                    PPWIGEN
042100     MOVE EMP-SPEC-HAND     TO WS-EMP-SPEC-HAND                   PPWIGEN
042200     MOVE EMP-DIST-UNIT-CODE TO WS-EMP-DIST-UNT-CD                PPWIGEN
042300     MOVE WS-EMP-REP-CODEO TO EMP-REP-CODEO                       PPWIGEN
042400     MOVE EMP-PRIOR-NAME TO EMP-PRIOR-NAMEO                       PPWIGEN
028910     MOVE ALT-DEPT-CD    TO DE0235-ALT-DEPT-CDO.                  UCSD0072
028910     MOVE ALT-DEPT-2-CD  TO DE0511-ALT-DEPT-2-CDO.                UCSD0072
028910     MOVE ALT-DEPT-3-CD  TO DE0512-ALT-DEPT-3-CDO.                UCSD0072
059100                                                                  PPWIGEN
046400     IF REGISTERD-UNITS = 0                                       17810964
046500        MOVE SPACES TO WS-REGISTERD-UNITS                         17810964
046600     ELSE                                                         17810964
046700        MOVE REGISTERD-UNITS TO WS-9-UNITS                        17810964
046800        MOVE WS-9-UNITS TO WS-REGISTERD-UNITS                     17810964
046900     END-IF.                                                      17810964
047000     MOVE WS-STUDENT-UNITSO TO STUDENT-UNITSO.                    17810964
047100                                                                  17810964
042700     PERFORM 3150-GET-DATES                                       PPWIGEN
059300                                                                  PPWIGEN
042900     IF LOA-TYPE-CODE = ZERO                                      PPWIGEN
043000         MOVE SPACES TO LOA-TYPE-CODEO                            PPWIGEN
043100     ELSE                                                         PPWIGEN
043200         MOVE LOA-TYPE-CODE TO LOA-TYPE-CODEO                     PPWIGEN
043300     END-IF                                                       PPWIGEN
043400                                                                  PPWIGEN
043500     IF SEPARATE-REASON = SPACES AND                              PPWIGEN
043600         SEPARATE-DESTIN = SPACES                                 PPWIGEN
043700         MOVE SPACES TO SEPARATE-REASONO                          PPWIGEN
043800     ELSE                                                         PPWIGEN
043900         MOVE WS-ADJUST-REASONO TO SEPARATE-REASONO               PPWIGEN
044000     END-IF                                                       PPWIGEN
044100                                                                  PPWIGEN
044200     IF NEXT-SALARY-REV = ZERO                                    PPWIGEN
044300        MOVE SPACES TO NEXT-SALARY-REVO                           PPWIGEN
044400     ELSE                                                         PPWIGEN
044500        MOVE NEXT-SALARY-REV TO NEXT-SALARY-REVO                  PPWIGEN
044600     END-IF                                                       PPWIGEN
044700                                                                  PPWIGEN
044800     IF OATH-SIGN-DATE     = WS-NULL-DATE                         PPWIGEN
044900        MOVE SPACES TO OATH-SIGN-DATE                             PPWIGEN
045000     ELSE                                                         PPWIGEN
045100        MOVE OATH-SIGN-DATE TO WS-ADJUST-DATE                     PPWIGEN
045200        MOVE WS-ADJUST-PRE TO WS-ADJUST-SCR1                      PPWIGEN
045300        MOVE WS-ADJUST-SUF2 TO WS-ADJUST-SCR2                     PPWIGEN
045400        MOVE WS-ADJUST-SCR TO OATH-SIGN-DATEO                     PPWIGEN
045500     END-IF.                                                      PPWIGEN
045600                                                                  PPWIGEN
045700                                                                  PPWIGEN
045800 3100-EXIT.                                                       PPWIGEN
045900     EXIT.                                                        PPWIGEN
046100     EJECT                                                        51231302
046100                                                                  51231302
046100 3120-FORMAT-VET-CODES         SECTION.                           51231302
046100*--***********************************************************/   51231302
046100*                                                            */   51231302
046100*    FORMAT VETERAN STATUS CODES                             */   51231302
046100*                                                            */   51231302
046100*--***********************************************************/   51231302
046100                                                                  51231302
046100     MOVE SPACE TO WS-FORMATTED-VET-CDS.                          51231302
046100                                                                  51231302
046100     STRING VET-STATUS,         '/'                               51231302
046100            WCE-VETERAN-STATUS, '/'                               51231302
046100            VET-DISAB-STAT                                        51231302
046100       DELIMITED SIZE                                             51231302
046100      INTO WS-FORMATTED-VET-CDS.                                  51231302
046100                                                                  51231302
046100  3120-EXIT.                                                      51231302
046100      EXIT.                                                       51231302
046100                                                                  51231302
046100                                                                  51231302
046100 EJECT                                                            51231302
046000                                                                  PPWIGEN
046300 3150-GET-DATES  SECTION.                                         PPWIGEN
046400**************************************************************    PPWIGEN
046500*  FORMAT PER TABLE DATE FIELDS                              *    PPWIGEN
046600**************************************************************    PPWIGEN
046700                                                                  PPWIGEN
071000        IF  SEPARATE-DATE EQUAL WS-NULL-DATE                      PPWIGEN
071100            MOVE SPACES TO SEPARATE-DATEO                         PPWIGEN
071200        ELSE                                                      PPWIGEN
071300            IF  SEPARATE-DATE EQUAL WS-9999-DATE                  PPWIGEN
071400                MOVE WS-999999-DATE TO SEPARATE-DATEO             PPWIGEN
071500            ELSE                                                  PPWIGEN
071600                MOVE SEPARATE-DATE TO WS-ADJUST-DATE              PPWIGEN
071700                MOVE WS-ADJUST-PRE TO WS-ADJUST-SCR1              PPWIGEN
071800                MOVE WS-ADJUST-SUF2 TO WS-ADJUST-SCR2             PPWIGEN
071900                MOVE WS-ADJUST-SCR TO SEPARATE-DATEO              PPWIGEN
072000            END-IF                                                PPWIGEN
072100        END-IF.                                                   PPWIGEN
052410                                                                  49031194
052420*****   IF  ANTICIPATED-RET-DT EQUAL WS-NULL-DATE                 UCSD0155
052430*****       MOVE SPACES TO ANTCPD-RETIRE-DATEO                    UCSD0155
052440*****   ELSE                                                      UCSD0155
052450*****       IF  ANTICIPATED-RET-DT EQUAL WS-9999-DATE             UCSD0155
052460*****           MOVE WS-999999-DATE TO ANTCPD-RETIRE-DATEO        UCSD0155
052470*****       ELSE                                                  UCSD0155
052480*****           MOVE ANTICIPATED-RET-DT TO WS-ADJUST-DATE         UCSD0155
052490*****           MOVE WS-ADJUST-PRE TO WS-ADJUST-SCR1              UCSD0155
052491*****           MOVE WS-ADJUST-SUF2 TO WS-ADJUST-SCR2             UCSD0155
052492*****           MOVE WS-ADJUST-SCR TO ANTCPD-RETIRE-DATEO         UCSD0155
052493*****       END-IF                                                UCSD0155
052494*****   END-IF.                                                   UCSD0155
072200                                                                  PPWIGEN
072300        IF  BIRTH-DATE EQUAL WS-NULL-DATE                         PPWIGEN
072400            MOVE SPACES TO BIRTH-DATEO                            PPWIGEN
072500        ELSE                                                      PPWIGEN
072600            IF  BIRTH-DATE EQUAL WS-9999-DATE                     PPWIGEN
072700                MOVE WS-999999-DATE TO BIRTH-DATEO                PPWIGEN
072800            ELSE                                                  PPWIGEN
072900                MOVE BIRTH-DATE TO WS-ADJUST-DATE                 PPWIGEN
073000                MOVE WS-ADJUST-PRE  TO WS-ADJUST-SCR1             PPWIGEN
073100                MOVE WS-ADJUST-SUF2 TO WS-ADJUST-SCR2             PPWIGEN
073200                MOVE WS-ADJUST-SCR  TO BIRTH-DATEO                PPWIGEN
073300            END-IF                                                PPWIGEN
073400        END-IF.                                                   PPWIGEN
073500                                                                  PPWIGEN
073600        IF  VISA-END-DATE EQUAL WS-NULL-DATE                      PPWIGEN
073700            MOVE SPACES TO VISA-END-DATEO                         PPWIGEN
073800        ELSE                                                      PPWIGEN
073900            IF  VISA-END-DATE EQUAL WS-9999-DATE                  PPWIGEN
074000                MOVE WS-999999-DATE TO VISA-END-DATEO             PPWIGEN
074100            ELSE                                                  PPWIGEN
074200                MOVE VISA-END-DATE TO WS-ADJUST-DATE              PPWIGEN
074300                MOVE WS-ADJUST-PRE  TO WS-ADJUST-SCR1             PPWIGEN
074400                MOVE WS-ADJUST-SUF2 TO WS-ADJUST-SCR2             PPWIGEN
074500                MOVE WS-ADJUST-SCR  TO VISA-END-DATEO             PPWIGEN
074600            END-IF                                                PPWIGEN
074700        END-IF.                                                   PPWIGEN
074800                                                                  PPWIGEN
074900        IF  LOA-BEGIN-DATE EQUAL WS-NULL-DATE                     PPWIGEN
075000            MOVE SPACES TO LOA-BEGIN-DATEO                        PPWIGEN
075100        ELSE                                                      PPWIGEN
075200            IF  LOA-BEGIN-DATE EQUAL WS-9999-DATE                 PPWIGEN
075300                MOVE WS-999999-DATE TO LOA-BEGIN-DATEO            PPWIGEN
075400            ELSE                                                  PPWIGEN
075500                MOVE LOA-BEGIN-DATE TO WS-ADJUST-DATE             PPWIGEN
075600                MOVE WS-ADJUST-PRE  TO WS-ADJUST-SCR1             PPWIGEN
075700                MOVE WS-ADJUST-SUF2 TO WS-ADJUST-SCR2             PPWIGEN
075800                MOVE WS-ADJUST-SCR  TO LOA-BEGIN-DATEO            PPWIGEN
075900            END-IF                                                PPWIGEN
076000        END-IF.                                                   PPWIGEN
076100                                                                  PPWIGEN
076200        IF  LOA-RETURN-DATE EQUAL WS-NULL-DATE                    PPWIGEN
076300            MOVE SPACES TO LOA-RETURN-DATEO                       PPWIGEN
076400        ELSE                                                      PPWIGEN
076500            IF  LOA-RETURN-DATE EQUAL WS-9999-DATE                PPWIGEN
076600                MOVE WS-999999-DATE TO LOA-RETURN-DATEO           PPWIGEN
076700            ELSE                                                  PPWIGEN
076800                MOVE LOA-RETURN-DATE TO WS-ADJUST-DATE            PPWIGEN
076900                MOVE WS-ADJUST-PRE  TO WS-ADJUST-SCR1             PPWIGEN
077000                MOVE WS-ADJUST-SUF2 TO WS-ADJUST-SCR2             PPWIGEN
077100                MOVE WS-ADJUST-SCR  TO LOA-RETURN-DATEO           PPWIGEN
077200            END-IF                                                PPWIGEN
077300        END-IF.                                                   PPWIGEN
077400                                                                  PPWIGEN
077500        IF  NEXT-SALREV-DATE EQUAL WS-NULL-DATE                   PPWIGEN
077600            MOVE SPACES TO NEXT-SALREV-DATEO                      PPWIGEN
077700        ELSE                                                      PPWIGEN
077800            IF  NEXT-SALREV-DATE EQUAL WS-9999-DATE               PPWIGEN
077900                MOVE WS-99-99-DATE TO NEXT-SALREV-DATEO           PPWIGEN
078000            ELSE                                                  PPWIGEN
078100                MOVE NEXT-SALREV-DATE TO WS-SALREV                PPWIGEN
078200                MOVE WS-SALREV-1 TO WS-NEXT-SALREV-DATE1          PPWIGEN
078300                MOVE WS-SALREV-2 TO WS-NEXT-SALREV-DATE2          PPWIGEN
078400                MOVE WS-NEXT-SALREV-DATE TO NEXT-SALREV-DATEO     PPWIGEN
078500            END-IF                                                PPWIGEN
078600        END-IF.                                                   PPWIGEN
078700                                                                  PPWIGEN
059010        IF  RECENT-VET-SEPDT EQUAL WS-NULL-DATE                   02561450
059020            MOVE SPACES TO RECENT-VET-SEPDTO                      02561450
059030        ELSE                                                      02561450
059040            IF  RECENT-VET-SEPDT EQUAL WS-9999-DATE               02561450
059050                MOVE WS-99-99-DATE TO RECENT-VET-SEPDTO           02561450
059060            ELSE                                                  02561450
059070                MOVE RECENT-VET-SEPDT TO WS-VETSEP                02561450
059080                MOVE WS-VETSEP-1 TO WS-REC-VET-SEPDT1             02561450
059090                MOVE WS-VETSEP-2 TO WS-REC-VET-SEPDT2             02561450
059091                MOVE WS-RECENT-VET-SEPDT TO RECENT-VET-SEPDTO     02561450
059092            END-IF                                                02561450
059093        END-IF.                                                   02561450
059094                                                                  02561450
078800        IF  LAST-DAY-ON-PAY EQUAL WS-NULL-DATE                    PPWIGEN
078900            MOVE SPACES TO LAST-PAYO                              PPWIGEN
079000        ELSE                                                      PPWIGEN
079100            IF  LAST-DAY-ON-PAY EQUAL WS-9999-DATE                PPWIGEN
079200                MOVE WS-999999-DATE TO LAST-PAYO                  PPWIGEN
079300            ELSE                                                  PPWIGEN
079400                MOVE LAST-DAY-ON-PAY TO WS-ADJUST-DATE            PPWIGEN
079500                MOVE WS-ADJUST-PRE  TO WS-ADJUST-SCR1             PPWIGEN
079600                MOVE WS-ADJUST-SUF2 TO WS-ADJUST-SCR2             PPWIGEN
079700                MOVE WS-ADJUST-SCR  TO LAST-PAYO                  PPWIGEN
079800            END-IF                                                PPWIGEN
079900        END-IF.                                                   PPWIGEN
080000                                                                  PPWIGEN
055900        IF  HIRE-DATE EQUAL WS-NULL-DATE                          PPWIGEN
056000            MOVE SPACES TO HIRE-DATEO                             PPWIGEN
056100        ELSE                                                      PPWIGEN
056200            IF  HIRE-DATE EQUAL WS-9999-DATE                      PPWIGEN
056300                MOVE WS-999999-DATE TO HIRE-DATEO                 PPWIGEN
056400            ELSE                                                  PPWIGEN
056500                MOVE HIRE-DATE TO WS-ADJUST-DATE                  PPWIGEN
056600                MOVE WS-ADJUST-PRE  TO WS-ADJUST-SCR1             PPWIGEN
056700                MOVE WS-ADJUST-SUF2 TO WS-ADJUST-SCR2             PPWIGEN
056800                MOVE WS-ADJUST-SCR  TO HIRE-DATEO                 PPWIGEN
056900            END-IF                                                PPWIGEN
057000        END-IF.                                                   PPWIGEN
080200                                                                  PPWIGEN
057200 3150-EXIT.                                                       PPWIGEN
057300     EXIT.                                                        PPWIGEN
057400                                                                  PPWIGEN
057500     EJECT                                                        PPWIGEN
057600                                                                  PPWIGEN
057700 3200-GET-PAYROLL-DATA  SECTION.                                  PPWIGEN
057800**************************************************************    PPWIGEN
057900*  SELECT PAY TABLE DATA AND MOVE TO THE MAP                 *    PPWIGEN
058000**************************************************************    PPWIGEN
058100                                                                  PPWIGEN
058200     PERFORM 8200-SELECT-PAY.                                     PPWIGEN
058300                                                                  PPWIGEN
058400     MOVE CITIZEN-CODE       TO CITIZEN-CODEO                     PPWIGEN
058500     MOVE VISA-TYPE          TO VISA-TYPEO                        PPWIGEN
058600     MOVE FEDTAX-MARITAL     TO FEDTAX-MARITALO                   PPWIGEN
058700     MOVE FEDTAX-EXEMPT      TO WS-INTER-NN                       PPWIGEN
058800     MOVE WS-INTER-NN        TO FEDTAX-EXEMPTO                    PPWIGEN
058900     MOVE MAXFED-EXEMPT      TO WS-INTER-NN                       PPWIGEN
059000     MOVE WS-INTER-NN        TO MAXFED-EXEMPTO                    PPWIGEN
059100     MOVE STATE-TAX-MARITAL TO STATE-TAX-MARITALO                 PPWIGEN
059200     MOVE STATE-TAX-PERDED TO WS-INTER-NN                         PPWIGEN
059300     MOVE WS-INTER-NN        TO STATE-TAX-PERDEDO                 PPWIGEN
059400     MOVE STATE-TAX-ITMDED TO WS-INTER-NN                         PPWIGEN
059500     MOVE WS-INTER-NN       TO STATE-TAX-ITMDEDO                  PPWIGEN
059600     MOVE UI-ELIG-CODE      TO UI-ELIG-CODEO                      PPWIGEN
059700     MOVE STATE-TAX-MAXEXMPT TO WS-INTER-N                        PPWIGEN
059800     MOVE WS-INTER-N        TO STATE-TAX-MAXEXMPTO                PPWIGEN
059900     MOVE FICA-ELIG-CODE TO FICA-ELIG-CODEO                       PPWIGEN
060000                                                                  PPWIGEN
060100     IF PRIOR-EMP-ID EQUAL ZEROS                                  PPWIGEN
060200        MOVE SPACES TO PRIOR-EMP-IDO                              PPWIGEN
060300     ELSE                                                         PPWIGEN
060400        MOVE PRIOR-EMP-ID TO PRIOR-EMP-IDO                        PPWIGEN
060500     END-IF                                                       PPWIGEN
060600                                                                  PPWIGEN
060700     IF I-9-DATE            = WS-NULL-DATE                        PPWIGEN
060800        MOVE SPACES TO I-9-DATEO                                  PPWIGEN
060900     ELSE                                                         PPWIGEN
061000        MOVE I-9-DATE            TO WS-ADJUST-DATE                PPWIGEN
061100        MOVE WS-ADJUST-PRE TO WS-ADJUST-SCR1                      PPWIGEN
061200        MOVE WS-ADJUST-SUF2 TO WS-ADJUST-SCR2                     PPWIGEN
061300        MOVE WS-ADJUST-SCR TO I-9-DATEO                           PPWIGEN
061400     END-IF                                                       PPWIGEN
061500                                                                  PPWIGEN
066010     IF  US-DATE-OF-ENTRY EQUAL WS-NULL-DATE                      32171197
066020         MOVE SPACES  TO US-DATE-OF-ENTRYO                        32171197
066030     ELSE                                                         32171197
066040         MOVE US-DATE-OF-ENTRY   TO WS-ADJUST-DATE                32171197
066050         MOVE WS-ADJUST-PRE      TO WS-ADJUST-SCR1                32171197
066060         MOVE WS-ADJUST-SUF2     TO WS-ADJUST-SCR2                32171197
066070         MOVE WS-ADJUST-SCR      TO US-DATE-OF-ENTRYO             32171197
066080     END-IF.                                                      32171197
066090                                                                  32171197
061600     MOVE OTHER-STATE-CA-RES TO DE0170-OTH-ST-RESO                PPWIGEN
061700     MOVE OTHER-STATE-NAME TO DE0186-OTH-ST-NAMEO.                PPWIGEN
061800                                                                  PPWIGEN
061900 3200-EXIT.                                                       PPWIGEN
062000     EXIT.                                                        PPWIGEN
062100                                                                  PPWIGEN
062200     EJECT                                                        PPWIGEN
062300                                                                  PPWIGEN
062400 3300-GET-PAYROLL-COMP-DATA  SECTION.                             PPWIGEN
062500**************************************************************    PPWIGEN
062600*  SELECT PCM TABLE DATA AND MOVE TO THE MAP                 *    PPWIGEN
062700**************************************************************    PPWIGEN
062800                                                                  PPWIGEN
062900     PERFORM 8300-SELECT-PCM.                                     PPWIGEN
063000                                                                  PPWIGEN
063100     IF SQLCODE = ZERO                                            PPWIGEN
063200        MOVE CHK-DISP-CODE     TO CHK-DISP-CODEO                  PPWIGEN
063300     END-IF.                                                      PPWIGEN
063400                                                                  PPWIGEN
063500 3300-EXIT.                                                       PPWIGEN
063600     EXIT.                                                        PPWIGEN
063700                                                                  PPWIGEN
063800     EJECT                                                        PPWIGEN
063900                                                                  PPWIGEN
064000 3400-GET-BEN-ELIG-DATA  SECTION.                                 PPWIGEN
064100**************************************************************    PPWIGEN
064200*  SELECT BEL TABLE DATA AND MOVE TO THE MAP                 *    PPWIGEN
064300**************************************************************    PPWIGEN
064400                                                                  PPWIGEN
064500     PERFORM 8400-SELECT-BEL.                                     PPWIGEN
064600                                                                  PPWIGEN
064700     IF SQLCODE = ZERO                                            PPWIGEN
064800        MOVE BELI-IND TO WS-BELI-IND                              PPWIGEN
064900        MOVE BELI-DERIVED-IND TO WS-BELI-DERIVED-IND              PPWIGEN
065000        MOVE WS-BELI-INDO TO BELI-INDO                            PPWIGEN
065100     END-IF.                                                      PPWIGEN
065200                                                                  PPWIGEN
065300 3400-EXIT.                                                       PPWIGEN
065400     EXIT.                                                        PPWIGEN
065500                                                                  PPWIGEN
065600     EJECT                                                        PPWIGEN
065700                                                                  PPWIGEN
065800 3500-GET-BENPLAN-DATA  SECTION.                                  PPWIGEN
065900**************************************************************    PPWIGEN
066000*  SELECT BEN TABLE DATA AND MOVE TO THE MAP                 *    PPWIGEN
066100**************************************************************    PPWIGEN
066200                                                                  PPWIGEN
066300     PERFORM 8500-SELECT-BEN.                                     PPWIGEN
066400                                                                  PPWIGEN
066500     IF  SQLCODE ZERO                                             PPWIGEN
066600         MOVE RET-ELIG-CODE TO RET-ELIG-CODEO                     PPWIGEN
071110         IF PIN-SIGN-DATE     = WS-NULL-DATE                      25991140
071120           MOVE SPACES TO PIN-SIGN-DATE                           25991140
071130         ELSE                                                     25991140
071140           MOVE PIN-SIGN-DATE TO WS-ADJUST-DATE                   25991140
071150           MOVE WS-ADJUST-PRE TO WS-ADJUST-SCR1                   25991140
071160           MOVE WS-ADJUST-SUF2 TO WS-ADJUST-SCR2                  25991140
071170           MOVE WS-ADJUST-SCR TO PIN-SIGN-DATEO                   25991140
071180         END-IF                                                   25991140
071190         IF ANTICIPATED-RET-DT  = WS-NULL-DATE                    49031194
071191           MOVE SPACES TO ANTICIPATED-RET-DT                      49031194
071192         ELSE                                                     49031194
071193           MOVE ANTICIPATED-RET-DT TO WS-ADJUST-DATE              49031194
071194           MOVE WS-ADJUST-PRE TO WS-ADJUST-SCR1                   49031194
071195           MOVE WS-ADJUST-SUF2 TO WS-ADJUST-SCR2                  49031194
071196           MOVE WS-ADJUST-SCR TO ANTCPD-RETIRE-DATEO              49031194
071197         END-IF                                                   49031194
066700     END-IF.                                                      PPWIGEN
066800                                                                  PPWIGEN
066900 3500-EXIT.                                                       PPWIGEN
067000     EXIT.                                                        PPWIGEN
067100                                                                  PPWIGEN
067200     EJECT                                                        PPWIGEN
067300                                                                  PPWIGEN
067310 3600-GET-EBTAPUC-DATA  SECTION.                                  17690915
067330**************************************************************    17690915
067340*  SELECT EBT TABLE DATA AND MOVE TO THE MAP                 *    17690915
067350**************************************************************    17690915
067360                                                                  17690915
067370     PERFORM 8600-SELECT-EBT.                                     17690915
067380                                                                  17690915
067390     IF  SQLCODE ZERO                                             17690915
067391         MOVE ACAD-PROG-UNIT-CD TO ACAD-PROG-UNIT-CDO             17690915
067392     END-IF.                                                      17690915
067393                                                                  17690915
067394 3600-EXIT.                                                       17690915
067395     EXIT.                                                        17690915
067396                                                                  17690915
067397     EJECT                                                        17690915
067398                                                                  17690915
067400 8100-SELECT-PER   SECTION.                                       17690915
067500**************************************************************    PPWIGEN
067600*   SELECT PER TABLE DATA                                    *    PPWIGEN
067700**************************************************************    PPWIGEN
067800                                                                  PPWIGEN
067900     MOVE 'SELECT PER' TO DB2MSG-TAG.                             PPWIGEN
068000                                                                  PPWIGEN
080300     EXEC SQL                                                     PPWIGEN
068200          SELECT                                                  PPWIGEN
068300             PAF_GEN_NUM       ,                                  PPWIGEN
068400             HIRE_DATE         ,                                  PPWIGEN
068500             SEPARATE_DATE     ,                                  PPWIGEN
068600             SEPARATE_REASON   ,                                  PPWIGEN
068700             SEPARATE_DESTIN   ,                                  PPWIGEN
068800             BIRTH_DATE        ,                                  PPWIGEN
068900             LOA_BEGIN_DATE    ,                                  PPWIGEN
069000             SEXCODE           ,                                  PPWIGEN
069100             VISA_END_DATE     ,                                  PPWIGEN
069200             LOA_RETURN_DATE   ,                                  PPWIGEN
069300             ETHNIC_ID         ,                                  PPWIGEN
069400             LOA_TYPE_CODE     ,                                  PPWIGEN
069500             VET_STATUS        ,                                  PPWIGEN
075601             RECENT_VET_SEPDT  ,                                  02561450
069500             WCE_VETERAN_STATUS,                                  51231302
069600             VET_DISAB_STAT    ,                                  PPWIGEN
069700             NEXT_SALREV_DATE  ,                                  PPWIGEN
069800             HANDICAP_STAT     ,                                  PPWIGEN
069900             NEXT_SALARY_REV   ,                                  PPWIGEN
070000             STUDENT_STATUS    ,                                  PPWIGEN
070100             EMP_REL_CODE      ,                                  PPWIGEN
070200             EMP_CBUC          ,                                  PPWIGEN
070300             EMP_REL_UNIT      ,                                  PPWIGEN
070400             EMP_REP_CODE      ,                                  PPWIGEN
070500             EMP_SPEC_HAND     ,                                  PPWIGEN
070600             EMP_DIST_UNIT_CODE,                                  PPWIGEN
070700             EMP_PRIOR_NAME    ,                                  PPWIGEN
070800             LAST_DAY_ON_PAY                                      PPWIGEN
070900            ,OATH_SIGN_DATE                                       PPWIGEN
077200            ,REGISTERD_UNITS                                      17810964
077200            ,ALT_DEPT_CD                                          UCSD0072
077200            ,ALT_DEPT_2_CD                                        UCSD0072
077200            ,ALT_DEPT_3_CD                                        UCSD0072
071100       INTO :PAF-GEN-NUM       ,                                  PPWIGEN
071200            :HIRE-DATE         ,                                  PPWIGEN
071300            :SEPARATE-DATE     ,                                  PPWIGEN
071400            :SEPARATE-REASON   ,                                  PPWIGEN
071500            :SEPARATE-DESTIN   ,                                  PPWIGEN
071600            :BIRTH-DATE        ,                                  PPWIGEN
071700            :LOA-BEGIN-DATE    ,                                  PPWIGEN
071800            :SEXCODE           ,                                  PPWIGEN
071900            :VISA-END-DATE     ,                                  PPWIGEN
072000            :LOA-RETURN-DATE   ,                                  PPWIGEN
072100            :ETHNIC-ID         ,                                  PPWIGEN
072200            :LOA-TYPE-CODE     ,                                  PPWIGEN
072300            :VET-STATUS        ,                                  PPWIGEN
078501            :RECENT-VET-SEPDT  ,                                  02561450
072300            :WCE-VETERAN-STATUS,                                  51231302
072400            :VET-DISAB-STAT    ,                                  PPWIGEN
072500            :NEXT-SALREV-DATE  ,                                  PPWIGEN
072600            :HANDICAP-STAT     ,                                  PPWIGEN
072700            :NEXT-SALARY-REV   ,                                  PPWIGEN
072800            :STUDENT-STATUS    ,                                  PPWIGEN
072900            :EMP-REL-CODE      ,                                  PPWIGEN
073000            :EMP-CBUC          ,                                  PPWIGEN
073100            :EMP-REL-UNIT      ,                                  PPWIGEN
073200            :EMP-REP-CODE      ,                                  PPWIGEN
073300            :EMP-SPEC-HAND     ,                                  PPWIGEN
073400            :EMP-DIST-UNIT-CODE,                                  PPWIGEN
073500            :EMP-PRIOR-NAME    ,                                  PPWIGEN
073600            :LAST-DAY-ON-PAY                                      PPWIGEN
073700           ,:OATH-SIGN-DATE                                       PPWIGEN
080100           ,:REGISTERD-UNITS                                      17810964
077200           ,:ALT-DEPT-CD                                          UCSD0072
077200           ,:ALT-DEPT-2-CD                                        UCSD0072
077200           ,:ALT-DEPT-3-CD                                        UCSD0072
073900       FROM PPPVZPER_PER                                          PPWIGEN
074000       WHERE EMPLOYEE_ID    = :WS-UNIQUE-EE-ID                    PPWIGEN
074100                                                                  PPWIGEN
074200     END-EXEC.                                                    PPWIGEN
074300                                                                  PPWIGEN
074400     IF SQLCODE NOT = ZERO                                        PPWIGEN
074500        PERFORM 999999-SQL-ERROR                                  PPWIGEN
074600     END-IF.                                                      PPWIGEN
074700                                                                  PPWIGEN
074800 8100-EXIT.                                                       PPWIGEN
074900     EXIT.                                                        PPWIGEN
075000                                                                  PPWIGEN
075100     EJECT                                                        PPWIGEN
075200                                                                  PPWIGEN
075300 8200-SELECT-PAY   SECTION.                                       PPWIGEN
075400**************************************************************    PPWIGEN
075500*  SELECT PAY TABLE ROW                                      *    PPWIGEN
075600**************************************************************    PPWIGEN
075700                                                                  PPWIGEN
075800     MOVE 'SELECT PAY' TO DB2MSG-TAG.                             PPWIGEN
075900                                                                  PPWIGEN
076000     EXEC SQL                                                     PPWIGEN
080400        SELECT                                                    PPWIGEN
080500           CITIZEN_CODE      ,                                    PPWIGEN
080600           VISA_TYPE         ,                                    PPWIGEN
082610           US_DATE_OF_ENTRY  ,                                    32171197
080700           FEDTAX_MARITAL    ,                                    PPWIGEN
080800           FEDTAX_EXEMPT     ,                                    PPWIGEN
080900           MAXFED_EXEMPT     ,                                    PPWIGEN
081000           STATE_TAX_MARITAL ,                                    PPWIGEN
081100           STATE_TAX_PERDED  ,                                    PPWIGEN
081200           STATE_TAX_ITMDED  ,                                    PPWIGEN
081300           UI_ELIG_CODE      ,                                    PPWIGEN
081400           STATE_TAX_MAXEXMPT,                                    PPWIGEN
081500           FICA_ELIG_CODE    ,                                    PPWIGEN
081600           PRIOR_EMP_ID                                           PPWIGEN
077400          ,I_9_DATE                                               PPWIGEN
077500          ,OTHER_STATE_CA_RES                                     PPWIGEN
077600          ,OTHER_STATE_NAME                                       PPWIGEN
081700       INTO:CITIZEN-CODE      ,                                   PPWIGEN
081800           :VISA-TYPE         ,                                   PPWIGEN
084110           :US-DATE-OF-ENTRY  ,                                   32171197
081900           :FEDTAX-MARITAL    ,                                   PPWIGEN
082000           :FEDTAX-EXEMPT     ,                                   PPWIGEN
082100           :MAXFED-EXEMPT     ,                                   PPWIGEN
082200           :STATE-TAX-MARITAL ,                                   PPWIGEN
082300           :STATE-TAX-PERDED  ,                                   PPWIGEN
082400           :STATE-TAX-ITMDED  ,                                   PPWIGEN
082500           :UI-ELIG-CODE      ,                                   PPWIGEN
082600           :STATE-TAX-MAXEXMPT,                                   PPWIGEN
082700           :FICA-ELIG-CODE    ,                                   PPWIGEN
082800           : PRIOR-EMP-ID                                         PPWIGEN
078900          ,:I-9-DATE                                              PPWIGEN
079000          ,:OTHER-STATE-CA-RES                                    PPWIGEN
079100          ,:OTHER-STATE-NAME                                      PPWIGEN
082900       FROM PPPVZPAY_PAY                                          PPWIGEN
083000       WHERE EMPLOYEE_ID    = :WS-UNIQUE-EE-ID                    PPWIGEN
083100                                                                  PPWIGEN
083200     END-EXEC.                                                    PPWIGEN
083300                                                                  PPWIGEN
079700     IF SQLCODE NOT = ZERO                                        PPWIGEN
079800        PERFORM 999999-SQL-ERROR                                  PPWIGEN
087400     END-IF.                                                      PPWIGEN
087500                                                                  PPWIGEN
080100 8200-EXIT.                                                       PPWIGEN
080200     EXIT.                                                        PPWIGEN
087700                                                                  PPWIGEN
080400     EJECT                                                        PPWIGEN
080500                                                                  PPWIGEN
080600 8300-SELECT-PCM SECTION.                                         PPWIGEN
080700**************************************************************    PPWIGEN
080800*  SELECT PCM TABLE ROW                                      *    PPWIGEN
080900**************************************************************    PPWIGEN
081000                                                                  PPWIGEN
081100     MOVE 'SELECT PCM' TO DB2MSG-TAG.                             PPWIGEN
081200                                                                  PPWIGEN
087800     EXEC SQL                                                     PPWIGEN
081400         SELECT                                                   PPWIGEN
088100           CHK_DISP_CODE                                          PPWIGEN
081600       INTO :CHK-DISP-CODE                                        PPWIGEN
088400       FROM PPPVZPCM_PCM                                          PPWIGEN
088500       WHERE EMPLOYEE_ID    = :WS-UNIQUE-EE-ID                    PPWIGEN
088700     END-EXEC.                                                    PPWIGEN
088800                                                                  PPWIGEN
091100                                                                  PPWIGEN
082200 8300-EXIT.                                                       PPWIGEN
082300     EXIT.                                                        PPWIGEN
091300                                                                  PPWIGEN
082500     EJECT                                                        PPWIGEN
082600                                                                  PPWIGEN
082700 8400-SELECT-BEL SECTION.                                         PPWIGEN
082800**************************************************************    PPWIGEN
082900*  SELECT BEL TABLE ROW                                      *    PPWIGEN
083000**************************************************************    PPWIGEN
083100                                                                  PPWIGEN
083200     MOVE 'SELECT BEL' TO DB2MSG-TAG.                             PPWIGEN
083300                                                                  PPWIGEN
091400     EXEC SQL                                                     PPWIGEN
091500         SELECT                                                   PPWIGEN
091600           BELI_IND             ,                                 PPWIGEN
091700           BELI_DERIVED_IND                                       PPWIGEN
091800       INTO :BELI-IND           ,                                 PPWIGEN
091900            :BELI-DERIVED-IND                                     PPWIGEN
092000       FROM PPPVZBEL_BEL                                          PPWIGEN
092100       WHERE EMPLOYEE_ID    = :WS-UNIQUE-EE-ID                    PPWIGEN
092300     END-EXEC.                                                    PPWIGEN
092400                                                                  PPWIGEN
084400 8400-EXIT.                                                       PPWIGEN
084500     EXIT.                                                        PPWIGEN
094900                                                                  PPWIGEN
084700     EJECT                                                        PPWIGEN
095100                                                                  PPWIGEN
084900 8500-SELECT-BEN    SECTION.                                      PPWIGEN
085000**************************************************************    PPWIGEN
085100*  SELECT BEN TABLE ROW                                      *    PPWIGEN
085200**************************************************************    PPWIGEN
085300                                                                  PPWIGEN
085400     MOVE 'SELECT BEN' TO DB2MSG-TAG.                             PPWIGEN
085500                                                                  PPWIGEN
095200     EXEC SQL                                                     PPWIGEN
095300        SELECT                                                    PPWIGEN
095400           RET_ELIG_CODE                                          PPWIGEN
092110          ,PIN_SIGN_DATE                                          25991140
092120          ,ANTICIPATED_RET_DT                                     49031194
095500       INTO :RET-ELIG-CODE                                        PPWIGEN
092201           ,:PIN-SIGN-DATE                                        25991140
092202           ,:ANTICIPATED-RET-DT                                   49031194
095600       FROM PPPVZBEN_BEN                                          PPWIGEN
095700       WHERE EMPLOYEE_ID    = :WS-UNIQUE-EE-ID                    PPWIGEN
095800                                                                  PPWIGEN
095900     END-EXEC.                                                    PPWIGEN
096000                                                                  PPWIGEN
086500 8500-EXIT.                                                       PPWIGEN
086600     EXIT.                                                        PPWIGEN
098300                                                                  PPWIGEN
086910 8600-SELECT-EBT    SECTION.                                      17690915
086920**************************************************************    17690915
086930*  SELECT EBT TABLE ROW                                      *    17690915
086940**************************************************************    17690915
086950                                                                  17690915
086960     MOVE 'SELECT EBT' TO DB2MSG-TAG.                             17690915
086970                                                                  17690915
086980     EXEC SQL                                                     17690915
086990        SELECT                                                    17690915
086991           ACAD_PROG_UNIT_CD                                      17690915
086992       INTO :ACAD-PROG-UNIT-CD                                    17690915
086993       FROM PPPVZEBT_EBT                                          17690915
086994       WHERE EMPLOYEE_ID    = :WS-UNIQUE-EE-ID                    17690915
086995                                                                  17690915
086996     END-EXEC.                                                    17690915
086997                                                                  17690915
086998 8600-EXIT.                                                       17690915
086999     EXIT.                                                        17690915
087000                                                                  17690915
104400 8990-UCSD-SECURITY  SECTION.                                     UCSD0056
059300                                                                  UCSD0056
059600     MOVE SPACES   TO  BIRTH-DATEO                                UCSD0056
059600                       SEXCODEO                                   UCSD0056
059600                       ETHNIC-IDO                                 UCSD0056
059600                       VET-STATUSO                                UCSD0056
059600*****                  VET-DISAB-STATO                            51231302
059600                       HANDICAP-STATUSO.                          UCSD0056
059600                                                                  UCSD0056
059600     IF UCCOMMON-PUBLIC-ACCESS                                    UCSD0056
059600       OR (UCCOMMON-DEPT-PUBLIC-ACCESS                            UCSD0056
059600           AND UCCOMMON-NO-DEPT-ASSOCIATION)                      UCSD0056
059600        MOVE SPACES   TO  CHK-DISP-CODEO                          UCSD0056
059600                          CITIZEN-CODEO                           UCSD0056
059600                          VISA-TYPEO                              UCSD0056
059600                          VISA-END-DATEO                          UCSD0056
059600                          I-9-DATEO                               UCSD0056
059600                          OATH-SIGN-DATEO                         UCSD0056
059600                          FEDTAX-MARITALO                         UCSD0056
059600                          FEDTAX-EXEMPTO                          UCSD0056
059600                          MAXFED-EXEMPTO                          UCSD0056
059600                          STATE-TAX-MARITALO                      UCSD0056
059600                          STATE-TAX-PERDEDO                       UCSD0056
059600                          STATE-TAX-ITMDEDO                       UCSD0056
059600                          STATE-TAX-MAXEXMPTO                     UCSD0056
059600                          SEPARATE-REASONO                        UCSD0056
059600                          LOA-TYPE-CODEO                          UCSD0056
059600     END-IF.                                                      UCSD0056
086900                                                                  UCSD0056
086500 8990-EXIT.                                                       UCSD0056
086600     EXIT.                                                        UCSD0056
087001     EJECT                                                        17690915
087002                                                                  17690915
087000*999999-SQL-ERROR SECTION.                                        PPWIGEN
087100**************************************************************    PPWIGEN
087200*  COPIED PROCEDURE DIVISION CODE FOR SQL ERROR HANDLING     *    PPWIGEN
087300**************************************************************    PPWIGEN
087400                                                                  PPWIGEN
087500      EXEC SQL                                                    PPWIGEN
087600           INCLUDE CPPDXP99                                       PPWIGEN
087700      END-EXEC.                                                   PPWIGEN
087800                                                                  PPWIGEN
087900      MOVE 'SQL ERROR - SEE PRECEDING DB2 MESSAGES'               PPWIGEN
088000                                      TO UCWSABND-ABEND-DATA (1). PPWIGEN
088100                                                                  PPWIGEN
088200      PERFORM 9999-ABEND.                                         PPWIGEN
088300                                                                  PPWIGEN
088400 999999-EXIT.                                                     PPWIGEN
088500       EXIT.                                                      PPWIGEN
088600                                                                  PPWIGEN
088700       EJECT                                                      PPWIGEN
088800                                                                  PPWIGEN
088900 9999-ABEND                           SECTION.                    PPWIGEN
089000******************************************************************PPWIGEN
089100*  COPIED PROCEDURE DIVISION CODE FOR ABEND HANDLING             *PPWIGEN
089200******************************************************************PPWIGEN
089300                                                                  PPWIGEN
089400     COPY UCPDABND.                                               PPWIGEN
089500                                                                  PPWIGEN
089600 9999-EXIT.                                                       PPWIGEN
089700     EXIT.                                                        PPWIGEN
089800***************    END OF SOURCE - PPWIGEN    ******************* PPWIGEN
