000145**************************************************************/   EFIX1214
000146*  PROGRAM: PPWIDGT                                          */   EFIX1214
000147*  RELEASE: ___1214______ SERVICE REQUEST(S): _____EFIX____  */   EFIX1214
000148*  NAME:__PHIL THOMPSON__ MODIFICATION DATE:  ___10/26/98__  */   EFIX1214
000149*  DESCRIPTION:                                              */   EFIX1214
000150*  - ADD ARSM CALL FOR NEXT RECORD (PF6) AND PREVIOUS RECORD */   EFIX1214
000151*    (PF5) FUNCTIONS. IF ACCESS IS REJECTED, ROLL BACK TO    */   EFIX1214
000152*    ORIGINAL PPPEUD RECORD.                                 */   EFIX1214
000153**************************************************************/   EFIX1214
000100**************************************************************/   32031184
000200*  PROGRAM: PPWIDGT                                          */   32031184
000300*  RELEASE # ___1184___   SERVICE REQUEST NO(S)____13203_____*/   32031184
000400*  NAME __SRS__________   MODIFICATION DATE ____01/13/98_____*/   32031184
000500*  DESCRIPTION                                               */   32031184
000700*     DEPARTMENTAL PAR INQUIRY SUMMARY OF GROSSES/TOTALS     */   32031184
000800**************************************************************/   32031184
003200 IDENTIFICATION DIVISION.                                         PPWIDGT
003300 PROGRAM-ID. PPWIDGT.                                             PPWIDGT
003400 ENVIRONMENT DIVISION.                                            PPWIDGT
003500 CONFIGURATION SECTION.                                           PPWIDGT
003600 SOURCE-COMPUTER.                                                 PPWIDGT
003700 COPY  CPOTXUCS.                                                  PPWIDGT
003800 DATA DIVISION.                                                   PPWIDGT
003900 WORKING-STORAGE SECTION.                                         PPWIDGT
004000                                                                  PPWIDGT
004100 01  WS-COMN.                                                     PPWIDGT
004200     05  WS-START                   PIC X(27) VALUE               PPWIDGT
004300         'WORKING STORAGE STARTS HERE'.                           PPWIDGT
004400     05  WS-PGM-NAME                PIC X(08) VALUE 'PPWIDGT'.    PPWIDGT
004500     05  WS-PPEUDEXT                PIC X(08) VALUE 'PPEUDEXT'.   PPWIDGT
004510     05  WS-UCARSM                  PIC X(08) VALUE 'UCARSM'.     EFIX1214
004600*****05  WS-REL-NO                  PIC X(05) VALUE 'I1184'.      EFIX1214
004700     05  WS-REL-NO                  PIC X(05) VALUE 'I1214'.      EFIX1214
004900     05  WS-COUNT                   PIC S9(8) COMP VALUE +0.      PPWIDGT
005000     05  WS-NULL1                   PIC S9(4) COMP VALUE +0.      PPWIDGT
005100     05  WS-FED-TAX.                                              PPWIDGT
005200         10  WS-FED-TAX-MARITAL     PIC X.                        PPWIDGT
005300         10  WS-FED-TAX-EXEMPT      PIC 9(03).                    PPWIDGT
005400     05  WS-STATE-TAX.                                            PPWIDGT
005500         10  WS-STATE-TAX-MARITAL   PIC X.                        PPWIDGT
005600         10  WS-STATE-TAX-PERDED    PIC 9(03).                    PPWIDGT
005700     05  WS-STATE-TAX-ITMDED        PIC 9(03).                    PPWIDGT
005800     05  WS-UNIQUE-CYCLE-END-DATE   PIC X(10).                    PPWIDGT
005900     05  WS-UNIQUE-CYCLE-CODE       PIC X(2).                     PPWIDGT
006000     05  WS-UNIQUE-EMPLOYEE-ID      PIC X(9).                     PPWIDGT
006100     05  WS-UNIQUE-RECORD-TYPE      PIC X(2).                     PPWIDGT
006200     05  WS-UNIQUE-PRI-GROSS-CTL    PIC X(3).                     PPWIDGT
006300     05  WS-EMPLOYEE-ID             PIC X(09).                    PPWIDGT
006400     05  WS-GTN-TOTAL               PIC S9(7)V99 COMP-3.          PPWIDGT
006500     05  WS-TOTAL-HRS               PIC S9(7)V99 COMP-3.          PPWIDGT
006600     05  WS-QTR-YR.                                               PPWIDGT
006700         10  WS-QTR                 PIC X.                        PPWIDGT
006800         10  WS-YR                  PIC X.                        PPWIDGT
006900     05  WS-FETCH-FLAG              PIC X.                        PPWIDGT
007000         88  FETCH-OK               VALUE 'Y'.                    PPWIDGT
007100         88  END-FETCH              VALUE 'N'.                    PPWIDGT
007110     05  ERRORS-FOUND-SW            PIC X(01) VALUE SPACES.       EFIX1214
007120         88  NO-ERRORS-FOUND            VALUE SPACES.             EFIX1214
007130         88  ERRORS-FOUND               VALUE '1'.                EFIX1214
007200                                                                  PPWIDGT
007300 01  WS-MESS-NOS.                                                 PPWIDGT
007310     05  MP0032            PIC X(5) VALUE 'P0032'.                EFIX1214
007400     05  MP0303                     PIC X(5) VALUE 'P0303'.       PPWIDGT
007410     05  MP0634            PIC X(5) VALUE 'P0634'.                EFIX1214
007420     05  MP0912            PIC X(5) VALUE 'P0912'.                EFIX1214
007430                                                                  EFIX1214
007431 01  ARSM-INTERFACE.            COPY UCLNARSM.                    EFIX1214
007440     EJECT                                                        EFIX1214
007500                                                                  PPWIDGT
007600 01  WS-DATE-CONV.                                                PPWIDGT
007700 COPY CPWSXDTZ.                                                   PPWIDGT
007800     EJECT                                                        PPWIDGT
007900                                                                  PPWIDGT
008000 01  UCDTLARE  EXTERNAL.                                          PPWIDGT
008100     COPY UCDTLARE.                                               PPWIDGT
008200 01  WS-PPIDGT0 REDEFINES UCDTLARE.                               PPWIDGT
008300     COPY PPIDGT0.                                                PPWIDGT
008400     EJECT                                                        PPWIDGT
008500                                                                  PPWIDGT
008600 01  UCCOMMON    EXTERNAL.                                        PPWIDGT
008700     EXEC SQL                                                     PPWIDGT
008800      INCLUDE UCCOMMON                                            PPWIDGT
008900     END-EXEC.                                                    PPWIDGT
009000     EJECT                                                        PPWIDGT
009100                                                                  PPWIDGT
009200 01  CPWSWORK    EXTERNAL.                                        PPWIDGT
009300     EXEC SQL                                                     PPWIDGT
009400      INCLUDE CPWSWORK                                            PPWIDGT
009500     END-EXEC.                                                    PPWIDGT
009600         10  CPWSWORK-XDGT-WORK-AREA REDEFINES                    PPWIDGT
009700             CPWSWORK-PROGRAM-WORK-AREA.                          PPWIDGT
009800             15  CPWSWORK-WA-INITIALIZED-IND PIC X(15).           PPWIDGT
009900                 88  CPWSWORK-WA-INITIALIZED                      PPWIDGT
010000                                        VALUE '>>??PPWIDGT??<<'.  PPWIDGT
010100             15  FILLER                     PIC X(485).           PPWIDGT
010200     EJECT                                                        PPWIDGT
010300                                                                  PPWIDGT
010400 01  UCPISCRN    EXTERNAL.                                        PPWIDGT
010500     COPY UCPISCRN.                                               PPWIDGT
010600     EJECT                                                        PPWIDGT
010700                                                                  PPWIDGT
010800 01  UCWSABND    EXTERNAL.                                        PPWIDGT
010900     COPY UCWSABND.                                               PPWIDGT
011000                                                                  PPWIDGT
011100 01  PPDB2MSG-INTERFACE.                                          PPWIDGT
011200     COPY CPLNKDB2.                                               PPWIDGT
011300     EJECT                                                        PPWIDGT
011400                                                                  PPWIDGT
011500******************************************************************PPWIDGT
011600*          SQL - WORKING STORAGE                                 *PPWIDGT
011700******************************************************************PPWIDGT
011800                                                                  PPWIDGT
011900 01  EUD-ROW       EXTERNAL.                                      PPWIDGT
012000     EXEC SQL                                                     PPWIDGT
012100           INCLUDE PPPVZEUD                                       PPWIDGT
012200     END-EXEC.                                                    PPWIDGT
012300                                                                  PPWIDGT
012400 01  WS-PPPVDRC.                                                  PPWIDGT
012500     EXEC SQL                                                     PPWIDGT
012600           INCLUDE PPPVZDRC                                       PPWIDGT
012700     END-EXEC.                                                    PPWIDGT
012800     EJECT                                                        PPWIDGT
012900                                                                  PPWIDGT
013000******************************************************************PPWIDGT
013100*          SQL - SELECTS                                         *PPWIDGT
013200******************************************************************PPWIDGT
013300     EXEC SQL                                                     PPWIDGT
013400           DECLARE EUD-EMP-CURS-GT  CURSOR FOR                    PPWIDGT
013500           SELECT                                                 PPWIDGT
013600               PAY_CYCLE_END_DATE                                 PPWIDGT
013700              ,PAY_CYCLE_CODE                                     PPWIDGT
013800              ,EMPLOYEE_ID                                        PPWIDGT
013900              ,RECORD_TYPE                                        PPWIDGT
014000              ,PRI_GROSS_CTL                                      PPWIDGT
014100           FROM PPPVZEUD_EUD                                      PPWIDGT
014200           WHERE  (EMPLOYEE_ID      = :WS-UNIQUE-EMPLOYEE-ID)     PPWIDGT
014300             AND  (PRI_GROSS_CTL    > :WS-UNIQUE-PRI-GROSS-CTL)   PPWIDGT
014400           ORDER BY PRI_GROSS_CTL                                 PPWIDGT
014500     END-EXEC.                                                    PPWIDGT
014600                                                                  PPWIDGT
014700     EXEC SQL                                                     PPWIDGT
014800           DECLARE EUD-EMP-CURS-LT CURSOR FOR                     PPWIDGT
014900           SELECT                                                 PPWIDGT
015000               PAY_CYCLE_END_DATE                                 PPWIDGT
015100              ,PAY_CYCLE_CODE                                     PPWIDGT
015200              ,EMPLOYEE_ID                                        PPWIDGT
015300              ,RECORD_TYPE                                        PPWIDGT
015400              ,PRI_GROSS_CTL                                      PPWIDGT
015500           FROM PPPVZEUD_EUD                                      PPWIDGT
015600           WHERE  (EMPLOYEE_ID    = :WS-UNIQUE-EMPLOYEE-ID)       PPWIDGT
015700             AND  (PRI_GROSS_CTL  < :WS-UNIQUE-PRI-GROSS-CTL)     PPWIDGT
015800           ORDER BY PRI_GROSS_CTL DESC                            PPWIDGT
015900     END-EXEC.                                                    PPWIDGT
016000                                                                  PPWIDGT
016100     EXEC SQL                                                     PPWIDGT
016200           INCLUDE SQLCA                                          PPWIDGT
016300     END-EXEC.                                                    PPWIDGT
016400                                                                  PPWIDGT
016500******************************************************************PPWIDGT
016600*                                                                *PPWIDGT
016700*                  SQL - SELECTS                                 *PPWIDGT
016800*                                                                *PPWIDGT
016900******************************************************************PPWIDGT
017000                                                                  PPWIDGT
017100 LINKAGE SECTION.                                                 PPWIDGT
017200                                                                  PPWIDGT
017300 PROCEDURE DIVISION.                                              PPWIDGT
017400 0000-MAIN-LINE        SECTION.                                   PPWIDGT
017500**************************************************************    PPWIDGT
017600*                                                            *    PPWIDGT
017700*    MAIN PROCESSING LOOP.                                   *    PPWIDGT
017800*                                                            *    PPWIDGT
017900**************************************************************    PPWIDGT
018000                                                                  PPWIDGT
018100     EXEC SQL                                                     PPWIDGT
018200          INCLUDE CPPDXE99                                        PPWIDGT
018300     END-EXEC.                                                    PPWIDGT
018400                                                                  PPWIDGT
018500     PERFORM 1000-INITIALIZATION.                                 PPWIDGT
018600     PERFORM 2000-INIT-SCREEN                                     PPWIDGT
018700     PERFORM 3000-DISPLAY-DATA.                                   PPWIDGT
018800                                                                  PPWIDGT
018900     GOBACK.                                                      PPWIDGT
019000                                                                  PPWIDGT
019100 0000-EXIT.                                                       PPWIDGT
019200     EXIT.                                                        PPWIDGT
019300                                                                  PPWIDGT
019400     EJECT                                                        PPWIDGT
019500                                                                  PPWIDGT
019600 1000-INITIALIZATION   SECTION.                                   PPWIDGT
019700**************************************************************    PPWIDGT
019800*                                                            *    PPWIDGT
019900*    UCROUTER CALLS THIS PROGRAM TWICE WHEN PROCESSING FROM  *    PPWIDGT
020000*    THE SAME SCREEN. WORKING STORAGE IS NOT REFRESHED THE   *    PPWIDGT
020100*    SECOND TIME SO EXPLICIT INITIALIZATION MUST OCCUR HERE  *    PPWIDGT
020200*    IF AN OBJECT MUST HAVE A SPECIFIC STARTING VALUE NOT    *    PPWIDGT
020300*    SET ELSEWHERE IN THE CODE.                              *    PPWIDGT
020400*                                                            *    PPWIDGT
020500**************************************************************    PPWIDGT
020600                                                                  PPWIDGT
020700     MOVE WS-PGM-NAME TO UCWSABND-ABENDING-PGM.                   PPWIDGT
020800     MOVE WS-PGM-NAME TO DB2MSG-PGM-ID.                           PPWIDGT
020900                                                                  PPWIDGT
021000     MOVE LOW-VALUES TO UCDTLARE.                                 PPWIDGT
021100     MOVE ZERO TO UCCOMMON-RETURN-CODE.                           PPWIDGT
021200     MOVE LENGTH OF PPIDGT0O TO UCPISCRN-DETAIL-MAP-LENGTH.       PPWIDGT
021300     MOVE WS-REL-NO TO UCPISCRN-DTL-REL-NO.                       PPWIDGT
021400                                                                  PPWIDGT
021500     IF NOT CPWSWORK-WA-INITIALIZED                               PPWIDGT
021600**************************************************************    PPWIDGT
021700*    INITIALIZE THE LOCAL CPWSWORK AREA FOR THIS PROGRAM ON  *    PPWIDGT
021800*    A TRANSFER FROM ANOTHER FUNCTION.                       *    PPWIDGT
021900**************************************************************    PPWIDGT
022000        INITIALIZE CPWSWORK-XDGT-WORK-AREA                        PPWIDGT
022100        SET CPWSWORK-WA-INITIALIZED TO TRUE                       PPWIDGT
022200     END-IF.                                                      PPWIDGT
022300                                                                  PPWIDGT
022400     IF CPWSWORK-MORE-PAR-RECS                                    PPWIDGT
022500       IF NOT CPWSWORK-DONT-OVERRIDE-MSG                          36430943
022600        MOVE MP0303 TO UCCOMMON-MSG-NUMBER                        PPWIDGT
022700       END-IF                                                     36430943
022800        MOVE SPACES TO CPWSWORK-MORE-PAR-RECS-SW                  PPWIDGT
022900     END-IF.                                                      PPWIDGT
023000                                                                  PPWIDGT
023100**************************************************************    PPWIDGT
023200*    SET UP PAR LOGICAL FUNCTIONS. NEXTREC AND PREVREC ARE   *    PPWIDGT
023300*    ESTABLISHED LATER BASED ON WHETHER APPROPRIATE ROWS     *    PPWIDGT
023400*    WITH GREATER OR LESSER KEYS EXIST.                      *    PPWIDGT
023500**************************************************************    PPWIDGT
023600     MOVE 'BROWSE' TO UCPISCRN-ADDL-LOGIC-FUNC (1).               PPWIDGT
023700     MOVE SPACES   TO UCPISCRN-ADDL-LOGIC-FUNC (2).               PPWIDGT
023800     MOVE SPACES   TO UCPISCRN-ADDL-LOGIC-FUNC (3).               PPWIDGT
023900                                                                  PPWIDGT
024000 1000-EXIT.                                                       PPWIDGT
024100     EXIT.                                                        PPWIDGT
024200                                                                  PPWIDGT
024300     EJECT                                                        PPWIDGT
024400                                                                  PPWIDGT
024500 2000-INIT-SCREEN      SECTION.                                   PPWIDGT
024600**************************************************************    PPWIDGT
024700*                                                            *    PPWIDGT
024800*    INITIALIZE 'C' AND 'H' ATTRIBUTES. 'A' ATTRIBUTES ARE   *    PPWIDGT
024900*    DEFINED IN THE MAP.                                     *    PPWIDGT
025000*                                                            *    PPWIDGT
025100**************************************************************    PPWIDGT
025200                                                                  PPWIDGT
025300     MOVE UCCOMMON-CLR-FLD-LABEL TO                               PPWIDGT
025400                            L-FED-TAXC                            PPWIDGT
025500                            L-STATE-TAXC                          PPWIDGT
025600                            L-UI-ELIG-CODEC                       17900995
025700                            L-STU-STATC                           PPWIDGT
025800                            L-RET-PLAN-CODEC                      PPWIDGT
025900                            L-SP-BEN-CODEC                        PPWIDGT
026000                            L-DCP-PLAN-CODEC                      PPWIDGT
026100                            L-FICA-ELIG-CODEC                     PPWIDGT
026200                            L-INS-RED-CODEC                       PPWIDGT
026300                            L-QTR-YTDC                            PPWIDGT
026400                            L-TOTAL-GROSSC                        PPWIDGT
026500                            L-TOTAL-TIMEC                         PPWIDGT
026600                            L-FWT-GROSSC                          PPWIDGT
026700                            L-OASDI-GROSSC                        PPWIDGT
026800                            L-MEDIC-GROSSC                        PPWIDGT
026900                            L-SQT-GROSSC                          PPWIDGT
027000                            L-RET-GROSSC                          PPWIDGT
027100                            L-SUM-GROSSC                          PPWIDGT
027200                            L-ADV-PAYC                            PPWIDGT
027300                            L-TOTAL-DEDSC                         PPWIDGT
027400                            L-NET-PAY-AMTC                        PPWIDGT
027500                            HEADER-4C                             PPWIDGT
027600                            L-VAC-ACRU-HRSC                       PPWIDGT
027700                            L-SICK-ACRU-HRSC                      PPWIDGT
027800                            L-VAC-HRS-LOSTC.                      PPWIDGT
027900                                                                  PPWIDGT
028000     MOVE UCCOMMON-CLR-NORM-DISPL TO                              PPWIDGT
028100                            FED-TAXC                              PPWIDGT
028200                            STATE-TAXC                            PPWIDGT
028300                            STATE-TAX-ITMDEDC                     PPWIDGT
028400                            UI-ELIG-CODEC                         17900995
028500                            STUDENT-STATUSC                       PPWIDGT
028600                            RET-PLAN-CODEC                        PPWIDGT
028700                            SPCL-BEN-CODEC                        PPWIDGT
028800                            DCP-PLAN-CODEC                        PPWIDGT
028900                            FICA-ELIG-CODEC                       PPWIDGT
029000                            INS-REDUCT-INDC                       PPWIDGT
029100                            GROSS-IND-QTD-YTDC                    PPWIDGT
029200                            TOTAL-GROSSC                          PPWIDGT
029300                            TOTAL-TIMEC                           PPWIDGT
029400                            FWT-GROSSC                            PPWIDGT
029500                            OASDI-GROSSC                          PPWIDGT
029600                            MEDICARE-GROSSC                       PPWIDGT
029700                            SWT-GROSSC                            PPWIDGT
029800                            RET-GROSSC                            PPWIDGT
029900                            SUM-GROSSC                            PPWIDGT
030000                            ADV-PAY-AMOUNTC                       PPWIDGT
030100                            TOTAL-DEDUCTIONSC                     PPWIDGT
030200                            NET-PAY-AMOUNTC                       PPWIDGT
030300                            VAC-ACRU-HRSC                         PPWIDGT
030400                            SICK-ACRU-HRSC                        PPWIDGT
030500                            VAC-ACRU-HRS-LOSTC.                   PPWIDGT
030600                                                                  PPWIDGT
030700     MOVE UCCOMMON-HLT-FLD-LABEL TO                               PPWIDGT
030800                            L-FED-TAXH                            PPWIDGT
030900                            L-STATE-TAXH                          PPWIDGT
031000                            L-UI-ELIG-CODEH                       17900995
031100                            L-STU-STATH                           PPWIDGT
031200                            L-RET-PLAN-CODEH                      PPWIDGT
031300                            L-SP-BEN-CODEH                        PPWIDGT
031400                            L-DCP-PLAN-CODEH                      PPWIDGT
031500                            L-FICA-ELIG-CODEH                     PPWIDGT
031600                            L-INS-RED-CODEH                       PPWIDGT
031700                            L-QTR-YTDH                            PPWIDGT
031800                            L-TOTAL-GROSSH                        PPWIDGT
031900                            L-TOTAL-TIMEH                         PPWIDGT
032000                            L-FWT-GROSSH                          PPWIDGT
032100                            L-OASDI-GROSSH                        PPWIDGT
032200                            L-MEDIC-GROSSH                        PPWIDGT
032300                            L-SQT-GROSSH                          PPWIDGT
032400                            L-RET-GROSSH                          PPWIDGT
032500                            L-SUM-GROSSH                          PPWIDGT
032600                            L-ADV-PAYH                            PPWIDGT
032700                            L-TOTAL-DEDSH                         PPWIDGT
032800                            L-NET-PAY-AMTH                        PPWIDGT
032900                            HEADER-4H                             PPWIDGT
033000                            L-VAC-ACRU-HRSH                       PPWIDGT
033100                            L-SICK-ACRU-HRSH                      PPWIDGT
033200                            L-VAC-HRS-LOSTH.                      PPWIDGT
033300                                                                  PPWIDGT
033400     MOVE UCCOMMON-HLT-NORM-DISPL TO                              PPWIDGT
033500                            FED-TAXH                              PPWIDGT
033600                            STATE-TAXH                            PPWIDGT
033700                            STATE-TAX-ITMDEDH                     PPWIDGT
033800                            UI-ELIG-CODEH                         17900995
033900                            STUDENT-STATUSH                       PPWIDGT
034000                            RET-PLAN-CODEH                        PPWIDGT
034100                            SPCL-BEN-CODEH                        PPWIDGT
034200                            DCP-PLAN-CODEH                        PPWIDGT
034300                            FICA-ELIG-CODEH                       PPWIDGT
034400                            INS-REDUCT-INDH                       PPWIDGT
034500                            GROSS-IND-QTD-YTDH                    PPWIDGT
034600                            TOTAL-GROSSH                          PPWIDGT
034700                            TOTAL-TIMEH                           PPWIDGT
034800                            FWT-GROSSH                            PPWIDGT
034900                            OASDI-GROSSH                          PPWIDGT
035000                            MEDICARE-GROSSH                       PPWIDGT
035100                            SWT-GROSSH                            PPWIDGT
035200                            RET-GROSSH                            PPWIDGT
035300                            SUM-GROSSH                            PPWIDGT
035400                            ADV-PAY-AMOUNTH                       PPWIDGT
035500                            TOTAL-DEDUCTIONSH                     PPWIDGT
035600                            NET-PAY-AMOUNTH                       PPWIDGT
035700                            VAC-ACRU-HRSH                         PPWIDGT
035800                            SICK-ACRU-HRSH                        PPWIDGT
035900                            VAC-ACRU-HRS-LOSTH.                   PPWIDGT
036000                                                                  PPWIDGT
036100 2000-EXIT.                                                       PPWIDGT
036200     EXIT.                                                        PPWIDGT
036300                                                                  PPWIDGT
036400     EJECT                                                        PPWIDGT
036500                                                                  PPWIDGT
036600 3000-DISPLAY-DATA     SECTION.                                   PPWIDGT
036700**************************************************************    PPWIDGT
036800* THE EUD-ROW IS AN EXTERNAL SELECTED DURING KEY SWITCH      *    PPWIDGT
036900* PROCESSING, CURSOR SELECT PROCESSING ON THE IBRS BROWSE    *    PPWIDGT
037000* SCREEN, OR DURING NEXTREC/PREVREC PROCESSING IN VARIOUS    *    PPWIDGT
037100* PAR SCREENS. THE ROW SHOULD ALWAYS BE COMPLETE ON ENTRY TO *    PPWIDGT
037200* AND DEPARTURE FROM A PAR INQUIRY PROGRAM. IF A NEW ROW IS  *    PPWIDGT
037300* SELECTED, E.G. NEXTREC, PPEUDEXT IS CALLED TO ENSURE THAT  *    PPWIDGT
037400* THE COMPLETE ROW'S DATA EXISTS SO THAT ANY PAR PROGRAM,    *    PPWIDGT
037500* INCLUDING HEADER PROCESSORS, WILL HAVE THE DATA IT NEEDS.  *    PPWIDGT
037600*                                                            *    PPWIDGT
037700* THE SCREEN FIELDS ARE INITIALIZED.                         *    PPWIDGT
037800*                                                            *    PPWIDGT
037900* THE EUD-ROW KEY FIELDS ARE MOVED TO LOCAL WORK FIELDS USED *    PPWIDGT
038000* FOR CURSOR PROCESSING.                                     *    PPWIDGT
038100*                                                            *    PPWIDGT
038200* THE NEXTREC AND PREVREC PROCESSING OCCUR IF REQUESTED. THE *    PPWIDGT
038300* LOGICAL FUNCTION PF KEY PROCESSING SHOULD ALWAYS BE        *    PPWIDGT
038400* CONSISTENT WITH THE EXISTENCE OF ROWS, I.E. IF NEXTREC     *    PPWIDGT
038500* APPEARS ON A SCREEN, AN APPROPRIATE ROW SHOULD ALWAYS      *    PPWIDGT
038600* EXIST.                                                     *    PPWIDGT
038700*                                                            *    PPWIDGT
038800* THE RELATED GROSSES DATA IS SELECTED FROM THE PPPGTN TABLE.*    PPWIDGT
038900**************************************************************    PPWIDGT
039000                                                                  PPWIDGT
039100     PERFORM 6000-PAR-KEY-DATA.                                   PPWIDGT
039200                                                                  PPWIDGT
039300     EVALUATE TRUE                                                PPWIDGT
039400       WHEN UCCOMMON-LOGICAL-FUNCTION = 'NEXT-PAR-REC'            PPWIDGT
039500         PERFORM 8200-OPEN-EUD-CURS-GT                            PPWIDGT
039600         PERFORM 6100-PROCESS-NEXTREC                             PPWIDGT
039700         PERFORM 8220-CLOSE-EUD-CURS-GT                           PPWIDGT
039710         PERFORM 4000-CHECK-AUTH                                  EFIX1214
039720         IF ARSM-PERMISSION NOT = 'Y'                             EFIX1214
039730            PERFORM 6000-PAR-KEY-DATA                             EFIX1214
039740            PERFORM 8300-OPEN-EUD-CURS-LT                         EFIX1214
039750            PERFORM 6200-PROCESS-PREVREC                          EFIX1214
039760            PERFORM 8320-CLOSE-EUD-CURS-LT                        EFIX1214
039770         END-IF                                                   EFIX1214
039800       WHEN UCCOMMON-LOGICAL-FUNCTION = 'PREV-PAR-REC'            PPWIDGT
039900         PERFORM 8300-OPEN-EUD-CURS-LT                            PPWIDGT
040000         PERFORM 6200-PROCESS-PREVREC                             PPWIDGT
040100         PERFORM 8320-CLOSE-EUD-CURS-LT                           PPWIDGT
040110         PERFORM 4000-CHECK-AUTH                                  EFIX1214
040120         IF ARSM-PERMISSION NOT = 'Y'                             EFIX1214
040130            PERFORM 6000-PAR-KEY-DATA                             EFIX1214
040140            PERFORM 8200-OPEN-EUD-CURS-GT                         EFIX1214
040150            PERFORM 6100-PROCESS-NEXTREC                          EFIX1214
040160            PERFORM 8220-CLOSE-EUD-CURS-GT                        EFIX1214
040170         END-IF                                                   EFIX1214
040200       WHEN UCCOMMON-DISPLAY-PAGE-1                               PPWIDGT
040300       WHEN UCCOMMON-DISPLAY-CURRENT-PAGE                         PPWIDGT
040400         CONTINUE                                                 PPWIDGT
040500     END-EVALUATE.                                                PPWIDGT
040600                                                                  PPWIDGT
040700     PERFORM 7100-MOVE-DATA-TO-SCRN.                              PPWIDGT
040800     PERFORM 6400-CHK-NEXT-PREV.                                  PPWIDGT
040900                                                                  PPWIDGT
041000 3000-EXIT.                                                       PPWIDGT
041100     EXIT.                                                        PPWIDGT
041200                                                                  PPWIDGT
041300     EJECT                                                        PPWIDGT
041310 4000-CHECK-AUTH   SECTION.                                       EFIX1214
041320***********************************************************       EFIX1214
041330*  CHECK SECURITY                                         *       EFIX1214
041340***********************************************************       EFIX1214
041350                                                                  EFIX1214
041360     MOVE UCCOMMON-USERID TO ARSM-AUTH-ID.                        EFIX1214
041370     MOVE 'PAR    '            TO ARSM-RESOURCE-TYPE.             EFIX1214
041380     MOVE EMPLOYEE-ID OF EUD-ROW TO ARSM-RESOURCE-NAME.           EFIX1214
041390     MOVE 'VIEW'               TO ARSM-ACCESS-INTENT.             EFIX1214
041391     MOVE HOME-DEPT OF EUD-ROW TO ARSM-QUALIFIERS.                EFIX1214
041392                                                                  EFIX1214
041393     CALL WS-UCARSM USING DFHEIBLK DFHCOMMAREA ARSM-INTERFACE.    EFIX1214
041394                                                                  EFIX1214
041395     IF ARSM-RETURN-CODE = ZERO                                   EFIX1214
041396        IF ARSM-PERMISSION      = 'Y'                             EFIX1214
041397           SET UCCOMMON-RECORD-AUTH-VIEW TO TRUE                  EFIX1214
041398           SET UCCOMMON-RETURN-NO-ERRORS TO TRUE                  EFIX1214
041399           IF UCCOMMON-HOT-MSG-NUMBER = MP0634                    EFIX1214
041400              SET UCCOMMON-HOT-MSG-NUM-NOT-SET TO TRUE            EFIX1214
041401           END-IF                                                 EFIX1214
041402        ELSE                                                      EFIX1214
041403           SET UCCOMMON-RECORD-AUTH-NONE TO TRUE                  EFIX1214
041404           SET ERRORS-FOUND TO TRUE                               EFIX1214
041405           MOVE MP0032 TO UCCOMMON-MSG-NUMBER                     EFIX1214
041406        END-IF                                                    EFIX1214
041407     ELSE                                                         EFIX1214
041408        SET UCCOMMON-RETURN-ERRORS-FOUND TO TRUE                  EFIX1214
041409        MOVE MP0912 TO UCCOMMON-MSG-NUMBER                        EFIX1214
041410     END-IF.                                                      EFIX1214
041411     EJECT                                                        EFIX1214
041400                                                                  PPWIDGT
041500 6000-PAR-KEY-DATA     SECTION.                                   PPWIDGT
041600**************************************************************    PPWIDGT
041700*                                                            *    PPWIDGT
041800*    MOVE THE CURRENT EUD-ROW EXTERNAL DATA TO LOCAL FIELDS. *    PPWIDGT
041900*                                                            *    PPWIDGT
042000**************************************************************    PPWIDGT
042100                                                                  PPWIDGT
042200     MOVE PAY-CYCLE-END-DATE OF EUD-ROW                           PPWIDGT
042300                                    TO WS-UNIQUE-CYCLE-END-DATE.  PPWIDGT
042400     MOVE PAY-CYCLE-CODE OF EUD-ROW TO WS-UNIQUE-CYCLE-CODE.      PPWIDGT
042500     MOVE EMPLOYEE-ID OF EUD-ROW    TO WS-UNIQUE-EMPLOYEE-ID.     PPWIDGT
042600     MOVE RECORD-TYPE OF EUD-ROW    TO WS-UNIQUE-RECORD-TYPE.     PPWIDGT
042700     MOVE PRI-GROSS-CTL OF EUD-ROW  TO WS-UNIQUE-PRI-GROSS-CTL.   PPWIDGT
042800                                                                  PPWIDGT
042900 6000-EXIT.                                                       PPWIDGT
043000     EXIT.                                                        PPWIDGT
043100                                                                  PPWIDGT
043200 6100-PROCESS-NEXTREC  SECTION.                                   PPWIDGT
043300**************************************************************    PPWIDGT
043400*                                                            *    PPWIDGT
043500*    SELECT THE NEXT EUD ROW BASED ON PREVIOUS EUD-ROW KEY.  *    PPWIDGT
043600*                                                            *    PPWIDGT
043700**************************************************************    PPWIDGT
043800                                                                  PPWIDGT
043900     SET FETCH-OK TO TRUE.                                        PPWIDGT
044000                                                                  PPWIDGT
044100     PERFORM 8210-FETCH-EUD-CURS-GT.                              PPWIDGT
044200                                                                  PPWIDGT
044300 6100-EXIT.                                                       PPWIDGT
044400     EXIT.                                                        PPWIDGT
044500                                                                  PPWIDGT
044600 6200-PROCESS-PREVREC  SECTION.                                   PPWIDGT
044700**************************************************************    PPWIDGT
044800*                                                            *    PPWIDGT
044900*    SELECT THE PREVIOUS EUD ROW BASED ON NEXT EUD-ROW KEY.  *    PPWIDGT
045000*                                                            *    PPWIDGT
045100**************************************************************    PPWIDGT
045200                                                                  PPWIDGT
045300     SET FETCH-OK TO TRUE.                                        PPWIDGT
045400                                                                  PPWIDGT
045500     PERFORM 8310-FETCH-EUD-CURS-LT.                              PPWIDGT
045600                                                                  PPWIDGT
045700 6200-EXIT.                                                       PPWIDGT
045800     EXIT.                                                        PPWIDGT
045900                                                                  PPWIDGT
046000     EJECT                                                        PPWIDGT
046100                                                                  PPWIDGT
046200 6400-CHK-NEXT-PREV    SECTION.                                   PPWIDGT
046300**************************************************************/   PPWIDGT
046400*                                                            */   PPWIDGT
046500*    CHECK IF A NEXT AND PREVIOUS ROW EXISTS SO THE PF KEYS  */   PPWIDGT
046600*    FOR NEXTREC AND PREVREC CAN BE SET.                     */   PPWIDGT
046700*                                                            */   PPWIDGT
046800**************************************************************/   PPWIDGT
046900                                                                  PPWIDGT
047000     MOVE EMPLOYEE-ID OF EUD-ROW    TO WS-UNIQUE-EMPLOYEE-ID.     PPWIDGT
047100     MOVE PRI-GROSS-CTL OF EUD-ROW  TO WS-UNIQUE-PRI-GROSS-CTL.   PPWIDGT
047200                                                                  PPWIDGT
047300     SET UCPISCRN-FORWARD-NOT-AVAIL TO TRUE                       PPWIDGT
047400     SET UCPISCRN-BACKWARD-NOT-AVAIL TO TRUE                      PPWIDGT
047500                                                                  PPWIDGT
047600     MOVE ZERO TO WS-COUNT.                                       PPWIDGT
047700                                                                  PPWIDGT
047800     MOVE 'SELECT EUD COUNT GT' TO DB2MSG-TAG.                    PPWIDGT
047900     EXEC SQL                                                     PPWIDGT
048000         SELECT                                                   PPWIDGT
048100         COUNT (*)                                                PPWIDGT
048200         INTO :WS-COUNT :WS-NULL1                                 PPWIDGT
048300         FROM PPPVZEUD_EUD                                        PPWIDGT
048400         WHERE EMPLOYEE_ID   = :WS-UNIQUE-EMPLOYEE-ID             PPWIDGT
048500           AND PRI_GROSS_CTL > :WS-UNIQUE-PRI-GROSS-CTL           PPWIDGT
048600     END-EXEC.                                                    PPWIDGT
048700                                                                  PPWIDGT
048800     IF SQLCODE      =  ZERO                                      PPWIDGT
048900        AND WS-NULL1 >= ZERO                                      PPWIDGT
049000        AND WS-COUNT >  ZERO                                      PPWIDGT
049100        MOVE 'NEXT-PAR-REC' TO UCPISCRN-ADDL-LOGIC-FUNC (2)       PPWIDGT
049200     END-IF.                                                      PPWIDGT
049300                                                                  PPWIDGT
049400     MOVE ZERO TO WS-COUNT.                                       PPWIDGT
049500                                                                  PPWIDGT
049600     MOVE 'SELECT EUD COUNT LT' TO DB2MSG-TAG.                    PPWIDGT
049700     EXEC SQL                                                     PPWIDGT
049800         SELECT                                                   PPWIDGT
049900         COUNT (*)                                                PPWIDGT
050000         INTO :WS-COUNT :WS-NULL1                                 PPWIDGT
050100         FROM PPPVZEUD_EUD                                        PPWIDGT
050200         WHERE EMPLOYEE_ID   = :WS-UNIQUE-EMPLOYEE-ID             PPWIDGT
050300           AND PRI_GROSS_CTL < :WS-UNIQUE-PRI-GROSS-CTL           PPWIDGT
050400     END-EXEC.                                                    PPWIDGT
050500                                                                  PPWIDGT
050600     IF SQLCODE      =  ZERO                                      PPWIDGT
050700        AND WS-NULL1 >= ZERO                                      PPWIDGT
050800        AND WS-COUNT >  ZERO                                      PPWIDGT
050900        IF UCPISCRN-ADDL-LOGIC-FUNC (2) = SPACES                  PPWIDGT
051000           MOVE 'PREV-PAR-REC' TO UCPISCRN-ADDL-LOGIC-FUNC (2)    PPWIDGT
051100        ELSE                                                      PPWIDGT
051200           MOVE 'PREV-PAR-REC' TO UCPISCRN-ADDL-LOGIC-FUNC (3)    PPWIDGT
051300        END-IF                                                    PPWIDGT
051400     END-IF.                                                      PPWIDGT
051500                                                                  PPWIDGT
051600 6400-EXIT.                                                       PPWIDGT
051700     EXIT.                                                        PPWIDGT
051800                                                                  PPWIDGT
051900     EJECT                                                        PPWIDGT
052000                                                                  PPWIDGT
052100 7100-MOVE-DATA-TO-SCRN SECTION.                                  PPWIDGT
052200**************************************************************/   PPWIDGT
052300*                                                            */   PPWIDGT
052400*    MOVE THE DATA IN EUD-ROW TO THE MAP FIELDS.             */   PPWIDGT
052500*                                                            */   PPWIDGT
052600**************************************************************/   PPWIDGT
052700                                                                  PPWIDGT
052800     MOVE FEDTAX-MARITAL           TO WS-FED-TAX-MARITAL.         PPWIDGT
052900     MOVE FEDTAX-EXEMPT            TO WS-FED-TAX-EXEMPT.          PPWIDGT
053000     MOVE WS-FED-TAX               TO FED-TAXO.                   PPWIDGT
053100     MOVE STATE-TAX-MARITAL        TO WS-STATE-TAX-MARITAL.       PPWIDGT
053200     MOVE STATE-TAX-PERDED         TO WS-STATE-TAX-PERDED.        PPWIDGT
053300     MOVE WS-STATE-TAX             TO STATE-TAXO.                 PPWIDGT
053400     MOVE STATE-TAX-ITMDED         TO WS-STATE-TAX-ITMDED.        PPWIDGT
053500     MOVE WS-STATE-TAX-ITMDED      TO STATE-TAX-ITMDEDO.          PPWIDGT
053600     MOVE PAR-UI-ELIG-CODE         TO UI-ELIG-CODEO.              17900995
053700     MOVE STUDENT-STATUS           TO STUDENT-STATUSO.            PPWIDGT
053800     MOVE RET-PLAN-CODE            TO RET-PLAN-CODEO.             PPWIDGT
053900     MOVE SPCL-BEN-CODE            TO SPCL-BEN-CODEO.             PPWIDGT
054000     MOVE DCP-PLAN-CODE            TO DCP-PLAN-CODEO.             PPWIDGT
054100     MOVE FICA-ELIG-CODE           TO FICA-ELIG-CODEO.            PPWIDGT
054200     MOVE INS-REDUCT-IND           TO INS-REDUCT-INDO.            PPWIDGT
054300     MOVE GROSS-IND-QTD            TO WS-QTR.                     PPWIDGT
054400     MOVE GROSS-IND-YTD            TO WS-YR.                      PPWIDGT
054500     MOVE WS-QTR-YR                TO GROSS-IND-QTD-YTDO.         PPWIDGT
054600     MOVE TOTAL-GROSS              TO TOTAL-GROSSO.               PPWIDGT
054700     MOVE ZEROS                    TO WS-TOTAL-HRS.               PPWIDGT
054800     COMPUTE WS-TOTAL-HRS = TOTAL-HRS-REG + TOTAL-HRS-OT +        PPWIDGT
054900                            TOTAL-HRS-NONWORK.                    PPWIDGT
055000     MOVE WS-TOTAL-HRS             TO TOTAL-TIMEO.                PPWIDGT
055100     MOVE FWT-GROSS                TO FWT-GROSSO.                 PPWIDGT
055200     MOVE OASDI-GROSS              TO OASDI-GROSSO.               PPWIDGT
055300     MOVE MEDICR-GROSS             TO MEDICARE-GROSSO.            PPWIDGT
055400     MOVE SWT-GROSS                TO SWT-GROSSO.                 PPWIDGT
055500     MOVE RET-GROSS                TO RET-GROSSO.                 PPWIDGT
055600     COMPUTE SUM-GROSSO = TOTAL-GROSS + RET-GROSS +               PPWIDGT
055710                          SWT-GROSS   + FWT-GROSS +               EFIX1045
055800                          OASDI-GROSS + MEDICR-GROSS.             PPWIDGT
055900     MOVE ADV-PAY-AMT              TO ADV-PAY-AMOUNTO.            PPWIDGT
056000     PERFORM 8500-SLCT-SUM-DRC.                                   PPWIDGT
056100     MOVE WS-GTN-TOTAL             TO TOTAL-DEDUCTIONSO.          PPWIDGT
056200     MOVE NET-PAY-AMT              TO NET-PAY-AMOUNTO.            PPWIDGT
056300     MOVE ACRU-VAC-HRS             TO VAC-ACRU-HRSO.              PPWIDGT
056400     MOVE ACRU-SICK-HRS            TO SICK-ACRU-HRSO.             PPWIDGT
056500     MOVE ACRU-VAC-HRS-LOST        TO VAC-ACRU-HRS-LOSTO.         PPWIDGT
056600                                                                  PPWIDGT
056700 7100-EXIT.                                                       PPWIDGT
056800     EXIT.                                                        PPWIDGT
056900                                                                  PPWIDGT
057000     EJECT                                                        PPWIDGT
057100                                                                  PPWIDGT
057200 8200-OPEN-EUD-CURS-GT SECTION.                                   PPWIDGT
057300**************************************************************    PPWIDGT
057400*                                                            *    PPWIDGT
057500*    OPEN THE NEXTREC EUD CURSOR.                            *    PPWIDGT
057600*                                                            *    PPWIDGT
057700**************************************************************    PPWIDGT
057800                                                                  PPWIDGT
057900     MOVE 'OPEN EUD GT CUR' TO DB2MSG-TAG.                        PPWIDGT
058000     EXEC SQL                                                     PPWIDGT
058100          OPEN EUD-EMP-CURS-GT                                    PPWIDGT
058200     END-EXEC.                                                    PPWIDGT
058300                                                                  PPWIDGT
058400 8200-EXIT.                                                       PPWIDGT
058500     EXIT.                                                        PPWIDGT
058600                                                                  PPWIDGT
058700 8210-FETCH-EUD-CURS-GT SECTION.                                  PPWIDGT
058800**************************************************************    PPWIDGT
058900*                                                            *    PPWIDGT
059000*    FETCH THE NEXTREC EUD CURSOR.                           *    PPWIDGT
059100*    CORRECT PF KEY AND LOGICAL FUNCTION CODE SHOULD ENSURE  *    PPWIDGT
059200*    THAT THE REQUESTED ROW ALWAYS EXISTS. IF IT DOES NOT IT *    PPWIDGT
059300*    IS A SERIOUS APPLICATION ERROR CONDITION.               *    PPWIDGT
059400*    IF FETCH IS SUCCESSFUL, CALL PPEUDEXT TO SELECT THE     *    PPWIDGT
059500*    COMPLETE ROW FOR THE EUD-ROW EXTERNAL.                  *    PPWIDGT
059600*                                                            *    PPWIDGT
059700**************************************************************    PPWIDGT
059800                                                                  PPWIDGT
059900     MOVE 'FETCH EUD GT CUR' TO DB2MSG-TAG.                       PPWIDGT
060000     EXEC SQL                                                     PPWIDGT
060100          FETCH EUD-EMP-CURS-GT INTO                              PPWIDGT
060200               :EUD-ROW.PAY-CYCLE-END-DATE                        PPWIDGT
060300              ,:EUD-ROW.PAY-CYCLE-CODE                            PPWIDGT
060400              ,:EUD-ROW.EMPLOYEE-ID                               PPWIDGT
060500              ,:EUD-ROW.RECORD-TYPE                               PPWIDGT
060600              ,:EUD-ROW.PRI-GROSS-CTL                             PPWIDGT
060700     END-EXEC.                                                    PPWIDGT
060800                                                                  PPWIDGT
060900     IF SQLCODE  = ZERO                                           PPWIDGT
061000        PERFORM 9000-CALL-PPEUDEXT                                PPWIDGT
061100     ELSE                                                         PPWIDGT
061200        IF SQLCODE  = +100                                        PPWIDGT
061300           MOVE 'FORWARD DATA MISSING' TO DB2MSG-TAG              PPWIDGT
061400           PERFORM 999999-SQL-ERROR                               PPWIDGT
061500        END-IF                                                    PPWIDGT
061600     END-IF.                                                      PPWIDGT
061700                                                                  PPWIDGT
061800 8210-EXIT.                                                       PPWIDGT
061900     EXIT.                                                        PPWIDGT
062000                                                                  PPWIDGT
062100 8220-CLOSE-EUD-CURS-GT SECTION.                                  PPWIDGT
062200**************************************************************    PPWIDGT
062300*                                                            *    PPWIDGT
062400*    CLOSE THE NEXTREC EUD CURSOR.                           *    PPWIDGT
062500*                                                            *    PPWIDGT
062600**************************************************************    PPWIDGT
062700                                                                  PPWIDGT
062800     MOVE 'CLOSE EUD GT CUR' TO DB2MSG-TAG.                       PPWIDGT
062900     EXEC SQL                                                     PPWIDGT
063000         CLOSE EUD-EMP-CURS-GT                                    PPWIDGT
063100     END-EXEC.                                                    PPWIDGT
063200                                                                  PPWIDGT
063300 8220-EXIT.                                                       PPWIDGT
063400     EXIT.                                                        PPWIDGT
063500                                                                  PPWIDGT
063600     EJECT                                                        PPWIDGT
063700                                                                  PPWIDGT
063800 8300-OPEN-EUD-CURS-LT SECTION.                                   PPWIDGT
063900**************************************************************    PPWIDGT
064000*                                                            *    PPWIDGT
064100*    OPEN THE PREVREC EUD CURSOR.                            *    PPWIDGT
064200*                                                            *    PPWIDGT
064300**************************************************************    PPWIDGT
064400                                                                  PPWIDGT
064500     MOVE 'OPEN EUD LT CUR' TO DB2MSG-TAG.                        PPWIDGT
064600     EXEC SQL                                                     PPWIDGT
064700          OPEN EUD-EMP-CURS-LT                                    PPWIDGT
064800     END-EXEC.                                                    PPWIDGT
064900                                                                  PPWIDGT
065000 8300-EXIT.                                                       PPWIDGT
065100     EXIT.                                                        PPWIDGT
065200                                                                  PPWIDGT
065300 8310-FETCH-EUD-CURS-LT SECTION.                                  PPWIDGT
065400**************************************************************    PPWIDGT
065500*                                                            *    PPWIDGT
065600*    FETCH THE PREVREC EUD CURSOR.                           *    PPWIDGT
065700*    CORRECT PF KEY AND LOGICAL FUNCTION CODE SHOULD ENSURE  *    PPWIDGT
065800*    THAT THE REQUESTED ROW ALWAYS EXISTS. IF IT DOES NOT IT *    PPWIDGT
065900*    IS A SERIOUS APPLICATION ERROR CONDITION.               *    PPWIDGT
066000*    IF FETCH IS SUCCESSFUL, CALL PPEUDEXT TO SELECT THE     *    PPWIDGT
066100*    COMPLETE ROW FOR THE EUD-ROW EXTERNAL.                  *    PPWIDGT
066200*                                                            *    PPWIDGT
066300**************************************************************    PPWIDGT
066400                                                                  PPWIDGT
066500     MOVE 'FETCH EUD LT CUR' TO DB2MSG-TAG.                       PPWIDGT
066600     EXEC SQL                                                     PPWIDGT
066700          FETCH EUD-EMP-CURS-LT INTO                              PPWIDGT
066800               :EUD-ROW.PAY-CYCLE-END-DATE                        PPWIDGT
066900              ,:EUD-ROW.PAY-CYCLE-CODE                            PPWIDGT
067000              ,:EUD-ROW.EMPLOYEE-ID                               PPWIDGT
067100              ,:EUD-ROW.RECORD-TYPE                               PPWIDGT
067200              ,:EUD-ROW.PRI-GROSS-CTL                             PPWIDGT
067300     END-EXEC.                                                    PPWIDGT
067400                                                                  PPWIDGT
067500     IF SQLCODE  = ZERO                                           PPWIDGT
067600        PERFORM 9000-CALL-PPEUDEXT                                PPWIDGT
067700     ELSE                                                         PPWIDGT
067800        IF SQLCODE  = +100                                        PPWIDGT
067900           MOVE 'BACKWARD DATA MISSING' TO DB2MSG-TAG             PPWIDGT
068000           PERFORM 999999-SQL-ERROR                               PPWIDGT
068100        END-IF                                                    PPWIDGT
068200     END-IF.                                                      PPWIDGT
068300                                                                  PPWIDGT
068400 8310-EXIT.                                                       PPWIDGT
068500     EXIT.                                                        PPWIDGT
068600                                                                  PPWIDGT
068700 8320-CLOSE-EUD-CURS-LT SECTION.                                  PPWIDGT
068800**************************************************************    PPWIDGT
068900*                                                            *    PPWIDGT
069000*    CLOSE THE PREVREC EUD CURSOR.                           *    PPWIDGT
069100*                                                            *    PPWIDGT
069200**************************************************************    PPWIDGT
069300                                                                  PPWIDGT
069400     MOVE 'CLOSE EUD LT CUR' TO DB2MSG-TAG.                       PPWIDGT
069500     EXEC SQL                                                     PPWIDGT
069600         CLOSE EUD-EMP-CURS-LT                                    PPWIDGT
069700     END-EXEC.                                                    PPWIDGT
069800                                                                  PPWIDGT
069900 8320-EXIT.                                                       PPWIDGT
070000     EXIT.                                                        PPWIDGT
070100                                                                  PPWIDGT
070200     EJECT                                                        PPWIDGT
070300                                                                  PPWIDGT
070400 8500-SLCT-SUM-DRC      SECTION.                                  PPWIDGT
070500**************************************************************/   PPWIDGT
070600*                                                            */   PPWIDGT
070700*    SUM THE GTN AMOUNTS WITH MATCHING KEYS.                 */   PPWIDGT
070800*                                                            */   PPWIDGT
070900**************************************************************/   PPWIDGT
071000                                                                  PPWIDGT
071100     MOVE 'SUM GTN_AMT ' TO DB2MSG-TAG                            PPWIDGT
071200     EXEC SQL                                                     PPWIDGT
071300        SELECT SUM(GTN_AMT)                                       PPWIDGT
071400        INTO :WS-GTN-TOTAL :WS-NULL1                              PPWIDGT
071500        FROM PPPVZDRC_DRC                                         PPWIDGT
071600        WHERE EMPLOYEE_ID       = :WS-UNIQUE-EMPLOYEE-ID          PPWIDGT
071700        AND PAY_CYCLE_CODE      = :WS-UNIQUE-CYCLE-CODE           PPWIDGT
071800        AND PAY_CYCLE_END_DATE  = :WS-UNIQUE-CYCLE-END-DATE       PPWIDGT
071900        AND RECORD_TYPE         = :WS-UNIQUE-RECORD-TYPE          PPWIDGT
072000        AND PRI_GROSS_CTL       = :WS-UNIQUE-PRI-GROSS-CTL        PPWIDGT
072100     END-EXEC.                                                    PPWIDGT
072200                                                                  PPWIDGT
072300     IF SQLCODE       = ZERO                                      PPWIDGT
072400        AND WS-NULL1 >= ZERO                                      PPWIDGT
072500        NEXT SENTENCE                                             PPWIDGT
072600     ELSE                                                         PPWIDGT
072700        MOVE ZERO TO WS-GTN-TOTAL                                 PPWIDGT
072800     END-IF.                                                      PPWIDGT
072900                                                                  PPWIDGT
073000 8500-EXIT.                                                       PPWIDGT
073100     EXIT.                                                        PPWIDGT
073200                                                                  PPWIDGT
073300     EJECT                                                        PPWIDGT
073400                                                                  PPWIDGT
073500 9000-CALL-PPEUDEXT    SECTION.                                   PPWIDGT
073600**************************************************************    PPWIDGT
073700*  CALL PPEUDEXT WHICH WILL SELECT ALL FIELDS FOR THE        *    PPWIDGT
073800*  EUD-ROW EXTERNAL.                                         *    PPWIDGT
073900**************************************************************    PPWIDGT
074000                                                                  PPWIDGT
074100     CALL WS-PPEUDEXT USING DFHEIBLK                              PPWIDGT
074200          ON EXCEPTION                                            PPWIDGT
074300             STRING 'ERROR CALLING PROGRAM: ' DELIMITED BY SIZE   PPWIDGT
074400                    WS-PPEUDEXT           DELIMITED BY SIZE       PPWIDGT
074500                         INTO UCWSABND-ABEND-DATA (1)             PPWIDGT
074600             END-STRING                                           PPWIDGT
074700             PERFORM 9999-ABEND                                   PPWIDGT
074800     END-CALL.                                                    PPWIDGT
074900                                                                  PPWIDGT
075000     MOVE PAY-CYCLE-END-DATE OF EUD-ROW                           PPWIDGT
075100                                    TO WS-UNIQUE-CYCLE-END-DATE.  PPWIDGT
075200     MOVE PAY-CYCLE-CODE OF EUD-ROW TO WS-UNIQUE-CYCLE-CODE.      PPWIDGT
075300     MOVE EMPLOYEE-ID OF EUD-ROW    TO WS-UNIQUE-EMPLOYEE-ID.     PPWIDGT
075400     MOVE RECORD-TYPE OF EUD-ROW    TO WS-UNIQUE-RECORD-TYPE.     PPWIDGT
075500     MOVE PRI-GROSS-CTL OF EUD-ROW  TO WS-UNIQUE-PRI-GROSS-CTL.   PPWIDGT
075600                                                                  PPWIDGT
075700 9000-EXIT.                                                       PPWIDGT
075800     EXIT.                                                        PPWIDGT
075900                                                                  PPWIDGT
076000     EJECT                                                        PPWIDGT
076100                                                                  PPWIDGT
076200 9999-ABEND            SECTION.                                   PPWIDGT
076300******************************************************************PPWIDGT
076400*  COPIED PROCEDURE DIVISION CODE FOR ABEND HANDLING             *PPWIDGT
076500******************************************************************PPWIDGT
076600                                                                  PPWIDGT
076700     MOVE 'PPWIDGT' TO UCWSABND-ABENDING-PGM.                     PPWIDGT
076800                                                                  PPWIDGT
076900     COPY UCPDABND.                                               PPWIDGT
077000                                                                  PPWIDGT
077100 9999-EXIT.                                                       PPWIDGT
077200     EXIT.                                                        PPWIDGT
077300                                                                  PPWIDGT
077400*999999-SQL-ERROR      SECTION.                                   PPWIDGT
077500**************************************************************    PPWIDGT
077600*  COPIED PROCEDURE DIVISION CODE FOR SQL ERROR HANDLING     *    PPWIDGT
077700**************************************************************    PPWIDGT
077800                                                                  PPWIDGT
077900      EXEC SQL                                                    PPWIDGT
078000           INCLUDE CPPDXP99                                       PPWIDGT
078100      END-EXEC.                                                   PPWIDGT
078200                                                                  PPWIDGT
078300      MOVE 'SQL ERROR - SEE PRECEDING DB2 MESSAGES'               PPWIDGT
078400                                      TO UCWSABND-ABEND-DATA (1). PPWIDGT
078500                                                                  PPWIDGT
078600      PERFORM 9999-ABEND.                                         PPWIDGT
078700                                                                  PPWIDGT
078800 999999-EXIT.                                                     PPWIDGT
078900       EXIT.                                                      PPWIDGT
079000                                                                  PPWIDGT
079100       EJECT                                                      PPWIDGT
079200***************    END OF SOURCE - PPWIDGT    ******************* PPWIDGT
