000100**************************************************************/   28181063
000200*  PROGRAM: PPWILCD                                          */   28181063
000300*  RELEASE: ___1063______ SERVICE REQUEST(S): ____12818____  */   28181063
000400*  NAME:______M SANO_____ MODIFICATION DATE:  ___04/15/96__  */   28181063
000500*  DESCRIPTION:                                              */   28181063
000600*       EDB INQUIRY SCREEN FOR TABLE PPPLCN                  */   28181063
000700**************************************************************/   28181063
000800 IDENTIFICATION DIVISION.                                         PPWILCD
000900 PROGRAM-ID. PPWILCD                                              PPWILCD
001000 ENVIRONMENT DIVISION.                                            PPWILCD
001100 CONFIGURATION SECTION.                                           PPWILCD
001200 SOURCE-COMPUTER.                                                 PPWILCD
001300 COPY  CPOTXUCS.                                                  PPWILCD
001400 DATA DIVISION.                                                   PPWILCD
001500 WORKING-STORAGE SECTION.                                         PPWILCD
001600                                                                  PPWILCD
001700 01  WS-COMN.                                                     PPWILCD
001800   05  WS-START             PIC X(27) VALUE                       PPWILCD
001900       'WORKING STORAGE STARTS HERE'.                             PPWILCD
002000   05  WS-REL-NO            PIC X(05) VALUE 'I1063'.              PPWILCD
002100   05  WS-PGM-NAME          PIC X(08) VALUE 'PPWILCD'.            PPWILCD
002200   05  WS-PGM-CTTUTL          PIC X(08) VALUE 'PPCTTUTL'.         PPWILCD
002300                                                                  PPWILCD
002400                                                                  PPWILCD
002500 01  WS-MESS-NOS.                                                 PPWILCD
002600     05  MP0009                 PIC X(5) VALUE 'P0009'.           PPWILCD
002700                                                                  PPWILCD
002800 01  WS-MISC.                                                     PPWILCD
002900     05  WS-COUNT                   PIC S9(8) COMP VALUE ZERO.    PPWILCD
003000     05  WS-REMAINDER               PIC S9(8) COMP VALUE ZERO.    PPWILCD
003100     05  WS-LCN-BOT-CERT            PIC X(03) VALUE SPACE.        PPWILCD
003200     05  WS-LCN-TOP-CERT            PIC X(03) VALUE SPACE.        PPWILCD
003300     05  WS-LCN-NO.                                               PPWILCD
003400         10  WS-LCN-CERT            PIC X(03) VALUE SPACE.        PPWILCD
003500     05  WS-INIT-SUB                PIC S9(4) COMP VALUE ZERO.    PPWILCD
003600     05  WS-PRTY-SUB                PIC S9(4) COMP VALUE ZERO.    PPWILCD
003700     05  WS-UNIQUE-EE-ID            PIC X(9).                     PPWILCD
003800     05  WS-ENTERED-ID              PIC X(9).                     PPWILCD
003900     05  WS-ENTERED-NAME            PIC X(26).                    PPWILCD
004000     05  WS-ENTERED-SSN             PIC X(09).                    PPWILCD
004100     05  WS-EMPLOYEE-ID             PIC X(09).                    PPWILCD
004200     05  WS-DB2-DATE.                                             PPWILCD
004300         10  WS-DB2-DATE-1-6    PIC X(6).                         PPWILCD
004400         10  WS-DB2-DATE-7-8    PIC X(2).                         PPWILCD
004500         10  WS-DB2-DATE-9-10   PIC X(2).                         PPWILCD
004600     05  WS-CONV-DATE.                                            PPWILCD
004700         10  WS-DATE-1-6        PIC X(6).                         PPWILCD
004800         10  WS-DATE-7-8        PIC X(2).                         PPWILCD
004900     05  WS-TOTAL.                                                PPWILCD
005000         10  WS-PAGE            PIC 99.                           PPWILCD
005100         10  FILLER             PIC X  VALUE '/'.                 PPWILCD
005200         10  WS-PRIOR           PIC 99.                           PPWILCD
005300     05  WS-PGM-TYPE.                                             PPWILCD
005400         10  WS-PGM             PIC X.                            PPWILCD
005500         10  FILLER             PIC X  VALUE '/'.                 PPWILCD
005600     05  WS-PRIOR-FLAG          PIC X VALUE SPACE.                PPWILCD
005700         88  PRIOR-1            VALUE '1'.                        PPWILCD
005800     05  WS-PF-FLAG             PIC XX VALUE SPACES.              PPWILCD
005900         88  COMMAND-FUNC       VALUE 'FF'.                       PPWILCD
006000     05  FILLER REDEFINES WS-PF-FLAG.                             PPWILCD
006100         10  WS-PF-FLAG1        PIC X.                            PPWILCD
006200         10  WS-PF-FLAG2        PIC X.                            PPWILCD
006300     05  WS-ERROR-FLAG          PIC X  VALUE 'N'.                 PPWILCD
006400         88  NO-ERROR           VALUE 'N'.                        PPWILCD
006500         88  AN-ERROR           VALUE 'Y'.                        PPWILCD
006600     05  WS-LCN-END-TBL-SW      PIC X VALUE 'Y'.                  PPWILCD
006700         88  WS-LCN-END-TBL           VALUE 'N'.                  PPWILCD
006800     05  WS-FETCH-FLAG          PIC X.                            PPWILCD
006900         88  FETCH-OK           VALUE 'Y'.                        PPWILCD
007000         88  END-FETCH          VALUE 'N'.                        PPWILCD
007100                                                                  PPWILCD
007200 01  WS-PPPLCN-ROW.                                               PPWILCD
007300     05  WS-LICENSE-CERT            PIC X(03) VALUE SPACE.        PPWILCD
007400     05  LICENSE-RENEW-DATE         PIC X(10) VALUE SPACE.        PPWILCD
007500     05  LICENSE-NUMBER             PIC X(14) VALUE SPACE.        PPWILCD
007600                                                                  PPWILCD
007700  01  XDC3-DATE-CONVERSION-WORK.                                  PPWILCD
007800      COPY CPWSXDC3.                                              PPWILCD
007900                                                                  PPWILCD
008000 01  UCDTLARE  EXTERNAL.                                          PPWILCD
008100     COPY UCDTLARE.                                               PPWILCD
008200 01  WS-PPILCD0 REDEFINES UCDTLARE.                               PPWILCD
008300     COPY PPILCD0.                                                PPWILCD
008400                                                                  PPWILCD
008500 01  CPWSWORK    EXTERNAL.                                        PPWILCD
008600     COPY CPWSWORK.                                               PPWILCD
008700        10  CPWSWORK-LCN-WORK-AREA REDEFINES                      PPWILCD
008800            CPWSWORK-PROGRAM-WORK-AREA.                           PPWILCD
008900            15  CPWSWORK-BOT-CERT               PIC X(03).        PPWILCD
009000            15  CPWSWORK-TOP-CERT               PIC X(03).        PPWILCD
009100            15  FILLER                          PIC X(494).       PPWILCD
009200                                                                  PPWILCD
009300 01  UCCOMMON    EXTERNAL.                                        PPWILCD
009400     EXEC SQL                                                     PPWILCD
009500      INCLUDE UCCOMMON                                            PPWILCD
009600     END-EXEC.                                                    PPWILCD
009700                                                                  PPWILCD
009800 01  UCPISCRN    EXTERNAL.                                        PPWILCD
009900     COPY UCPISCRN.                                               PPWILCD
010000                                                                  PPWILCD
010100 01  UCWSABND    EXTERNAL.                                        PPWILCD
010200     COPY UCWSABND.                                               PPWILCD
010300                                                                  PPWILCD
010400 01  CPLNKCTT     EXTERNAL.                                       PPWILCD
010500      EXEC SQL                                                    PPWILCD
010600        INCLUDE CPLNKCTT                                          PPWILCD
010700      END-EXEC.                                                   PPWILCD
010800                                                                  PPWILCD
010900                                                                  PPWILCD
011000 01  PPDB2MSG-INTERFACE.                                          PPWILCD
011100     COPY CPLNKDB2.                                               PPWILCD
011200                                                                  PPWILCD
011300******************************************************************PPWILCD
011400*          SQL - WORKING STORAGE                                 *PPWILCD
011500******************************************************************PPWILCD
011600                                                                  PPWILCD
011700 01  WS-PPPVLCN.                                                  PPWILCD
011800     EXEC SQL                                                     PPWILCD
011900           INCLUDE PPPVLCN1                                       PPWILCD
012000     END-EXEC.                                                    PPWILCD
012100                                                                  PPWILCD
012200     EXEC SQL                                                     PPWILCD
012300           INCLUDE SQLCA                                          PPWILCD
012400     END-EXEC.                                                    PPWILCD
012500                                                                  PPWILCD
012600******************************************************************PPWILCD
012700*                                                                *PPWILCD
012800*                  SQL - SELECTS                                 *PPWILCD
012900*                                                                *PPWILCD
013000******************************************************************PPWILCD
013100*                                                                *PPWILCD
013200*        THE VIEW USED IN THIS PROGRAM ARE:                      *PPWILCD
013300*                                                                *PPWILCD
013400*    VIEW               VIEW DDL AND DCL INCLUDE                 *PPWILCD
013500*                        MEMBER NAMES                            *PPWILCD
013600*                                                                *PPWILCD
013700*  PPPVLCN1_LCN          PPPVLCN1                                *PPWILCD
013800******************************************************************PPWILCD
013900                                                                  PPWILCD
014000     EXEC SQL DECLARE                                             PPWILCD
014100           LCN1-CURS CURSOR FOR                                   PPWILCD
014200           SELECT                                                 PPWILCD
014300       LICENSE_CERT,                                              PPWILCD
014400       LICENSE_RENEW_DATE,                                        PPWILCD
014500       LICENSE_NUMBER                                             PPWILCD
014600           FROM PPPVLCN1_LCN                                      PPWILCD
014700           WHERE EMPLOYEE_ID = :WS-UNIQUE-EE-ID                   PPWILCD
014800           AND LICENSE_CERT >= :WS-LCN-TOP-CERT                   PPWILCD
014900           ORDER BY LICENSE_CERT,                                 PPWILCD
015000                    LICENSE_RENEW_DATE                            PPWILCD
015100     END-EXEC.                                                    PPWILCD
015200                                                                  PPWILCD
015300     EXEC SQL DECLARE                                             PPWILCD
015400           LCN8-CURS CURSOR FOR                                   PPWILCD
015500           SELECT                                                 PPWILCD
015600       LICENSE_CERT,                                              PPWILCD
015700       LICENSE_RENEW_DATE ,                                       PPWILCD
015800       LICENSE_NUMBER                                             PPWILCD
015900           FROM PPPVLCN1_LCN                                      PPWILCD
016000           WHERE EMPLOYEE_ID = :WS-UNIQUE-EE-ID                   PPWILCD
016100           AND  LICENSE_CERT >= :WS-LCN-BOT-CERT                  PPWILCD
016200           ORDER BY LICENSE_CERT,                                 PPWILCD
016300                    LICENSE_RENEW_DATE                            PPWILCD
016400     END-EXEC.                                                    PPWILCD
016500                                                                  PPWILCD
016600     EXEC SQL DECLARE                                             PPWILCD
016700           LCN7-CURS CURSOR FOR                                   PPWILCD
016800           SELECT                                                 PPWILCD
016900       LICENSE_CERT,                                              PPWILCD
017000       LICENSE_RENEW_DATE ,                                       PPWILCD
017100       LICENSE_NUMBER                                             PPWILCD
017200           FROM PPPVLCN1_LCN                                      PPWILCD
017300           WHERE EMPLOYEE_ID = :WS-UNIQUE-EE-ID                   PPWILCD
017400           AND  LICENSE_CERT <= :WS-LCN-TOP-CERT                  PPWILCD
017500           ORDER BY LICENSE_CERT DESC,                            PPWILCD
017600                    LICENSE_RENEW_DATE DESC                       PPWILCD
017700     END-EXEC.                                                    PPWILCD
017800                                                                  PPWILCD
017900 LINKAGE SECTION.                                                 PPWILCD
018000                                                                  PPWILCD
018100 PROCEDURE DIVISION.                                              PPWILCD
018200                                                                  PPWILCD
018300 0000-MAIN-LINE   SECTION.                                        PPWILCD
018400**************************************************************    PPWILCD
018500*  MAIN LINE PROCESSING                                      *    PPWILCD
018600**************************************************************    PPWILCD
018700                                                                  PPWILCD
018800     EXEC SQL                                                     PPWILCD
018900          INCLUDE CPPDXE99                                        PPWILCD
019000     END-EXEC.                                                    PPWILCD
019100                                                                  PPWILCD
019200     PERFORM 1000-INITIALIZATION.                                 PPWILCD
019300     PERFORM 2000-INIT-SCREEN                                     PPWILCD
019400                                                                  PPWILCD
019500     IF CPWSWORK-TOTAL-PAGES > ZERO                               PPWILCD
019600        PERFORM 3000-DISPLAY-SCREEN                               PPWILCD
019700     END-IF.                                                      PPWILCD
019800                                                                  PPWILCD
019900     PERFORM 1500-SET-PAGING.                                     PPWILCD
020000                                                                  PPWILCD
020100     GOBACK.                                                      PPWILCD
020200                                                                  PPWILCD
020300 0000-EXIT.                                                       PPWILCD
020400     EXIT.                                                        PPWILCD
020500                                                                  PPWILCD
020600     EJECT                                                        PPWILCD
020700                                                                  PPWILCD
020800 1000-INITIALIZATION   SECTION.                                   PPWILCD
020900**************************************************************    PPWILCD
021000*  INITIALIZE WORK AREAS                                     *    PPWILCD
021100**************************************************************    PPWILCD
021200                                                                  PPWILCD
021300     MOVE WS-PGM-NAME TO UCWSABND-ABENDING-PGM.                   PPWILCD
021400     MOVE WS-PGM-NAME TO DB2MSG-PGM-ID.                           PPWILCD
021500                                                                  PPWILCD
021600     IF NOT CPWSWORK-DONT-OVERRIDE-MSG                            PPWILCD
021700        SET UCCOMMON-MSG-NUMBER-NOT-SET TO TRUE                   PPWILCD
021800     END-IF.                                                      PPWILCD
021900                                                                  PPWILCD
022000     MOVE ZERO TO UCCOMMON-RETURN-CODE.                           PPWILCD
022100     MOVE LOW-VALUES TO UCDTLARE.                                 PPWILCD
022200     MOVE LENGTH OF PPILCD0O TO UCPISCRN-DETAIL-MAP-LENGTH.       PPWILCD
022300     MOVE WS-REL-NO TO UCPISCRN-DTL-REL-NO.                       PPWILCD
022400                                                                  PPWILCD
022500     MOVE 'BROWSE' TO UCPISCRN-ADDL-LOGIC-FUNC (1).               PPWILCD
022600                                                                  PPWILCD
022700     IF CPWSWORK-TOTAL-PAGES = ZERO                               PPWILCD
022800        PERFORM 1100-COUNT-PAGES                                  PPWILCD
022900        MOVE SPACES TO CPWSWORK-BOT-CERT                          PPWILCD
023000                       CPWSWORK-TOP-CERT                          PPWILCD
023100     END-IF.                                                      PPWILCD
023200                                                                  PPWILCD
023300 1000-EXIT.                                                       PPWILCD
023400     EXIT.                                                        PPWILCD
023500                                                                  PPWILCD
023600     EJECT                                                        PPWILCD
023700                                                                  PPWILCD
023800 1100-COUNT-PAGES   SECTION.                                      PPWILCD
023900**************************************************************    PPWILCD
024000*  COUNT TOTAL PAGES                                         *    PPWILCD
024100**************************************************************    PPWILCD
024200                                                                  PPWILCD
024300     PERFORM 8400-SELECT-COUNT-PAGE.                              PPWILCD
024400                                                                  PPWILCD
024500     IF SQLCODE = ZERO AND WS-COUNT > ZERO                        PPWILCD
024600        ADD 13 TO WS-COUNT                                        PPWILCD
024700        DIVIDE 14 INTO WS-COUNT                                   PPWILCD
024800        MOVE +1 TO UCPISCRN-PAGE-NUMBER                           PPWILCD
024900        MOVE WS-COUNT TO CPWSWORK-TOTAL-PAGES                     PPWILCD
025000        IF CPWSWORK-TOTAL-PAGES > 1                               PPWILCD
025100           MOVE +1 TO CPWSWORK-CURRENT-PAGE                       PPWILCD
025200        END-IF                                                    PPWILCD
025300     ELSE                                                         PPWILCD
025400        MOVE ZERO TO CPWSWORK-TOTAL-PAGES                         PPWILCD
025500        IF NOT CPWSWORK-DONT-OVERRIDE-MSG                         PPWILCD
025600           MOVE MP0009 TO UCCOMMON-MSG-NUMBER                     PPWILCD
025700        END-IF                                                    PPWILCD
025800     END-IF.                                                      PPWILCD
025900                                                                  PPWILCD
026000 1100-EXIT.                                                       PPWILCD
026100     EXIT.                                                        PPWILCD
026200                                                                  PPWILCD
026300     EJECT                                                        PPWILCD
026400                                                                  PPWILCD
026500 1500-SET-PAGING   SECTION.                                       PPWILCD
026600**************************************************************    PPWILCD
026700*  SET CURRENT AND TOTAL PAGE VALUES AND PAGING SWITCHES     *    PPWILCD
026800**************************************************************    PPWILCD
026900                                                                  PPWILCD
027000     IF CPWSWORK-TOTAL-PAGES > 1                                  PPWILCD
027100        MOVE UCPISCRN-PAGE-NUMBER TO CPWSWORK-CURRENT-PAGE        PPWILCD
027200     ELSE                                                         PPWILCD
027300        MOVE ZEROES TO CPWSWORK-CURRENT-PAGE                      PPWILCD
027400     END-IF.                                                      PPWILCD
027500                                                                  PPWILCD
027600     IF UCPISCRN-PAGE-NUMBER < CPWSWORK-TOTAL-PAGES               PPWILCD
027700        SET UCPISCRN-FORWARD TO TRUE                              PPWILCD
027800     ELSE                                                         PPWILCD
027900        SET UCPISCRN-FORWARD-NOT-AVAIL TO TRUE                    PPWILCD
028000     END-IF.                                                      PPWILCD
028100                                                                  PPWILCD
028200     IF UCPISCRN-PAGE-NUMBER > 1                                  PPWILCD
028300        SET UCPISCRN-BACKWARD TO TRUE                             PPWILCD
028400     ELSE                                                         PPWILCD
028500        SET UCPISCRN-BACKWARD-NOT-AVAIL TO TRUE                   PPWILCD
028600     END-IF.                                                      PPWILCD
028700                                                                  PPWILCD
028800 1500-EXIT.                                                       PPWILCD
028900     EXIT.                                                        PPWILCD
029000                                                                  PPWILCD
029100     EJECT                                                        PPWILCD
029200                                                                  PPWILCD
029300 2000-INIT-SCREEN   SECTION.                                      PPWILCD
029400**************************************************************    PPWILCD
029500*  SET COLOR AND HIGHLIGHT BYTES FOR EACH FIELD              *    PPWILCD
029600**************************************************************    PPWILCD
029700                                                                  PPWILCD
029800     MOVE UCCOMMON-ATR-FLD-LABEL TO L-LIC-CERTA                   PPWILCD
029900                                    L-NUMBERA                     PPWILCD
030000                                    L-DESCRIPTIONA                PPWILCD
030100                                    L-RENEWAL-DATEA.              PPWILCD
030200                                                                  PPWILCD
030300     MOVE UCCOMMON-CLR-FLD-LABEL TO L-LIC-CERTC                   PPWILCD
030400                                    L-NUMBERC                     PPWILCD
030500                                    L-DESCRIPTIONC                PPWILCD
030600                                    L-RENEWAL-DATEC.              PPWILCD
030700                                                                  PPWILCD
030800     MOVE UCCOMMON-HLT-FLD-LABEL TO L-LIC-CERTH                   PPWILCD
030900                                    L-NUMBERH                     PPWILCD
031000                                    L-DESCRIPTIONH                PPWILCD
031100                                    L-RENEWAL-DATEH.              PPWILCD
031200                                                                  PPWILCD
031300     PERFORM VARYING WS-INIT-SUB FROM 1 BY 1                      PPWILCD
031400       UNTIL WS-INIT-SUB > 14                                     PPWILCD
031500        MOVE UCCOMMON-ATR-BOLD-DISPL TO                           PPWILCD
031600                                  LIC-CERTA (WS-INIT-SUB)         PPWILCD
031700                                  NUMBERA (WS-INIT-SUB)           PPWILCD
031800                                  DESCRIPTIONA (WS-INIT-SUB)      PPWILCD
031900                                  RENEWAL-DATEA (WS-INIT-SUB)     PPWILCD
032000        MOVE UCCOMMON-CLR-NORM-DISPL TO                           PPWILCD
032100                                  LIC-CERTC (WS-INIT-SUB)         PPWILCD
032200                                  NUMBERC (WS-INIT-SUB)           PPWILCD
032300                                  DESCRIPTIONC (WS-INIT-SUB)      PPWILCD
032400                                  RENEWAL-DATEC (WS-INIT-SUB)     PPWILCD
032500        MOVE UCCOMMON-HLT-NORM-DISPL TO                           PPWILCD
032600                                  LIC-CERTH (WS-INIT-SUB)         PPWILCD
032700                                  NUMBERH (WS-INIT-SUB)           PPWILCD
032800                                  DESCRIPTIONH (WS-INIT-SUB)      PPWILCD
032900                                  RENEWAL-DATEH (WS-INIT-SUB)     PPWILCD
033000     END-PERFORM.                                                 PPWILCD
033100                                                                  PPWILCD
033200 2000-EXIT.                                                       PPWILCD
033300     EXIT.                                                        PPWILCD
033400                                                                  PPWILCD
033500     EJECT                                                        PPWILCD
033600                                                                  PPWILCD
033700 3000-DISPLAY-SCREEN  SECTION.                                    PPWILCD
033800**************************************************************    PPWILCD
033900*  PROCESS DISPLAY, FORWARD AND BACKWARD PAGING REQUESTS.    *    PPWILCD
034000**************************************************************    PPWILCD
034100                                                                  PPWILCD
034200     MOVE CPWSWORK-UNIQUE-EE-ID TO WS-UNIQUE-EE-ID.               PPWILCD
034300                                                                  PPWILCD
034400     MOVE  CPWSWORK-BOT-CERT TO WS-LCN-BOT-CERT.                  PPWILCD
034500     MOVE  CPWSWORK-TOP-CERT TO WS-LCN-TOP-CERT.                  PPWILCD
034600                                                                  PPWILCD
034700     MOVE 'Y' TO WS-FETCH-FLAG.                                   PPWILCD
034800                                                                  PPWILCD
034900     MOVE SPACES TO CPWSWORK-BOT-CERT                             PPWILCD
035000                    CPWSWORK-TOP-CERT.                            PPWILCD
035100                                                                  PPWILCD
035200     EVALUATE TRUE                                                PPWILCD
035300       WHEN UCCOMMON-DISPLAY-REQUEST                              PPWILCD
035400         PERFORM 4100-PROCESS-DISPLAY                             PPWILCD
035500       WHEN UCCOMMON-FORWARD-REQUEST                              PPWILCD
035600         PERFORM 4200-PAGE-FORWARD                                PPWILCD
035700       WHEN UCCOMMON-BACKWARD-REQUEST                             PPWILCD
035800         PERFORM 4300-PAGE-BACKWARD                               PPWILCD
035900     END-EVALUATE.                                                PPWILCD
036000                                                                  PPWILCD
036100 3000-EXIT.                                                       PPWILCD
036200     EXIT.                                                        PPWILCD
036300                                                                  PPWILCD
036400     EJECT                                                        PPWILCD
036500                                                                  PPWILCD
036600 4100-PROCESS-DISPLAY   SECTION.                                  PPWILCD
036700**************************************************************    PPWILCD
036800*  FETCH DATA FOR CURRENT PAGE AND MOVE DATA TO MAP          *    PPWILCD
036900**************************************************************    PPWILCD
037000                                                                  PPWILCD
037100     IF UCPISCRN-PAGE-NUMBER = 1                                  PPWILCD
037200        MOVE SPACES TO WS-LCN-TOP-CERT                            PPWILCD
037300     END-IF.                                                      PPWILCD
037400                                                                  PPWILCD
037500     MOVE +1 TO WS-PRTY-SUB.                                      PPWILCD
037600                                                                  PPWILCD
037700     PERFORM 8210-OPEN-CURS-LCN.                                  PPWILCD
037800                                                                  PPWILCD
037900     PERFORM 4110-PROCESS-LCN-DISPLAY                             PPWILCD
038000       UNTIL WS-PRTY-SUB > 14 OR END-FETCH.                       PPWILCD
038100                                                                  PPWILCD
038200     PERFORM 8230-CLOSE-CURS-LCN.                                 PPWILCD
038300                                                                  PPWILCD
038400 4100-EXIT.                                                       PPWILCD
038500     EXIT.                                                        PPWILCD
038600                                                                  PPWILCD
038700     EJECT                                                        PPWILCD
038800                                                                  PPWILCD
038900 4110-PROCESS-LCN-DISPLAY   SECTION.                              PPWILCD
039000**************************************************************    PPWILCD
039100*  FETCH THE DISPLAY LCN CURSOR. SELECT ASSOCIATED           *    PPWILCD
039200*  CTT TRANSLATION.    MOVE DATA TO THE MAP.                 *    PPWILCD
039300**************************************************************    PPWILCD
039400                                                                  PPWILCD
039500     PERFORM 8220-FETCH-CURS-LCN.                                 PPWILCD
039600                                                                  PPWILCD
039700     IF FETCH-OK                                                  PPWILCD
039800        IF SQLCODE = +0                                           PPWILCD
039900           PERFORM 8200-SELECT-CTT-DATA                           PPWILCD
040000           PERFORM 5000-MOVE-LCN-TO-SCRN                          PPWILCD
040100           ADD +1 TO WS-PRTY-SUB                                  PPWILCD
040200        END-IF                                                    PPWILCD
040300     END-IF.                                                      PPWILCD
040400                                                                  PPWILCD
040500 4110-EXIT.                                                       PPWILCD
040600     EXIT.                                                        PPWILCD
040700                                                                  PPWILCD
040800     EJECT                                                        PPWILCD
040900 4200-PAGE-FORWARD   SECTION.                                     PPWILCD
041000**************************************************************    PPWILCD
041100*  POSITION ON NEXT PAGE. FETCH DATA AND MOVE TO MAP         *    PPWILCD
041200**************************************************************    PPWILCD
041300                                                                  PPWILCD
041400     ADD +1 TO UCPISCRN-PAGE-NUMBER.                              PPWILCD
041500     MOVE  1  TO WS-PRTY-SUB.                                     PPWILCD
041600                                                                  PPWILCD
041700     PERFORM 8240-OPEN-LCN8-CURS.                                 PPWILCD
041800                                                                  PPWILCD
041900     PERFORM 4210-PROCESS-LCN-FORWARD UNTIL WS-PRTY-SUB > 14      PPWILCD
042000                   OR END-FETCH.                                  PPWILCD
042100                                                                  PPWILCD
042200     PERFORM 8260-CLOSE-LCN8-CURS.                                PPWILCD
042300                                                                  PPWILCD
042400 4200-EXIT.                                                       PPWILCD
042500     EXIT.                                                        PPWILCD
042600                                                                  PPWILCD
042700     EJECT                                                        PPWILCD
042800                                                                  PPWILCD
042900 4210-PROCESS-LCN-FORWARD   SECTION.                              PPWILCD
043000**************************************************************    PPWILCD
043100*  FETCH THE FORWARD PAGING LCN CURSOR. SELECT ASSOCIATED    *    PPWILCD
043200*  CTT TRANSLATION.  MOVE DATA TO THE MAP.                        PPWILCD
043300**************************************************************    PPWILCD
043400                                                                  PPWILCD
043500     PERFORM 8250-FETCH-LCN8-CURS.                                PPWILCD
043600                                                                  PPWILCD
043700     IF FETCH-OK                                                  PPWILCD
043800        PERFORM 8200-SELECT-CTT-DATA                              PPWILCD
043900        PERFORM 5000-MOVE-LCN-TO-SCRN                             PPWILCD
044000        ADD +1 TO WS-PRTY-SUB                                     PPWILCD
044100     END-IF.                                                      PPWILCD
044200                                                                  PPWILCD
044300 4210-EXIT.                                                       PPWILCD
044400     EXIT.                                                        PPWILCD
044500                                                                  PPWILCD
044600     EJECT                                                        PPWILCD
044700                                                                  PPWILCD
044800 4300-PAGE-BACKWARD   SECTION.                                    PPWILCD
044900**************************************************************    PPWILCD
045000*  POSITION ON PREVIOUS PAGE. FETCH DATA AND MOVE TO MAP     *    PPWILCD
045100**************************************************************    PPWILCD
045200                                                                  PPWILCD
045300     SUBTRACT +1 FROM UCPISCRN-PAGE-NUMBER.                       PPWILCD
045400     MOVE 14   TO WS-PRTY-SUB.                                    PPWILCD
045500                                                                  PPWILCD
045600     PERFORM 8310-OPEN-LCN7-CURS.                                 PPWILCD
045700                                                                  PPWILCD
045800     PERFORM 4310-PROCESS-LCN-BACKWARD UNTIL WS-PRTY-SUB < 1      PPWILCD
045900                   OR END-FETCH.                                  PPWILCD
046000                                                                  PPWILCD
046100     PERFORM 8330-CLOSE-LCN7-CURS.                                PPWILCD
046200                                                                  PPWILCD
046300 4300-EXIT.                                                       PPWILCD
046400     EXIT.                                                        PPWILCD
046500                                                                  PPWILCD
046600     EJECT                                                        PPWILCD
046700                                                                  PPWILCD
046800 4310-PROCESS-LCN-BACKWARD   SECTION.                             PPWILCD
046900**************************************************************    PPWILCD
047000*  FETCH THE BACKWARD PAGING LCN CURSOR. SELECT ASSOCIATED   *    PPWILCD
047100*  CTT TRANSLATION.   MOVE DATA TO THE MAP.                       PPWILCD
047200**************************************************************    PPWILCD
047300                                                                  PPWILCD
047400     PERFORM 8320-FETCH-LCN7-CURS.                                PPWILCD
047500                                                                  PPWILCD
047600     IF FETCH-OK                                                  PPWILCD
047700        PERFORM 8200-SELECT-CTT-DATA                              PPWILCD
047800        PERFORM 5000-MOVE-LCN-TO-SCRN                             PPWILCD
047900        SUBTRACT +1 FROM WS-PRTY-SUB                              PPWILCD
048000     END-IF.                                                      PPWILCD
048100                                                                  PPWILCD
048200 4310-EXIT.                                                       PPWILCD
048300     EXIT.                                                        PPWILCD
048400                                                                  PPWILCD
048500     EJECT                                                        PPWILCD
048600                                                                  PPWILCD
048700 5000-MOVE-LCN-TO-SCRN   SECTION.                                 PPWILCD
048800**************************************************************    PPWILCD
048900*  MOVE DATA TO MAP                                          *    PPWILCD
049000**************************************************************    PPWILCD
049100                                                                  PPWILCD
049200     IF CPLNKCTT-NO-ERROR                                         PPWILCD
049300          MOVE CPLNKCTT-TRANSLATION TO DESCRIPTIONO (WS-PRTY-SUB) PPWILCD
049400     ELSE                                                         PPWILCD
049500          MOVE 'DESC N/F' TO DESCRIPTIONO (WS-PRTY-SUB)           PPWILCD
049600     END-IF.                                                      PPWILCD
049700                                                                  PPWILCD
049800     IF  WS-PRTY-SUB EQUAL 1                                      PPWILCD
049900         MOVE WS-LICENSE-CERT                                     PPWILCD
050000                          TO WS-LCN-CERT                          PPWILCD
050100                             CPWSWORK-TOP-CERT                    PPWILCD
050200                             LIC-CERTO (WS-PRTY-SUB)              PPWILCD
050300     ELSE                                                         PPWILCD
050400       IF WS-PRTY-SUB EQUAL 14                                    PPWILCD
050500          MOVE WS-LICENSE-CERT                                    PPWILCD
050600                          TO CPWSWORK-BOT-CERT                    PPWILCD
050700                             WS-LCN-CERT                          PPWILCD
050800                             LIC-CERTO (WS-PRTY-SUB)              PPWILCD
050900       ELSE                                                       PPWILCD
051000         MOVE WS-LICENSE-CERT                                     PPWILCD
051100                          TO WS-LCN-CERT                          PPWILCD
051200                             LIC-CERTO (WS-PRTY-SUB)              PPWILCD
051300       END-IF                                                     PPWILCD
051400     END-IF.                                                      PPWILCD
051500                                                                  PPWILCD
051600     MOVE LICENSE-NUMBER TO NUMBERO (WS-PRTY-SUB).                PPWILCD
051700                                                                  PPWILCD
051800     MOVE LICENSE-RENEW-DATE TO XDC3-DB2-DATE.                    PPWILCD
051900     PERFORM XDC3-CONVERT-DB2-TO-FMT                              PPWILCD
052000     IF XDC3-FMT-DATE = XDC3-LOW-FMT-DATE                         PPWILCD
052100         MOVE SPACES TO RENEWAL-DATEO (WS-PRTY-SUB)               PPWILCD
052200     ELSE                                                         PPWILCD
052300         MOVE XDC3-FMT-DATE TO RENEWAL-DATEO (WS-PRTY-SUB)        PPWILCD
052400     END-IF.                                                      PPWILCD
052500                                                                  PPWILCD
052600 5000-EXIT.                                                       PPWILCD
052700     EXIT.                                                        PPWILCD
052800                                                                  PPWILCD
052900     EJECT                                                        PPWILCD
053000 8200-SELECT-CTT-DATA   SECTION.                                  PPWILCD
053100**************************************************************    PPWILCD
053200*  SELECT CTT TRANSLATON                                     *    PPWILCD
053300**************************************************************    PPWILCD
053400                                                                  PPWILCD
053500      INITIALIZE CPLNKCTT-EXTERNAL-DATA.                          PPWILCD
053600      MOVE WS-LICENSE-CERT TO CPLNKCTT-CODE-VALUE.                PPWILCD
053700      MOVE 'EDB' TO CPLNKCTT-DATABASE-ID.                         PPWILCD
053800      MOVE '0711' TO CPLNKCTT-DATA-ELEM-NO.                       PPWILCD
053900      MOVE +30 TO CPLNKCTT-TRANS-LEN.                             PPWILCD
054000                                                                  PPWILCD
054100      CALL WS-PGM-CTTUTL.                                         PPWILCD
054200                                                                  PPWILCD
054300 8200-EXIT.                                                       PPWILCD
054400     EXIT.                                                        PPWILCD
054500                                                                  PPWILCD
054600     EJECT                                                        PPWILCD
054700                                                                  PPWILCD
054800                                                                  PPWILCD
054900 8210-OPEN-CURS-LCN       SECTION.                                PPWILCD
055000**************************************************************    PPWILCD
055100*  OPEN GTN DISPLAY CURSOR                                   *    PPWILCD
055200**************************************************************    PPWILCD
055300                                                                  PPWILCD
055400     MOVE 'OPEN LCN1-CURS' TO DB2MSG-TAG.                         PPWILCD
055500                                                                  PPWILCD
055600     EXEC SQL                                                     PPWILCD
055700        OPEN LCN1-CURS                                            PPWILCD
055800     END-EXEC.                                                    PPWILCD
055900                                                                  PPWILCD
056000     IF SQLCODE NOT = ZERO                                        PPWILCD
056100        MOVE 'N' TO WS-FETCH-FLAG                                 PPWILCD
056200     END-IF.                                                      PPWILCD
056300                                                                  PPWILCD
056400 8210-EXIT.                                                       PPWILCD
056500     EXIT.                                                        PPWILCD
056600                                                                  PPWILCD
056700     EJECT                                                        PPWILCD
056800                                                                  PPWILCD
056900 8220-FETCH-CURS-LCN       SECTION.                               PPWILCD
057000**************************************************************    PPWILCD
057100*  FETCH GTN DISPLAY CURSOR                                  *    PPWILCD
057200**************************************************************    PPWILCD
057300                                                                  PPWILCD
057400     MOVE 'FETCH LCN1-CURS' TO DB2MSG-TAG.                        PPWILCD
057500                                                                  PPWILCD
057600     EXEC SQL                                                     PPWILCD
057700       FETCH LCN1-CURS INTO                                       PPWILCD
057800              :WS-LICENSE-CERT,                                   PPWILCD
057900              :LICENSE-RENEW-DATE ,                               PPWILCD
058000              :LICENSE-NUMBER                                     PPWILCD
058100     END-EXEC.                                                    PPWILCD
058200                                                                  PPWILCD
058300     IF SQLCODE = ZERO                                            PPWILCD
058400        MOVE  WS-LICENSE-CERT    TO WS-LCN-CERT                   PPWILCD
058500     ELSE                                                         PPWILCD
058600        MOVE 'N' TO WS-FETCH-FLAG                                 PPWILCD
058700     END-IF.                                                      PPWILCD
058800                                                                  PPWILCD
058900 8220-EXIT.                                                       PPWILCD
059000     EXIT.                                                        PPWILCD
059100                                                                  PPWILCD
059200     EJECT                                                        PPWILCD
059300                                                                  PPWILCD
059400 8230-CLOSE-CURS-LCN      SECTION.                                PPWILCD
059500**************************************************************    PPWILCD
059600*  CLOSE GTN DISPLAY CURSOR                                  *    PPWILCD
059700**************************************************************    PPWILCD
059800                                                                  PPWILCD
059900     MOVE 'CLOSE LCN1-CURS' TO DB2MSG-TAG.                        PPWILCD
060000                                                                  PPWILCD
060100     EXEC SQL                                                     PPWILCD
060200       CLOSE LCN1-CURS                                            PPWILCD
060300     END-EXEC.                                                    PPWILCD
060400                                                                  PPWILCD
060500 8230-EXIT.                                                       PPWILCD
060600     EXIT.                                                        PPWILCD
060700                                                                  PPWILCD
060800     EJECT                                                        PPWILCD
060900                                                                  PPWILCD
061000 8240-OPEN-LCN8-CURS       SECTION.                               PPWILCD
061100**************************************************************    PPWILCD
061200*  OPEN FORWARD PAGING CURSOR                                *    PPWILCD
061300**************************************************************    PPWILCD
061400                                                                  PPWILCD
061500     MOVE 'OPEN LCN8-CURS' TO DB2MSG-TAG.                         PPWILCD
061600                                                                  PPWILCD
061700     EXEC SQL                                                     PPWILCD
061800        OPEN LCN8-CURS                                            PPWILCD
061900     END-EXEC.                                                    PPWILCD
062000                                                                  PPWILCD
062100 8240-EXIT.                                                       PPWILCD
062200     EXIT.                                                        PPWILCD
062300                                                                  PPWILCD
062400     EJECT                                                        PPWILCD
062500                                                                  PPWILCD
062600 8250-FETCH-LCN8-CURS       SECTION.                              PPWILCD
062700**************************************************************    PPWILCD
062800*  FETCH FORWARD PAGING CURSOR                               *    PPWILCD
062900**************************************************************    PPWILCD
063000                                                                  PPWILCD
063100     MOVE 'FETCH LCN8-CURS' TO DB2MSG-TAG.                        PPWILCD
063200                                                                  PPWILCD
063300     EXEC SQL                                                     PPWILCD
063400       FETCH LCN8-CURS INTO                                       PPWILCD
063500              :WS-LICENSE-CERT,                                   PPWILCD
063600              :LICENSE-RENEW-DATE ,                               PPWILCD
063700              :LICENSE-NUMBER                                     PPWILCD
063800     END-EXEC.                                                    PPWILCD
063900                                                                  PPWILCD
064000     IF SQLCODE = +0                                              PPWILCD
064100        MOVE  WS-LICENSE-CERT    TO WS-LCN-CERT                   PPWILCD
064200     ELSE                                                         PPWILCD
064300        MOVE 'N' TO WS-FETCH-FLAG                                 PPWILCD
064400     END-IF.                                                      PPWILCD
064500                                                                  PPWILCD
064600 8250-EXIT.                                                       PPWILCD
064700     EXIT.                                                        PPWILCD
064800                                                                  PPWILCD
064900     EJECT                                                        PPWILCD
065000                                                                  PPWILCD
065100 8260-CLOSE-LCN8-CURS   SECTION.                                  PPWILCD
065200**************************************************************    PPWILCD
065300*  CLOSE FORWARD PAGING CURSOR                               *    PPWILCD
065400**************************************************************    PPWILCD
065500                                                                  PPWILCD
065600     MOVE 'CLOSE LCN8-CURS' TO DB2MSG-TAG.                        PPWILCD
065700                                                                  PPWILCD
065800     EXEC SQL                                                     PPWILCD
065900       CLOSE LCN8-CURS                                            PPWILCD
066000     END-EXEC.                                                    PPWILCD
066100                                                                  PPWILCD
066200 8260-EXIT.                                                       PPWILCD
066300     EXIT.                                                        PPWILCD
066400                                                                  PPWILCD
066500     EJECT                                                        PPWILCD
066600                                                                  PPWILCD
066700     EJECT                                                        PPWILCD
066800                                                                  PPWILCD
066900 8310-OPEN-LCN7-CURS       SECTION.                               PPWILCD
067000**************************************************************    PPWILCD
067100*  OPEN BACKWARD PAGING LCN CURSOR                           *    PPWILCD
067200**************************************************************    PPWILCD
067300                                                                  PPWILCD
067400     MOVE 'OPEN LCN7-CURS' TO DB2MSG-TAG.                         PPWILCD
067500                                                                  PPWILCD
067600     EXEC SQL                                                     PPWILCD
067700        OPEN LCN7-CURS                                            PPWILCD
067800     END-EXEC.                                                    PPWILCD
067900                                                                  PPWILCD
068000 8310-EXIT.                                                       PPWILCD
068100     EXIT.                                                        PPWILCD
068200                                                                  PPWILCD
068300     EJECT                                                        PPWILCD
068400                                                                  PPWILCD
068500 8320-FETCH-LCN7-CURS   SECTION.                                  PPWILCD
068600**************************************************************    PPWILCD
068700*  FETCH BACKWARD PAGING LCN CURSOR                          *    PPWILCD
068800**************************************************************    PPWILCD
068900                                                                  PPWILCD
069000     MOVE 'FETCH LCN7-CURS' TO DB2MSG-TAG.                        PPWILCD
069100                                                                  PPWILCD
069200     EXEC SQL                                                     PPWILCD
069300       FETCH LCN7-CURS INTO                                       PPWILCD
069400              :WS-LICENSE-CERT,                                   PPWILCD
069500              :LICENSE-RENEW-DATE ,                               PPWILCD
069600              :LICENSE-NUMBER                                     PPWILCD
069700     END-EXEC.                                                    PPWILCD
069800                                                                  PPWILCD
069900     IF SQLCODE = ZERO                                            PPWILCD
070000        MOVE WS-LICENSE-CERT TO WS-LCN-CERT                       PPWILCD
070100     ELSE                                                         PPWILCD
070200        MOVE 'N' TO WS-FETCH-FLAG                                 PPWILCD
070300     END-IF.                                                      PPWILCD
070400                                                                  PPWILCD
070500 8320-EXIT.                                                       PPWILCD
070600     EXIT.                                                        PPWILCD
070700                                                                  PPWILCD
070800     EJECT                                                        PPWILCD
070900                                                                  PPWILCD
071000 8330-CLOSE-LCN7-CURS   SECTION.                                  PPWILCD
071100**************************************************************    PPWILCD
071200*  CLOSE BACKWARD PAGING LCN CURSOR                          *    PPWILCD
071300**************************************************************    PPWILCD
071400                                                                  PPWILCD
071500     MOVE 'CLOSE LCN7-CURS' TO DB2MSG-TAG.                        PPWILCD
071600                                                                  PPWILCD
071700     EXEC SQL                                                     PPWILCD
071800       CLOSE LCN7-CURS                                            PPWILCD
071900     END-EXEC.                                                    PPWILCD
072000                                                                  PPWILCD
072100 8330-EXIT.                                                       PPWILCD
072200     EXIT.                                                        PPWILCD
072300                                                                  PPWILCD
072400     EJECT                                                        PPWILCD
072500                                                                  PPWILCD
072600 8400-SELECT-COUNT-PAGE   SECTION.                                PPWILCD
072700**************************************************************    PPWILCD
072800* THIS SECTION COUNTS THE ROWS OF DATA WHERE THE             *    PPWILCD
072900* GTN_DISPLAY_ILCD = 'Y' OR ' ' ON THE LCN TABLE.            *    PPWILCD
073000**************************************************************    PPWILCD
073100                                                                  PPWILCD
073200     MOVE 'SELECT COUNT LCN' TO DB2MSG-TAG.                       PPWILCD
073300                                                                  PPWILCD
073400     MOVE CPWSWORK-UNIQUE-EE-ID TO WS-EMPLOYEE-ID.                PPWILCD
073500                                                                  PPWILCD
073600     EXEC SQL                                                     PPWILCD
073700        SELECT COUNT (*)                                          PPWILCD
073800        INTO :WS-COUNT                                            PPWILCD
073900        FROM PPPVLCN1_LCN                                         PPWILCD
074000        WHERE EMPLOYEE_ID = :WS-EMPLOYEE-ID                       PPWILCD
074100     END-EXEC.                                                    PPWILCD
074200                                                                  PPWILCD
074300                                                                  PPWILCD
074400 8400-EXIT.                                                       PPWILCD
074500     EXIT.                                                        PPWILCD
074600                                                                  PPWILCD
074700*CPPDXDC3 DATE CONVERSION PROCEDURE DIVISION CODE                 PPWILCD
074800       COPY CPPDXDC3.                                             PPWILCD
074900                                                                  PPWILCD
075000                                                                  PPWILCD
075100*999999-SQL-ERROR SECTION.                                        PPWILCD
075200**************************************************************    PPWILCD
075300*  COPIED PROCEDURE DIVISION CODE FOR SQL ERROR HANDLING     *    PPWILCD
075400**************************************************************    PPWILCD
075500                                                                  PPWILCD
075600      EXEC SQL                                                    PPWILCD
075700           INCLUDE CPPDXP99                                       PPWILCD
075800      END-EXEC.                                                   PPWILCD
075900                                                                  PPWILCD
076000      MOVE 'SQL ERROR - SEE PRECEDING DB2 MESSAGES'               PPWILCD
076100                                      TO UCWSABND-ABEND-DATA (1). PPWILCD
076200                                                                  PPWILCD
076300      PERFORM 9999-ABEND.                                         PPWILCD
076400                                                                  PPWILCD
076500 999999-EXIT.                                                     PPWILCD
076600       EXIT.                                                      PPWILCD
076700                                                                  PPWILCD
076800       EJECT                                                      PPWILCD
076900                                                                  PPWILCD
077000 9999-ABEND    SECTION.                                           PPWILCD
077100**************************************************************    PPWILCD
077200*  COPIED PROCEDURE DIVISION CODE FOR ABEND HANDLING         *    PPWILCD
077300**************************************************************    PPWILCD
077400                                                                  PPWILCD
077500     MOVE 'PPWILCD' TO UCWSABND-ABENDING-PGM.                     PPWILCD
077600                                                                  PPWILCD
077700     COPY UCPDABND.                                               PPWILCD
077800                                                                  PPWILCD
077900 9999-EXIT.                                                       PPWILCD
078000     EXIT.                                                        PPWILCD
078100                                                                  PPWILCD
078200     EJECT                                                        PPWILCD
078300                                                                  PPWILCD
078400***************    END OF SOURCE - PPWILCD    ******************* PPWILCD
