000000**************************************************************/   73151304
000001*  PROGRAM: PPWILOF                                          */   73151304
000002*  RELEASE: ___1304______ SERVICE REQUEST(S): ____17315____  */   73151304
000003*  NAME:_______WJG_______ MODIFICATION DATE:  ___03/27/00__  */   73151304
000004*  DESCRIPTION:                                              */   73151304
000005*                                                            */   73151304
000006*  MODIFIED TO USE PPTCTUTL TO ACCESS TITLE DATA RATHER THAN */   73151304
000007*  DIRECT DB2 ACCESS TO PPPVZTCI                             */   73151304
000008*                                                            */   73151304
000009**************************************************************/   73151304
000000**************************************************************/   32011144
000001*  PROGRAM: PPWILOF                                          */   32011144
000002*  RELEASE: ___1144______ SERVICE REQUEST(S): ____13201____  */   32011144
000003*  NAME:_______QUAN______ MODIFICATION DATE:  ___08/19/97__  */   32011144
000004*  DESCRIPTION:                                              */   32011144
000005*  - ADDED TERM SICK LEAVE (DE 0722) AND SKL ACCRUED THROUGH */   32011144
000006*    DATE (DE 0760) TO ILOF SCREEN.                          */   32011144
000007**************************************************************/   32011144
000000**************************************************************/   37020996
000001*  PROGRAM: PPWILOF                                          */   37020996
000002*  RELEASE: ___0996______ SERVICE REQUEST(S): ____13702____  */   37020996
000003*  NAME:_______QUAN______ MODIFICATION DATE:  ___06/07/95__  */   37020996
000004*  DESCRIPTION:                                              */   37020996
000005*  REPLACED INCLUDE XPPVZTCI WITH STANDARD INCLUDE PPPVZTCI. */   37020996
000008**************************************************************/   37020996
000000**************************************************************/   36430951
000001*  PROGRAM: PPWILOF                                          */   36430951
000002*  RELEASE: ___0951______ SERVICE REQUEST(S): _____3643____  */   36430951
000003*  NAME:_______MLG_______ MODIFICATION DATE:  __12/21/94____ */   36430951
000004*  DESCRIPTION:                                              */   36430951
000005*    REMOVE CPWSCOMN                                         */   36430951
000007**************************************************************/   36430951
000100**************************************************************/   36430911
000200*  PROGRAM: PPWILOF                                          */   36430911
000300*  RELEASE # ___0911___   SERVICE REQUEST NO(S)____3643______*/   36430911
000400*  NAME __JYL__________   MODIFICATION DATE ____06/30/94_____*/   36430911
000500*  DESCRIPTION                                               */   36430911
000600*                                                            */   36430911
000700*        THIS IS A COMPLETE REPLACEMENT OF PPWILOF           */   36430911
000800*             AS ISSUED IN RELEASE # 0795                    */   36430911
000900**************************************************************/   36430911
000900 IDENTIFICATION DIVISION.                                         PPWILOF
001000 PROGRAM-ID. PPWILOF                                              PPWILOF
001100 ENVIRONMENT DIVISION.                                            PPWILOF
001300 CONFIGURATION SECTION.                                           PPWILOF
001400 SOURCE-COMPUTER.                                                 PPWILOF
001500 COPY  CPOTXUCS.                                                  PPWILOF
001200 DATA DIVISION.                                                   PPWILOF
001300 WORKING-STORAGE SECTION.                                         PPWILOF
001400                                                                  PPWILOF
003000 01  WS-COMN.                                                     PPWILOF
002000     05  WS-START             PIC X(27) VALUE                     PPWILOF
002100           'WORKING STORAGE STARTS HERE'.                         PPWILOF
002200*****                                                          CD 32011144
002210*****05  WS-REL-NO            PIC X(05) VALUE 'I0951'.            32011144
002220     05  WS-REL-NO            PIC X(05) VALUE 'I1144'.            32011144
002300     05  WS-PGM-NAME          PIC X(08) VALUE 'PPWILOF'.          PPWILOF
002310     05  WS-PGM-PPTCTUTL      PIC X(08) VALUE 'PPTCTUTL'.         73151304
002400*                                                                 PPWILOF
002500 01  WS-MESS-NOS.                                                 PPWILOF
002600     05  MP0009               PIC X(5)  VALUE 'P0009'.            PPWILOF
002700*                                                                 PPWILOF
003200                                                                  PPWILOF
003100*                                                                 PPWILOF
003300 01  PBP00-PARAM-SEGMENTS.                                        PPWILOF
003400 COPY CPWSXPAM.                                                   PPWILOF
003500                                                                  PPWILOF
003600 01  WS-MISC.                                                     PPWILOF
004100     05  WS-COUNT                   PIC S9(8) COMP VALUE ZERO.    PPWILOF
004200     05  WS-LOF-MAX-ENTRIES         PIC 99         VALUE  10.     PPWILOF
004300     05  WS-LOF-SUB                 PIC 9(2).                     PPWILOF
004400     05  WS-SUB                     PIC 9(2).                     PPWILOF
004000     05  WS-TOP-ROW                 PIC 9(2).                     PPWILOF
004100     05  WS-BOT-ROW                 PIC 9(2).                     PPWILOF
004500     05  WS-INTER-FLD-11            PIC Z(7).99  VALUE ZERO.      PPWILOF
004600     05  WS-SALARY-AMT              PIC Z(5).99  VALUE ZERO.      PPWILOF
004700     05  WS-SALARY-HOUR             PIC Z(2).9(4) VALUE ZERO.     PPWILOF
004800     05  WS-SALARY-AMT-INT          PIC 9(5).99  VALUE ZERO.      PPWILOF
004900     05  WS-SALARY-HOUR-INT         PIC 9(2).9(4) VALUE ZERO.     PPWILOF
004610     05  WS-SICK-BAL-HRS            PIC Z(5).99  VALUE ZERO.      32011144
004620     05  WS-SICK-BAL-HRS-INIT       PIC 9(5).99  VALUE ZERO.      32011144
005000     05  WS-PERCENT                 PIC 9(1).9(2) VALUE ZERO.     PPWILOF
005100     05  WS-UNIQUE-EE-ID            PIC X(9).                     PPWILOF
005200     05  WS-EMPLOYEE-ID             PIC X(09).                    PPWILOF
005300     05  WS-NUM-4               PIC 9(4).                         PPWILOF
005400     05  WS-NUM-2               PIC Z9.                           PPWILOF
005500     05  WS-DB2-DATE.                                             PPWILOF
005600         10  WS-DB2-DATE-1-6    PIC X(6).                         PPWILOF
005700         10  WS-DB2-DATE-7-8    PIC X(2).                         PPWILOF
005800         10  WS-DB2-DATE-9-10   PIC X(2).                         PPWILOF
005900     05  WS-CONV-DATE.                                            PPWILOF
006000         10  WS-DATE-1-6        PIC X(6).                         PPWILOF
006100         10  WS-DATE-7-8        PIC X(2).                         PPWILOF
009100     05  WS-FETCH-FLAG          PIC X.                            PPWILOF
009200         88  FETCH-OK           VALUE 'Y'.                        PPWILOF
009300         88  END-FETCH          VALUE 'N'.                        PPWILOF
010100                                                                  PPWILOF
010200 01 WS-TTL-DATA.                                                  PPWILOF
010300    05  WS-TITLE-CODE           PIC X(4).                         PPWILOF
010400    05  WS-ABBREV-TITLE         PIC X(30).                        PPWILOF
010500    05  WS-TUC                  PIC X(2).                         PPWILOF
010600                                                                  PPWILOF
010700 01 WS-DEPT-DATA.                                                 PPWILOF
010800    05  WS-DEPT                 PIC X(6).                         PPWILOF
010900    05  WS-DEPT-NAME            PIC X(15).                        PPWILOF
011000                                                                  PPWILOF
011100 01 WS-LUC-DATA.                                                  PPWILOF
011200    05  WS-UNIT-CODE            PIC X(6).                         PPWILOF
011300    05  WS-LUC-DESCRIPTION      PIC X(30).                        PPWILOF
011400                                                                  PPWILOF
011500 01 WS-LOF-TABLE.                                                 PPWILOF
011600    05  WS-LOF-DATA     OCCURS 10 TIMES.                          PPWILOF
011700     10 WS-LOF-EMP-ID           PIC X(9).                         PPWILOF
011800     10 WS-LAYOFF-TITLE-CODE    PIC X(4).                         PPWILOF
011900     10 WS-LAYOFF-DEPT-CODE     PIC X(6).                         PPWILOF
012000     10 WS-LAYOFF-UNIT-CODE     PIC X(6).                         PPWILOF
012100     10 WS-LAYOFF-ADC-CODE      PIC X(1).                         PPWILOF
012200     10 WS-LAYOFF-NOTICE-DATE   PIC X(10).                        PPWILOF
012300     10 WS-LAYOFF-SALARY        PIC 999999V9999.                  PPWILOF
012400     10 WS-LAYOFF-SALARY-IND    PIC X(1).                         PPWILOF
012500     10 WS-LAYOFF-PERCNT-TIME   PIC 9V99.                         PPWILOF
012600     10 WS-REHIRE-BGN-DATE      PIC X(10).                        PPWILOF
012700     10 WS-REHIRE-EXP-DATE      PIC X(10).                        PPWILOF
012800     10 WS-RHRE-SUSP-BGN-TERM   PIC X(10).                        PPWILOF
012900     10 WS-REHIRE-SUSP-END      PIC X(10).                        PPWILOF
013000     10 WS-RHRE-SUSP-TERM-RSN   PIC X(1).                         PPWILOF
013100     10 WS-RECALL-BGN-DATE      PIC X(10).                        PPWILOF
013200     10 WS-RECALL-EXP-DATE      PIC X(10).                        PPWILOF
013300     10 WS-RCLL-SUSP-BGN-TERM   PIC X(10).                        PPWILOF
013400     10 WS-RECALL-SUSP-END      PIC X(10).                        PPWILOF
013500     10 WS-RCLL-SUSP-TERM-RSN   PIC X(1).                         PPWILOF
009700     EJECT                                                        PPWILOF
009800 01  UCDTLARE  EXTERNAL.                                          PPWILOF
009900     COPY UCDTLARE.                                               PPWILOF
010000*                                                                 PPWILOF
010100 01  WS-PPILOF0 REDEFINES UCDTLARE.                               PPWILOF
010200     COPY PPILOF0.                                                PPWILOF
010300     EJECT                                                        PPWILOF
010400 01  CPWSWORK    EXTERNAL.                                        PPWILOF
010500     COPY CPWSWORK.                                               PPWILOF
010600        10  CPWSWORK-XLOF-WORK-AREA REDEFINES                     PPWILOF
010700            CPWSWORK-PROGRAM-WORK-AREA.                           PPWILOF
010800            15  CPWSWORK-BOT-ROW                PIC 9(02).        PPWILOF
010900            15  CPWSWORK-TOP-ROW                PIC 9(02).        PPWILOF
011000            15  CPWSWORK-LOF-COUNT              PIC 9(02).        PPWILOF
011100            15  CPWSWORK-SEPARATE-DATE          PIC X(10).        PPWILOF
011200            15  CPWSWORK-SEPARATE-REASON        PIC X(2).         PPWILOF
011300            15  CPWSWORK-EMP-REL-CODE           PIC X.            PPWILOF
011400            15  CPWSWORK-LAST-DAY-ON-PAY        PIC X(10).        PPWILOF
011401**********  15  FILLER                          PIC X(471).       32011144
011410            15  CPWSWORK-TERM-SICK-LEAVE        PIC S9(05)V99     32011144
011420                                                USAGE COMP-3.     32011144
011430            15  CPWSWORK-SKL-ACCR-THRU-DATE     PIC X(10).        32011144
011510            15  FILLER                          PIC X(457).       32011144
011600     EJECT                                                        PPWILOF
011700 01  UCCOMMON    EXTERNAL.                                        PPWILOF
014700     EXEC SQL                                                     PPWILOF
011900      INCLUDE UCCOMMON                                            PPWILOF
014900     END-EXEC.                                                    PPWILOF
012100     EJECT                                                        PPWILOF
012200 01  UCPISCRN    EXTERNAL.                                        PPWILOF
012300     COPY UCPISCRN.                                               PPWILOF
012400     EJECT                                                        PPWILOF
012500 01  UCWSABND    EXTERNAL.                                        PPWILOF
012600     COPY UCWSABND.                                               PPWILOF
012700     EJECT                                                        PPWILOF
012710 01  PPTCTUTL-INTERFACE EXTERNAL.                                 73151304
012720     COPY CPLNKTCL.                                               73151304
012730     EJECT                                                        73151304
012800 01  PPDB2MSG-INTERFACE.                                          PPWILOF
012900     COPY CPLNKDB2.                                               PPWILOF
013000     EJECT                                                        PPWILOF
015000                                                                  PPWILOF
016200******************************************************************PPWILOF
016300*          SQL - WORKING STORAGE                                 *PPWILOF
016400******************************************************************PPWILOF
016500                                                                  PPWILOF
016600 01  WS-PPPVPER.                                                  PPWILOF
016700     EXEC SQL                                                     PPWILOF
016800           INCLUDE PPPVZPER                                       PPWILOF
016900     END-EXEC.                                                    PPWILOF
017000                                                                  PPWILOF
017100 01  WS-PPPVLOF.                                                  PPWILOF
017200     EXEC SQL                                                     PPWILOF
017300           INCLUDE PPPVZLOF                                       PPWILOF
017400     END-EXEC.                                                    PPWILOF
017500                                                                  PPWILOF
014600*01  WS-PPPVTCI.                                                  73151304
014700*****EXEC    SQL                                                  73151304
014810*****      INCLUDE PPPVZTCI                                       73151304
014900*****END-EXEC.                                                    73151304
018000                                                                  PPWILOF
018600 01  WS-PPPVHME.                                                  PPWILOF
018700     EXEC SQL                                                     PPWILOF
018800           INCLUDE PPPVZHME                                       PPWILOF
018900     END-EXEC.                                                    PPWILOF
019000                                                                  PPWILOF
019100 01  WS-PPPVLUC.                                                  PPWILOF
019200     EXEC SQL                                                     PPWILOF
019300           INCLUDE PPPVZLUC                                       PPWILOF
019400     END-EXEC.                                                    PPWILOF
019500                                                                  PPWILOF
019600     EXEC SQL                                                     PPWILOF
019700           INCLUDE SQLCA                                          PPWILOF
019800     END-EXEC.                                                    PPWILOF
019900                                                                  PPWILOF
020000                                                                  PPWILOF
020100******************************************************************PPWILOF
020200*                                                                *PPWILOF
020300*                  SQL - SELECTS                                 *PPWILOF
020400*                                                                *PPWILOF
020500******************************************************************PPWILOF
020600*                                                                *PPWILOF
020700*        THE VIEW USED IN THIS PROGRAM ARE:                      *PPWILOF
020800*                                                                *PPWILOF
020900*    VIEW               VIEW DDL AND DCL INCLUDE                 *PPWILOF
021000*                        MEMBER NAMES                            *PPWILOF
021100*                                                                *PPWILOF
021200*  PPPVZPER_PER          PPPVZPER                                *PPWILOF
021300*  PPPVZLOF_LOF          PPPVZLOF                                *PPWILOF
021500*  PPPVZLUC_LUC          PPPVZLUC                                *PPWILOF
021600*  PPPVZHME_HME          PPPVZHME                                *PPWILOF
018110*  PPPVZTCI_TCI          PPPVZTCI                                *73151304
018120***PPPVZTCI_TCI**********PPPVZTCI ELIMINATED IN RELEASE 1304     *73151304
021800******************************************************************PPWILOF
021900                                                                  PPWILOF
022000     EXEC SQL DECLARE                                             PPWILOF
022100           LOF-CURS CURSOR FOR                                    PPWILOF
022200           SELECT                                                 PPWILOF
022300       EMPLOYEE_ID,                                               PPWILOF
022400       LAYOFF_TITLE_CODE,                                         PPWILOF
022500       LAYOFF_DEPT_CODE,                                          PPWILOF
022600       LAYOFF_UNIT_CODE,                                          PPWILOF
022700       LAYOFF_ADC_CODE,                                           PPWILOF
022800       LAYOFF_NOTICE_DATE,                                        PPWILOF
022900       LAYOFF_SALARY,                                             PPWILOF
023000       LAYOFF_SALARY_IND,                                         PPWILOF
023100       LAYOFF_PERCNT_TIME,                                        PPWILOF
023200       REHIRE_BGN_DATE,                                           PPWILOF
023300       REHIRE_EXP_DATE,                                           PPWILOF
023400       RHRE_SUSP_BGN_TERM,                                        PPWILOF
023500       REHIRE_SUSP_END,                                           PPWILOF
023600       RHRE_SUSP_TERM_RSN,                                        PPWILOF
023700       RECALL_BGN_DATE,                                           PPWILOF
023800       RECALL_EXP_DATE,                                           PPWILOF
023900       RCLL_SUSP_BGN_TERM,                                        PPWILOF
024000       REHIRE_SUSP_END,                                           PPWILOF
024100       RCLL_SUSP_TERM_RSN                                         PPWILOF
024200           FROM PPPVZLOF_LOF                                      PPWILOF
024300           WHERE EMPLOYEE_ID = :WS-UNIQUE-EE-ID                   PPWILOF
020800           AND   LAYOFF_NOTICE_DATE ^= '12/31/9999'               PPWILOF
024400           ORDER BY EMPLOYEE_ID,                                  PPWILOF
024500                    LAYOFF_TITLE_CODE,                            PPWILOF
024600                    LAYOFF_DEPT_CODE                              PPWILOF
021200                   ,LAYOFF_NOTICE_DATE                            PPWILOF
024700     END-EXEC.                                                    PPWILOF
024800                                                                  PPWILOF
021500 LINKAGE SECTION.                                                 PPWILOF
021600 PROCEDURE DIVISION.                                              PPWILOF
024900                                                                  PPWILOF
021800 0000-MAIN-LINE   SECTION.                                        PPWILOF
021900**************************************************************    PPWILOF
022000*    MAIN LINE PROCESSING                                    *    PPWILOF
022100**************************************************************    PPWILOF
025100                                                                  PPWILOF
022300     EXEC SQL                                                     PPWILOF
022400          INCLUDE CPPDXE99                                        PPWILOF
025900     END-EXEC.                                                    PPWILOF
026000                                                                  PPWILOF
022700     PERFORM 1000-INITIALIZATION.                                 PPWILOF
022800     PERFORM 2000-INIT-SCREEN                                     PPWILOF
027800                                                                  PPWILOF
023000     IF CPWSWORK-TOTAL-PAGES > ZERO                               PPWILOF
023100        PERFORM 3000-DISPLAY-SCREEN                               PPWILOF
023110     ELSE                                                         32011144
023120        PERFORM 7300-MOVE-PER-TO-SCRN                             32011144
023200     END-IF.                                                      PPWILOF
027900                                                                  PPWILOF
023400     PERFORM 1500-SET-PAGING.                                     PPWILOF
023500                                                                  PPWILOF
028000     GOBACK.                                                      PPWILOF
028100                                                                  PPWILOF
023800 0000-EXIT.                                                       PPWILOF
023900     EXIT.                                                        PPWILOF
028300                                                                  PPWILOF
024100     EJECT                                                        PPWILOF
028800                                                                  PPWILOF
024300 1000-INITIALIZATION   SECTION.                                   PPWILOF
024400**************************************************************    PPWILOF
024500*   INITIALIZE WORK AREAS                                    *    PPWILOF
024600**************************************************************    PPWILOF
029900                                                                  PPWILOF
024800     MOVE WS-PGM-NAME TO UCWSABND-ABENDING-PGM.                   PPWILOF
024900     MOVE WS-PGM-NAME TO DB2MSG-PGM-ID.                           PPWILOF
025000     IF NOT CPWSWORK-DONT-OVERRIDE-MSG                            PPWILOF
025100         SET UCCOMMON-MSG-NUMBER-NOT-SET TO TRUE                  PPWILOF
025200     END-IF.                                                      PPWILOF
025300     MOVE ZERO TO UCCOMMON-RETURN-CODE.                           PPWILOF
025400     MOVE LOW-VALUES TO UCDTLARE.                                 PPWILOF
025500     MOVE LENGTH OF PPILOF0O TO UCPISCRN-DETAIL-MAP-LENGTH.       PPWILOF
025600     MOVE WS-REL-NO TO UCPISCRN-DTL-REL-NO.                       PPWILOF
025700                                                                  PPWILOF
025800     MOVE 'BROWSE' TO UCPISCRN-ADDL-LOGIC-FUNC (1).               PPWILOF
025900                                                                  PPWILOF
026000     IF CPWSWORK-TOTAL-PAGES = ZERO                               PPWILOF
026100        PERFORM 1100-COUNT-PAGES                                  PPWILOF
026110        MOVE CPWSWORK-UNIQUE-EE-ID TO WS-UNIQUE-EE-ID             32011144
026200        PERFORM 8200-GET-PER-DATA                                 PPWILOF
026300        MOVE ZEROES TO CPWSWORK-BOT-ROW                           PPWILOF
026400                       CPWSWORK-TOP-ROW                           PPWILOF
026500     END-IF.                                                      PPWILOF
026600                                                                  PPWILOF
026700 1000-EXIT.                                                       PPWILOF
026800     EXIT.                                                        PPWILOF
026900                                                                  PPWILOF
027000 1100-COUNT-PAGES   SECTION.                                      PPWILOF
027100**************************************************************    PPWILOF
027200*     COUNT TOTAL PAGES                                      *    PPWILOF
027300**************************************************************    PPWILOF
027400*                                                                 PPWILOF
027500     MOVE CPWSWORK-UNIQUE-EE-ID TO WS-EMPLOYEE-ID.                PPWILOF
027600     PERFORM 8300-SELECT-COUNT-PAGE.                              PPWILOF
027700*                                                                 PPWILOF
027800     IF SQLCODE = ZERO AND WS-COUNT > ZERO                        PPWILOF
027900         IF WS-COUNT > WS-LOF-MAX-ENTRIES                         PPWILOF
028000             MOVE WS-LOF-MAX-ENTRIES TO WS-COUNT                  PPWILOF
028100         END-IF                                                   PPWILOF
028200         MOVE WS-COUNT TO CPWSWORK-LOF-COUNT                      PPWILOF
028300         ADD 1  TO WS-COUNT                                       PPWILOF
028400         DIVIDE 2  INTO WS-COUNT                                  PPWILOF
028500         MOVE WS-COUNT TO CPWSWORK-TOTAL-PAGES                    PPWILOF
028600                                                                  PPWILOF
028700         MOVE +1 TO UCPISCRN-PAGE-NUMBER                          PPWILOF
028800         IF CPWSWORK-TOTAL-PAGES > 1                              PPWILOF
028900             MOVE +1 TO CPWSWORK-CURRENT-PAGE                     PPWILOF
029000         END-IF                                                   PPWILOF
029100     ELSE                                                         PPWILOF
029200         MOVE ZERO TO CPWSWORK-LOF-COUNT                          PPWILOF
029300         MOVE ZERO TO CPWSWORK-TOTAL-PAGES                        PPWILOF
029400         IF NOT CPWSWORK-DONT-OVERRIDE-MSG                        PPWILOF
029500             MOVE MP0009 TO UCCOMMON-MSG-NUMBER                   PPWILOF
029600         END-IF                                                   PPWILOF
029700         SET END-FETCH TO TRUE                                    PPWILOF
029800     END-IF.                                                      PPWILOF
029900*                                                                 PPWILOF
030000 1100-EXIT.                                                       PPWILOF
030100     EXIT.                                                        PPWILOF
030200*                                                                 PPWILOF
030300 1500-SET-PAGING   SECTION.                                       PPWILOF
030400**************************************************************    PPWILOF
030500* SET CURRENT PAGE VALUE AND PAGING SWITCHES                 *    PPWILOF
030600**************************************************************    PPWILOF
030700                                                                  PPWILOF
030800     IF CPWSWORK-TOTAL-PAGES > 1                                  PPWILOF
030900        MOVE UCPISCRN-PAGE-NUMBER TO CPWSWORK-CURRENT-PAGE        PPWILOF
031000     ELSE                                                         PPWILOF
031100        MOVE ZEROES TO CPWSWORK-CURRENT-PAGE                      PPWILOF
031200     END-IF.                                                      PPWILOF
031300                                                                  PPWILOF
031400     IF UCPISCRN-PAGE-NUMBER < CPWSWORK-TOTAL-PAGES               PPWILOF
031500        SET UCPISCRN-FORWARD TO TRUE                              PPWILOF
031600     ELSE                                                         PPWILOF
031700        SET UCPISCRN-FORWARD-NOT-AVAIL TO TRUE                    PPWILOF
031800     END-IF.                                                      PPWILOF
031900                                                                  PPWILOF
032000     IF UCPISCRN-PAGE-NUMBER > 1                                  PPWILOF
032100        SET UCPISCRN-BACKWARD TO TRUE                             PPWILOF
032200     ELSE                                                         PPWILOF
032300        SET UCPISCRN-BACKWARD-NOT-AVAIL TO TRUE                   PPWILOF
032400     END-IF.                                                      PPWILOF
032500                                                                  PPWILOF
032600 1500-EXIT.                                                       PPWILOF
032700     EXIT.                                                        PPWILOF
032800*                                                                 PPWILOF
032900 2000-INIT-SCREEN    SECTION.                                     PPWILOF
033000**************************************************************    PPWILOF
033100* SET COLOR AND HIGHLIGHT BYTES FOR ALL FIELDS               *    PPWILOF
033200**************************************************************    PPWILOF
033300                                                                  PPWILOF
033400     MOVE UCCOMMON-CLR-FLD-LABEL TO                               PPWILOF
031000                            L-SEPARATION-DATEC                    PPWILOF
031100                            L-SEPARATION-REASONC                  PPWILOF
031200                            L-LAST-DAY-ON-PAYC                    PPWILOF
031300                            L-NOTICE-DATEC(1)                     PPWILOF
031400                            L-NOTICE-DATEC(2)                     PPWILOF
031500                            L-RECALL-BEGC(1)                      PPWILOF
031600                            L-RECALL-BEGC(2)                      PPWILOF
031700                            L-PREF-REHIRE-BEGC(1)                 PPWILOF
031800                            L-PREF-REHIRE-BEGC(2)                 PPWILOF
031900                            L-UNITC(1)                            PPWILOF
032000                            L-UNITC(2)                            PPWILOF
032100                            L-RECALL-ENDC(1)                      PPWILOF
032200                            L-RECALL-ENDC(2)                      PPWILOF
032300                            L-PREF-REHIRE-ENDC(1)                 PPWILOF
032400                            L-PREF-REHIRE-ENDC(2)                 PPWILOF
032500                            L-TUC-ERCC(1)                         PPWILOF
032600                            L-TUC-ERCC(2)                         PPWILOF
032700                            L-PERCENT-TUC-ERCC(1)                 PPWILOF
032800                            L-PERCENT-TUC-ERCC(2)                 PPWILOF
032900                            L-RCLL-SUSP-BEG-RSNC(1)               PPWILOF
033000                            L-RCLL-SUSP-BEG-RSNC(2)               PPWILOF
033100                            L-RHRE-SUSP-BEG-RSNC(1)               PPWILOF
033200                            L-RHRE-SUSP-BEG-RSNC(2)               PPWILOF
033300                            L-LAYOFF-SALARYC(1)                   PPWILOF
033400                            L-LAYOFF-SALARYC(2)                   PPWILOF
033500                            L-RCLL-END-TERMC(1)                   PPWILOF
033600                            L-RCLL-END-TERMC(2)                   PPWILOF
033700                            L-RHRE-END-TERMC(1)                   PPWILOF
033800                            L-RHRE-END-TERMC(2)                   PPWILOF
033900                            L-TITLEC(1)                           PPWILOF
034000                            L-TITLEC(2)                           PPWILOF
034100                            L-LAYOFF-DEPTC(1)                     PPWILOF
036700*************               L-LAYOFF-DEPTC(2).                    32011144
036710                            L-LAYOFF-DEPTC(2)                     32011144
036720                            DE0722-L-TERM-SICK-LEAVEC             32011144
036730                            DE0760-L-SKL-ACCR-THRU-DATEC.         32011144
036600                                                                  PPWILOF
036900     MOVE UCCOMMON-HLT-FLD-LABEL TO                               PPWILOF
037000                            L-SEPARATION-DATEH                    PPWILOF
037100                            L-SEPARATION-REASONH                  PPWILOF
037200                            L-LAST-DAY-ON-PAYH                    PPWILOF
037300                            L-NOTICE-DATEH(1)                     PPWILOF
037400                            L-NOTICE-DATEH(2)                     PPWILOF
037500                            L-RECALL-BEGH(1)                      PPWILOF
037600                            L-RECALL-BEGH(2)                      PPWILOF
037700                            L-PREF-REHIRE-BEGH(1)                 PPWILOF
037800                            L-PREF-REHIRE-BEGH(2)                 PPWILOF
037900                            L-UNITH(1)                            PPWILOF
038000                            L-UNITH(2)                            PPWILOF
038100                            L-RECALL-ENDH(1)                      PPWILOF
038200                            L-RECALL-ENDH(2)                      PPWILOF
038300                            L-PREF-REHIRE-ENDH(1)                 PPWILOF
038400                            L-PREF-REHIRE-ENDH(2)                 PPWILOF
038500                            L-TUC-ERCH(1)                         PPWILOF
038600                            L-TUC-ERCH(2)                         PPWILOF
038700                            L-PERCENT-TUC-ERCH(1)                 PPWILOF
038800                            L-PERCENT-TUC-ERCH(2)                 PPWILOF
038900                            L-RCLL-SUSP-BEG-RSNH(1)               PPWILOF
039000                            L-RCLL-SUSP-BEG-RSNH(2)               PPWILOF
039100                            L-RHRE-SUSP-BEG-RSNH(1)               PPWILOF
039200                            L-RHRE-SUSP-BEG-RSNH(2)               PPWILOF
039300                            L-LAYOFF-SALARYH(1)                   PPWILOF
039400                            L-LAYOFF-SALARYH(2)                   PPWILOF
039500                            L-RCLL-END-TERMH(1)                   PPWILOF
039600                            L-RCLL-END-TERMH(2)                   PPWILOF
039700                            L-RHRE-END-TERMH(1)                   PPWILOF
039800                            L-RHRE-END-TERMH(2)                   PPWILOF
039900                            L-TITLEH(1)                           PPWILOF
040000                            L-TITLEH(2)                           PPWILOF
040100                            L-LAYOFF-DEPTH(1)                     PPWILOF
040200********                    L-LAYOFF-DEPTH(2).                    32011144
040210                            L-LAYOFF-DEPTH(2)                     32011144
040220                            DE0722-L-TERM-SICK-LEAVEH             32011144
040230                            DE0760-L-SKL-ACCR-THRU-DATEH.         32011144
036900                                                                  PPWILOF
040400     MOVE UCCOMMON-CLR-NORM-DISPL TO                              PPWILOF
037700                  SEPARATION-DATEC                                PPWILOF
037800                  SEPARATION-REASONC                              PPWILOF
037900                  LAST-DAY-ON-PAYC                                PPWILOF
038000                  NOTICE-DATEC(1)                                 PPWILOF
038100                  NOTICE-DATEC(2)                                 PPWILOF
038200                  RECALL-BEGC(1)                                  PPWILOF
038300                  RECALL-BEGC(2)                                  PPWILOF
038400                  PREF-REHIRE-BEGC(1)                             PPWILOF
038500                  PREF-REHIRE-BEGC(2)                             PPWILOF
038600                  UNITC(1)                                        PPWILOF
038700                  UNITC(2)                                        PPWILOF
038800                  RECALL-ENDC(1)                                  PPWILOF
038900                  RECALL-ENDC(2)                                  PPWILOF
039000                  PREF-REHIRE-ENDC(1)                             PPWILOF
039100                  PREF-REHIRE-ENDC(2)                             PPWILOF
039200                  TUCC(1)                                         PPWILOF
039300                  TUCC(2)                                         PPWILOF
039400                  ERCC(1)                                         PPWILOF
039500                  ERCC(2)                                         PPWILOF
039600                  PERCENT-TUC-ERCC(1)                             PPWILOF
039700                  PERCENT-TUC-ERCC(2)                             PPWILOF
039800                  RCLL-SUSP-BEGC(1)                               PPWILOF
039900                  RCLL-SUSP-BEGC(2)                               PPWILOF
040000                  RHRE-SUSP-BEGC(1)                               PPWILOF
040100                  RHRE-SUSP-BEGC(2)                               PPWILOF
040200                  LAYOFF-SALARYC(1)                               PPWILOF
040300                  LAYOFF-SALARYC(2)                               PPWILOF
040400                  RCLL-SUSP-TERM-RSNC(1)                          PPWILOF
040500                  RCLL-SUSP-TERM-RSNC(2)                          PPWILOF
040600                  RHRE-SUSP-TERM-RSNC(1)                          PPWILOF
040700                  RHRE-SUSP-TERM-RSNC(2)                          PPWILOF
040800                  TITLE-CODEC(1)                                  PPWILOF
040900                  TITLE-CODEC(2)                                  PPWILOF
041000                  LAYOFF-DEPT-CODEC(1)                            PPWILOF
043900*******           LAYOFF-DEPT-CODEC(2).                           32011144
043910                  LAYOFF-DEPT-CODEC(2)                            32011144
043920                  DE0722-TERM-SICK-LEAVEC                         32011144
043930                  DE0760-SKL-ACCR-THRU-DATEC.                     32011144
041800                                                                  PPWILOF
044100     MOVE UCCOMMON-HLT-NORM-DISPL TO                              PPWILOF
044200                  SEPARATION-DATEH                                PPWILOF
044300                  SEPARATION-REASONH                              PPWILOF
044400                  LAST-DAY-ON-PAYH                                PPWILOF
044500                  NOTICE-DATEH(1)                                 PPWILOF
044600                  NOTICE-DATEH(2)                                 PPWILOF
044700                  RECALL-BEGH(1)                                  PPWILOF
044800                  RECALL-BEGH(2)                                  PPWILOF
044900                  PREF-REHIRE-BEGH(1)                             PPWILOF
045000                  PREF-REHIRE-BEGH(2)                             PPWILOF
045100                  UNITH(1)                                        PPWILOF
045200                  UNITH(2)                                        PPWILOF
045300                  RECALL-ENDH(1)                                  PPWILOF
045400                  RECALL-ENDH(2)                                  PPWILOF
045500                  PREF-REHIRE-ENDH(1)                             PPWILOF
045600                  PREF-REHIRE-ENDH(2)                             PPWILOF
045700                  TUCH(1)                                         PPWILOF
045800                  TUCH(2)                                         PPWILOF
045900                  ERCH(1)                                         PPWILOF
046000                  ERCH(2)                                         PPWILOF
046100                  PERCENT-TUC-ERCH(1)                             PPWILOF
046200                  PERCENT-TUC-ERCH(2)                             PPWILOF
046300                  RCLL-SUSP-BEGH(1)                               PPWILOF
046400                  RCLL-SUSP-BEGH(2)                               PPWILOF
046500                  RHRE-SUSP-BEGH(1)                               PPWILOF
046600                  RHRE-SUSP-BEGH(2)                               PPWILOF
046700                  LAYOFF-SALARYH(1)                               PPWILOF
046800                  LAYOFF-SALARYH(2)                               PPWILOF
046900                  RCLL-SUSP-TERM-RSNH(1)                          PPWILOF
047000                  RCLL-SUSP-TERM-RSNH(2)                          PPWILOF
047100                  RHRE-SUSP-TERM-RSNH(1)                          PPWILOF
047200                  RHRE-SUSP-TERM-RSNH(2)                          PPWILOF
047300                  TITLE-CODEH(1)                                  PPWILOF
047400                  TITLE-CODEH(2)                                  PPWILOF
047500                  LAYOFF-DEPT-CODEH(1)                            PPWILOF
047600********          LAYOFF-DEPT-CODEH(2).                           32011144
047610                  LAYOFF-DEPT-CODEH(2)                            32011144
047620                  DE0722-TERM-SICK-LEAVEH                         32011144
047630                  DE0760-SKL-ACCR-THRU-DATEH.                     32011144
047700*                                                                 PPWILOF
047800 2000-EXIT.                                                       PPWILOF
047900     EXIT.                                                        PPWILOF
048000*                                                                 PPWILOF
048100 3000-DISPLAY-SCREEN    SECTION.                                  PPWILOF
048200**************************************************************    PPWILOF
048300* PROCESS DISPLAY, FORWARD AND BACKWARD REQUESTS             *    PPWILOF
048400**************************************************************    PPWILOF
048500*                                                                 PPWILOF
048600     MOVE CPWSWORK-UNIQUE-EE-ID TO WS-UNIQUE-EE-ID.               PPWILOF
042500                                                                  PPWILOF
048800     MOVE  CPWSWORK-TOP-ROW TO WS-TOP-ROW.                        PPWILOF
048900     MOVE  CPWSWORK-BOT-ROW TO WS-BOT-ROW.                        PPWILOF
050200                                                                  PPWILOF
068500     MOVE 'Y' TO WS-FETCH-FLAG.                                   PPWILOF
068600                                                                  PPWILOF
049300     MOVE ZEROES TO CPWSWORK-BOT-ROW                              PPWILOF
049400                    CPWSWORK-TOP-ROW.                             PPWILOF
069000                                                                  PPWILOF
049600     EVALUATE TRUE                                                PPWILOF
049700       WHEN UCCOMMON-DISPLAY-REQUEST                              PPWILOF
049800         PERFORM 4100-PROCESS-DISPLAY                             PPWILOF
049900       WHEN UCCOMMON-FORWARD-REQUEST                              PPWILOF
050000         PERFORM 4200-PAGE-FORWARD                                PPWILOF
050100       WHEN UCCOMMON-BACKWARD-REQUEST                             PPWILOF
050200         PERFORM 4300-PAGE-BACKWARD                               PPWILOF
050300     END-EVALUATE.                                                PPWILOF
050310     PERFORM 7300-MOVE-PER-TO-SCRN.                               32011144
050400*                                                                 PPWILOF
050500     MOVE  WS-TOP-ROW TO CPWSWORK-TOP-ROW.                        PPWILOF
050600     MOVE  WS-BOT-ROW TO CPWSWORK-BOT-ROW.                        PPWILOF
050700*                                                                 PPWILOF
050800 3000-EXIT.                                                       PPWILOF
050900     EXIT.                                                        PPWILOF
069200                                                                  PPWILOF
051100*                                                                 PPWILOF
051200 4100-PROCESS-DISPLAY   SECTION.                                  PPWILOF
051300**************************************************************    PPWILOF
051400* FETCH DATA FOR CURRENT PAGE AND MOVE TO MAP                *    PPWILOF
051500**************************************************************    PPWILOF
051600     IF UCPISCRN-PAGE-NUMBER = 1                                  PPWILOF
051700        MOVE 1 TO WS-TOP-ROW                                      PPWILOF
051800     END-IF.                                                      PPWILOF
051900                                                                  PPWILOF
052000     PERFORM 8210-OPEN-CURS-LOF.                                  PPWILOF
052100     IF SQLCODE = ZERO                                            PPWILOF
052200         MOVE 'Y' TO WS-FETCH-FLAG                                PPWILOF
052300         PERFORM 5000-LOAD-LOF-TABLE                              PPWILOF
052400                         VARYING WS-SUB FROM 1 BY 1               PPWILOF
052500                         UNTIL WS-SUB > CPWSWORK-LOF-COUNT        PPWILOF
052600         PERFORM 8230-CLOSE-CURS-LOF                              PPWILOF
052700     ELSE                                                         PPWILOF
052800         MOVE 'N' TO WS-FETCH-FLAG                                PPWILOF
052900     END-IF.                                                      PPWILOF
053000                                                                  PPWILOF
053100     IF FETCH-OK                                                  PPWILOF
053200         MOVE 1 TO WS-LOF-SUB                                     PPWILOF
053300         MOVE WS-TOP-ROW TO WS-SUB                                PPWILOF
053400         PERFORM 7100-MOVE-LOF-TO-SCRN                            PPWILOF
053500         IF WS-SUB      <  CPWSWORK-LOF-COUNT                     PPWILOF
053600             ADD 1 TO WS-SUB                                      PPWILOF
053700                      WS-LOF-SUB                                  PPWILOF
053800             PERFORM 7100-MOVE-LOF-TO-SCRN                        PPWILOF
053900             MOVE WS-SUB TO WS-BOT-ROW                            PPWILOF
054000         END-IF                                                   PPWILOF
054100     END-IF.                                                      PPWILOF
054200*                                                                 PPWILOF
054300 4100-EXIT.                                                       PPWILOF
054400     EXIT.                                                        PPWILOF
054500                                                                  PPWILOF
054600*                                                                 PPWILOF
054700 4200-PAGE-FORWARD      SECTION.                                  PPWILOF
054800**************************************************************    PPWILOF
054900* POSITION ON THE NEXT PAGE. FETCH ALL DATA AND MOVE TO MAP. *    PPWILOF
055000**************************************************************    PPWILOF
055100*                                                                 PPWILOF
055200     ADD  +1  TO UCPISCRN-PAGE-NUMBER.                            PPWILOF
055300*                                                                 PPWILOF
055400     PERFORM 8210-OPEN-CURS-LOF.                                  PPWILOF
055500     IF SQLCODE = ZERO                                            PPWILOF
055600         MOVE 'Y' TO WS-FETCH-FLAG                                PPWILOF
055700         PERFORM 5000-LOAD-LOF-TABLE                              PPWILOF
055800                         VARYING WS-SUB FROM 1 BY 1               PPWILOF
055900                         UNTIL WS-SUB > CPWSWORK-LOF-COUNT        PPWILOF
056000         PERFORM 8230-CLOSE-CURS-LOF                              PPWILOF
056100     ELSE                                                         PPWILOF
056200         MOVE 'N' TO WS-FETCH-FLAG                                PPWILOF
056300     END-IF.                                                      PPWILOF
056400                                                                  PPWILOF
056500     IF FETCH-OK                                                  PPWILOF
056600         MOVE  1  TO WS-LOF-SUB                                   PPWILOF
056700         MOVE WS-BOT-ROW TO WS-SUB                                PPWILOF
056800         ADD  +1  TO WS-SUB                                       PPWILOF
056900         MOVE WS-SUB TO WS-TOP-ROW                                PPWILOF
057000         PERFORM 7100-MOVE-LOF-TO-SCRN                            PPWILOF
057100         IF WS-SUB      <  CPWSWORK-LOF-COUNT                     PPWILOF
057200             ADD 1 TO WS-SUB                                      PPWILOF
057300                      WS-LOF-SUB                                  PPWILOF
057400             MOVE WS-SUB TO WS-BOT-ROW                            PPWILOF
057500             PERFORM 7100-MOVE-LOF-TO-SCRN                        PPWILOF
057600         END-IF                                                   PPWILOF
057700     END-IF.                                                      PPWILOF
057800*                                                                 PPWILOF
057900 4200-EXIT.                                                       PPWILOF
058000     EXIT.                                                        PPWILOF
058100                                                                  PPWILOF
058200 4300-PAGE-BACKWARD     SECTION.                                  PPWILOF
058300**************************************************************    PPWILOF
058400* POSITION ON THE PRVIOUS PAGE. FETCH ALL DATA AND MOVE IT   *    PPWILOF
058500* TO THE MAP.                                                *    PPWILOF
058600**************************************************************    PPWILOF
058700     SUBTRACT +1 FROM UCPISCRN-PAGE-NUMBER.                       PPWILOF
058800*                                                                 PPWILOF
058900     PERFORM 8210-OPEN-CURS-LOF.                                  PPWILOF
059000     IF SQLCODE = ZERO                                            PPWILOF
059100         MOVE 'Y' TO WS-FETCH-FLAG                                PPWILOF
059200         PERFORM 5000-LOAD-LOF-TABLE                              PPWILOF
059300                         VARYING WS-SUB FROM 1 BY 1               PPWILOF
059400                         UNTIL WS-SUB > CPWSWORK-LOF-COUNT        PPWILOF
059500         PERFORM 8230-CLOSE-CURS-LOF                              PPWILOF
059600     ELSE                                                         PPWILOF
059700         MOVE 'N' TO WS-FETCH-FLAG                                PPWILOF
059800     END-IF.                                                      PPWILOF
059900                                                                  PPWILOF
060000     IF FETCH-OK                                                  PPWILOF
060100         MOVE  1  TO WS-LOF-SUB                                   PPWILOF
060200         MOVE WS-TOP-ROW TO WS-SUB                                PPWILOF
060300         SUBTRACT +2 FROM WS-SUB                                  PPWILOF
060400         MOVE WS-SUB TO WS-TOP-ROW                                PPWILOF
060500         PERFORM 7100-MOVE-LOF-TO-SCRN                            PPWILOF
060600         IF WS-SUB      <  CPWSWORK-LOF-COUNT                     PPWILOF
060700             ADD 1 TO WS-SUB                                      PPWILOF
060800                      WS-LOF-SUB                                  PPWILOF
060900             MOVE WS-SUB TO WS-BOT-ROW                            PPWILOF
061000             PERFORM 7100-MOVE-LOF-TO-SCRN                        PPWILOF
061100         END-IF                                                   PPWILOF
061200     END-IF.                                                      PPWILOF
061300                                                                  PPWILOF
061400*                                                                 PPWILOF
061500 4300-EXIT.                                                       PPWILOF
061600     EXIT.                                                        PPWILOF
061700                                                                  PPWILOF
061800 5000-LOAD-LOF-TABLE   SECTION.                                   PPWILOF
061900**************************************************************    PPWILOF
062000* GET DATA FROM DB2 LOF TABLE AND MOVE TO WORKING STORAGE    *    PPWILOF
062100**************************************************************    PPWILOF
062200     PERFORM 8220-FETCH-LOF-CURS.                                 PPWILOF
062300*                                                                 PPWILOF
062400     IF SQLCODE = ZERO                                            PPWILOF
104500        MOVE EMPLOYEE-ID OF WS-PPPVLOF                            PPWILOF
104600                         TO WS-LOF-EMP-ID (WS-SUB)                PPWILOF
104700        MOVE LAYOFF-TITLE-CODE                                    PPWILOF
104800          TO WS-LAYOFF-TITLE-CODE (WS-SUB)                        PPWILOF
104900        MOVE LAYOFF-DEPT-CODE                                     PPWILOF
105000          TO WS-LAYOFF-DEPT-CODE (WS-SUB)                         PPWILOF
105100        MOVE LAYOFF-UNIT-CODE                                     PPWILOF
105200          TO WS-LAYOFF-UNIT-CODE (WS-SUB)                         PPWILOF
105300        MOVE LAYOFF-ADC-CODE                                      PPWILOF
105400          TO WS-LAYOFF-ADC-CODE (WS-SUB)                          PPWILOF
105500        MOVE LAYOFF-NOTICE-DATE                                   PPWILOF
105600          TO WS-LAYOFF-NOTICE-DATE (WS-SUB)                       PPWILOF
105700        MOVE LAYOFF-SALARY                                        PPWILOF
105800          TO WS-LAYOFF-SALARY (WS-SUB)                            PPWILOF
105900        MOVE LAYOFF-SALARY-IND                                    PPWILOF
106000          TO WS-LAYOFF-SALARY-IND (WS-SUB)                        PPWILOF
106100        MOVE LAYOFF-PERCNT-TIME                                   PPWILOF
106200          TO WS-LAYOFF-PERCNT-TIME (WS-SUB)                       PPWILOF
106300        MOVE REHIRE-BGN-DATE                                      PPWILOF
106400          TO WS-REHIRE-BGN-DATE (WS-SUB)                          PPWILOF
106500        MOVE REHIRE-EXP-DATE                                      PPWILOF
106600          TO WS-REHIRE-EXP-DATE (WS-SUB)                          PPWILOF
106700        MOVE RHRE-SUSP-BGN-TERM                                   PPWILOF
106800          TO WS-RHRE-SUSP-BGN-TERM (WS-SUB)                       PPWILOF
106900        MOVE REHIRE-SUSP-END                                      PPWILOF
107000          TO WS-REHIRE-SUSP-END (WS-SUB)                          PPWILOF
107100        MOVE RHRE-SUSP-TERM-RSN                                   PPWILOF
107200          TO WS-RHRE-SUSP-TERM-RSN (WS-SUB)                       PPWILOF
107300        MOVE RECALL-BGN-DATE                                      PPWILOF
107400          TO WS-RECALL-BGN-DATE (WS-SUB)                          PPWILOF
107500        MOVE RECALL-EXP-DATE                                      PPWILOF
107600          TO WS-RECALL-EXP-DATE (WS-SUB)                          PPWILOF
107700        MOVE RCLL-SUSP-BGN-TERM                                   PPWILOF
107800          TO WS-RCLL-SUSP-BGN-TERM (WS-SUB)                       PPWILOF
107900        MOVE RECALL-SUSP-END                                      PPWILOF
108000          TO WS-RECALL-SUSP-END (WS-SUB)                          PPWILOF
108100        MOVE RCLL-SUSP-TERM-RSN                                   PPWILOF
108200          TO WS-RCLL-SUSP-TERM-RSN (WS-SUB)                       PPWILOF
108300     ELSE                                                         PPWILOF
108500        MOVE 'N' TO WS-FETCH-FLAG                                 PPWILOF
066500     END-IF.                                                      PPWILOF
066600*                                                                 PPWILOF
066700 5000-EXIT.                                                       PPWILOF
066800     EXIT.                                                        PPWILOF
066900                                                                  PPWILOF
067000 7100-MOVE-LOF-TO-SCRN   SECTION.                                 PPWILOF
067100**************************************************************    PPWILOF
067200*      MOVE DATA TO SCREEN                                   *    PPWILOF
067300**************************************************************    PPWILOF
067400*                                                                 PPWILOF
067500     MOVE CPWSWORK-SEPARATE-DATE TO WS-DB2-DATE.                  PPWILOF
067600     PERFORM 7200-CONV-DATE.                                      PPWILOF
067700     MOVE WS-CONV-DATE     TO SEPARATION-DATEO.                   PPWILOF
067800     MOVE CPWSWORK-LAST-DAY-ON-PAY TO WS-DB2-DATE.                PPWILOF
067900     PERFORM 7200-CONV-DATE.                                      PPWILOF
068000     MOVE WS-CONV-DATE     TO LAST-DAY-ON-PAYO.                   PPWILOF
068100     MOVE CPWSWORK-SEPARATE-REASON TO SEPARATION-REASONO.         PPWILOF
068200*                                                                 PPWILOF
068300     MOVE WS-LAYOFF-NOTICE-DATE(WS-SUB) TO WS-DB2-DATE.           PPWILOF
068400     PERFORM 7200-CONV-DATE.                                      PPWILOF
068500     MOVE WS-CONV-DATE       TO NOTICE-DATEO(WS-LOF-SUB).         PPWILOF
068600     MOVE WS-RECALL-BGN-DATE(WS-SUB) TO WS-DB2-DATE               PPWILOF
068700     PERFORM 7200-CONV-DATE.                                      PPWILOF
068800     MOVE WS-CONV-DATE       TO RECALL-BEGO(WS-LOF-SUB).          PPWILOF
068900     MOVE WS-REHIRE-BGN-DATE(WS-SUB) TO WS-DB2-DATE               PPWILOF
069000     PERFORM 7200-CONV-DATE.                                      PPWILOF
069100     MOVE WS-CONV-DATE       TO PREF-REHIRE-BEGO(WS-LOF-SUB).     PPWILOF
069200     MOVE WS-REHIRE-EXP-DATE(WS-SUB) TO WS-DB2-DATE               PPWILOF
069300     PERFORM 7200-CONV-DATE.                                      PPWILOF
069400     MOVE WS-CONV-DATE       TO PREF-REHIRE-ENDO(WS-LOF-SUB).     PPWILOF
069500     MOVE WS-RECALL-EXP-DATE(WS-SUB) TO WS-DB2-DATE.              PPWILOF
069600     PERFORM 7200-CONV-DATE.                                      PPWILOF
069700     MOVE WS-CONV-DATE       TO RECALL-ENDO(WS-LOF-SUB).          PPWILOF
069800     MOVE CPWSWORK-EMP-REL-CODE TO ERCO (WS-LOF-SUB).             PPWILOF
069900     MOVE WS-LAYOFF-PERCNT-TIME(WS-SUB) TO WS-PERCENT.            PPWILOF
070000     MOVE WS-PERCENT            TO PERCENT-TUC-ERCO(WS-LOF-SUB).  PPWILOF
070100     MOVE WS-RCLL-SUSP-BGN-TERM(WS-SUB) TO WS-DB2-DATE.           PPWILOF
070200     PERFORM 7200-CONV-DATE.                                      PPWILOF
070300     MOVE WS-CONV-DATE       TO RCLL-SUSP-BEGO(WS-LOF-SUB).       PPWILOF
070400     MOVE WS-RHRE-SUSP-BGN-TERM(WS-SUB) TO WS-DB2-DATE.           PPWILOF
070500     PERFORM 7200-CONV-DATE.                                      PPWILOF
070600     MOVE WS-CONV-DATE       TO RHRE-SUSP-BEGO(WS-LOF-SUB).       PPWILOF
070700     MOVE WS-RECALL-SUSP-END(WS-SUB) TO WS-DB2-DATE.              PPWILOF
070800     PERFORM 7200-CONV-DATE.                                      PPWILOF
070900     MOVE WS-CONV-DATE       TO RCLL-SUSP-ENDO(WS-LOF-SUB).       PPWILOF
071000     MOVE WS-RCLL-SUSP-TERM-RSN(WS-SUB) TO WS-DB2-DATE.           PPWILOF
071100     PERFORM 7200-CONV-DATE.                                      PPWILOF
071200     MOVE WS-CONV-DATE       TO RCLL-SUSP-TERM-RSNO(WS-LOF-SUB).  PPWILOF
071300     MOVE WS-REHIRE-SUSP-END(WS-SUB) TO WS-DB2-DATE.              PPWILOF
071400     PERFORM 7200-CONV-DATE.                                      PPWILOF
071500     MOVE WS-CONV-DATE       TO REHIRE-SUSP-ENDO(WS-LOF-SUB).     PPWILOF
071600     MOVE WS-RHRE-SUSP-TERM-RSN(WS-SUB)                           PPWILOF
071700                         TO RHRE-SUSP-TERM-RSNO(WS-LOF-SUB).      PPWILOF
071800     MOVE WS-LAYOFF-TITLE-CODE(WS-SUB)                            PPWILOF
071900                                 TO TITLE-CODEO(WS-LOF-SUB)       PPWILOF
072000                                 WS-TITLE-CODE.                   PPWILOF
072100     MOVE WS-LAYOFF-DEPT-CODE(WS-SUB)                             PPWILOF
072200                               TO LAYOFF-DEPT-CODEO(WS-LOF-SUB)   PPWILOF
072300                               WS-DEPT.                           PPWILOF
072400     PERFORM 8250-SELECT-TTL-DATA.                                PPWILOF
072500     MOVE WS-ABBREV-TITLE TO TITLE-NAMEO (WS-LOF-SUB).            73151304
072501     MOVE WS-TUC          TO TUCO        (WS-LOF-SUB).            73151304
072510********IF SQLCODE = ZERO                                         73151304
072600********   MOVE TCI-TITLE-NM-ABBRV  TO   WS-ABBREV-TITLE          73151304
072700********   MOVE WS-ABBREV-TITLE TO TITLE-NAMEO(WS-LOF-SUB)        73151304
072800********   MOVE TCI-TITLE-UNIT-CD   TO   WS-TUC                   73151304
072900********   MOVE WS-TUC          TO TUCO(WS-LOF-SUB)               73151304
073000********ELSE                                                      73151304
073100********   MOVE SPACES          TO TUCO(WS-LOF-SUB)               73151304
073200********                           TITLE-NAMEO(WS-LOF-SUB)        73151304
073300********                           WS-ABBREV-TITLE                73151304
073400********END-IF.                                                   73151304
073500     PERFORM 8260-SELECT-HME-DATA.                                PPWILOF
073600        IF SQLCODE = ZERO                                         PPWILOF
073700           MOVE WS-DEPT-NAME                                      PPWILOF
073800                           TO LAYOFF-DEPT-NAMEO(WS-LOF-SUB)       PPWILOF
073900        ELSE                                                      PPWILOF
074000           MOVE SPACES TO LAYOFF-DEPT-NAMEO(WS-LOF-SUB)           PPWILOF
074100        END-IF.                                                   PPWILOF
074200     MOVE WS-LAYOFF-UNIT-CODE(WS-SUB)                             PPWILOF
074300                                TO UNITO(WS-LOF-SUB)              PPWILOF
074400                                   WS-UNIT-CODE.                  PPWILOF
074500     PERFORM 8240-SELECT-LUC-DATA                                 PPWILOF
074600     IF SQLCODE = ZERO                                            PPWILOF
074700        MOVE WS-LUC-DESCRIPTION                                   PPWILOF
074800                        TO UNIT-NAMEO(WS-LOF-SUB)                 PPWILOF
074900     ELSE                                                         PPWILOF
075000        MOVE SPACES TO UNIT-NAMEO(WS-LOF-SUB)                     PPWILOF
075100     END-IF.                                                      PPWILOF
075200     IF WS-LAYOFF-SALARY-IND (WS-SUB) = 'H'                       PPWILOF
075300        MOVE WS-LAYOFF-SALARY(WS-SUB)                             PPWILOF
075400                              TO WS-SALARY-HOUR-INT               PPWILOF
075500        MOVE WS-SALARY-HOUR-INT                                   PPWILOF
075600                              TO WS-SALARY-HOUR                   PPWILOF
075700        MOVE WS-SALARY-HOUR                                       PPWILOF
075800                            TO LAYOFF-SALARYO(WS-LOF-SUB)         PPWILOF
075900     ELSE                                                         PPWILOF
076000        MOVE WS-LAYOFF-SALARY(WS-SUB)                             PPWILOF
076100                              TO WS-SALARY-AMT-INT                PPWILOF
076200        MOVE WS-SALARY-AMT-INT                                    PPWILOF
076300                              TO WS-SALARY-AMT                    PPWILOF
076400        MOVE WS-SALARY-AMT                                        PPWILOF
076500                            TO LAYOFF-SALARYO(WS-LOF-SUB)         PPWILOF
076600     END-IF.                                                      PPWILOF
076700                                                                  PPWILOF
076800 7100-EXIT.                                                       PPWILOF
076900     EXIT.                                                        PPWILOF
077000*                                                                 PPWILOF
077100 7200-CONV-DATE  SECTION.                                         PPWILOF
077200**************************************************************    PPWILOF
077300* CONVERT FROM DB2 DATE FORMAT TO 12/21/94 FORMAT            *    PPWILOF
077400**************************************************************    PPWILOF
077500     IF WS-DB2-DATE     =      '01/01/0001'                       PPWILOF
077600        MOVE SPACES             TO WS-CONV-DATE                   PPWILOF
077700     ELSE                                                         PPWILOF
077800        MOVE WS-DB2-DATE-1-6    TO WS-DATE-1-6                    PPWILOF
077900        MOVE WS-DB2-DATE-9-10   TO WS-DATE-7-8                    PPWILOF
078000     END-IF.                                                      PPWILOF
078100                                                                  PPWILOF
078200 7200-EXIT.                                                       PPWILOF
078300     EXIT.                                                        PPWILOF
078400                                                                  PPWILOF
078320 7300-MOVE-PER-TO-SCRN   SECTION.                                 32011144
078330**************************************************************    32011144
078340*      MOVE DATA TO SCREEN                                   *    32011144
078350**************************************************************    32011144
078360*                                                                 32011144
078370     MOVE CPWSWORK-SKL-ACCR-THRU-DATE TO WS-DB2-DATE.             32011144
078380     PERFORM 7200-CONV-DATE.                                      32011144
078390     MOVE WS-CONV-DATE     TO DE0760-SKL-ACCR-THRU-DATEO.         32011144
078391     MOVE CPWSWORK-TERM-SICK-LEAVE TO WS-SICK-BAL-HRS-INIT.       32011144
078392     MOVE WS-SICK-BAL-HRS-INIT TO WS-SICK-BAL-HRS.                32011144
078393     IF CPWSWORK-TERM-SICK-LEAVE = ZERO                           32011144
078394        MOVE SPACES TO DE0722-TERM-SICK-LEAVEO                    32011144
078395     ELSE                                                         32011144
078396        MOVE WS-SICK-BAL-HRS TO DE0722-TERM-SICK-LEAVEO           32011144
078397     END-IF.                                                      32011144
078400                                                                  32011144
078410     IF CPWSWORK-LOF-COUNT = ZERO                                 32011144
078420     AND  CPWSWORK-TOTAL-PAGES = ZERO                             32011144
078430        IF NOT CPWSWORK-DONT-OVERRIDE-MSG                         32011144
078440           IF CPWSWORK-TERM-SICK-LEAVE = ZERO                     32011144
078450              AND WS-CONV-DATE = SPACES                           32011144
078480                CONTINUE                                          32011144
078481           ELSE                                                   32011144
078482                MOVE SPACES TO UCCOMMON-MSG-NUMBER                32011144
078490           END-IF                                                 32011144
078491        END-IF                                                    32011144
078492     END-IF.                                                      32011144
078500                                                                  PPWILOF
078600 8200-GET-PER-DATA  SECTION.                                      PPWILOF
078700**************************************************************    PPWILOF
078800* FETCH THE DATA FROM THE PER TABLE.                         *    PPWILOF
078900**************************************************************    PPWILOF
079000*                                                                 PPWILOF
079100     MOVE 'FETCH PER DATA' TO DB2MSG-TAG.                         PPWILOF
079200     EXEC SQL                                                     PPWILOF
079300       SELECT SEPARATE_DATE,                                      PPWILOF
079400              SEPARATE_REASON,                                    PPWILOF
079500              EMP_REL_CODE,                                       PPWILOF
079600**************LAST_DAY_ON_PAY                                     32011144
079610              LAST_DAY_ON_PAY,                                    32011144
079620              TERM_SICK_LEAVE,                                    32011144
079630              SKL_ACCR_THRU_DATE                                  32011144
079700         INTO                                                     PPWILOF
079800              :CPWSWORK-SEPARATE-DATE,                            PPWILOF
079900              :CPWSWORK-SEPARATE-REASON,                          PPWILOF
080000              :CPWSWORK-EMP-REL-CODE,                             PPWILOF
080100**************:CPWSWORK-LAST-DAY-ON-PAY                           32011144
080101              :CPWSWORK-LAST-DAY-ON-PAY,                          32011144
080110              :CPWSWORK-TERM-SICK-LEAVE,                          32011144
080120              :CPWSWORK-SKL-ACCR-THRU-DATE                        32011144
080200         FROM PPPVZPER_PER                                        PPWILOF
080300         WHERE EMPLOYEE_ID = :WS-UNIQUE-EE-ID                     PPWILOF
080400     END-EXEC.                                                    PPWILOF
080410     IF SQLCODE NOT = ZERO                                        32011144
080420        MOVE SPACES TO CPWSWORK-SKL-ACCR-THRU-DATE                32011144
080430        MOVE ZERO   TO CPWSWORK-TERM-SICK-LEAVE                   32011144
080440     END-IF.                                                      32011144
080500*                                                                 PPWILOF
080600 8200-EXIT.                                                       PPWILOF
080700     EXIT.                                                        PPWILOF
080800*                                                                 PPWILOF
080900 8210-OPEN-CURS-LOF  SECTION.                                     PPWILOF
081000**************************************************************    PPWILOF
081100*    OPEN LOF CURSOR                                         *    PPWILOF
081200**************************************************************    PPWILOF
081300*                                                                 PPWILOF
081400     MOVE 'OPEN LOF CURSOR' TO DB2MSG-TAG.                        PPWILOF
081500     EXEC SQL                                                     PPWILOF
081600        OPEN LOF-CURS                                             PPWILOF
081700     END-EXEC.                                                    PPWILOF
081800*                                                                 PPWILOF
081900 8210-EXIT.                                                       PPWILOF
082000     EXIT.                                                        PPWILOF
082100*                                                                 PPWILOF
082200 8220-FETCH-LOF-CURS   SECTION.                                   PPWILOF
082300**************************************************************    PPWILOF
082400*   FETCH DATA FROM THE LOF TABLE                            *    PPWILOF
082500**************************************************************    PPWILOF
082600*                                                                 PPWILOF
082700     MOVE 'FETCH  LOF CURSOR' TO DB2MSG-TAG.                      PPWILOF
082800                                                                  PPWILOF
082900     EXEC SQL                                                     PPWILOF
083000       FETCH LOF-CURS INTO                                        PPWILOF
083100              :WS-PPPVLOF                                         PPWILOF
110200     END-EXEC.                                                    PPWILOF
110300                                                                  PPWILOF
083400 8220-EXIT.                                                       PPWILOF
083500     EXIT.                                                        PPWILOF
083600                                                                  PPWILOF
083700 8230-CLOSE-CURS-LOF  SECTION.                                    PPWILOF
083800**************************************************************    PPWILOF
083900*   CLOSE LOF CURSOR                                         *    PPWILOF
084000**************************************************************    PPWILOF
084100*                                                                 PPWILOF
084200     MOVE 'CLOSE LOF CURSOR' TO DB2MSG-TAG.                       PPWILOF
084300     EXEC SQL                                                     PPWILOF
084400          CLOSE LOF-CURS                                          PPWILOF
084500     END-EXEC.                                                    PPWILOF
084600*                                                                 PPWILOF
084700 8230-EXIT.                                                       PPWILOF
084800     EXIT.                                                        PPWILOF
084900                                                                  PPWILOF
110400 8240-SELECT-LUC-DATA.                                            PPWILOF
085100**************************************************************    PPWILOF
085200*   FETCH DATA FROM LUC TABLE                                *    PPWILOF
085300**************************************************************    PPWILOF
085400*                                                                 PPWILOF
085500     MOVE 'FETCH LUC DATA'  TO DB2MSG-TAG.                        PPWILOF
110600     EXEC SQL                                                     PPWILOF
110700       SELECT                                                     PPWILOF
110800              LUC_DESCRIPTION                                     PPWILOF
110900         INTO :WS-LUC-DESCRIPTION                                 PPWILOF
111000         FROM PPPVZLUC_LUC                                        PPWILOF
111100         WHERE LUC_LAYOFF_UNIT_CD = :WS-UNIT-CODE                 PPWILOF
111200     END-EXEC.                                                    PPWILOF
086300*                                                                 PPWILOF
086400 8240-EXIT.                                                       PPWILOF
086500     EXIT.                                                        PPWILOF
111300                                                                  PPWILOF
086700 8250-SELECT-TTL-DATA.                                            PPWILOF
086800**************************************************************    PPWILOF
086900*   SELECT TITLE CODE DATA                                   *    PPWILOF
087000**************************************************************    PPWILOF
087100*                                                                 PPWILOF
087200*****MOVE 'FETCH TITLE CODE DATA' TO DB2MSG-TAG.                  73151304
087300********                                                          73151304
087400*****EXEC    SQL                                                  73151304
087500********     SELECT              *                                73151304
087600********               INTO      :WS-PPPVTCI                      73151304
087700********               FROM      PPPVZTCI_TCI                     73151304
087800********               WHERE     TCI_TITLE_CODE                   73151304
087900********                         =    :WS-TITLE-CODE              73151304
088000********                    AND  TCI_UPDT_TIMESTAMP               73151304
088100********                         =                                73151304
088200********               (SELECT   MAX  (TCI_UPDT_TIMESTAMP)        73151304
088300********                    FROM PPPVZTCI_TCI                     73151304
088400********                    WHERE     TCI_TITLE_CODE              73151304
088500********                         =    :WS-TITLE-CODE)             73151304
088600*****END-EXEC.                                                    73151304
088601                                                                  73151304
088610     MOVE WS-TITLE-CODE TO XTCL-CHOSEN-TITLE-CODE.                73151304
088620     SET XTCL-READ-CHOSEN-TITLE        TO TRUE.                   73151304
088630     SET XTCL-READ-CHOSEN-DATE-CURRENT TO TRUE.                   73151304
088640     CALL WS-PGM-PPTCTUTL.                                        73151304
088650                                                                  73151304
088651     IF  XTCL-STATUS-NORMAL-END                                   73151304
088652         IF  XTCL-TITLE-EXISTS                                    73151304
088653             MOVE XTCL-TITLE-NAME-ABBREVIATED                     73151304
088654               TO WS-ABBREV-TITLE                                 73151304
088655             MOVE XTCL-TITLE-UNIT-CODE                            73151304
088656               TO WS-TUC                                          73151304
088657         ELSE                                                     73151304
088658             MOVE SPACES TO WS-ABBREV-TITLE, WS-TUC               73151304
088660         END-IF                                                   73151304
088661     ELSE                                                         73151304
088662         MOVE SPACES TO WS-ABBREV-TITLE, WS-TUC                   73151304
088664     END-IF.                                                      73151304
088670                                                                  73151304
088700*                                                                 PPWILOF
088800 8250-EXIT.                                                       PPWILOF
088900     EXIT.                                                        PPWILOF
089000                                                                  PPWILOF
089100 8260-SELECT-HME-DATA.                                            PPWILOF
089200**************************************************************    PPWILOF
089300*    SELECT HOME DEPT. NAME FROM HOME DEPT. TABLE            *    PPWILOF
089400**************************************************************    PPWILOF
089500*                                                                 PPWILOF
089600     MOVE 'FETCH  HME DATA' TO DB2MSG-TAG.                        PPWILOF
089700*                                                                 PPWILOF
089800     EXEC SQL                                                     PPWILOF
089900       SELECT                                                     PPWILOF
090000              HME_ABRV_DEPT_NAME                                  PPWILOF
090100         INTO :WS-DEPT-NAME                                       PPWILOF
090200         FROM PPPVZHME_HME                                        PPWILOF
090300         WHERE HME_DEPT_NO = :WS-DEPT                             PPWILOF
090400     END-EXEC.                                                    PPWILOF
090500*                                                                 PPWILOF
090600 8260-EXIT.                                                       PPWILOF
090700     EXIT.                                                        PPWILOF
090800 8300-SELECT-COUNT-PAGE  SECTION.                                 PPWILOF
090900**************************************************************    PPWILOF
091000*   COUNT LOF RECORDS                                        *    PPWILOF
091100**************************************************************    PPWILOF
091200*                                                                 PPWILOF
091300     MOVE 'COUNT LOF RECORDS' TO DB2MSG-TAG.                      PPWILOF
091400     EXEC SQL                                                     PPWILOF
113700        SELECT COUNT (*)                                          PPWILOF
113800        INTO :WS-COUNT                                            PPWILOF
113900        FROM PPPVZLOF_LOF                                         PPWILOF
114000        WHERE EMPLOYEE_ID = :WS-EMPLOYEE-ID                       PPWILOF
091900          AND LAYOFF_NOTICE_DATE ^= '12/31/9999'                  PPWILOF
114200     END-EXEC.                                                    PPWILOF
092100*                                                                 PPWILOF
092200 8300-EXIT.                                                       PPWILOF
092300     EXIT.                                                        PPWILOF
092400     EJECT                                                        PPWILOF
092500*999999-SQL-ERROR SECTION.                                        PPWILOF
092600**************************************************************    PPWILOF
092700*  COPIED PROCEDURE DIVISION CODE FOR SQL ERROR HANDLING     *    PPWILOF
092800**************************************************************    PPWILOF
114300                                                                  PPWILOF
093000      EXEC SQL                                                    PPWILOF
093100           INCLUDE CPPDXP99                                       PPWILOF
093200      END-EXEC.                                                   PPWILOF
117100                                                                  PPWILOF
093400      MOVE 'SQL ERROR - SEE PRECEDING DB2 MESSAGES'               PPWILOF
093500                                      TO UCWSABND-ABEND-DATA (1). PPWILOF
117300                                                                  PPWILOF
093700      PERFORM 9999-ABEND.                                         PPWILOF
117500                                                                  PPWILOF
093900 999999-EXIT.                                                     PPWILOF
094000       EXIT.                                                      PPWILOF
117700                                                                  PPWILOF
094200       EJECT                                                      PPWILOF
118100                                                                  PPWILOF
094400 9999-ABEND    SECTION.                                           PPWILOF
094500**************************************************************    PPWILOF
094600*  COPIED PROCEDURE DIVISION CODE FOR ABEND HANDLING         *    PPWILOF
094700**************************************************************    PPWILOF
118400                                                                  PPWILOF
094900     MOVE 'PPWILOF' TO UCWSABND-ABENDING-PGM.                     PPWILOF
118600                                                                  PPWILOF
095100     COPY UCPDABND.                                               PPWILOF
118800                                                                  PPWILOF
095300 9999-EXIT.                                                       PPWILOF
095400     EXIT.                                                        PPWILOF
119000                                                                  PPWILOF
095600     EJECT                                                        PPWILOF
095700***************    END OF SOURCE - PPWILOF     *******************PPWILOF
