000100*===========================================================%     UCSD0072
000200*=  UCSD LOCAL CHANGES HAVE BEEN IMPLEMENTED.              =%     UCSD0072
000300*=  COLUMN 73 THRU 80 DENOTES CHANGE NUMBER - UCSD9999     =%     UCSD0072
000400*=                                                         =%     UCSD0072
000500*===========================================================%     UCSD0072
000600*===========================================================%     UCSD0097
000700*=    PROGRAM: PPWIPER                                     =%     UCSD0097
000710*=    CHANGE # 0097         PROJ. REQUEST: 0097            =%     UCSD0097
000720*=    NAME: BOB ORTIZ       MODIFICATION DATE: 05/09/97    =%     UCSD0097
000730*=                                                         =%     UCSD0097
000740*=  ADDED LOCAL FIELD EXT-REF-1-ID.                        =%     UCSD0097
000750*===========================================================%     UCSD0097
000600*===========================================================%     UCSD0072
000700*=    PROGRAM: PPWIPER                                     =%     UCSD0072
000092*=    CHANGE # 0072         PROJ. REQUEST: 0072            =%     UCSD0072
000093*=    NAME: RON BLOCK       MODIFICATION DATE: 07/07/95    =%     UCSD0072
000093*=    NAME: G CHIU          MODIFICATION DATE: 09/25/00    =%     UCSD0072
001000*=  9/25/00                                                =%     UCSD0072
001000*=  MOVED MIALDROP TO IADD SCREEN                          =%     UCSD0072
001000*=                                                         =%     UCSD0072
000095*=  ADDED LOCAL FIELD SURE-MAILDROP.                       =%     UCSD0072
001600*===========================================================%     UCSD0072
000600*===========================================================%     UCSD0072
000700*=    PROGRAM: PPWIPER                                     =%     UCSD0072
000092*=    CHANGE # 0072         PROJ. REQUEST: 0072            =%     UCSD0072
000093*=    NAME: RON BLOCK       MODIFICATION DATE: 05/24/95    =%     UCSD0072
001000*=                                                         =%     UCSD0072
000095*=  ADDED LOCAL FIELDS TIMEKEEP-DEPT AND TIMEKEEP-SUB.     =%     UCSD0072
001600*===========================================================%     UCSD0072
000000**************************************************************/   51231302
000001*  PROGRAM: PPWIPER                                          */   51231302
000002*  RELEASE: ___1302______ SERVICE REQUEST(S): ____15323____  */   51231302
000004*  NAME:___ROY STAPLES___ MODIFICATION DATE:  ___08/03/00__  */   51231302
000005*  DESCRIPTION:                                              */   51231302
000006*  - REMOVED THE FOLLOWING ELEMENTS:                         */   51231302
000007*    CAMPUS MAIL ADDRESS        PERM AD - LINE 1             */   51231302
000008*    ROOM                       PERM AD - LINE 2             */   51231302
000008*    BUILDING                   PERM CITY                    */   51231302
000008*    PHONE 1                    PERM STATE                   */   51231302
000008*    PHONE 2                    PERM ZIP                     */   51231302
000008*    HM PHONE                   SPOUSE NAME                  */   51231302
000008*    FOREIGN ADDR IND                                        */   51231302
000008*    PERM ADDR DISCLOSURE       SPOUSE NAME RELEASE          */   51231302
000008*    HOME PHONE DISCLOSURE      FOREIGN ADDRESS              */   51231302
000008*    HOME ADDR RELEASE          FOREIGN COUNTRY CODE         */   51231302
000008*    HOME PHONE RELEASE                                      */   51231302
000010**************************************************************/   51231302
000000**************************************************************/   EFIX1261
000001*  PROGRAM: PPWIPER                                          */   EFIX1261
000002*  RELEASE: ___1261______ ERROR REPORT: ___________1646____  */   EFIX1261
000003*  REFERENCE:__1253______                                    */   EFIX1261
000004*  NAME:_______WJG_______ MODIFICATION DATE:  ___11/16/99__  */   EFIX1261
000005*  DESCRIPTION:                                              */   EFIX1261
000006*                                                            */   EFIX1261
000007*  CORRECTION OF DISPLAY PROBLEM INTRODUCED WITH RELEASE     */   EFIX1261
000008*  1253                                                      */   EFIX1261
000009*                                                            */   EFIX1261
000010**************************************************************/   EFIX1261
000000**************************************************************/   54181253
000001*  PROGRAM: PPWIPER                                          */   54181253
000002*  RELEASE: ___1253______ SERVICE REQUEST(S): _15418, 15419  */   54181253
000003*  NAME:_______WJG_______ MODIFICATION DATE:  ___06/30/99__  */   54181253
000004*  DESCRIPTION:                                              */   54181253
000005*                                                            */   54181253
000006*  MODIFIED DOCUMENT FORMAT TO ACCOMMODATE NEW EDB ELEMENTS: */   54181253
000007*                                                            */   54181253
000008*        HOME-ADDR-RLSE         (EDB 0244)                   */   54181253
000009*        HOME-PHONE-RLSE        (EDB 0245)                   */   54181253
000010*        SPOUSE-NAME-RLSE       (EDB 0246)                   */   54181253
000011*        EMP-ORG-ADDR-RLSE      (EDB 0247)                   */   54181253
000012*        EMP-ORG-PHONE-RLSE     (EDB 0248)                   */   54181253
000013*                                                            */   54181253
000020*  AND THE OBSOLETION OF THE FOLLOWING ELEMENTS:             */   54181253
000021*                                                            */   54181253
000022*        ADDR-DISCLOSURE1       (EDB 0211)                   */   54181253
000023*        ADDR-DISCLOSURE2       (EDB 0212)                   */   54181253
000024*        SPOUSE-DISC-IND        (EDB 0213)                   */   54181253
000025*        EMP-ORGAN-DISCLO       (EDB 0214)                   */   54181253
000026*                                                            */   54181253
000027**************************************************************/   54181253
000010**************************************************************/   42771059
000020*  PROGRAM: PPWIPER                                          */   42771059
000030*  RELEASE: ___1059______ SERVICE REQUEST(S): ____14277____  */   42771059
000040*  NAME:____G STEINITZ___ MODIFICATION DATE:  ___04/04/96__  */   42771059
000050*  DESCRIPTION:                                              */   42771059
000060*   CHANGED DISCLOSURE INDICATORS FROM 0,1 TO Y,N            */   42771059
000080**************************************************************/   42771059
000100**************************************************************/   17040930
000200*  PROGRAM: PPWIPER                                          */   17040930
000300*  RELEASE: ___0930______ SERVICE REQUEST(S): ____11704____  */   17040930
000400*  NAME:_____M. SANO_____ MODIFICATION DATE:  ___09/20/94__  */   17040930
000500*  DESCRIPTION:                                              */   17040930
000600*   ADDED EMPLOYMENT SERVICE CREDIT AND DATE FROM            */   17040930
000700*       (D.E. 0719 AND 0720)                                 */   17040930
000800**************************************************************/   17040930
000100**************************************************************/   36430911
000200*  PROGRAM: PPWIPER                                          */   36430911
000300*  RELEASE # ___0911___   SERVICE REQUEST NO(S)____3643______*/   36430911
000400*  NAME _PHIL THOMPSON_   MODIFICATION DATE ____06/30/94_____*/   36430911
000500*  DESCRIPTION                                               */   36430911
000600*                                                            */   36430911
000700*        THIS IS A COMPLETE REPLACEMENT OF PPWIPER           */   36430911
000800*                AS ISSUED IN RELEASE 0795                   */   36430911
000900*                                                            */   36430911
001000**************************************************************/   36430911
003100 IDENTIFICATION DIVISION.                                         PPWIPER
003200 PROGRAM-ID. PPWIPER.                                             PPWIPER
003300 ENVIRONMENT DIVISION.                                            PPWIPER
001400 CONFIGURATION SECTION.                                           PPWIPER
001500 SOURCE-COMPUTER.                                                 PPWIPER
001600 COPY  CPOTXUCS.                                                  PPWIPER
003400 DATA DIVISION.                                                   PPWIPER
003500 WORKING-STORAGE SECTION.                                         PPWIPER
003600                                                                  PPWIPER
003800                                                                  PPWIPER
002100 01  WS-COMN.                                                     PPWIPER
002200     05  WS-START               PIC X(27) VALUE                   PPWIPER
002300         'WORKING STORAGE STARTS HERE'.                           PPWIPER
002400     05  WS-PGM-NAME            PIC X(08) VALUE 'PPWIPER'.        PPWIPER
003300*****                                                          CD 51231302
003400*****05  WS-REL-NO              PIC X(05) VALUE 'I0930'.          51231302
003400     05  WS-REL-NO              PIC X(05) VALUE 'I1302'.          51231302
006500     05  WS-UNIQUE-EE-ID        PIC X(09) VALUE SPACES.           PPWIPER
006600     05  WS-NULL-DATE           PIC X(10) VALUE '01/01/0001'.     PPWIPER
006700     05  WS-ZEROS               PIC X(11) VALUE '       .00 '.    PPWIPER
009200     05  WS-Y-BAL-IND           PIC X(01) VALUE 'Y'.              PPWIPER
009400     05  WS-YES                 PIC X(03) VALUE 'YES'.            PPWIPER
009500     05  WS-NO                  PIC X(03) VALUE 'NO '.            PPWIPER
009600     05  WS-CREDIT-DATE.                                          PPWIPER
009700         10  WS-CREDIT-DATE-1-6  PIC X(6) VALUE SPACES.           PPWIPER
009800         10  WS-CREDIT-DATE-7-8  PIC X(2) VALUE SPACES.           PPWIPER
009900         10  WS-CREDIT-DATE-9-10 PIC X(2) VALUE SPACES.           PPWIPER
010000     05  WS-CREDIT-DFOR.                                          PPWIPER
010100         10  WS-CREDIT-DFOR-1-6  PIC X(6) VALUE SPACES.           PPWIPER
010200         10  WS-CREDIT-DFOR-7-8  PIC X(2) VALUE SPACES.           PPWIPER
004800     05  WS-ESC-DATE.                                             17040930
004900         10  WS-ESC-YEAR.                                         17040930
005000             15 WS-ESC-CC            PIC X(2).                    17040930
005100             15 WS-ESC-YY            PIC X(2).                    17040930
005200         10  FILLER                  PIC X.                       17040930
005300         10  WS-ESC-MONTH            PIC X(2).                    17040930
005400         10  FILLER                  PIC X.                       17040930
005500         10  WS-ESC-DAY              PIC X(2).                    17040930
005600     05  WS-ESC-DATE-OUT.                                         17040930
005700         10  WS-ESC-MO               PIC X(2) VALUE SPACE.        17040930
005800         10  WS-ESC-SEP              PIC X(1) VALUE '/'.          17040930
005900         10  WS-ESC-YR               PIC X(2) VALUE SPACE.        17040930
003900                                                                  PPWIPER
010300 01  WS-FLAGS.                                                    PPWIPER
010400     05  WS-PF-FLAG.                                              PPWIPER
010500         88  COMMAND-FUNC       VALUE      'FF'.                  PPWIPER
010600         10  WS-PF-FLAG1        PIC X      VALUE SPACE.           PPWIPER
010700         10  WS-PF-FLAG2        PIC X      VALUE SPACE.           PPWIPER
010800     05  WS-ERROR-FLAG          PIC X      VALUE 'N'.             PPWIPER
010900         88 NO-ERROR                       VALUE 'N'.             PPWIPER
011000         88 AN-ERROR                       VALUE 'Y'.             PPWIPER
004800     EJECT                                                        PPWIPER
011500                                                                  PPWIPER
005000 01  UCDTLARE  EXTERNAL.                                          PPWIPER
005100     COPY UCDTLARE.                                               PPWIPER
005200 01  WS-PPIPER0 REDEFINES UCDTLARE.                               PPWIPER
005300     COPY PPIPER0.                                                PPWIPER
005400     EJECT                                                        PPWIPER
011800                                                                  PPWIPER
005600 01  UCCOMMON    EXTERNAL.                                        PPWIPER
012300     EXEC SQL                                                     PPWIPER
005800      INCLUDE UCCOMMON                                            PPWIPER
012500     END-EXEC.                                                    PPWIPER
006000     EJECT                                                        PPWIPER
012600                                                                  PPWIPER
006200 01  CPWSWORK    EXTERNAL.                                        PPWIPER
006300     EXEC SQL                                                     PPWIPER
006400      INCLUDE CPWSWORK                                            PPWIPER
006500     END-EXEC.                                                    PPWIPER
006600     EJECT                                                        PPWIPER
013300                                                                  PPWIPER
006800 01  UCPISCRN    EXTERNAL.                                        PPWIPER
006900     COPY UCPISCRN.                                               PPWIPER
007000     EJECT                                                        PPWIPER
013500                                                                  PPWIPER
007200 01  UCWSABND    EXTERNAL.                                        PPWIPER
007300     COPY UCWSABND.                                               PPWIPER
013700                                                                  PPWIPER
007500 01  PPDB2MSG-INTERFACE.                                          PPWIPER
007600     COPY CPLNKDB2.                                               PPWIPER
007700     EJECT                                                        PPWIPER
014000                                                                  PPWIPER
014100******************************************************************PPWIPER
014200*          SQL - WORKING STORAGE                                 *PPWIPER
014300******************************************************************PPWIPER
008200*          EDB TABLES                                            *PPWIPER
008300******************************************************************PPWIPER
014400                                                                  PPWIPER
014500*01  WS-PPCMPP.                                                   51231302
014600***** EXEC SQL                                                    51231302
014700*****      INCLUDE PPPVZCMP                                       51231302
014800***** END-EXEC.                                                   51231302
014900*****                                                             51231302
015000*01  WS-PPPFAD.                                                   51231302
015100***** EXEC SQL                                                    51231302
015200*****      INCLUDE PPPVZFAD                                       51231302
015300***** END-EXEC.                                                   51231302
015400*****                                                             51231302
016000*01  WS-PPPPAY.                                                   51231302
016100***** EXEC SQL                                                    51231302
016200*****      INCLUDE PPPVZPAY                                       51231302
016300***** END-EXEC.                                                   51231302
016400                                                                  PPWIPER
016500 01  WS-PPPPCC.                                                   PPWIPER
016600      EXEC SQL                                                    PPWIPER
016700           INCLUDE PPPVZPCC                                       PPWIPER
016800      END-EXEC.                                                   PPWIPER
016900                                                                  PPWIPER
017000 01  WS-PPPPER.                                                   PPWIPER
017100      EXEC SQL                                                    PPWIPER
017200           INCLUDE PPPVZPER                                       PPWIPER
017300      END-EXEC.                                                   PPWIPER
017400                                                                  PPWIPER
011000******************************************************************PPWIPER
011100*          CTL TABLES                                            *PPWIPER
011200******************************************************************PPWIPER
011300                                                                  PPWIPER
011400 01  WS-PPPHME.                                                   PPWIPER
017500      EXEC SQL                                                    PPWIPER
011600           INCLUDE PPPVZHME                                       PPWIPER
017700      END-EXEC.                                                   PPWIPER
017800                                                                  PPWIPER
011900 01  WS-PPPFCT.                                                   PPWIPER
012000      EXEC SQL                                                    PPWIPER
012100           INCLUDE PPPVZFCT                                       PPWIPER
012200      END-EXEC.                                                   PPWIPER
012300                                                                  PPWIPER
012400     EJECT                                                        PPWIPER
017900******************************************************************PPWIPER
012600*          SQLCA                                                 *PPWIPER
018300******************************************************************PPWIPER
019700                                                                  PPWIPER
012900      EXEC SQL                                                    PPWIPER
013000           INCLUDE SQLCA                                          PPWIPER
013100      END-EXEC.                                                   PPWIPER
013200                                                                  PPWIPER
019800 LINKAGE SECTION.                                                 PPWIPER
019900                                                                  PPWIPER
020200 PROCEDURE DIVISION.                                              PPWIPER
013600 0000-MAIN-LINE        SECTION.                                   PPWIPER
013700**************************************************************    PPWIPER
013800*                                                            *    PPWIPER
013900*    MAIN PROCESSING LOOP.                                   *    PPWIPER
014000*                                                            *    PPWIPER
014100**************************************************************    PPWIPER
020300                                                                  PPWIPER
014300     EXEC SQL                                                     PPWIPER
014400          INCLUDE CPPDXE99                                        PPWIPER
020700     END-EXEC.                                                    PPWIPER
020800                                                                  PPWIPER
014700     PERFORM 1000-INITIALIZATION.                                 PPWIPER
014800     PERFORM 2000-INIT-SCREEN                                     PPWIPER
014900     PERFORM 3000-DISPLAY-DATA.                                   PPWIPER
022600                                                                  PPWIPER
022700     GOBACK.                                                      PPWIPER
022800                                                                  PPWIPER
015300 0000-EXIT.                                                       PPWIPER
015400     EXIT.                                                        PPWIPER
023000                                                                  PPWIPER
015600     EJECT                                                        PPWIPER
023300                                                                  PPWIPER
015800 1000-INITIALIZATION   SECTION.                                   PPWIPER
015900**************************************************************    PPWIPER
016000*                                                            *    PPWIPER
016100*    UCROUTER CALLS THIS PROGRAM TWICE WHEN PROCESSING FROM  *    PPWIPER
016200*    THE SAME SCREEN. WORKING STORAGE IS NOT REFRESHED THE   *    PPWIPER
016300*    SECOND TIME SO EXPLICIT INITIALIZATION MUST OCCUR HERE  *    PPWIPER
016400*    FOR OBJECTS WHICH CONTROL PROCESSING LOGIC.             *    PPWIPER
016500*                                                            *    PPWIPER
016600**************************************************************    PPWIPER
024400                                                                  PPWIPER
016800     MOVE WS-PGM-NAME TO UCWSABND-ABENDING-PGM.                   PPWIPER
016900     MOVE WS-PGM-NAME TO DB2MSG-PGM-ID.                           PPWIPER
024600                                                                  PPWIPER
017100     MOVE LOW-VALUES TO UCDTLARE.                                 PPWIPER
017200     MOVE ZERO TO UCCOMMON-RETURN-CODE.                           PPWIPER
017300     MOVE ZERO TO CPWSWORK-CURRENT-PAGE.                          PPWIPER
017400     MOVE ZERO TO CPWSWORK-TOTAL-PAGES.                           PPWIPER
017500     MOVE LENGTH OF PPIPER0O TO UCPISCRN-DETAIL-MAP-LENGTH.       PPWIPER
017600     MOVE WS-REL-NO TO UCPISCRN-DTL-REL-NO.                       PPWIPER
030100                                                                  PPWIPER
017800     MOVE 'BROWSE' TO UCPISCRN-ADDL-LOGIC-FUNC (1).               PPWIPER
030400                                                                  PPWIPER
018000 1000-EXIT.                                                       PPWIPER
018100     EXIT.                                                        PPWIPER
034500                                                                  PPWIPER
018300     EJECT                                                        PPWIPER
045500                                                                  PPWIPER
045700                                                                  PPWIPER
018600 2000-INIT-SCREEN      SECTION.                                   PPWIPER
018700**************************************************************    PPWIPER
018800*                                                            *    PPWIPER
018900*    INITIALIZE 'C' AND 'H' ATTRIBUTES. 'A' ATTRIBUTES ARE   *    PPWIPER
019000*    DEFINED IN THE MAP.                                     *    PPWIPER
019100*                                                            *    PPWIPER
019200**************************************************************    PPWIPER
052400                                                                  PPWIPER
019400     MOVE UCCOMMON-CLR-FLD-LABEL TO                               PPWIPER
019500                           LDEPT-ADDRESSC                         PPWIPER
019500                           LEXT-REF-1-IDC                         UCSD0097
019500                           LTIMEKEEPER-DEPTC                      UCSD0072
019500*****                      LSURE-MAILDROPC                        UCSD0072
019600*****                      LCAMPUS-ADDRESSC                       51231302
019700*****                      LSPOUSE-NAMEC                          51231302
019800*****                      LCAMPUS-ROOMC                          51231302
019900                           LSTUDENT-STATUSC                       PPWIPER
020000*****                      LCAMPUS-BLDGC                          51231302
022200*****                                                          CD 51231302
022210*****                      LEMP-ORG-ADDR-RLSEC                    51231302
020200                           LEDU-LEVELC                            PPWIPER
020300*****                      LCAMPUS-PHONE1C                        51231302
020400                           LEDU-LEVEL-YRC                         PPWIPER
022600*****                                                          CD 51231302
022610*****                      LEMP-ORG-PHONE-RLSEC                   51231302
020600*****                      LCAMPUS-PHONE2C                        51231302
022810*****                                                          CD 51231302
022820*****                      LHOME-ADDR-RLSEC                       51231302
020800                           LPRIOR-SERVICE-CODEC                   PPWIPER
020900*****                      LHOME-PHONEC                           51231302
023010*****                      LHOME-PHONE-RLSEC                      51231302
021000                           LPRIOR-SERVICE-MTHSC                   PPWIPER
021100*****                      LFOREIGN-ADDR-INDC                     51231302
023300*****                                                          CD 51231302
023310*****                      LSPOUSE-NAME-RLSEC                     51231302
021300                           LCREDIT-CARDTYPEC                      PPWIPER
021400*****                      LCREDIT-CARD-TYPEC                     51231302
021500                           LCREDIT-CARDSTATUSC                    PPWIPER
021600*****                      LADDRESS-LINE1C                        51231302
021700                           LCREDIT-CARDDATEC                      PPWIPER
021800*****                      LPROVINCEC                             51231302
024000                           LEMPLMT-CREDITC                        17040930
024100                           LCREDIT-FROM-DATEC.                    51231302
024100*****                      LCREDIT-FROM-DATEC                     51231302
021900*****                      LCOUNTRYC.                             51231302
052600                                                                  PPWIPER
022100     MOVE UCCOMMON-CLR-NORM-DISPL TO                              PPWIPER
022200                           DEPT-ADDRESSC                          PPWIPER
019500                           EXT-REF-1-IDC                          UCSD0097
019500                           TIMEKEEPER-DEPTC                       UCSD0072
019500                           TIMEKEEPER-SUBC                        UCSD0072
019500*****                      SURE-MAILDROPC                         UCSD0072
022300*****                      CAMPUS-ADDRESSC                        51231302
022400*****                      SPOUSE-NAMEC                           51231302
022500*****                      CAMPUS-ROOMC                           51231302
022600                           STUDENT-STATUSC                        PPWIPER
022700*****                      CAMPUS-BLDGC                           51231302
025100*****                                                          CD 51231302
025110*****                      EMP-ORG-ADDR-RLSEC                     51321302
022900                           EDU-LEVELC                             PPWIPER
023000*****                      CAMPUS-PHONE1C                         51321302
025400*****                                                          CD 51231302
025410*****                      EMP-ORG-PHONE-RLSEC                    51231302
023200                           EDU-LEVEL-YRC                          PPWIPER
023300*****                      CAMPUS-PHONE2C                         51231302
025700*****                                                          CD 51231302
025710*****                      HOME-ADDR-RLSEC                        51231302
023500                           PRIOR-SERVICE-CODEC                    PPWIPER
023600*****                      HOME-PHONEC                            51231302
025910*****                      HOME-PHONE-RLSEC                       51231302
023700                           PRIOR-SERVICE-MTHSC                    PPWIPER
023800*****                      FOREIGN-ADDR-INDC                      51231302
026200*****                                                          CD 51231302
026210*****                      SPOUSE-NAME-RLSEC                      51231302
024000*****                      ADDRESS-LINE1C                         51231302
024100                           CREDIT-CARDTYPEC                       PPWIPER
024200*****                      ADDRESS-LINE2C                         51231302
024300                           CREDIT-CARDSTATUSC                     PPWIPER
024400*****                      ADDRESS-CITYC                          51231302
024500*****                      ADDRESS-STATEC                         51231302
024600*****                      ADDRESS-ZIPC                           51231302
024600*****                                                             51231302
024700                           CREDIT-CARDDATEC                       PPWIPER
024800*****                      PROVINCEC                              51231302
024900*****                      POSTAL-CODEC                           51231302
027300                           EMPLMT-CREDITC                         17040930
027400*****                      CREDIT-FROM-DATEC                      51231302
027400                           CREDIT-FROM-DATEC.                     51231302
025000*****                      FOREIGN-ADDR-CNTRYC.                   51231302
053300                                                                  PPWIPER
025200     MOVE UCCOMMON-HLT-FLD-LABEL TO                               PPWIPER
025300                           LDEPT-ADDRESSH                         PPWIPER
025300                           LEXT-REF-1-IDH                         UCSD0097
019500                           LTIMEKEEPER-DEPTH                      UCSD0072
019500*****                      LSURE-MAILDROPH                        UCSD0072
025400*****                      LCAMPUS-ADDRESSH                       51231302
025500*****                      LSPOUSE-NAMEH                          51231302
025600*****                      LCAMPUS-ROOMH                          51231302
025700                           LSTUDENT-STATUSH                       PPWIPER
025800*****                      LCAMPUS-BLDGH                          51231302
028400*****                                                          CD 51231302
028410*****                      LEMP-ORG-ADDR-RLSEH                    51231302
026000                           LEDU-LEVELH                            PPWIPER
026100*****                      LCAMPUS-PHONE1H                        51231302
026200                           LEDU-LEVEL-YRH                         PPWIPER
028800*****                                                          CD 51231302
028810*****                      LEMP-ORG-PHONE-RLSEH                   51231302
026400*****                      LCAMPUS-PHONE2H                        51231302
029000*****                                                          CD 51231302
029010*****                      LHOME-ADDR-RLSEH                       51231302
026600                           LPRIOR-SERVICE-CODEH                   PPWIPER
026700*****                      LHOME-PHONEH                           51231302
029210*****                      LHOME-PHONE-RLSEH                      51231302
026800                           LPRIOR-SERVICE-MTHSH                   PPWIPER
026900*****                      LFOREIGN-ADDR-INDH                     51231302
029500*****                                                          CD 51231302
029510*****                      LSPOUSE-NAME-RLSEH                     51231302
027100                           LCREDIT-CARDTYPEH                      PPWIPER
027200****                       LCREDIT-CARD-TYPEH                     51231302
027300                           LCREDIT-CARDSTATUSH                    PPWIPER
027400*****                      LADDRESS-LINE1H                        51231302
027500                           LCREDIT-CARDDATEH                      PPWIPER
027600*****                      LPROVINCEH                             51231302
030200                           LEMPLMT-CREDITH                        17040930
030300                           LCREDIT-FROM-DATEH.                    51231302
030300*****                      LCREDIT-FROM-DATEH                     51231302
027700*****                      LCOUNTRYH.                             51231302
053500                                                                  PPWIPER
027900     MOVE UCCOMMON-HLT-NORM-DISPL TO                              PPWIPER
028000                           DEPT-ADDRESSH                          PPWIPER
025300                           EXT-REF-1-IDH                          UCSD0097
019500                           TIMEKEEPER-DEPTH                       UCSD0072
019500                           TIMEKEEPER-SUBH                        UCSD0072
019500*****                      SURE-MAILDROPH                         UCSD0072
028100*****                      CAMPUS-ADDRESSH                        51231302
028200*****                      SPOUSE-NAMEH                           51231302
028300*****                      CAMPUS-ROOMH                           51231302
028400                           STUDENT-STATUSH                        PPWIPER
028500*****                      CAMPUS-BLDGH                           51231302
031300*****                                                          CD 51231302
031310*****                      EMP-ORG-ADDR-RLSEH                     51231302
028700                           EDU-LEVELH                             PPWIPER
028800*****                      CAMPUS-PHONE1H                         51231302
031600*****                                                          CD 51231302
031610*****                      EMP-ORG-PHONE-RLSEH                    51231302
029000                           EDU-LEVEL-YRH                          PPWIPER
029100*****                      CAMPUS-PHONE2H                         51231302
031900*****                                                          CD 51231302
031910*****                      HOME-ADDR-RLSEH                        51231302
029300                           PRIOR-SERVICE-CODEH                    PPWIPER
029400*****                      HOME-PHONEH                            51231302
032110****                       HOME-PHONE-RLSEH                       51231302
029500                           PRIOR-SERVICE-MTHSH                    PPWIPER
029600*****                      FOREIGN-ADDR-INDH                      51231302
032400*****                                                          CD 51231302
032410*****                      SPOUSE-NAME-RLSEH                      51231302
029800*****                      ADDRESS-LINE1H                         51231302
029900                           CREDIT-CARDTYPEH                       PPWIPER
030000*****                      ADDRESS-LINE2H                         51231302
030100                           CREDIT-CARDSTATUSH                     PPWIPER
030200*****                      ADDRESS-CITYH                          51231302
030300*****                      ADDRESS-STATEH                         51231302
030400*****                      ADDRESS-ZIPH                           51231302
030500                           CREDIT-CARDDATEH                       PPWIPER
030600*****                      PROVINCEH                              51231302
030700*****                      POSTAL-CODEH                           51231302
033500                           EMPLMT-CREDITH                         17040930
033600*****                      CREDIT-FROM-DATEH                      51231302
033600                           CREDIT-FROM-DATEH.                     51231302
030800*****                      FOREIGN-ADDR-CNTRYH.                   51231302
053700                                                                  PPWIPER
031000 2000-EXIT.                                                       PPWIPER
031100     EXIT.                                                        PPWIPER
054300                                                                  PPWIPER
031300     EJECT                                                        PPWIPER
054800                                                                  PPWIPER
031500 3000-DISPLAY-DATA     SECTION.                                   PPWIPER
031600**************************************************************/   PPWIPER
031700* THIS PARAGRAPH PERFORMS THE SELECTS ON THE VARIOUS EDB AND */   PPWIPER
031800* CTL TABLES TO OBTAIN THE DATA FOR DISPLAY.                 */   PPWIPER
031900**************************************************************/   PPWIPER
055000                                                                  PPWIPER
032100     MOVE CPWSWORK-UNIQUE-EE-ID TO WS-UNIQUE-EE-ID.               PPWIPER
055400                                                                  PPWIPER
032300     PERFORM 8100-GET-PER-DATA.                                   PPWIPER
032400**** PERFORM 8200-GET-PAY-DATA.                                   51231302
032500*****PERFORM 8300-GET-CMP-DATA.                                   51231302
032600     PERFORM 8400-GET-PCC-DATA.                                   PPWIPER
032700*****PERFORM 8500-GET-FAD-DATA.                                   51231302
032800     PERFORM 8600-GET-HME-DATA.                                   PPWIPER
056200                                                                  PPWIPER
033000 3000-EXIT.                                                       PPWIPER
033100     EXIT.                                                        PPWIPER
057200                                                                  PPWIPER
033300     EJECT                                                        PPWIPER
057400                                                                  PPWIPER
033500 8100-GET-PER-DATA     SECTION.                                   PPWIPER
033600**************************************************************/   PPWIPER
033700*      SELECT PER DATA FROM THE EDB.                         */   PPWIPER
033800*      THERE SHOULD ALWAYS BE A PER ROW FOR AN ID PASSED TO  */   PPWIPER
033900*      THIS APPLICATION DETAIL SCREEN PROCESSOR.             */   PPWIPER
034000**************************************************************/   PPWIPER
057600                                                                  PPWIPER
034200     MOVE 'SELECT PER DATA' TO DB2MSG-TAG.                        PPWIPER
057700     EXEC SQL                                                     PPWIPER
034400          SELECT                                                  PPWIPER
034500**--         SPOUSE_NAME                                          51231302
034600**--        ,HOME_DEPT                                            51231302
034600             HOME_DEPT                                            51231302
034600            ,EXT_REF_1_ID                                         UCSD0097
034700            ,STUDENT_STATUS                                       PPWIPER
037700*****                                                          CD 51231302
034900            ,EDU_LEVEL                                            PPWIPER
037810*****                                                          CD 51231302
035100            ,EDU_LEVEL_YR                                         PPWIPER
038100*****                                                          CD 51231302
035300            ,PRIOR_SERVICE_CODE                                   PPWIPER
035400            ,PRIOR_SERVICE_MTHS                                   PPWIPER
038400*****                                                          CD 51231302
035600**--        ,HOME_PHONE                                           51231302
038600            ,EMPLMT_CREDIT                                        17040930
038700            ,CHAR (CREDIT_FROM_DATE,ISO)                          17040930
019500            ,TIMEKEEP_DEPT                                        UCSD0072
019500            ,TIMEKEEP_SUB                                         UCSD0072
038710**--        ,HOME_ADDR_RLSE                                       51231302
038720**--        ,HOME_PHONE_RLSE                                      51231302
038730**--        ,SPOUSE_NAME_RLSE                                     51231302
038740**--        ,EMP_ORG_ADDR_RLSE                                    51231302
038750**--        ,EMP_ORG_PHONE_RLSE                                   51231302
035700**--      INTO :SPOUSE-NAME                                       51231302
035700          INTO                                                    51231302
035800**--       ,:HOME-DEPT                                            51231302
035800            :HOME-DEPT                                            51231302
034600           ,:EXT-REF-1-ID                                         UCSD0097
035900           ,:STUDENT-STATUS                                       PPWIPER
039100*****                                                          CD 51231302
036100           ,:EDU-LEVEL                                            PPWIPER
039300*****                                                          CD 51231302
036300           ,:EDU-LEVEL-YR                                         PPWIPER
039500*****                                                          CD 51231302
036500           ,:PRIOR-SERVICE-CODE                                   PPWIPER
036600           ,:PRIOR-SERVICE-MTHS                                   PPWIPER
039800*****                                                          CD 51231302
036800**--       ,:HOME-PHONE                                           51231302
040000           ,:EMPLMT-CREDIT                                        17040930
040100           ,:CREDIT-FROM-DATE                                     17040930
019500           ,:TIMEKEEP-DEPT                                        UCSD0072
019500           ,:TIMEKEEP-SUB                                         UCSD0072
040110**--       ,:HOME-ADDR-RLSE                                       51231302
040120**--       ,:HOME-PHONE-RLSE                                      51231302
040130**--       ,:SPOUSE-NAME-RLSE                                     51231302
040140**--       ,:EMP-ORG-ADDR-RLSE                                    51231302
040150**--       ,:EMP-ORG-PHONE-RLSE                                   51231302
036900          FROM PPPVZPER_PER                                       PPWIPER
037000          WHERE EMPLOYEE_ID    = :WS-UNIQUE-EE-ID                 PPWIPER
059100     END-EXEC.                                                    PPWIPER
059200                                                                  PPWIPER
037300     IF SQLCODE  = +0                                             PPWIPER
037400*****   MOVE SPOUSE-NAME      TO SPOUSE-NAMEO                     51231302
037410        MOVE EXT-REF-1-ID     TO EXT-REF-1-IDO                    UCSD0097
037500        MOVE STUDENT-STATUS   TO STUDENT-STATUSO                  PPWIPER
037600        IF EDU-LEVEL = ZEROS                                      PPWIPER
037700           MOVE SPACES TO EDU-LEVELO                              PPWIPER
037800        ELSE                                                      PPWIPER
037900           MOVE EDU-LEVEL TO EDU-LEVELO                           PPWIPER
038000        END-IF                                                    PPWIPER
038100        MOVE EDU-LEVEL-YR TO EDU-LEVEL-YRO                        PPWIPER
041500*****                                                          CD 51231302
038300        MOVE PRIOR-SERVICE-CODE TO PRIOR-SERVICE-CODEO            PPWIPER
038400        MOVE PRIOR-SERVICE-MTHS TO PRIOR-SERVICE-MTHSO            PPWIPER
038500*****   MOVE HOME-PHONE TO HOME-PHONEO                            51231302
041900        MOVE EMPLMT-CREDIT TO EMPLMT-CREDITO                      17040930
042000        MOVE CREDIT-FROM-DATE TO WS-ESC-DATE                      17040930
019500        MOVE TIMEKEEP-DEPT TO TIMEKEEPER-DEPTO                    UCSD0072
019500        MOVE TIMEKEEP-SUB  TO TIMEKEEPER-SUBO                     UCSD0072
042100        IF WS-ESC-YEAR = '0001'                                   17040930
042200           MOVE SPACES TO CREDIT-FROM-DATEO                       17040930
042300        ELSE                                                      17040930
042400           MOVE WS-ESC-YY TO WS-ESC-YR                            17040930
042500           MOVE WS-ESC-MONTH TO WS-ESC-MO                         17040930
042600           MOVE WS-ESC-DATE-OUT TO CREDIT-FROM-DATEO              17040930
042700        END-IF                                                    17040930
038600****    PERFORM 8110-TRANSLATE-FIELDS                             51231302
059500     ELSE                                                         PPWIPER
038800        MOVE 'PER DATA MISSING' TO DB2MSG-TAG                     PPWIPER
038900        PERFORM 999999-SQL-ERROR                                  PPWIPER
039000     END-IF.                                                      PPWIPER
061500                                                                  PPWIPER
039200 8100-EXIT.                                                       PPWIPER
039300     EXIT.                                                        PPWIPER
061700                                                                  PPWIPER
039500**** EJECT                                                        51231302
061900****                                                              51231302
039700*8110-TRANSLATE-FIELDS SECTION.                                   51231302
039800**************************************************************/   51231302
039900****   TRANSLATE VALUES SELECTED FOR SCREEN DISPLAY.         */   51231302
040000**************************************************************/   51231302
040100****                                                              51231302
044400*****                                                          CD 51231302
044410*****                                                             51231302
044420*****IF HOME-ADDR-RLSE EQUAL 'Y'                                  51231302
044430*****   MOVE WS-YES TO HOME-ADDR-RLSEO                            51231302
040400*****ELSE                                                      CD 51231302
044700*****                                                             51231302
044810*****   IF HOME-ADDR-RLSE EQUAL SPACE OR 'N'                      51231302
044820*****      MOVE WS-NO  TO HOME-ADDR-RLSEO                         51231302
040700*****   ELSE                                                      51231302
040700*****                                                          CD 51231302
045010*****      MOVE SPACE  TO HOME-ADDR-RLSEO                         51231302
040900*****   END-IF                                                    51231302
041000*****END-IF.                                                      51231302
041100****                                                              51231302
041100****                                                           CD 51231302
041100*****                                                             51231302
045511*****IF HOME-PHONE-RLSE EQUAL 'Y'                                 51231302
045520*****   MOVE WS-YES TO HOME-PHONE-RLSEO                           51231302
041400*****ELSE                                                      CD 51231302
045832*****                                                             51231302
045832*****   IF HOME-PHONE-RLSE EQUAL 'N' OR SPACE                     51231302
045840*****      MOVE WS-NO  TO HOME-PHONE-RLSEO                        51231302
041700*****   ELSE                                                   CD 51231302
046000****                                                              51231302
046020*****      MOVE SPACES TO HOME-PHONE-RLSEO                        51231302
041900*****   END-IF                                                    51231302
042000*****END-IF.                                                      51231302
042100****                                                           CD 51231302
042100*****                                                             51231302
046510*****IF SPOUSE-NAME-RLSE EQUAL 'Y'                                51231302
046520*****   MOVE WS-YES TO SPOUSE-NAME-RLSEO                          51231302
042400*****ELSE                                                         51231302
042400*****                                                          CD 51231302
046810*****   IF SPOUSE-NAME-RLSE EQUAL SPACE OR 'N'                    51231302
046820*****      MOVE WS-NO  TO SPOUSE-NAME-RLSEO                       51231302
042700*****   ELSE                                                      51231302
047000*****                                                          CD 51231302
047010*****      MOVE SPACE  TO SPOUSE-NAME-RLSEO                       51231302
042900*****   END-IF                                                    51231302
043000*****END-IF.                                                      51231302
043100****                                                              51231302
043100****                                                           CD 51231302
043100*****                                                             PPWIPER
047510*****IF EMP-ORG-ADDR-RLSE EQUAL SPACE OR 'Y'                      51231302
047520*****   MOVE WS-YES  TO EMP-ORG-ADDR-RLSEO                        51231302
043400*****ELSE                                                         51231302
047800****                                                           CD 51231302
047810****    IF EMP-ORG-ADDR-RLSE EQUAL 'N'                            51231302
047820****       MOVE WS-NO   TO EMP-ORG-ADDR-RLSEO                     51231302
043700****    ELSE                                                      51231302
048000****       MOVE SPACE   TO EMP-ORG-ADDR-RLSEO                     51231302
043900****    END-IF                                                    51231302
044000**** END-IF.                                                      51231302
044100****                                                              51231302
048320**** IF  EMP-ORG-PHONE-RLSE EQUAL 'Y'                             51231302
048330****     MOVE WS-YES TO EMP-ORG-PHONE-RLSEO                       51231302
048340**** ELSE                                                         51231302
048360****    IF  EMP-ORG-PHONE-RLSE EQUAL SPACE OR 'N'                 51231302
048370****        MOVE WS-NO  TO EMP-ORG-PHONE-RLSEO                    51231302
048380****    ELSE                                                      51231302
048390****        MOVE SPACES TO EMP-ORG-PHONE-RLSEO                    51231302
048391****    END-IF                                                    51231302
048392**** END-IF.                                                      51231302
048393****                                                              51231302
044200*8110-EXIT.                                                       51231302
044300**** EXIT.                                                        51231302
044400*****                                                             51231302
044500**** EJECT                                                        51231302
044600****                                                              51231302
044700*8200-GET-PAY-DATA     SECTION.                                   51231302
044800**************************************************************/   51231302
044900****   SELECT PAY DATA FROM THE EDB.                         */   51231302
045000**************************************************************/   51231302
045100****                                                              51231302
045200**** MOVE 'SELECT PAY DATA' TO DB2MSG-TAG.                        51231302
062000**** EXEC SQL                                                     51231302
062100****      SELECT                                                  51231302
045500****         FOREIGN_ADDR_IND                                     51231302
045600****        ,ADDRESS_LINE1                                        51231302
045700****        ,ADDRESS_LINE2                                        51231302
045800****        ,ADDRESS_CITY                                         51231302
045900****        ,ADDRESS_STATE                                        51231302
046000****        ,ADDRESS_ZIP                                          51231302
019500****        ,SURE_MAILDROP                                        UCSD0072
046100****      INTO :FOREIGN-ADDR-IND                                  51231302
046200****       ,:ADDRESS-LINE1                                        51231302
046300****       ,:ADDRESS-LINE2                                        51231302
046400****       ,:ADDRESS-CITY                                         51231302
046500****       ,:ADDRESS-STATE                                        51231302
046600****       ,:ADDRESS-ZIP                                          51231302
019500****       ,:SURE-MAILDROP                                        UCSD0072
046700****      FROM PPPVZPAY_PAY                                       51231302
046800****      WHERE EMPLOYEE_ID    = :WS-UNIQUE-EE-ID                 51231302
063600**** END-EXEC.                                                    51231302
063700****                                                              51231302
065300**** IF SQLCODE = +0                                              51231302
065500****    MOVE FOREIGN-ADDR-IND  TO FOREIGN-ADDR-INDO               51231302
065600****    MOVE ADDRESS-LINE1     TO ADDRESS-LINE1O                  51231302
065700****    MOVE ADDRESS-LINE2     TO ADDRESS-LINE2O                  51231302
065800****    MOVE ADDRESS-CITY      TO ADDRESS-CITYO                   51231302
065900****    MOVE ADDRESS-STATE     TO ADDRESS-STATEO                  51231302
047700****    MOVE ADDRESS-ZIP       TO ADDRESS-ZIPO                    51231302
019500****    MOVE SURE-MAILDROP     TO SURE-MAILDROPO                  UCSD0072
047800**** END-IF.                                                      51231302
066100****                                                              51231302
048000*8200-EXIT.                                                       51231302
048100**** EXIT.                                                        51231302
066300*****                                                             51231302
048300*****EJECT                                                        51231302
048400*****                                                             51231302
048500*8300-GET-CMP-DATA     SECTION.                                   51231302
048600**************************************************************/   51231302
048700*****  SELECT CMP DATA FROM THE EDB.                         */   51231302
048800**************************************************************/   51231302
048900*****                                                             51231302
049000*****MOVE 'SELECT CMP DATA' TO DB2MSG-TAG.                        51231302
066400*****EXEC SQL                                                     51231302
049200*****     SELECT                                                  51231302
049300*****        CAMPUS_ADDRESS                                       51231302
049400*****       ,CAMPUS_ROOM                                          51231302
049500*****       ,CAMPUS_BLDG                                          51231302
049600*****       ,CAMPUS_PHONE1                                        51231302
049700*****       ,CAMPUS_PHONE2                                        51231302
049800*****     INTO :CAMPUS-ADDRESS                                    51231302
049900*****      ,:CAMPUS-ROOM                                          51231302
050000*****      ,:CAMPUS-BLDG                                          51231302
050100*****      ,:CAMPUS-PHONE1                                        51231302
050200*****      ,:CAMPUS-PHONE2                                        51231302
050300*****     FROM PPPVZCMP_CMP                                       51231302
050400*****     WHERE EMPLOYEE_ID    = :WS-UNIQUE-EE-ID                 51231302
069000*****END-EXEC.                                                    51231302
069100*****                                                             51231302
050700*****IF SQLCODE  = +0                                             51231302
050800*****   MOVE CAMPUS-ADDRESS   TO CAMPUS-ADDRESSO                  51231302
050900*****   MOVE CAMPUS-BLDG      TO CAMPUS-BLDGO                     51231302
051000*****   MOVE CAMPUS-ROOM      TO CAMPUS-ROOMO                     51231302
051100*****   MOVE CAMPUS-PHONE1    TO CAMPUS-PHONE1O                   51231302
051200*****   MOVE CAMPUS-PHONE2    TO CAMPUS-PHONE2O                   51231302
051300*****END-IF.                                                      51231302
072500*****                                                             51231302
051500*8300-EXIT.                                                       51231302
051600*****EXIT.                                                        51231302
072700                                                                  PPWIPER
051800     EJECT                                                        PPWIPER
073500                                                                  PPWIPER
052000 8400-GET-PCC-DATA     SECTION.                                   PPWIPER
052100**************************************************************/   PPWIPER
052200*      SELECT PCC DATA FROM THE EDB.                         */   PPWIPER
052300**************************************************************/   PPWIPER
074300                                                                  PPWIPER
052500     MOVE 'SELECT PCC DATA' TO DB2MSG-TAG.                        PPWIPER
076200     EXEC SQL                                                     PPWIPER
052700          SELECT                                                  PPWIPER
052800             CREDIT_CARDTYPE                                      PPWIPER
052900            ,CREDIT_CARDSTATUS                                    PPWIPER
053000            ,CREDIT_CARDDATE                                      PPWIPER
053100          INTO :CREDIT-CARDTYPE                                   PPWIPER
053200           ,:CREDIT-CARDSTATUS                                    PPWIPER
053300           ,:CREDIT-CARDDATE                                      PPWIPER
053400          FROM PPPVZPCC_PCC                                       PPWIPER
053500          WHERE EMPLOYEE_ID    = :WS-UNIQUE-EE-ID                 PPWIPER
077200     END-EXEC.                                                    PPWIPER
077300                                                                  PPWIPER
053800     IF SQLCODE  = +0                                             PPWIPER
053900        MOVE CREDIT-CARDTYPE     TO CREDIT-CARDTYPEO              PPWIPER
054000        MOVE CREDIT-CARDSTATUS   TO CREDIT-CARDSTATUSO            PPWIPER
054100        MOVE CREDIT-CARDDATE     TO WS-CREDIT-DATE                PPWIPER
054200        MOVE WS-CREDIT-DATE-1-6  TO WS-CREDIT-DFOR-1-6            PPWIPER
054300        MOVE WS-CREDIT-DATE-9-10 TO WS-CREDIT-DFOR-7-8            PPWIPER
054400        MOVE WS-CREDIT-DFOR      TO CREDIT-CARDDATEO              PPWIPER
054500     END-IF.                                                      PPWIPER
079700                                                                  PPWIPER
054700 8400-EXIT.                                                       PPWIPER
054800     EXIT.                                                        PPWIPER
079900                                                                  PPWIPER
055000****                                                              51231302
055000**** EJECT                                                        51231302
055100****                                                              51231302
055200*8500-GET-FAD-DATA     SECTION.                                   51231302
055300**************************************************************/   51231302
055400****   SELECT FAD DATA FROM THE EDB.                         */   51231302
055500**************************************************************/   51231302
055600****                                                              51231302
055700**** MOVE 'SELECT FAD DATA' TO DB2MSG-TAG.                        51231302
080000**** EXEC SQL                                                     51231302
055900****      SELECT                                                  51231302
056000****         FAD_COUNTRY                                          51231302
056100****        ,FAD_PROVINCE                                         51231302
056200****        ,FAD_POSTAL_CODE                                      51231302
056300****      INTO :FAD-COUNTRY                                       51231302
056400****       ,:FAD-PROVINCE                                         51231302
056500****       ,:FAD-POSTAL-CODE                                      51231302
056600****      FROM PPPVZFAD_FAD                                       51231302
056700****      WHERE EMPLOYEE_ID    = :WS-UNIQUE-EE-ID                 51231302
081000**** END-EXEC.                                                    51231302
081100****                                                              51231302
057000**** IF SQLCODE  = +0                                             51231302
057100****    MOVE FAD-COUNTRY      TO FOREIGN-ADDR-CNTRYO              51231302
057200****    MOVE FAD-PROVINCE     TO PROVINCEO                        51231302
057300****    MOVE FAD-POSTAL-CODE  TO POSTAL-CODEO                     51231302
057400****    PERFORM 8550-GET-COUNTRY-NAME                             51231302
057500**** END-IF.                                                      51231302
084000****                                                              51231302
057700*8500-EXIT.                                                       51231302
057800**** EXIT.                                                        51231302
084200****                                                              51231302
058000**** EJECT                                                        51231302
084600****                                                              51231302
058200*8550-GET-COUNTRY-NAME SECTION.                                   51231302
058300**************************************************************/   51231302
058400****   SELECT FCT DATA FROM THE CTL.                         */   51231302
058500**************************************************************/   51231302
085400****                                                              51231302
058700**** MOVE 'SELECT FCT DATA' TO DB2MSG-TAG.                        51231302
086800**** EXEC SQL                                                     51231302
058900****      SELECT                                                  51231302
059000****         FCT_COUNTRY_NAME                                     51231302
059100****      INTO :FCT-COUNTRY-NAME                                  51231302
059200****      FROM PPPVZFCT_FCT                                       51231302
059300****      WHERE FCT_COUNTRY_CODE = :FAD-COUNTRY                   51231302
087000**** END-EXEC.                                                    51231302
059500****                                                              51231302
059600**** IF SQLCODE  = +0                                             51231302
059700****    MOVE FCT-COUNTRY-NAME TO FOREIGN-CNTRYO                   51231302
059800**** END-IF.                                                      51231302
059900****                                                              51231302
060000*8550-EXIT.                                                       51231302
060100**** EXIT.                                                        51231302
060200                                                                  PPWIPER
060300     EJECT                                                        PPWIPER
060400                                                                  PPWIPER
060500 8600-GET-HME-DATA     SECTION.                                   PPWIPER
060600**************************************************************/   PPWIPER
060700*      SELECT HME DATA FROM THE CTL.                         */   PPWIPER
060800**************************************************************/   PPWIPER
060900                                                                  PPWIPER
061000     MOVE 'SELECT HME DATA' TO DB2MSG-TAG.                        PPWIPER
061100     EXEC SQL                                                     PPWIPER
061200          SELECT                                                  PPWIPER
061300             HME_DEPT_ADDRESS                                     PPWIPER
061400          INTO :HME-DEPT-ADDRESS                                  PPWIPER
061500          FROM PPPVZHME_HME                                       PPWIPER
061600          WHERE HME_DEPT_NO    = :HOME-DEPT                       PPWIPER
061700     END-EXEC.                                                    PPWIPER
061800                                                                  PPWIPER
061900     IF SQLCODE  = +0                                             PPWIPER
062000        MOVE HME-DEPT-ADDRESS TO DEPT-ADDRESSO                    PPWIPER
062100     END-IF.                                                      PPWIPER
062200                                                                  PPWIPER
062300 8600-EXIT.                                                       PPWIPER
062400     EXIT.                                                        PPWIPER
062500                                                                  PPWIPER
062600     EJECT                                                        PPWIPER
062700                                                                  PPWIPER
062800 9999-ABEND            SECTION.                                   PPWIPER
062900******************************************************************PPWIPER
063000*  COPIED PROCEDURE DIVISION CODE FOR ABEND HANDLING             *PPWIPER
063100******************************************************************PPWIPER
063200                                                                  PPWIPER
063300     MOVE 'PPWIPER' TO UCWSABND-ABENDING-PGM.                     PPWIPER
063400                                                                  PPWIPER
063500     COPY UCPDABND.                                               PPWIPER
063600                                                                  PPWIPER
063700 9999-EXIT.                                                       PPWIPER
063800     EXIT.                                                        PPWIPER
063900                                                                  PPWIPER
064000*999999-SQL-ERROR      SECTION.                                   PPWIPER
064100**************************************************************    PPWIPER
064200*  COPIED PROCEDURE DIVISION CODE FOR SQL ERROR HANDLING     *    PPWIPER
064300**************************************************************    PPWIPER
064400                                                                  PPWIPER
064500      EXEC SQL                                                    PPWIPER
064600           INCLUDE CPPDXP99                                       PPWIPER
064700      END-EXEC.                                                   PPWIPER
064800                                                                  PPWIPER
064900      MOVE 'SQL ERROR - SEE PRECEDING DB2 MESSAGES'               PPWIPER
065000                                      TO UCWSABND-ABEND-DATA (1). PPWIPER
065100                                                                  PPWIPER
065200      PERFORM 9999-ABEND.                                         PPWIPER
065300                                                                  PPWIPER
065400 999999-EXIT.                                                     PPWIPER
065500       EXIT.                                                      PPWIPER
065600***************    END OF SOURCE - PPWIPER    ******************* PPWIPER
