000100*==========================================================%      UCSD0080
000200*= UCSD LOCAL CHANGES HAVE BEEN IMPLEMENTED.              =%      UCSD0080
000300*= COLUMN 73 THRU 80 DENOTES CHANGE NUMBER - UCSD0080     =%      UCSD0080
000400*=                                                        =%      UCSD0080
000500*==========================================================%      UCSD0080
000600*==========================================================%      UCSD0080
000700*=    PROGRAM: UCPRTMGR                                   =%      UCSD0080
000800*=    CHANGE # UCSD0080     PROJ. REQUEST: 0080           =%      UCSD0080
000900*=    NAME: RON BLOCK       MODIFICATION DATE: 10/02/95   =%      UCSD0080
000900*=    NAME: G CHIU          MODIFICATION DATE: 10/02/02   =%      UCSD0080
001000*=                                                        =%      UCSD0080
001100*=    DESCRIPTION:  10/02/02                              =%      UCSD0080
001200*=     REMOVED LOCAL PAN PRINT FUNCTION.  THIS PRINT      =%      UCSD0080
001200*=     FUNCTION IS TO BE PERFORMED VIA WEB PAN (REL1415)  =%      UCSD0080
001100*=    DESCRIPTION:                                        =%      UCSD0080
001200*=     IDENTIFY PRINT REQUESTS FROM THE UCWIARV PAN       =%      UCSD0080
001200*=     NOTICE DISPLAY FUNCTION BY SETTING                 =%      UCSD0080
001300*=     UCPLPRTJ-PRINT-TYPE TO 'P' AND THE TEMPORARY       =%      UCSD0080
001300*=     STORAGE QUEUE TO THE QUEUE USED BY THE ONLINE      =%      UCSD0080
001300*=     DISPLAY.  THIS WILL ALLOW THE UCPRTJ PROGRAM TO    =%      UCSD0080
001300*=     RETRIEVE AND PRINT THE ENTIRE PAN NOTICE.          =%      UCSD0080
001400*==========================================================%      UCSD0080
000000**************************************************************/   36430951
000001*  PROGRAM: UCPRTMGR                                         */   36430951
000002*  RELEASE: ___0951______ SERVICE REQUEST(S): _____3643____  */   36430951
000003*  NAME:_______MLG_______ MODIFICATION DATE:  __12/21/94____ */   36430951
000004*  DESCRIPTION:                                              */   36430951
000005*    REMOVE REFERENCES TO "OLD SYSTEM"                       */   36430951
000007**************************************************************/   36430951
000008**************************************************************/   36430943
000009*  PROGRAM: UCPRTMGR                                         */   36430943
000010*  RELEASE: ___0943______ SERVICE REQUEST(S): _____3643____  */   36430943
000011*  NAME:_______MLG_______ MODIFICATION DATE:  __11/10/94____ */   36430943
000012*  DESCRIPTION:                                              */   36430943
000013*    REMOVE MESSAGES INCONSISTENT WITH PRNT NAVIGATION       */   36430943
000014*    CHANGES (TECH ISSUE #475)                               */   36430943
000015**************************************************************/   36430943
000100**************************************************************/   36430911
000200*  PROGRAM: UCPRTMGR                                         */   36430911
000300*  RELEASE: ___0911______ SERVICE REQUEST(S): _____3643____  */   36430911
000400*  NAME:_______MLG_______ MODIFICATION DATE:  __06/30/94____ */   36430911
000500*  DESCRIPTION:                                              */   36430911
000600*    GET MAP NAME FIELDS FROM UCCOMMON INSTEAD OF UCROUTWA   */   36430911
000700*                                                            */   36430911
000800**************************************************************/   36430911
000900**************************************************************/   36430907
001000*  PROGRAM: UCPRTMGR                                         */   36430907
001100*  RELEASE: ___0907______ SERVICE REQUEST(S): _____3643____  */   36430907
001200*  NAME:_______MLG_______ MODIFICATION DATE:  __06/16/94____ */   36430907
001300*  DESCRIPTION:                                              */   36430907
001400*    REMOVE EXTRANEOUS SECTION 3000-SET-UP-EXPLICIT-PRNT-CALL*/   36430907
001500*                                                            */   36430907
001600**************************************************************/   36430907
000100**************************************************************/   36510832
000200*  PROGRAM: UCPRTMGR                                         */   36510832
000300*  RELEASE: ___0832______ SERVICE REQUEST(S): _____3651____  */   36510832
000400*  NAME:_______DDM_______ MODIFICATION DATE:  __11/12/93____ */   36510832
000500*  DESCRIPTION: (SEE MAINLINE FOR A FULLER DESCRIPTION)      */   36510832
002200*    DSS - SCREEN PRINT                                      */   36430951
000710* (THIS IS A COMPLETE REPLACEMENT OF THE R795 VERSION)       */   36510832
000711*                                                            */   36510832
000720*    DSS - USER PRINTER SELECTION - NEW FUNCTION SETUP       */   36510832
000730*     ("FUNC-SETUP") FOR UCROUTER CALL TO PRNT FUNCTION.     */   36510832
000800**************************************************************/   36510832
001100 IDENTIFICATION DIVISION.                                         UCPRTMGR
001200 PROGRAM-ID. UCPRTMGR.                                            UCPRTMGR
001300 ENVIRONMENT DIVISION.                                            UCPRTMGR
001200 CONFIGURATION SECTION.                                           UCPRTMGR
001300 SOURCE-COMPUTER.  COPY CPOTXUCS.                                 UCPRTMGR
001400 DATA DIVISION.                                                   UCPRTMGR
001500     EJECT                                                        UCPRTMGR
001500 WORKING-STORAGE SECTION.                                         UCPRTMGR
001700*                                                                 UCPRTMGR
001800 01  FILLER.                                                      UCPRTMGR
001900   05  FILLER               PIC X(27) VALUE                       UCPRTMGR
002000       'WORKING STORAGE STARTS HERE'.                             UCPRTMGR
002100*                                                                 UCPRTMGR
002200 01  SWITCHES.                                                    UCPRTMGR
002300     05  PRT-ROW-FOUND-SW            PIC X(01).                   UCPRTMGR
002400         88  PRT-ROW-FOUND           VALUE 'Y'.                   UCPRTMGR
002500         88  PRT-ROW-NOT-FOUND       VALUE 'N'.                   UCPRTMGR
002600*                                                                 UCPRTMGR
002700 01 LIMITS-AND-CONSTANTS.                                         UCPRTMGR
002800    05  PGM-NAME                           PIC X(08)              UCPRTMGR
002900                                               VALUE 'UCPRTMGR'.  UCPRTMGR
003200    05  PGM-RELEASE-NBR                    PIC X(05)              UCPRTMGR
003300                                               VALUE 'E0832'.     UCPRTMGR
003400*                                                                 UCPRTMGR
003500 01  MESSAGE-NUMBERS.                                             UCPRTMGR
003600***      NO DEFAULT PRINTER                                       UCPRTMGR
003700     05  U0105                     PIC X(5) VALUE 'U0105'.        UCPRTMGR
005500*****05  U0123                     PIC X(5) VALUE 'U0123'.        36430943
005600*****05  U0127                     PIC X(5) VALUE 'U0127'.        36430943
003903     EJECT                                                        UCPRTMGR
002100 01  WS-MISC.                                                     UCPRTMGR
003920     05  TS-QUEUE-ID.                                             UCPRTMGR
003930         10  TS-QUEUE-NAME-SS              PIC X(02).             UCPRTMGR
003940         10  TS-QUEUE-NAME-N1              PIC 9(01).             UCPRTMGR
003950         10  TS-QUEUE-NAME-N2              PIC 9(01).             UCPRTMGR
003960         10  TS-QUEUE-TERMID               PIC X(04).             UCPRTMGR
003970     05  TS-QUEUE-LENGTH                   PIC S9(04) COMP.       UCPRTMGR
003980     05  TS-QUEUE-ITEM                     PIC S9(04) COMP.       UCPRTMGR
003990     05  TS-AUDIT-QUEUE-ID.                                       UCPRTMGR
003991         10  TS-AUDIT-Q-SS-NAME            PIC X(02).             UCPRTMGR
003992         10  TS-AUDIT-Q-VARIABLE           PIC X(02).             UCPRTMGR
003993             88  TS-AUDIT-Q-VAR-REGULAR              VALUE 'AU'.  UCPRTMGR
003994             88  TS-AUDIT-Q-VAR-NESTED               VALUE 'AN'.  UCPRTMGR
003995         10  TS-AUDIT-Q-TERM-ID            PIC X(04).             UCPRTMGR
003990*****05  TS-PAN-QUEUE-ID.                                         UCSD0080
003990*****    10  FILLER                        PIC X(04) VALUE 'IARV'.UCSD0080
003990*****    10  TS-PAN-QUEUE-TERM-ID          PIC X(04).             UCSD0080
003996     05  TS-AUDIT-QUEUE-LENGTH             PIC S9(04) COMP        UCPRTMGR
003997                                                      VALUE 8.    UCPRTMGR
003998     05  TS-AUDIT-QUEUE-DATA.                                     UCPRTMGR
003999         10  TS-AUDIT-Q-QUEUE-NAME         PIC X(08).             UCPRTMGR
004010*                                                                 UCPRTMGR
004700     05  WS-RESP                       PIC S9(08) COMP.           UCPRTMGR
003000     05  WS-PRINTER                    PIC X(4).                  UCPRTMGR
003100     05  WS-CICS-PRNT-TRAN             PIC X(4) VALUE 'UC01'.     UCPRTMGR
003200     05  WS-NON-CICS-PRNT-TRAN         PIC X(4) VALUE 'UC02'.     UCPRTMGR
005100     05  WS-PRINT-MSG.                                            UCPRTMGR
005200         10  FILLER                    PIC X(08) VALUE            UCPRTMGR
005300                                           'PRINTED-'.            UCPRTMGR
005400         10  WS-PRINT-MSG-DEST         PIC X(08).                 UCPRTMGR
005500     05  WS-NOT-PRINTED-MSG            PIC X(16) VALUE            UCPRTMGR
005600                                           'NO DESTIN SET'.       UCPRTMGR
005700     EJECT                                                        UCPRTMGR
005800 01  WS-START-AREA                     PIC X(3008).               UCPRTMGR
004100 01  WS-START-CICS REDEFINES  WS-START-AREA.                      UCPRTMGR
004200 COPY UCWSPRTC.                                                   UCPRTMGR
006010     EJECT                                                        UCPRTMGR
004300 01  WS-START-NON-CICS REDEFINES  WS-START-AREA.                  UCPRTMGR
004400 COPY UCPLPRTJ.                                                   UCPRTMGR
006210     EJECT                                                        UCPRTMGR
006300 01  FILLER.                                                      UCPRTMGR
006400     05  UPD-PRT-ID                    PIC X(08).                 UCPRTMGR
006500     05  UPD-CURRENT-SELECTION         PIC X(04).                 UCPRTMGR
006600     05  UPD-LPR1                      PIC X(70).                 UCPRTMGR
006700     05  UPD-LPR2                      PIC X(70).                 UCPRTMGR
006800     EJECT                                                        UCPRTMGR
006900 01  UCROUTWA      EXTERNAL.                                      UCPRTMGR
007000     EXEC SQL                                                     UCPRTMGR
007100          INCLUDE UCROUTWA                                        UCPRTMGR
007200     END-EXEC.                                                    UCPRTMGR
007210     EJECT                                                        UCPRTMGR
007220 01  UCPISCRN      EXTERNAL.                                      UCPRTMGR
007230     EXEC SQL                                                     UCPRTMGR
007240          INCLUDE UCPISCRN                                        UCPRTMGR
007250     END-EXEC.                                                    UCPRTMGR
007260     EJECT                                                        UCPRTMGR
007270 01  CPWSPRNT      EXTERNAL.                                      UCPRTMGR
007280     EXEC SQL                                                     UCPRTMGR
007290          INCLUDE CPWSPRNT                                        UCPRTMGR
007291     END-EXEC.                                                    UCPRTMGR
007300     EJECT                                                        UCPRTMGR
007400 01  PRNT-COMMAREA EXTERNAL.                                      UCPRTMGR
007500 COPY UCWSCOMP.                                                   UCPRTMGR
007600     EJECT                                                        UCPRTMGR
007700 01  UCHDRMRG   EXTERNAL.                                         UCPRTMGR
007800     COPY UCHDRMRG.                                               UCPRTMGR
007900*                                                                 UCPRTMGR
008000 01  UCDTLMRG   EXTERNAL.                                         UCPRTMGR
008100     COPY UCDTLMRG.                                               UCPRTMGR
008200*                                                                 UCPRTMGR
008300 01  UCFTRMRG   EXTERNAL.                                         UCPRTMGR
008400     COPY UCFTRMRG.                                               UCPRTMGR
008500     EJECT                                                        UCPRTMGR
008600 01  UCCOMMON  EXTERNAL.                                          UCPRTMGR
008700     COPY UCCOMMON.                                               UCPRTMGR
008710     EJECT                                                        UCPRTMGR
008720 01  UCPIROSR   EXTERNAL.                                         UCPRTMGR
008730     COPY UCPIROSR.                                               UCPRTMGR
008800     EJECT                                                        UCPRTMGR
008900 01  UCWSABND    EXTERNAL.                                        UCPRTMGR
009000     COPY UCWSABND.                                               UCPRTMGR
009100     EJECT                                                        UCPRTMGR
009200 01  PPDB2MSG-INTERFACE.                                          UCPRTMGR
009300     COPY CPLNKDB2.                                               UCPRTMGR
009400     EJECT                                                        UCPRTMGR
004600******************************************************************UCPRTMGR
004700*          SQL - WORKING STORAGE                                 *UCPRTMGR
004800******************************************************************UCPRTMGR
009800     EXEC SQL                                                     UCPRTMGR
009900          INCLUDE SQLCA                                           UCPRTMGR
010000     END-EXEC.                                                    UCPRTMGR
010100     EJECT                                                        UCPRTMGR
010200 01  UC0VZPRR EXTERNAL.                                           UCPRTMGR
010300     EXEC SQL                                                     UCPRTMGR
010400          INCLUDE UC0VZPRR                                        UCPRTMGR
010500     END-EXEC.                                                    UCPRTMGR
010600     EJECT                                                        UCPRTMGR
010700 01  UC0VZPRT EXTERNAL.                                           UCPRTMGR
010800     EXEC SQL                                                     UCPRTMGR
010900          INCLUDE UC0VZPRT                                        UCPRTMGR
011000     END-EXEC.                                                    UCPRTMGR
011100     EJECT                                                        UCPRTMGR
011200 LINKAGE SECTION.                                                 UCPRTMGR
011210 01  DFHCOMMAREA             PIC X(3000).                         UCPRTMGR
011400     EJECT                                                        UCPRTMGR
011500 PROCEDURE DIVISION.                                              UCPRTMGR
011600****************************************************************  UCPRTMGR
011700*            P R O C E D U R E  D I V I S I O N                   UCPRTMGR
011800****************************************************************  UCPRTMGR
011900     EXEC SQL                                                     UCPRTMGR
012000          INCLUDE CPPDXE99                                        UCPRTMGR
012100     END-EXEC.                                                    UCPRTMGR
012200 0000-PARA-FOR-PRECOMP-PAGING  SECTION.                           UCPRTMGR
012300****************************************************************  UCPRTMGR
012400****************************************************************  UCPRTMGR
012500     EJECT                                                        UCPRTMGR
012600 0000-MAINLINE SECTION.                                           UCPRTMGR
012700******************************************************************UCPRTMGR
012800* THIS PROGRAM OPERATES IN 3 BASIC MODES:                         UCPRTMGR
012801*                                                                 UCPRTMGR
012802*   MODE 1: A SCREEN PRINT HAS BEEN REQUESTED                     UCPRTMGR
012810*           AND A DEFAULT PRINTER EXISTS FOR THE USER.            UCPRTMGR
012900*  THIS MODE STARTS A PRINT TRANSACTION FOR THE DEFAULT PRINTER.  UCPRTMGR
017800*                                                              CD 36430951
013100*                                                                 UCPRTMGR
013210*   MODE 2: A SCREEN PRINT HAS BEEN REQUESTED                     UCPRTMGR
013220*           BUT NO DEFAULT PRINTER EXISTS FOR THE USER.           UCPRTMGR
013300*  THIS MODE RETURNS A  MESSAGE AND CANCELS THE ACTIVE            UCPRTMGR
013400*  SCREEN PRINT REQUEST. IT RETURNS A BLANK PRINTER DESTINATION   UCPRTMGR
013500*  (CA-PRNT-ADDRESS) WHICH CAUSES UCROUTER TO INVOKE A            UCPRTMGR
013600*  PROGRAMMATIC SWITCH TO THE "PRNT" PRINTER SELECTION SCREEN     UCPRTMGR
013610*  IF A NEW-SYSTEM FUNCTION REQUESTED THE SCREEN PRINT.           UCPRTMGR
018800*                                                              CD 36430951
013640*                                                                 UCPRTMGR
013650*   MODE 3: THE PRINTER SELECTION SCREEN HAS BEEN                 UCPRTMGR
013660*           EXPLICITLY REQUESTED WITH FUNCTION CODE PRNT.         UCPRTMGR
013900*  THIS MODE RETRIEVES AND EDITS THE USER'S PRINTER DATA          UCPRTMGR
014000*  AND ENSURES THAT A VALID ROW ALWAYS EXISTS. THESE ACTIONS      UCPRTMGR
014010*  ARE DONE FOR MODE 1 AND 2 AS WELL, SO THIS MODE DOES           UCPRTMGR
019700*  NO OTHER WORK.                                                 36430907
014100*                                                                 UCPRTMGR
014900******************************************************************UCPRTMGR
020000*****IF  UCCOMMON-OLD-SYSTEM-FUNCTION                             36430951
020100*****   MOVE DFHCOMMAREA TO PRNT-COMMAREA                         36430951
020200*****END-IF                                                       36430951
015000     PERFORM 9100-INITIALIZATION                                  UCPRTMGR
016000*                                                                 UCPRTMGR
016100     IF UCCOMMON-NO-EDIT-ERRORS                                   UCPRTMGR
016200        IF  CA-PRNT-REQUESTED                                     UCPRTMGR
016300***         SCREEN PRINT REQUESTED                                UCPRTMGR
016400           IF  CURRENT-SELECTION > SPACE                          UCPRTMGR
016500              PERFORM 1000-PRINT-SCREEN-IMAGE                     UCPRTMGR
016600           ELSE                                                   UCPRTMGR
016700***           IMPLICIT PRINTER UPDATE REQUEST                     UCPRTMGR
016800              PERFORM 2000-SET-UP-PRNT-FUNCTION                   UCPRTMGR
021300           END-IF                                                 36430907
021400********ELSE                                                      36430907
017000***        EXPLICIT PRINTER UPDATE REQUEST                        UCPRTMGR
021600********   PERFORM 3000-SET-UP-EXPLICIT-PRNT-CALL                 36430907
017200        END-IF                                                    UCPRTMGR
017300     END-IF.                                                      UCPRTMGR
017301*                                                                 UCPRTMGR
022000*****IF  UCCOMMON-OLD-SYSTEM-FUNCTION                             36430951
022100*****   MOVE PRNT-COMMAREA TO DFHCOMMAREA                         36430951
022200*****END-IF                                                       36430951
017400*                                                                 UCPRTMGR
017500     GOBACK.                                                      UCPRTMGR
017600*                                                                 UCPRTMGR
017700*                                                                 UCPRTMGR
017800 0000-EXIT.                                                       UCPRTMGR
017900     EXIT.                                                        UCPRTMGR
018000     EJECT                                                        UCPRTMGR
018100 1000-PRINT-SCREEN-IMAGE   SECTION.                               UCPRTMGR
018200******************************************************************UCPRTMGR
018300******************************************************************UCPRTMGR
018400     MOVE ZERO TO CA-PRNT-RETURN-CODE                             UCPRTMGR
018500     PERFORM 1100-STORE-3PART-MAP                                 UCPRTMGR
018600     PERFORM 1200-FMT-PRINT-CTL-DATA                              UCPRTMGR
018700     IF CA-PRNT-CICS                                              UCPRTMGR
018800        PERFORM 9200-START-CICS-PRNT                              UCPRTMGR
018900     ELSE                                                         UCPRTMGR
019000        IF CA-PRNT-NON-CICS                                       UCPRTMGR
019100        OR CA-PRNT-LPR                                            UCPRTMGR
019200           PERFORM 9300-START-NON-CICS-PRNT                       UCPRTMGR
019300        END-IF                                                    UCPRTMGR
019400     END-IF                                                       UCPRTMGR
019500     SET CA-PRNT-NOT-REQUESTED  TO TRUE                           UCPRTMGR
019710     IF CA-PRNT-RETURN-NO-ERRORS                                  UCPRTMGR
019720        MOVE CA-PRNT-ADDRESS TO WS-PRINT-MSG-DEST                 UCPRTMGR
019730        MOVE WS-PRINT-MSG TO CA-PRNT-HOT-MSG                      UCPRTMGR
019740     ELSE                                                         UCPRTMGR
019750        MOVE WS-NOT-PRINTED-MSG TO CA-PRNT-HOT-MSG                UCPRTMGR
019760     END-IF.                                                      UCPRTMGR
019800*                                                                 UCPRTMGR
019900*                                                                 UCPRTMGR
020000 1000-EXIT.                                                       UCPRTMGR
020100     EXIT.                                                        UCPRTMGR
020200     EJECT                                                        UCPRTMGR
020300 1100-STORE-3PART-MAP    SECTION.                                 UCPRTMGR
020400******************************************************************UCPRTMGR
020500******************************************************************UCPRTMGR
020600     MOVE 'UCPR    ' TO TS-QUEUE-ID.                              UCPRTMGR
020700     MOVE EIBTRMID TO TS-QUEUE-TERMID.                            UCPRTMGR
020800*                                                                 UCPRTMGR
020900     EXEC CICS                                                    UCPRTMGR
021000          DELETEQ TS                                              UCPRTMGR
021100          QUEUE (TS-QUEUE-ID)                                     UCPRTMGR
021200          NOHANDLE                                                UCPRTMGR
021300          RESP  (WS-RESP)                                         UCPRTMGR
021400     END-EXEC.                                                    UCPRTMGR
021500*                                                                 UCPRTMGR
021600     MOVE 1 TO TS-QUEUE-ITEM.                                     UCPRTMGR
021700*                                                                 UCPRTMGR
021800     MOVE LENGTH OF UCHDRMRG TO TS-QUEUE-LENGTH.                  UCPRTMGR
021900*                                                                 UCPRTMGR
022000     EXEC CICS                                                    UCPRTMGR
022100          WRITEQ TS                                               UCPRTMGR
022200          QUEUE  (TS-QUEUE-ID)                                    UCPRTMGR
022300          FROM   (UCHDRMRG-EXT-AREA)                              UCPRTMGR
022400          ITEM   (TS-QUEUE-ITEM)                                  UCPRTMGR
022500          LENGTH (TS-QUEUE-LENGTH)                                UCPRTMGR
022600          NOHANDLE                                                UCPRTMGR
022700          RESP   (WS-RESP)                                        UCPRTMGR
022800     END-EXEC.                                                    UCPRTMGR
022900*                                                                 UCPRTMGR
023000     IF WS-RESP NOT = DFHRESP(NORMAL)                             UCPRTMGR
023100        MOVE 'BAD RESPONSE FROM WRITE HDRMRG TS QUEUE. WS-RESP = 'UCPRTMGR
023200                                       TO UCWSABND-ABEND-DATA (1) UCPRTMGR
023300        MOVE WS-RESP TO UCWSABND-ABEND-DATA (2)                   UCPRTMGR
023400        PERFORM 9999-ABEND                                        UCPRTMGR
023500     END-IF.                                                      UCPRTMGR
023600*                                                                 UCPRTMGR
023700     MOVE 2 TO TS-QUEUE-ITEM.                                     UCPRTMGR
023800*                                                                 UCPRTMGR
023900     MOVE LENGTH OF UCDTLMRG TO TS-QUEUE-LENGTH.                  UCPRTMGR
024000*                                                                 UCPRTMGR
024100     EXEC CICS                                                    UCPRTMGR
024200          WRITEQ TS                                               UCPRTMGR
024300          QUEUE  (TS-QUEUE-ID)                                    UCPRTMGR
024400          FROM   (UCDTLMRG-EXT-AREA)                              UCPRTMGR
024500          ITEM   (TS-QUEUE-ITEM)                                  UCPRTMGR
024600          LENGTH (TS-QUEUE-LENGTH)                                UCPRTMGR
024700          NOHANDLE                                                UCPRTMGR
024800          RESP   (WS-RESP)                                        UCPRTMGR
024900     END-EXEC.                                                    UCPRTMGR
025000*                                                                 UCPRTMGR
025100     IF WS-RESP NOT = DFHRESP(NORMAL)                             UCPRTMGR
025200        MOVE 'BAD RESPONSE FROM WRITE DTLMRG TS QUEUE. WS-RESP = 'UCPRTMGR
025300                                       TO UCWSABND-ABEND-DATA (1) UCPRTMGR
025400        MOVE WS-RESP TO UCWSABND-ABEND-DATA (2)                   UCPRTMGR
025500        PERFORM 9999-ABEND                                        UCPRTMGR
025600     END-IF.                                                      UCPRTMGR
025700*                                                                 UCPRTMGR
025800     MOVE 3 TO TS-QUEUE-ITEM.                                     UCPRTMGR
025900*                                                                 UCPRTMGR
026000     MOVE LENGTH OF UCFTRMRG TO TS-QUEUE-LENGTH.                  UCPRTMGR
026100*                                                                 UCPRTMGR
026200     EXEC CICS                                                    UCPRTMGR
026300          WRITEQ TS                                               UCPRTMGR
026400          QUEUE  (TS-QUEUE-ID)                                    UCPRTMGR
026500          FROM   (UCFTRMRG-EXT-AREA)                              UCPRTMGR
026600          ITEM   (TS-QUEUE-ITEM)                                  UCPRTMGR
026700          LENGTH (TS-QUEUE-LENGTH)                                UCPRTMGR
026800          NOHANDLE                                                UCPRTMGR
026900          RESP   (WS-RESP)                                        UCPRTMGR
027000     END-EXEC.                                                    UCPRTMGR
027100*                                                                 UCPRTMGR
027200     IF WS-RESP NOT = DFHRESP(NORMAL)                             UCPRTMGR
027300        MOVE 'BAD RESPONSE FROM WRITE FTRMRG TS QUEUE. WS-RESP = 'UCPRTMGR
027400                                       TO UCWSABND-ABEND-DATA (1) UCPRTMGR
027500        MOVE WS-RESP TO UCWSABND-ABEND-DATA (2)                   UCPRTMGR
027600        PERFORM 9999-ABEND                                        UCPRTMGR
027700     END-IF.                                                      UCPRTMGR
027800*                                                                 UCPRTMGR
027900 1100-EXIT.                                                       UCPRTMGR
028000     EXIT.                                                        UCPRTMGR
028100     EJECT                                                        UCPRTMGR
028200 1200-FMT-PRINT-CTL-DATA   SECTION.                               UCPRTMGR
028300******************************************************************UCPRTMGR
028400******************************************************************UCPRTMGR
028900     MOVE PRNT-COPIES TO CA-PRNT-NUM-COPIES                       UCPRTMGR
029000     PERFORM 1210-GET-PRT-DATA-FROM-DB                            UCPRTMGR
029100     EVALUATE CURRENT-SELECTION                                   UCPRTMGR
029200       WHEN '1   '                                                UCPRTMGR
029300         IF PRT-ROW-FOUND                                         UCPRTMGR
029400         AND PRINTER-NW-ADDRESS > SPACE                           UCPRTMGR
029500           MOVE 'L'                TO CA-PRNT-ADDRESS-TYPE        UCPRTMGR
029600           MOVE PRINTER-NW-ADDRESS TO CA-PRNT-ADDRESS             UCPRTMGR
029700           MOVE SPACE              TO CA-PRNT-CLASS               UCPRTMGR
029800           MOVE SPACE              TO CA-PRNT-FORMS               UCPRTMGR
029900           MOVE SPACE              TO CA-PRNT-NODE                UCPRTMGR
030000         ELSE                                                     UCPRTMGR
030100           MOVE PRINTER-TYPE       TO CA-PRNT-ADDRESS-TYPE        UCPRTMGR
030200           MOVE DESTINATION-ID     TO CA-PRNT-ADDRESS             UCPRTMGR
030300           MOVE PRINTER-CLASS      TO CA-PRNT-CLASS               UCPRTMGR
030400           MOVE PRINTER-FORMS      TO CA-PRNT-FORMS               UCPRTMGR
030500           MOVE PRINTER-NODE       TO CA-PRNT-NODE                UCPRTMGR
030600         END-IF                                                   UCPRTMGR
030700       WHEN '2   '                                                UCPRTMGR
030800         MOVE 'L'                TO CA-PRNT-ADDRESS-TYPE          UCPRTMGR
030900         MOVE PRIMARY-LPR-ID     TO CA-PRNT-ADDRESS               UCPRTMGR
031000         MOVE SPACE              TO CA-PRNT-CLASS                 UCPRTMGR
031100         MOVE SPACE              TO CA-PRNT-FORMS                 UCPRTMGR
031200         MOVE SPACE              TO CA-PRNT-NODE                  UCPRTMGR
031300       WHEN '3   '                                                UCPRTMGR
031400         MOVE 'L'                TO CA-PRNT-ADDRESS-TYPE          UCPRTMGR
031500         MOVE ALTERNATE-LPR-ID   TO CA-PRNT-ADDRESS               UCPRTMGR
031600         MOVE SPACE              TO CA-PRNT-CLASS                 UCPRTMGR
031700         MOVE SPACE              TO CA-PRNT-FORMS                 UCPRTMGR
031800         MOVE SPACE              TO CA-PRNT-NODE                  UCPRTMGR
031900     END-EVALUATE.                                                UCPRTMGR
032000*                                                                 UCPRTMGR
032100 1200-EXIT.                                                       UCPRTMGR
032200     EXIT.                                                        UCPRTMGR
032300     EJECT                                                        UCPRTMGR
032400 1210-GET-PRT-DATA-FROM-DB SECTION.                               UCPRTMGR
032500******************************************************************UCPRTMGR
032600******************************************************************UCPRTMGR
032700     MOVE 'SELECT PRINTER              ' TO DB2MSG-TAG            UCPRTMGR
032800*                                                                 UCPRTMGR
032900     EXEC SQL                                                     UCPRTMGR
033000       SELECT PRINTER_DESC                                        UCPRTMGR
033100           ,  PRINTER_TYPE                                        UCPRTMGR
033200           ,  PRINTER_CLASS                                       UCPRTMGR
033300           ,  PRINTER_FORMS                                       UCPRTMGR
033400           ,  PRINTER_NODE                                        UCPRTMGR
033500           ,  PRINTER_NW_ADDRESS                                  UCPRTMGR
033600         INTO :PRINTER-DESC                                       UCPRTMGR
033700         ,    :PRINTER-TYPE                                       UCPRTMGR
033800         ,    :PRINTER-CLASS                                      UCPRTMGR
033900         ,    :PRINTER-FORMS                                      UCPRTMGR
034000         ,    :PRINTER-NODE                                       UCPRTMGR
034100         ,    :PRINTER-NW-ADDRESS                                 UCPRTMGR
034200       FROM   UC0VZPRT_PRT                                        UCPRTMGR
034300       WHERE  PRINTER_ID         = :DESTINATION-ID                UCPRTMGR
034400     END-EXEC.                                                    UCPRTMGR
034500*                                                                 UCPRTMGR
034600     IF SQLCODE = ZERO                                            UCPRTMGR
034700        SET PRT-ROW-FOUND TO TRUE                                 UCPRTMGR
034800     ELSE                                                         UCPRTMGR
034900        SET PRT-ROW-NOT-FOUND TO TRUE                             UCPRTMGR
035000     END-IF.                                                      UCPRTMGR
035100*                                                                 UCPRTMGR
035200 1210-EXIT.                                                       UCPRTMGR
035300     EXIT.                                                        UCPRTMGR
035400     EJECT                                                        UCPRTMGR
035500 2000-SET-UP-PRNT-FUNCTION SECTION.                               UCPRTMGR
035600******************************************************************UCPRTMGR
035610*   SCREEN PRINT REQUESTED. NO DEFAULT PRINTER FOUND.             UCPRTMGR
035620*                                                                 UCPRTMGR
040800*                                                              CD 36430951
035650******************************************************************UCPRTMGR
035701     SET CA-PRNT-NOT-REQUESTED  TO TRUE                           UCPRTMGR
035702     MOVE 1    TO CA-PRNT-RETURN-CODE                             UCPRTMGR
035704     MOVE SPACE TO  CA-PRNT-ADDRESS                               UCPRTMGR
035720     MOVE CA-PRNT-ADDRESS TO WS-PRINT-MSG-DEST                    UCPRTMGR
035730     MOVE WS-NOT-PRINTED-MSG TO CA-PRNT-HOT-MSG                   UCPRTMGR
035750     IF UCCOMMON-UPD-IN-PROGRESS                                  UCPRTMGR
035751        IF UCCOMMON-FUNCTION = 'PRNT'                             UCPRTMGR
035760***        A DEFAULT PRINTER HAS NOT BEEN DESIGNATED              UCPRTMGR
035762           MOVE U0105  TO UCCOMMON-MSG-NUMBER                     UCPRTMGR
042200********ELSE                                                      36430943
035765***        SCREEN NOT PRINTED. EXIT UPDATE SESSION                UCPRTMGR
035766***        AND SELECT A PRINTER                                   UCPRTMGR
042500***********MOVE U0123  TO UCCOMMON-MSG-NUMBER                     36430943
035768        END-IF                                                    UCPRTMGR
042700*****ELSE                                                         36430943
035772***     SCREEN NOT PRINTED. NO DESTINATION SELECTED               UCPRTMGR
042900********MOVE U0127  TO UCCOMMON-MSG-NUMBER                        36430943
035790     END-IF.                                                      UCPRTMGR
035800*                                                                 UCPRTMGR
035900*                                                                 UCPRTMGR
036000 2000-EXIT.                                                       UCPRTMGR
036100     EXIT.                                                        UCPRTMGR
036200     EJECT                                                        UCPRTMGR
043600*3000-SET-UP-EXPLICIT-PRNT-CALL    SECTION.                       36430907
043700*                                                               CD36430907
043800*3000-EXIT.                                                       36430907
043900*****EXIT.                                                        36430907
044000*****EJECT                                                        36430907
039600 9100-INITIALIZATION                  SECTION.                    UCPRTMGR
039700******************************************************************UCPRTMGR
039800******************************************************************UCPRTMGR
039810     IF UCCOMMON-PRINT-COPIES = LOW-VALUES                        UCPRTMGR
039820     OR UCCOMMON-PRINT-COPIES = SPACE                             UCPRTMGR
039830        MOVE '01' TO UCCOMMON-PRINT-COPIES                        UCPRTMGR
039840     END-IF                                                       UCPRTMGR
039900     MOVE UCCOMMON-PRINT-COPIES TO PRNT-COPIES-GRP                UCPRTMGR
039910     MOVE ZERO TO UCCOMMON-RETURN-CODE                            UCPRTMGR
040000     SET UCCOMMON-NO-EDIT-ERRORS TO TRUE                          UCPRTMGR
040100     MOVE PGM-NAME  TO UCWSABND-ABENDING-PGM                      UCPRTMGR
040200     MOVE PGM-NAME  TO DB2MSG-PGM-ID                              UCPRTMGR
045300     MOVE UCCOMMON-TOP-MAP-NAME TO CA-PRNT-TOP-MAP-NAME           36430911
045400     MOVE UCCOMMON-DTL-MAP-NAME TO CA-PRNT-DTL-MAP-NAME           36430911
045500     MOVE UCCOMMON-BOT-MAP-NAME TO CA-PRNT-BOT-MAP-NAME           36430911
045600*****MOVE UCROUTWA-TOP-MAP-NAME TO CA-PRNT-TOP-MAP-NAME           36430911
045700*****MOVE UCROUTWA-DTL-MAP-NAME TO CA-PRNT-DTL-MAP-NAME           36430911
045800*****MOVE UCROUTWA-BOT-MAP-NAME TO CA-PRNT-BOT-MAP-NAME           36430911
040270     MOVE UCROUTWA-TOP-MAP-LENGTH TO CA-PRNT-TOP-MAP-LENGTH       UCPRTMGR
040280     MOVE UCPISCRN-DETAIL-MAP-LENGTH                              UCPRTMGR
040290       TO CA-PRNT-DTL-MAP-LENGTH                                  UCPRTMGR
040291     MOVE UCROUTWA-BOT-MAP-LENGTH TO CA-PRNT-BOT-MAP-LENGTH       UCPRTMGR
040300     PERFORM 9110-GET-INIT-USER-PRT-ROW.                          UCPRTMGR
040400*                                                                 UCPRTMGR
040500 9100-EXIT.                                                       UCPRTMGR
040600     EXIT.                                                        UCPRTMGR
040700     EJECT                                                        UCPRTMGR
040800 9110-GET-INIT-USER-PRT-ROW    SECTION.                           UCPRTMGR
040900******************************************************************UCPRTMGR
041000* GET THE USER'S PRINTER DATA.                                    UCPRTMGR
041100* IF LOW VALUES ARE PRESENT, REMOVE THEM.                         UCPRTMGR
041200* IF THERE IS NO ROW, CREATE AN INITIAL ROW.                      UCPRTMGR
041300******************************************************************UCPRTMGR
041400     MOVE UCCOMMON-USERID TO USER-ID.                             UCPRTMGR
041500*                                                                 UCPRTMGR
041600     PERFORM 9112-SEL-USER-PRT-ROW                                UCPRTMGR
041700     IF SQLCODE = ZERO                                            UCPRTMGR
041800        MOVE    DESTINATION-ID    TO UPD-PRT-ID                   UCPRTMGR
041900        MOVE    PRIMARY-LPR-ID    TO UPD-LPR1                     UCPRTMGR
042000        MOVE    ALTERNATE-LPR-ID  TO UPD-LPR2                     UCPRTMGR
042100        MOVE    CURRENT-SELECTION TO UPD-CURRENT-SELECTION        UCPRTMGR
042200        INSPECT DESTINATION-ID    REPLACING ALL LOW-VALUE BY SPACEUCPRTMGR
042300        INSPECT PRIMARY-LPR-ID    REPLACING ALL LOW-VALUE BY SPACEUCPRTMGR
042400        INSPECT ALTERNATE-LPR-ID  REPLACING ALL LOW-VALUE BY SPACEUCPRTMGR
042500        INSPECT CURRENT-SELECTION REPLACING ALL LOW-VALUE BY SPACEUCPRTMGR
042600        IF  DESTINATION-ID       = UPD-PRT-ID                     UCPRTMGR
042700        AND PRIMARY-LPR-ID       = UPD-LPR1                       UCPRTMGR
042800        AND ALTERNATE-LPR-ID     = UPD-LPR2                       UCPRTMGR
042900        AND CURRENT-SELECTION    = UPD-CURRENT-SELECTION          UCPRTMGR
043000           CONTINUE                                               UCPRTMGR
043100        ELSE                                                      UCPRTMGR
043200           PERFORM 9116-UPD-INITIAL-PRT-ROW-TO-DB                 UCPRTMGR
043300        END-IF                                                    UCPRTMGR
043400     ELSE                                                         UCPRTMGR
043500        IF SQLCODE = +100                                         UCPRTMGR
043600           PERFORM 9114-ADD-INITIAL-PRT-ROW-TO-DB                 UCPRTMGR
043700        END-IF                                                    UCPRTMGR
043800     END-IF.                                                      UCPRTMGR
043900*                                                                 UCPRTMGR
044000*                                                                 UCPRTMGR
044100 9110-EXIT.                                                       UCPRTMGR
044200     EXIT.                                                        UCPRTMGR
044300     EJECT                                                        UCPRTMGR
044400 9112-SEL-USER-PRT-ROW          SECTION.                          UCPRTMGR
044500******************************************************************UCPRTMGR
044600******************************************************************UCPRTMGR
044700     MOVE 'SELECT LPRT AND LPR2        ' TO DB2MSG-TAG            UCPRTMGR
044800*                                                                 UCPRTMGR
044900     EXEC SQL                                                     UCPRTMGR
045000          SELECT DESTINATION_ID   ,                               UCPRTMGR
045100                 PRIMARY_LPR_ID   ,                               UCPRTMGR
045200                 ALTERNATE_LPR_ID ,                               UCPRTMGR
045300                 CURRENT_SELECTION                                UCPRTMGR
045400           INTO :DESTINATION-ID   ,                               UCPRTMGR
045500                :PRIMARY-LPR-ID   ,                               UCPRTMGR
045600                :ALTERNATE-LPR-ID ,                               UCPRTMGR
045700                :CURRENT-SELECTION                                UCPRTMGR
045800          FROM UC0VZPRR_PRR                                       UCPRTMGR
045900          WHERE USER_ID = :USER-ID                                UCPRTMGR
046000     END-EXEC.                                                    UCPRTMGR
046100*                                                                 UCPRTMGR
046200*                                                                 UCPRTMGR
046300 9112-EXIT.                                                       UCPRTMGR
046400     EXIT.                                                        UCPRTMGR
046500     EJECT                                                        UCPRTMGR
046600 9114-ADD-INITIAL-PRT-ROW-TO-DB SECTION.                          UCPRTMGR
046700******************************************************************UCPRTMGR
046800******************************************************************UCPRTMGR
046900     MOVE 'INSERT LPRT AND LPR2 ROW    ' TO DB2MSG-TAG            UCPRTMGR
047000*                                                                 UCPRTMGR
047100     INITIALIZE UC0VZPRR                                          UCPRTMGR
047200     MOVE UCCOMMON-USERID TO USER-ID.                             UCPRTMGR
047300*                                                                 UCPRTMGR
047400     EXEC SQL                                                     UCPRTMGR
047500       INSERT INTO                                                UCPRTMGR
047600       UC0VZPRR_PRR                                               UCPRTMGR
047700       ( USER_ID                                                  UCPRTMGR
047800       , DESTINATION_ID                                           UCPRTMGR
047900       , PRIMARY_LPR_ID                                           UCPRTMGR
048000       , ALTERNATE_LPR_ID                                         UCPRTMGR
048100       , CURRENT_SELECTION                                        UCPRTMGR
048200       )                                                          UCPRTMGR
048300       VALUES                                                     UCPRTMGR
048400       ( :USER-ID                                                 UCPRTMGR
048500       , :DESTINATION-ID                                          UCPRTMGR
048600       , :PRIMARY-LPR-ID                                          UCPRTMGR
048700       , :ALTERNATE-LPR-ID                                        UCPRTMGR
048800       , :CURRENT-SELECTION                                       UCPRTMGR
048900       )                                                          UCPRTMGR
049000     END-EXEC.                                                    UCPRTMGR
049100*                                                                 UCPRTMGR
049200 9114-EXIT.                                                       UCPRTMGR
049300     EXIT.                                                        UCPRTMGR
049400     EJECT                                                        UCPRTMGR
049500 9116-UPD-INITIAL-PRT-ROW-TO-DB SECTION.                          UCPRTMGR
049600******************************************************************UCPRTMGR
049700* THIS UPDATE IS ONLY DONE IF THERE ARE LOW VALUES IN THE DATA.   UCPRTMGR
049800******************************************************************UCPRTMGR
049900     MOVE 'UPDATE PRR TABLE            ' TO DB2MSG-TAG            UCPRTMGR
004900                                                                  UCPRTMGR
005100     EXEC SQL                                                     UCPRTMGR
050200       UPDATE                                                     UCPRTMGR
050300       UC0VZPRR_PRR                                               UCPRTMGR
050400       SET DESTINATION_ID    = :DESTINATION-ID                    UCPRTMGR
050500          ,PRIMARY_LPR_ID    = :PRIMARY-LPR-ID                    UCPRTMGR
050600          ,ALTERNATE_LPR_ID  = :ALTERNATE-LPR-ID                  UCPRTMGR
050700          ,CURRENT_SELECTION = :CURRENT-SELECTION                 UCPRTMGR
050800       WHERE USER_ID = :USER-ID                                   UCPRTMGR
005300     END-EXEC.                                                    UCPRTMGR
051000*                                                                 UCPRTMGR
051100*                                                                 UCPRTMGR
051200 9116-EXIT.                                                       UCPRTMGR
051300     EXIT.                                                        UCPRTMGR
051400     EJECT                                                        UCPRTMGR
051500 9200-START-CICS-PRNT  SECTION.                                   UCPRTMGR
006500******************************************************************UCPRTMGR
051700*                                                                 UCPRTMGR
006900******************************************************************UCPRTMGR
051900     MOVE EIBTRMID TO START-C-ORIG-TERMID.                        UCPRTMGR
022000     MOVE CA-PRNT-ADDRESS TO WS-PRINTER.                          UCPRTMGR
022100     MOVE CA-PRNT-SCREEN-AREA TO START-C-SCREEN-AREA.             UCPRTMGR
022200     MOVE CA-PRNT-SOURCE      TO START-C-MAP.                     UCPRTMGR
022300     MOVE CA-PRNT-NUM-COPIES  TO START-C-NUM-COPIES.              UCPRTMGR
052400     MOVE CA-PRNT-TYPE        TO START-C-PRINT-TYPE.              UCPRTMGR
052500     MOVE CA-PRNT-TOP-MAP-NAME TO START-C-TOP-MAP-NAME.           UCPRTMGR
052600     MOVE CA-PRNT-DTL-MAP-NAME TO START-C-DTL-MAP-NAME.           UCPRTMGR
052700     MOVE CA-PRNT-BOT-MAP-NAME TO START-C-BOT-MAP-NAME.           UCPRTMGR
052800     MOVE CA-PRNT-TOP-MAP-LENGTH TO START-C-TOP-MAP-LENGTH.       UCPRTMGR
052900     MOVE CA-PRNT-DTL-MAP-LENGTH TO START-C-DTL-MAP-LENGTH.       UCPRTMGR
053000     MOVE CA-PRNT-BOT-MAP-LENGTH TO START-C-BOT-MAP-LENGTH.       UCPRTMGR
053100     IF CA-TSQ-PRINT                                              UCPRTMGR
053200        MOVE CA-PRNT-SOURCE(1:8) TO START-C-TSQ-NAME.             UCPRTMGR
053300*                                                                 UCPRTMGR
022500     EXEC CICS                                                    UCPRTMGR
022600             START                                                UCPRTMGR
022700             TRANSID(WS-CICS-PRNT-TRAN)                           UCPRTMGR
022800             FROM(WS-START-CICS)                                  UCPRTMGR
022900             INTERVAL(0)                                          UCPRTMGR
023000             TERMID(WS-PRINTER)                                   UCPRTMGR
023100             NOHANDLE                                             UCPRTMGR
023200             RESP(WS-RESP)                                        UCPRTMGR
023300     END-EXEC.                                                    UCPRTMGR
054300*                                                                 UCPRTMGR
023500     IF WS-RESP  = DFHRESP(NORMAL)                                UCPRTMGR
023600        NEXT SENTENCE                                             UCPRTMGR
023700     ELSE                                                         UCPRTMGR
023800     IF WS-RESP  = DFHRESP(TERMIDERR)                             UCPRTMGR
023900        NEXT SENTENCE                                             UCPRTMGR
024000     ELSE                                                         UCPRTMGR
055000        PERFORM 9999-ABEND.                                       UCPRTMGR
055100 9200-EXIT.                                                       UCPRTMGR
055200     EXIT.                                                        UCPRTMGR
055300     EJECT                                                        UCPRTMGR
055400 9300-START-NON-CICS-PRNT SECTION.                                UCPRTMGR
055500******************************************************************UCPRTMGR
055600*                                                                 UCPRTMGR
055700******************************************************************UCPRTMGR
055800     MOVE EIBTRMID TO UCPLPRTJ-ORIG-TERMID.                       UCPRTMGR
055900*                                                                 UCPRTMGR
056000     IF CA-PRNT-LPR                                               UCPRTMGR
056100        MOVE CA-PRNT-ADDRESS TO UCPLPRTJ-LPR-ADDRESS              UCPRTMGR
056200        MOVE 'A' TO UCPLPRTJ-CLASS                                UCPRTMGR
056300     ELSE                                                         UCPRTMGR
056400        MOVE CA-PRNT-ADDRESS TO UCPLPRTJ-DEST-NODE                UCPRTMGR
056500        MOVE CA-PRNT-CLASS    TO UCPLPRTJ-CLASS                   UCPRTMGR
056600     END-IF.                                                      UCPRTMGR
056700*                                                                 UCPRTMGR
024700     MOVE '*'             TO UCPLPRTJ-DEST-ID.                    UCPRTMGR
056900     MOVE CA-PRNT-NODE    TO UCPLPRTJ-PRNT-NODE.                  UCPRTMGR
024800     MOVE CA-PRNT-SCREEN-AREA TO UCPLPRTJ-SCREEN-STRUCT.          UCPRTMGR
024900     MOVE CA-PRNT-SOURCE      TO UCPLPRTJ-MAP-NAME.               UCPRTMGR
025000     MOVE CA-PRNT-NUM-COPIES  TO UCPLPRTJ-COPIES.                 UCPRTMGR
025200     MOVE CA-PRNT-FORMS       TO UCPLPRTJ-FORMS.                  UCPRTMGR
057400     MOVE CA-PRNT-TYPE        TO UCPLPRTJ-PRINT-TYPE.             UCPRTMGR
057500     MOVE CA-PRNT-TOP-MAP-NAME TO UCPLPRTJ-TOP-MAP-NAME.          UCPRTMGR
057600     MOVE CA-PRNT-DTL-MAP-NAME TO UCPLPRTJ-DTL-MAP-NAME.          UCPRTMGR
057700     MOVE CA-PRNT-BOT-MAP-NAME TO UCPLPRTJ-BOT-MAP-NAME.          UCPRTMGR
057800     MOVE CA-PRNT-ADDRESS-TYPE TO UCPLPRTJ-ADDRESS-TYPE.          UCPRTMGR
057900     IF CA-TSQ-PRINT                                              UCPRTMGR
058000        MOVE CA-PRNT-SOURCE(1:8) TO UCPLPRTJ-TSQ-NAME             UCPRTMGR
058100     END-IF.                                                      UCPRTMGR
058100*****IF UCCOMMON-FUNCTION = 'IARV' OR 'IARW'                      UCSD0080
058100*****   MOVE 'P'              TO UCPLPRTJ-PRINT-TYPE              UCSD0080
020700*****   MOVE EIBTRMID         TO TS-PAN-QUEUE-TERM-ID             UCSD0080
058100*****   MOVE TS-PAN-QUEUE-ID  TO UCPLPRTJ-TSQ-NAME                UCSD0080
003990*****END-IF.                                                      UCSD0080
025400     EXEC CICS                                                    UCPRTMGR
025500             START                                                UCPRTMGR
025600             TRANSID(WS-NON-CICS-PRNT-TRAN)                       UCPRTMGR
025700             FROM(WS-START-NON-CICS)                              UCPRTMGR
025800             INTERVAL(0)                                          UCPRTMGR
025900             NOHANDLE                                             UCPRTMGR
026000             RESP(WS-RESP)                                        UCPRTMGR
026100     END-EXEC.                                                    UCPRTMGR
059100*                                                                 UCPRTMGR
026300     IF WS-RESP  = DFHRESP(NORMAL)                                UCPRTMGR
026400        NEXT SENTENCE                                             UCPRTMGR
026500     ELSE                                                         UCPRTMGR
026600     IF WS-RESP  = DFHRESP(TERMIDERR)                             UCPRTMGR
026700        NEXT SENTENCE                                             UCPRTMGR
026800     ELSE                                                         UCPRTMGR
059800        PERFORM 9999-ABEND.                                       UCPRTMGR
059900 9300-EXIT.                                                       UCPRTMGR
060000     EXIT.                                                        UCPRTMGR
060100     EJECT                                                        UCPRTMGR
060200*999999-SQL-ERROR                     SECTION.                    UCPRTMGR
060300******************************************************************UCPRTMGR
060400* COPIED PROCEDURE DIVISION CODE FOR SQL ERROR HANDLING          *UCPRTMGR
060500******************************************************************UCPRTMGR
060600*                                                                 UCPRTMGR
060700     EXEC SQL                                                     UCPRTMGR
060800          INCLUDE CPPDXP99                                        UCPRTMGR
027700     END-EXEC.                                                    UCPRTMGR
061000*                                                                 UCPRTMGR
061100     MOVE 'SQL ERROR - SEE PRECEDING DB2 MESSAGES'                UCPRTMGR
061200                     TO UCWSABND-ABEND-DATA (1).                  UCPRTMGR
061300*                                                                 UCPRTMGR
061400     PERFORM 9999-ABEND.                                          UCPRTMGR
061500*                                                                 UCPRTMGR
061600 999999-EXIT.                                                     UCPRTMGR
061700       EXIT.                                                      UCPRTMGR
061800     EJECT                                                        UCPRTMGR
061900 9999-ABEND                           SECTION.                    UCPRTMGR
062000******************************************************************UCPRTMGR
062100*  COPIED PROCEDURE DIVISION CODE FOR ABEND HANDLING             *UCPRTMGR
062200******************************************************************UCPRTMGR
062300*                                                                 UCPRTMGR
062400     COPY UCPDABND.                                               UCPRTMGR
062500*                                                                 UCPRTMGR
062600 9999-EXIT.                                                       UCPRTMGR
062700     EXIT.                                                        UCPRTMGR
