000000**************************************************************/   48441334
000001*  PROGRAM: UCTAXDOC                                         */   48441334
000002*  RELEASE: ___1334______ SERVICE REQUEST(S): ____14844____  */   48441334
000003*  NAME:_______QUAN______ CREATION DATE:      ___01/11/01__  */   48441334
000004*  DESCRIPTION:                                              */   48441334
000005*  WHEN CALLED, THIS PROGRAM BUILDS AND WRITES THE LINES     */   48441334
000006*  LINES IN THE W-4/DE4 DOCUMENT TO TEMPORARY STORAGE.       */   48441334
000009**************************************************************/   48441334
000900 IDENTIFICATION DIVISION.                                         UCTAXDOC
001000 PROGRAM-ID. UCTAXDOC.                                            UCTAXDOC
001100**************************************************************/   UCTAXDOC
001200*  THIS PROGRAM BUILDS DOCUMENT LINES FROM  W4D TABLE, AND   */   UCTAXDOC
001400*  WRITES CONSTRUCTED DOCUMENT AND DATA TO TEMPORARY STORAGE */   UCTAXDOC
001500*  FOR DISPLAY BY THE CALLING PROGRAMS.                      */   UCTAXDOC
001600**************************************************************/   UCTAXDOC
001700 ENVIRONMENT DIVISION.                                            UCTAXDOC
001800 CONFIGURATION SECTION.                                           UCTAXDOC
001900 SOURCE-COMPUTER.  COPY CPOTXUCS.                                 UCTAXDOC
002000 DATA DIVISION.                                                   UCTAXDOC
002100 WORKING-STORAGE SECTION.                                         UCTAXDOC
002200                                                                  UCTAXDOC
002300 01 WS-MISC.                                                      UCTAXDOC
002400    05  WS-THIS-PGM-NAME                   PIC X(08)              UCTAXDOC
002500                                               VALUE 'UCTAXDOC'.  UCTAXDOC
002600    05  WS-RESP                            PIC S9(08) COMP.       UCTAXDOC
002900    05  WS-HOLD-LINE-NUM                   PIC S9(04) COMP        UCTAXDOC
002901                                               VALUE ZERO.        UCTAXDOC
002902    05  WS-SUB                             PIC S9(04) COMP        UCTAXDOC
002903                                               VALUE ZERO.        UCTAXDOC
002910    05  WS-LINE-COUNT                      PIC S9(04) COMP        UCTAXDOC
003000                                               VALUE ZERO.        UCTAXDOC
005000    05  WS-FETCH-FLAG                      PIC X VALUE 'Y'.       UCTAXDOC
005100        88  FWD-FETCH                            VALUE 'Y'.       UCTAXDOC
005200        88  END-FWD-FETCH                        VALUE 'N'.       UCTAXDOC
005600                                                                  UCTAXDOC
014700    05  TS-QUEUE-LINE                      PIC X(79).             UCTAXDOC
014800    05  TS-QUEUE-LENGTH                    PIC S9(04) COMP        UCTAXDOC
014900                                               VALUE 79.          UCTAXDOC
015000    05  TS-QUEUE-ITEM                      PIC S9(04) COMP        UCTAXDOC
015100                                               VALUE ZERO.        UCTAXDOC
015400    05  TS-QUEUE-ID                        PIC X(08).             UCTAXDOC
015410    05  WS-QUEUE-LENGTH                    PIC S9(04) COMP.       UCTAXDOC
015412                                                                  UCTAXDOC
015420    05  WS-SOCIAL-SECURITY.                                       UCTAXDOC
015421        07  WS-SSN-PRT1             PIC X(03).                    UCTAXDOC
015422        07  FILLER                  PIC X(01)  VALUE '-'.         UCTAXDOC
015423        07  WS-SSN-PRT2             PIC X(02).                    UCTAXDOC
015424        07  FILLER                  PIC X(01)  VALUE '-'.         UCTAXDOC
015425        07  WS-SSN-PRT3             PIC X(04).                    UCTAXDOC
015426    05  WS-DISPLAY-ADDTL-AMT        PIC ZZZZZZZ.99.               UCTAXDOC
015430    05  WS-DISPLAY-ADDTL-AMT-REDF   REDEFINES                     UCTAXDOC
015440        WS-DISPLAY-ADDTL-AMT        PIC X(10).                    UCTAXDOC
015450    05  WS-EXEMPT                   PIC X(03) VALUE '998'.        UCTAXDOC
015451    05  WS-START                    PIC 999.                      UCTAXDOC
015452    05  WS-LENGTH                   PIC 999.                      UCTAXDOC
015453    05  WS-DISPLAY-NUMERIC          PIC 999.                      UCTAXDOC
015460    05  WS-DISPLAY-NUMERIC-REDF     REDEFINES                     UCTAXDOC
015470        WS-DISPLAY-NUMERIC          PIC X(03).                    UCTAXDOC
015471    05  WS-DISPLAY-NUMERIC-FED      PIC 999.                      UCTAXDOC
015472    05  WS-DISPLAY-NUMERIC-FED-REDF REDEFINES                     UCTAXDOC
015473        WS-DISPLAY-NUMERIC-FED      PIC X(03).                    UCTAXDOC
015474    05  WS-DISPLAY-NUMERIC-STE      PIC 999.                      UCTAXDOC
015475    05  WS-DISPLAY-NUMERIC-STE-REDF REDEFINES                     UCTAXDOC
015476        WS-DISPLAY-NUMERIC-STE      PIC X(03).                    UCTAXDOC
015480                                                                  UCTAXDOC
015490    05  WS-PROCESS-DATE          PIC X(10).                       UCTAXDOC
015491    05  WS-MAX-SYS-ENTRY-DATE    PIC X(10) VALUE SPACES.          UCTAXDOC
015492    05  WS-SYS-ENTRY-DATE        PIC X(10) VALUE SPACES.          UCTAXDOC
015493    05  WS-SYS-ENTRY-TIME        PIC X(08) VALUE SPACES.          UCTAXDOC
015494    05  WS-ITERATION-NUMBER      PIC X(03) VALUE SPACES.          UCTAXDOC
015500                                                                  UCTAXDOC
015510 01 WS-DOCUMENT-YEAR                      PIC S9(04) COMP.        UCTAXDOC
015511 01 WS-YEAR                               PIC 9(04).              UCTAXDOC
015512     EJECT                                                        UCTAXDOC
015513 01  DATE-CONVERSION-WORK-AREAS.                   COPY CPWSXDC3. UCTAXDOC
015520                                                                  UCTAXDOC
015600     EJECT                                                        UCTAXDOC
015700 01  PPDB2MSG-INTERFACE.                                          UCTAXDOC
015800     COPY CPLNKDB2.                                               UCTAXDOC
015900 01  UCWSTAXW         EXTERNAL.                                   UCTAXDOC
016000     EXEC SQL                                                     UCTAXDOC
016100          INCLUDE UCWSTAXW                                        UCTAXDOC
016200     END-EXEC.                                                    UCTAXDOC
016210         10  UCWSTAXW-TABLE-ENTRIES  REDEFINES                    UCTAXDOC
016220                                     UCWSTAXW-PROGRAM-WORK-AREA.  UCTAXDOC
016230             15  UCWSTAXW-MAX-ENTRIES  PIC S9(04).                UCTAXDOC
016240             15  UCWSTAXW-TABLE    OCCURS 18.                     UCTAXDOC
016250                 20  UCWSTAXW-DATA-ELEM  PIC X(04).               UCTAXDOC
016260                 20  UCWSTAXW-DATA       PIC X(30).               UCTAXDOC
016270                 20  UCWSTAXW-CHANGE-IND PIC X(01).               UCTAXDOC
016280             15 FILLER                   PIC X(1305).             UCTAXDOC
016290                                                                  UCTAXDOC
016300 01  UCWSABND         EXTERNAL.                                   UCTAXDOC
016400     EXEC SQL                                                     UCTAXDOC
016500          INCLUDE UCWSABND                                        UCTAXDOC
016600     END-EXEC.                                                    UCTAXDOC
016700                                                                  UCTAXDOC
016800******************************************************************UCTAXDOC
016900*          SQL - WORKING STORAGE                                 *UCTAXDOC
017000******************************************************************UCTAXDOC
017600                                                                  UCTAXDOC
017700 01  WS-PPPVZW4D.                                                 UCTAXDOC
017800     EXEC SQL                                                     UCTAXDOC
017900           INCLUDE PPPVZW4D                                       UCTAXDOC
018000     END-EXEC.                                                    UCTAXDOC
018010                                                                  UCTAXDOC
018100 01  IDX-ROW-DATA.                                                UCTAXDOC
018200     EXEC SQL                                                     UCTAXDOC
018300           INCLUDE PPPVZIDX                                       UCTAXDOC
018400     END-EXEC.                                                    UCTAXDOC
018500                                                                  UCTAXDOC
018510 01  BAS-ROW-DATA.                                                UCTAXDOC
018520     EXEC SQL                                                     UCTAXDOC
018530           INCLUDE PPPVZBAS                                       UCTAXDOC
018540     END-EXEC.                                                    UCTAXDOC
018550                                                                  UCTAXDOC
018560 01  HTX-ROW-DATA.                                                UCTAXDOC
018570     EXEC SQL                                                     UCTAXDOC
018580           INCLUDE PPPVZHTX                                       UCTAXDOC
018590     END-EXEC.                                                    UCTAXDOC
018630                                                                  UCTAXDOC
018700     EXEC SQL                                                     UCTAXDOC
018800           INCLUDE SQLCA                                          UCTAXDOC
018900     END-EXEC.                                                    UCTAXDOC
019000                                                                  UCTAXDOC
019100******************************************************************UCTAXDOC
019200*                                                                *UCTAXDOC
019300*                  SQL - SELECTS                                 *UCTAXDOC
019400*                                                                *UCTAXDOC
019500******************************************************************UCTAXDOC
019600*                                                                *UCTAXDOC
019700*        THE VIEW USED IN THIS PROGRAM ARE:                      *UCTAXDOC
019800*                                                                *UCTAXDOC
019900*    VIEW               VIEW DDL AND DCL INCLUDE                 *UCTAXDOC
020000*                        MEMBER NAMES                            *UCTAXDOC
020100*                                                                *UCTAXDOC
020300*  PPPVZW4D_W4D          PPPVZW4D                                *UCTAXDOC
020500******************************************************************UCTAXDOC
020600                                                                  UCTAXDOC
020700     EXEC SQL DECLARE                                             UCTAXDOC
020800           W4D-FOR-CURS CURSOR FOR                                UCTAXDOC
020900           SELECT                                                 UCTAXDOC
021100             W4D_TEXT_LINE_NUM                                    UCTAXDOC
021110            ,W4D_START_POSIT_1                                    UCTAXDOC
021120            ,W4D_DATA_ID_1                                        UCTAXDOC
021130            ,W4D_DATA_LENGTH_1                                    UCTAXDOC
021140            ,W4D_START_POSIT_2                                    UCTAXDOC
021150            ,W4D_DATA_ID_2                                        UCTAXDOC
021160            ,W4D_DATA_LENGTH_2                                    UCTAXDOC
021170            ,W4D_START_POSIT_3                                    UCTAXDOC
021180            ,W4D_DATA_ID_3                                        UCTAXDOC
021190            ,W4D_DATA_LENGTH_3                                    UCTAXDOC
021200            ,W4D_TEXT_LINE                                        UCTAXDOC
021300           FROM PPPVZW4D_W4D                                      UCTAXDOC
021400           WHERE W4D_DOCUMENT_YEAR = :WS-DOCUMENT-YEAR            UCTAXDOC
021700            ORDER BY W4D_TEXT_LINE_NUM                            UCTAXDOC
021800     END-EXEC.                                                    UCTAXDOC
021900                                                                  UCTAXDOC
023700                                                                  UCTAXDOC
023800 LINKAGE SECTION.                                                 UCTAXDOC
023900                                                                  UCTAXDOC
024000 PROCEDURE DIVISION.                                              UCTAXDOC
024010**************************************************************/  *UCTAXDOC
024020*  SQL FROM PRE-COMPILER                                     */  *UCTAXDOC
024030**************************************************************/  *UCTAXDOC
024040******************************************************************UCTAXDOC
024050*****THE FOLLOWING SQL WILL CAUSE ANY 'ABNORMAL' SQLCODE TO      *UCTAXDOC
024060*****CAUSE A BRANCH TO 999999-SQL-ERROR                          *UCTAXDOC
024070******************************************************************UCTAXDOC
024080     EXEC SQL                                                     UCTAXDOC
024090          INCLUDE CPPDXE99                                        UCTAXDOC
024091     END-EXEC.                                                    UCTAXDOC
024100                                                                  UCTAXDOC
024200 0000-MAINLINE   SECTION.                                         UCTAXDOC
024300                                                                  UCTAXDOC
024400     PERFORM 0050-INITIALIZATIONS.                                UCTAXDOC
024600                                                                  UCTAXDOC
024700     IF NOT UCWSTAXW-TAXDOC-ERROR                                 UCTAXDOC
024800       PERFORM 0150-CLEANUP-TS                                    UCTAXDOC
024900       PERFORM 0200-FORMAT-TSQ                                    UCTAXDOC
025000     END-IF.                                                      UCTAXDOC
025100                                                                  UCTAXDOC
025200     GOBACK.                                                      UCTAXDOC
025400                                                                  UCTAXDOC
025500 0050-INITIALIZATIONS    SECTION.                                 UCTAXDOC
025600                                                                  UCTAXDOC
025700     MOVE SPACES                   TO TS-QUEUE-LINE.              UCTAXDOC
025800     MOVE UCWSTAXW-QUEUE-NAME      TO TS-QUEUE-ID.                UCTAXDOC
025802                                                                  UCTAXDOC
025803     PERFORM 2200-SELECT-HTX-ROW.                                 UCTAXDOC
025840     PERFORM 0100-CHECK-FOR-TEMPLATE.                             UCTAXDOC
026200                                                                  UCTAXDOC
026300 0050-EXIT.                                                       UCTAXDOC
026400     EXIT.                                                        UCTAXDOC
026500                                                                  UCTAXDOC
026600                                                                  UCTAXDOC
026700 EJECT                                                            UCTAXDOC
026800 0100-CHECK-FOR-TEMPLATE  SECTION.                                UCTAXDOC
028500                                                                  UCTAXDOC
030200     EXEC SQL                                                     UCTAXDOC
030300       SELECT COUNT(*)                                            UCTAXDOC
030400         INTO :WS-LINE-COUNT                                      UCTAXDOC
030500         FROM  PPPVZW4D_W4D                                       UCTAXDOC
030600         WHERE W4D_DOCUMENT_YEAR  = :WS-DOCUMENT-YEAR             UCTAXDOC
030800     END-EXEC.                                                    UCTAXDOC
030900                                                                  UCTAXDOC
031000     IF WS-LINE-COUNT NOT > ZERO                                  UCTAXDOC
031200        SET UCWSTAXW-TAXDOC-ERROR TO TRUE                         UCTAXDOC
031300     END-IF.                                                      UCTAXDOC
031310                                                                  UCTAXDOC
031400 0100-EXIT.                                                       UCTAXDOC
031500     EXIT.                                                        UCTAXDOC
031700                                                                  UCTAXDOC
031800 EJECT                                                            UCTAXDOC
031900 0150-CLEANUP-TS   SECTION.                                       UCTAXDOC
032000                                                                  UCTAXDOC
032100     EXEC CICS                                                    UCTAXDOC
032200          DELETEQ TS                                              UCTAXDOC
032300          QUEUE (TS-QUEUE-ID)                                     UCTAXDOC
032400          NOHANDLE                                                UCTAXDOC
032500     END-EXEC.                                                    UCTAXDOC
032600                                                                  UCTAXDOC
032700 0150-EXIT.                                                       UCTAXDOC
032800     EXIT.                                                        UCTAXDOC
032900                                                                  UCTAXDOC
033000                                                                  UCTAXDOC
033100 EJECT                                                            UCTAXDOC
033200 0200-FORMAT-TSQ    SECTION.                                      UCTAXDOC
033300                                                                  UCTAXDOC
033400     MOVE ZERO                     TO    TS-QUEUE-ITEM.           UCTAXDOC
041600                                                                  UCTAXDOC
041700     PERFORM 0205-OPEN-FORWARD-CURSOR.                            UCTAXDOC
041800                                                                  UCTAXDOC
041900     PERFORM 0210-FETCH-FORWARD-W4D-CURSOR.                       UCTAXDOC
042000                                                                  UCTAXDOC
042100     MOVE ZERO   TO SQLCODE.                                      UCTAXDOC
042400                                                                  UCTAXDOC
042500     PERFORM 0225-CLOSE-FORWARD-CURSOR.                           UCTAXDOC
042600 0200-EXIT.                                                       UCTAXDOC
042700     EXIT.                                                        UCTAXDOC
042800                                                                  UCTAXDOC
042900                                                                  UCTAXDOC
043000     EJECT                                                        UCTAXDOC
043100 0205-OPEN-FORWARD-CURSOR    SECTION.                             UCTAXDOC
043200     EXEC SQL                                                     UCTAXDOC
043300        OPEN W4D-FOR-CURS                                         UCTAXDOC
043400     END-EXEC.                                                    UCTAXDOC
044400                                                                  UCTAXDOC
044500 0205-EXIT.                                                       UCTAXDOC
044600     EXIT.                                                        UCTAXDOC
044700                                                                  UCTAXDOC
044800                                                                  UCTAXDOC
044900 EJECT                                                            UCTAXDOC
045000 0210-FETCH-FORWARD-W4D-CURSOR    SECTION.                        UCTAXDOC
045010                                                                  UCTAXDOC
045011     PERFORM 0220-FETCH-W4D-ROW.                                  UCTAXDOC
045030                                                                  UCTAXDOC
045100     PERFORM UNTIL SQLCODE = +100                                 UCTAXDOC
045800                                                                  UCTAXDOC
045900        MOVE SPACES TO TS-QUEUE-LINE                              UCTAXDOC
046000        IF SQLCODE = ZERO                                         UCTAXDOC
046120           MOVE W4D-TEXT-LINE-TEXT TO TS-QUEUE-LINE               UCTAXDOC
046130           MOVE TS-QUEUE-LENGTH    TO WS-QUEUE-LENGTH             UCTAXDOC
046132           IF W4D-TEXT-LINE-LEN > 0                               UCTAXDOC
046133              MOVE W4D-TEXT-LINE-TEXT TO TS-QUEUE-LINE            UCTAXDOC
046135              MOVE W4D-TEXT-LINE-LEN  TO WS-QUEUE-LENGTH          UCTAXDOC
046137           ELSE                                                   UCTAXDOC
046138              MOVE SPACES             TO TS-QUEUE-LINE            UCTAXDOC
046139              MOVE TS-QUEUE-LENGTH    TO WS-QUEUE-LENGTH          UCTAXDOC
046140           END-IF                                                 UCTAXDOC
046141           PERFORM 0400-CHECK-TEXT-LINE                           UCTAXDOC
046150           PERFORM 0300-WRITEQ-TS                                 UCTAXDOC
048402        END-IF                                                    UCTAXDOC
048403                                                                  UCTAXDOC
048500        PERFORM 0220-FETCH-W4D-ROW                                UCTAXDOC
049500     END-PERFORM.                                                 UCTAXDOC
049510                                                                  UCTAXDOC
049600 0210-EXIT.                                                       UCTAXDOC
049700     EXIT.                                                        UCTAXDOC
049701                                                                  UCTAXDOC
049710 EJECT                                                            UCTAXDOC
049800 0220-FETCH-W4D-ROW           SECTION.                            UCTAXDOC
049900     EXEC SQL                                                     UCTAXDOC
050000        FETCH W4D-FOR-CURS  INTO                                  UCTAXDOC
050100           :W4D-TEXT-LINE-NUM                                     UCTAXDOC
050200          ,:W4D-START-POSIT-1                                     UCTAXDOC
050300          ,:W4D-DATA-ID-1                                         UCTAXDOC
050310          ,:W4D-DATA-LENGTH-1                                     UCTAXDOC
050320          ,:W4D-START-POSIT-2                                     UCTAXDOC
050330          ,:W4D-DATA-ID-2                                         UCTAXDOC
050340          ,:W4D-DATA-LENGTH-2                                     UCTAXDOC
050350          ,:W4D-START-POSIT-3                                     UCTAXDOC
050360          ,:W4D-DATA-ID-3                                         UCTAXDOC
050370          ,:W4D-DATA-LENGTH-3                                     UCTAXDOC
050400          ,:W4D-TEXT-LINE                                         UCTAXDOC
050500     END-EXEC.                                                    UCTAXDOC
053500                                                                  UCTAXDOC
053600 EJECT                                                            UCTAXDOC
053700 0225-CLOSE-FORWARD-CURSOR    SECTION.                            UCTAXDOC
053800     EXEC SQL                                                     UCTAXDOC
053900       CLOSE W4D-FOR-CURS                                         UCTAXDOC
054000     END-EXEC.                                                    UCTAXDOC
054100                                                                  UCTAXDOC
055000 0225-EXIT.                                                       UCTAXDOC
055100     EXIT.                                                        UCTAXDOC
055200                                                                  UCTAXDOC
055300                                                                  UCTAXDOC
055400 EJECT                                                            UCTAXDOC
055500 0300-WRITEQ-TS    SECTION.                                       UCTAXDOC
055510                                                                  UCTAXDOC
055600     ADD +1        TO TS-QUEUE-ITEM.                              UCTAXDOC
055700     EXEC CICS                                                    UCTAXDOC
055800       WRITEQ TS                                                  UCTAXDOC
055900          QUEUE(TS-QUEUE-ID)                                      UCTAXDOC
056000          FROM(TS-QUEUE-LINE)                                     UCTAXDOC
056100          LENGTH(WS-QUEUE-LENGTH)                                 UCTAXDOC
056200          ITEM(TS-QUEUE-ITEM)                                     UCTAXDOC
056300          NOHANDLE                                                UCTAXDOC
056400          RESP(WS-RESP)                                           UCTAXDOC
056500     END-EXEC.                                                    UCTAXDOC
056600                                                                  UCTAXDOC
056700     IF WS-RESP  = DFHRESP(NORMAL)                                UCTAXDOC
056800        CONTINUE                                                  UCTAXDOC
056900     ELSE                                                         UCTAXDOC
057000        MOVE 'BAD RESPONSE FROM WRITE TAX TS QUEUE. WS-RESP = '   UCTAXDOC
057100                                    TO UCWSABND-ABEND-DATA (1)    UCTAXDOC
057200        MOVE WS-RESP TO UCWSABND-ABEND-DATA (2)                   UCTAXDOC
057300        PERFORM 9999-ABEND                                        UCTAXDOC
057400     END-IF.                                                      UCTAXDOC
057410                                                                  UCTAXDOC
057500 0300-EXIT.                                                       UCTAXDOC
057600     EXIT.                                                        UCTAXDOC
057700                                                                  UCTAXDOC
057710 0400-CHECK-TEXT-LINE   SECTION.                                  UCTAXDOC
057801                                                                  UCTAXDOC
057802     MOVE 18 TO UCWSTAXW-MAX-ENTRIES.                             UCTAXDOC
057803     PERFORM                                                      UCTAXDOC
057804       VARYING WS-SUB  FROM 1 BY 1                                UCTAXDOC
057805       UNTIL WS-SUB  >   UCWSTAXW-MAX-ENTRIES                     UCTAXDOC
057808            IF UCWSTAXW-DATA-ELEM (WS-SUB)                        UCTAXDOC
057809                           = W4D-DATA-ID-1                        UCTAXDOC
057812                MOVE UCWSTAXW-DATA (WS-SUB)                       UCTAXDOC
057813                        (1: W4D-DATA-LENGTH-1)                    UCTAXDOC
057814                     TO TS-QUEUE-LINE                             UCTAXDOC
057815                        (W4D-START-POSIT-1: W4D-DATA-LENGTH-1)    UCTAXDOC
057816            END-IF                                                UCTAXDOC
057822            IF  UCWSTAXW-DATA-ELEM (WS-SUB)                       UCTAXDOC
057823                           = W4D-DATA-ID-2                        UCTAXDOC
057824                MOVE UCWSTAXW-DATA (WS-SUB)                       UCTAXDOC
057825                           (1: W4D-DATA-LENGTH-2)                 UCTAXDOC
057826                     TO TS-QUEUE-LINE                             UCTAXDOC
057827                           (W4D-START-POSIT-2: W4D-DATA-LENGTH-2) UCTAXDOC
057828            END-IF                                                UCTAXDOC
057829            IF UCWSTAXW-DATA-ELEM (WS-SUB)                        UCTAXDOC
057830                           = W4D-DATA-ID-3                        UCTAXDOC
057831                MOVE UCWSTAXW-DATA (WS-SUB)                       UCTAXDOC
057832                           (1: W4D-DATA-LENGTH-3)                 UCTAXDOC
057833                     TO TS-QUEUE-LINE                             UCTAXDOC
057834                           (W4D-START-POSIT-3: W4D-DATA-LENGTH-3) UCTAXDOC
057835            END-IF                                                UCTAXDOC
057836                                                                  UCTAXDOC
057837     END-PERFORM.                                                 UCTAXDOC
057838                                                                  UCTAXDOC
057839 0400-EXIT.                                                       UCTAXDOC
057840     EXIT.                                                        UCTAXDOC
057841                                                                  UCTAXDOC
057842     EJECT                                                        UCTAXDOC
057850 2200-SELECT-HTX-ROW                  SECTION.                    UCTAXDOC
057880                                                                  UCTAXDOC
057890     PERFORM 9700-W4-SELECT.                                      UCTAXDOC
057895                                                                  UCTAXDOC
057896     EJECT                                                        UCTAXDOC
057897 2300-DEVELOP-TAX-ENTRY               SECTION.                    UCTAXDOC
057905                                                                  UCTAXDOC
057906     MOVE '0339'         TO UCWSTAXW-DATA-ELEM (1).               UCTAXDOC
057907     IF DE4-PROCESS-DATE   >  W4-PROCESS-DATE                     UCTAXDOC
057908        MOVE DE4-PROCESS-DATE   TO UCWSTAXW-DATA (1)              UCTAXDOC
057910                                   WS-PROCESS-DATE                UCTAXDOC
057911        MOVE DE4-PROCESS-DATE-C                                   UCTAXDOC
057912                         TO UCWSTAXW-CHANGE-IND (1)               UCTAXDOC
057913     ELSE                                                         UCTAXDOC
057914        IF DE4-PROCESS-DATE  <  W4-PROCESS-DATE                   UCTAXDOC
057916           MOVE W4-PROCESS-DATE  TO UCWSTAXW-DATA (1)             UCTAXDOC
057918                                    WS-PROCESS-DATE               UCTAXDOC
057919           MOVE W4-PROCESS-DATE-C                                 UCTAXDOC
057920                         TO UCWSTAXW-CHANGE-IND (1)               UCTAXDOC
057921        ELSE                                                      UCTAXDOC
057922           MOVE DE4-PROCESS-DATE  TO UCWSTAXW-DATA (1)            UCTAXDOC
057924                                     WS-PROCESS-DATE              UCTAXDOC
057925           MOVE DE4-PROCESS-DATE-C  TO UCWSTAXW-CHANGE-IND (1)    UCTAXDOC
057927        END-IF                                                    UCTAXDOC
057928     END-IF.                                                      UCTAXDOC
057931                                                                  UCTAXDOC
057933     MOVE UCWSTAXW-DATA (1) (1:4) TO WS-YEAR.                     UCTAXDOC
057935     MOVE WS-YEAR TO WS-DOCUMENT-YEAR.                            UCTAXDOC
057936                                                                  UCTAXDOC
057937     MOVE UCWSTAXW-DATA (1) TO XDC3-ISO-DATE.                     UCTAXDOC
057938     PERFORM XDC3-CONVERT-ISO-TO-FMT                              UCTAXDOC
057939     MOVE XDC3-FMT-DATE  TO UCWSTAXW-DATA (1).                    UCTAXDOC
057940                                                                  UCTAXDOC
057941     MOVE WS-PROCESS-DATE TO WS-MAX-SYS-ENTRY-DATE.               UCTAXDOC
057943     PERFORM 9200-GET-BAS-DATA.                                   UCTAXDOC
057944                                                                  UCTAXDOC
057945     MOVE 'EPID'         TO UCWSTAXW-DATA-ELEM (2).               UCTAXDOC
057946     MOVE UCWSTAXW-EMPLOYEE-ID TO UCWSTAXW-DATA (2).              UCTAXDOC
057947                                                                  UCTAXDOC
057948     MOVE '0105'         TO UCWSTAXW-DATA-ELEM (3).               UCTAXDOC
057949     MOVE EMPLOYEE-NAME OF BAS-ROW-DATA                           UCTAXDOC
057950                         TO UCWSTAXW-DATA (3).                    UCTAXDOC
057951     MOVE '0204'         TO UCWSTAXW-DATA-ELEM (4).               UCTAXDOC
057952     IF PERM-ADDR-1 OF BAS-ROW-DATA NOT = SPACES                  UCTAXDOC
057953        MOVE PERM-ADDR-1 OF BAS-ROW-DATA                          UCTAXDOC
057954                         TO UCWSTAXW-DATA (4)                     UCTAXDOC
057955     ELSE                                                         UCTAXDOC
057956        MOVE PERM-ADDR-2 OF BAS-ROW-DATA                          UCTAXDOC
057957                         TO UCWSTAXW-DATA (4)                     UCTAXDOC
057958     END-IF.                                                      UCTAXDOC
057959                                                                  UCTAXDOC
057960     MOVE '0206'         TO UCWSTAXW-DATA-ELEM (5).               UCTAXDOC
057961     MOVE PERM-ADDR-CITY OF BAS-ROW-DATA                          UCTAXDOC
057962                         TO UCWSTAXW-DATA (5).                    UCTAXDOC
057963     MOVE '0207'         TO UCWSTAXW-DATA-ELEM (6).               UCTAXDOC
057964     MOVE PERM-ADDR-ST   OF BAS-ROW-DATA                          UCTAXDOC
057965                         TO UCWSTAXW-DATA (6).                    UCTAXDOC
057966     MOVE '0208'         TO UCWSTAXW-DATA-ELEM (7).               UCTAXDOC
057967     MOVE PERM-ADDR-ZIP  OF BAS-ROW-DATA                          UCTAXDOC
057968                         TO UCWSTAXW-DATA (7).                    UCTAXDOC
057969     MOVE '0111'         TO UCWSTAXW-DATA-ELEM (8).               UCTAXDOC
057970     MOVE SOC-SEC-NUM OF BAS-ROW-DATA (1:3) TO WS-SSN-PRT1.       UCTAXDOC
057971     MOVE SOC-SEC-NUM OF BAS-ROW-DATA (4:2) TO WS-SSN-PRT2.       UCTAXDOC
057972     MOVE SOC-SEC-NUM OF BAS-ROW-DATA (6:4) TO WS-SSN-PRT3.       UCTAXDOC
057973     MOVE WS-SOCIAL-SECURITY                                      UCTAXDOC
057974                         TO UCWSTAXW-DATA (8).                    UCTAXDOC
057975     MOVE '0107'         TO UCWSTAXW-DATA-ELEM (9).               UCTAXDOC
057976     MOVE BIRTH-DATE     OF BAS-ROW-DATA                          UCTAXDOC
057977                            TO XDC3-ISO-DATE                      UCTAXDOC
057978     PERFORM XDC3-CONVERT-ISO-TO-FMT                              UCTAXDOC
057979     MOVE XDC3-FMT-DATE  TO UCWSTAXW-DATA (9).                    UCTAXDOC
057987                                                                  UCTAXDOC
057988     MOVE '0127'         TO UCWSTAXW-DATA-ELEM (10)               UCTAXDOC
057989     MOVE FEDTAX-MARITAL TO UCWSTAXW-DATA (10).                   UCTAXDOC
057990     IF FEDTAX-MARITAL-C NOT = SPACE                              UCTAXDOC
057991        MOVE '*' TO UCWSTAXW-DATA (10) (2:1)                      UCTAXDOC
057992     END-IF.                                                      UCTAXDOC
057993     MOVE FEDTAX-MARITAL-C                                        UCTAXDOC
057994                         TO UCWSTAXW-CHANGE-IND (10).             UCTAXDOC
057995                                                                  UCTAXDOC
057997     MOVE FEDTAX-EXEMPT  TO WS-DISPLAY-NUMERIC                    UCTAXDOC
057998                            WS-DISPLAY-NUMERIC-FED.               UCTAXDOC
057999     IF WS-DISPLAY-NUMERIC-FED-REDF = WS-EXEMPT                   UCTAXDOC
058000        MOVE 'EXEMPT' TO UCWSTAXW-DATA (11)                       UCTAXDOC
058001        MOVE 'FEDX'   TO UCWSTAXW-DATA-ELEM (11)                  UCTAXDOC
058002     ELSE                                                         UCTAXDOC
058003        MOVE '0128'   TO UCWSTAXW-DATA-ELEM (11)                  UCTAXDOC
058004        MOVE WS-DISPLAY-NUMERIC-REDF                              UCTAXDOC
058005                         TO UCWSTAXW-DATA (11)                    UCTAXDOC
058006        IF FEDTAX-EXEMPT-C NOT = SPACE                            UCTAXDOC
058007           MOVE '*' TO UCWSTAXW-DATA (11) (4:1)                   UCTAXDOC
058008        END-IF                                                    UCTAXDOC
058010     END-IF.                                                      UCTAXDOC
058013     MOVE FEDTAX-EXEMPT-C                                         UCTAXDOC
058014                         TO UCWSTAXW-CHANGE-IND (11).             UCTAXDOC
058015                                                                  UCTAXDOC
058016                                                                  UCTAXDOC
058017     MOVE '6010'         TO UCWSTAXW-DATA-ELEM (13).              UCTAXDOC
058018     MOVE FEDTAX-ADDTL-AMT                                        UCTAXDOC
058019                            TO WS-DISPLAY-ADDTL-AMT.              UCTAXDOC
058020     MOVE WS-DISPLAY-ADDTL-AMT-REDF (1:10)                        UCTAXDOC
058021                         TO UCWSTAXW-DATA (13).                   UCTAXDOC
058022     IF FEDTAX-ADDTL-AMT-C NOT = SPACE                            UCTAXDOC
058023        MOVE '*' TO UCWSTAXW-DATA (13) (11:1)                     UCTAXDOC
058024     END-IF.                                                      UCTAXDOC
058025     MOVE FEDTAX-ADDTL-AMT-C                                      UCTAXDOC
058026                         TO UCWSTAXW-CHANGE-IND (13).             UCTAXDOC
058027                                                                  UCTAXDOC
058030     MOVE '0130'      TO UCWSTAXW-DATA-ELEM (14).                 UCTAXDOC
058031     MOVE STE-TAX-MARITAL TO UCWSTAXW-DATA (14).                  UCTAXDOC
058032     IF STE-TAX-MARITAL-C NOT = SPACE                             UCTAXDOC
058033        MOVE '*' TO UCWSTAXW-DATA (14) (2:1)                      UCTAXDOC
058034     END-IF.                                                      UCTAXDOC
058035     MOVE STE-TAX-MARITAL-C                                       UCTAXDOC
058036                         TO UCWSTAXW-CHANGE-IND (14).             UCTAXDOC
058037                                                                  UCTAXDOC
058039     MOVE STE-TAX-PERDED TO WS-DISPLAY-NUMERIC                    UCTAXDOC
058040                            WS-DISPLAY-NUMERIC-STE.               UCTAXDOC
058041     IF WS-DISPLAY-NUMERIC-STE-REDF = WS-EXEMPT                   UCTAXDOC
058042        MOVE 'STEX'   TO UCWSTAXW-DATA-ELEM (15)                  UCTAXDOC
058043        MOVE 'EXEMPT' TO UCWSTAXW-DATA (15)                       UCTAXDOC
058044     ELSE                                                         UCTAXDOC
058045        MOVE '0131'   TO UCWSTAXW-DATA-ELEM (15)                  UCTAXDOC
058046        MOVE WS-DISPLAY-NUMERIC-REDF                              UCTAXDOC
058047                         TO UCWSTAXW-DATA (15)                    UCTAXDOC
058049        IF STE-TAX-PERDED-C NOT = SPACE                           UCTAXDOC
058050           MOVE '*' TO UCWSTAXW-DATA (15) (4:1)                   UCTAXDOC
058051        END-IF                                                    UCTAXDOC
058052     END-IF.                                                      UCTAXDOC
058054     MOVE STE-TAX-PERDED-C  TO UCWSTAXW-CHANGE-IND (15).          UCTAXDOC
058055                                                                  UCTAXDOC
058056     MOVE '0132'         TO UCWSTAXW-DATA-ELEM (16).              UCTAXDOC
058057     MOVE STE-TAX-ITMDED   TO WS-DISPLAY-NUMERIC.                 UCTAXDOC
058058     MOVE WS-DISPLAY-NUMERIC-REDF                                 UCTAXDOC
058059                         TO UCWSTAXW-DATA (16).                   UCTAXDOC
058060     IF STE-TAX-ITMDED-C NOT = SPACE                              UCTAXDOC
058061        MOVE '*' TO UCWSTAXW-DATA (16) (4:1)                      UCTAXDOC
058062     END-IF.                                                      UCTAXDOC
058064     MOVE STE-TAX-ITMDED-C                                        UCTAXDOC
058065                         TO UCWSTAXW-CHANGE-IND (16).             UCTAXDOC
058066                                                                  UCTAXDOC
058067     MOVE '6011'         TO UCWSTAXW-DATA-ELEM (17).              UCTAXDOC
058068     MOVE STE-TAX-ADTL-AMT                                        UCTAXDOC
058069                               TO WS-DISPLAY-ADDTL-AMT.           UCTAXDOC
058070     MOVE WS-DISPLAY-ADDTL-AMT-REDF                               UCTAXDOC
058071                         TO UCWSTAXW-DATA (17).                   UCTAXDOC
058072     IF STE-TAX-ADTL-AMT-C NOT = SPACE                            UCTAXDOC
058073        MOVE '*' TO UCWSTAXW-DATA (17) (11:1)                     UCTAXDOC
058074     END-IF.                                                      UCTAXDOC
058075     MOVE STE-TAX-ADTL-AMT-C                                      UCTAXDOC
058076                         TO UCWSTAXW-CHANGE-IND (17).             UCTAXDOC
058077                                                                  UCTAXDOC
058078     MOVE '0340'         TO UCWSTAXW-DATA-ELEM (18).              UCTAXDOC
058079     MOVE TAX-PROCESSOR-ID                                        UCTAXDOC
058080                         TO UCWSTAXW-DATA (18).                   UCTAXDOC
058081                                                                  UCTAXDOC
058082     IF WS-DISPLAY-NUMERIC-FED = WS-EXEMPT                        UCTAXDOC
058083     AND WS-DISPLAY-NUMERIC-STE = WS-EXEMPT                       UCTAXDOC
058084        MOVE 'EXMP' TO UCWSTAXW-DATA-ELEM (12)                    UCTAXDOC
058085        MOVE SPACES TO UCWSTAXW-DATA (12)                         UCTAXDOC
058086        MOVE 'EXEMPT' TO UCWSTAXW-DATA (12)                       UCTAXDOC
058087     END-IF.                                                      UCTAXDOC
058088                                                                  UCTAXDOC
058089 2300-EXIT.                                                       UCTAXDOC
058090     EXIT.                                                        UCTAXDOC
058091                                                                  UCTAXDOC
058092     EJECT                                                        UCTAXDOC
058093*----------------------------------------------------------------*UCTAXDOC
058094 9200-GET-BAS-DATA  SECTION.                                      UCTAXDOC
058095*----------------------------------------------------------------*UCTAXDOC
058096                                                                  UCTAXDOC
058097     MOVE 'SEL MAX ITR NUM' TO DB2MSG-TAG.                        UCTAXDOC
058098     EXEC SQL                                                     UCTAXDOC
058099      SELECT MAX(ITERATION_NUMBER)                                UCTAXDOC
058100        INTO :WS-ITERATION-NUMBER                                 UCTAXDOC
058101        FROM PPPVZIDX_IDX                                         UCTAXDOC
058102       WHERE EMPLID      = :UCWSTAXW-EMPLOYEE-ID                  UCTAXDOC
058103     END-EXEC.                                                    UCTAXDOC
058104                                                                  UCTAXDOC
058105     IF SQLCODE = ZERO                                            UCTAXDOC
058106        PERFORM 9300-LOOKUP-IDX                                   UCTAXDOC
058107        PERFORM 9400-SELECT-BAS-DATA                              UCTAXDOC
058108     END-IF.                                                      UCTAXDOC
058109                                                                  UCTAXDOC
058110 9200-EXIT.                                                       UCTAXDOC
058111     EXIT.                                                        UCTAXDOC
058112                                                                  UCTAXDOC
058113 9300-LOOKUP-IDX               SECTION.                           UCTAXDOC
058114*--***********************************************************    UCTAXDOC
058115*   RETRIEVE IDX ENTRIES FOR RELATED HISTORY TABLES          *    UCTAXDOC
058116*--***********************************************************    UCTAXDOC
058117                                                                  UCTAXDOC
058118     MOVE 'SELECT IDX DATA' TO DB2MSG-TAG.                        UCTAXDOC
058119     EXEC SQL                                                     UCTAXDOC
058120        SELECT PPPBAS_C                                           UCTAXDOC
058121          INTO :PPPBAS-C                                          UCTAXDOC
058122          FROM PPPVZIDX_IDX                                       UCTAXDOC
058123         WHERE EMPLID            = :UCWSTAXW-EMPLOYEE-ID          UCTAXDOC
058124           AND ITERATION_NUMBER  = :WS-ITERATION-NUMBER           UCTAXDOC
058125           AND SYSTEM_ENTRY_DATE =                                UCTAXDOC
058126              (SELECT MAX (CHAR(SYSTEM_ENTRY_DATE, ISO))          UCTAXDOC
058127               FROM PPPVZIDX_IDX                                  UCTAXDOC
058128               WHERE EMPLID             = :UCWSTAXW-EMPLOYEE-ID   UCTAXDOC
058129                 AND ITERATION_NUMBER   = :WS-ITERATION-NUMBER    UCTAXDOC
058130                 AND SYSTEM_ENTRY_DATE <= :WS-MAX-SYS-ENTRY-DATE) UCTAXDOC
058131     END-EXEC.                                                    UCTAXDOC
058132     IF SQLCODE = ZERO                                            UCTAXDOC
058133        PERFORM 9400-SELECT-BAS-DATA                              UCTAXDOC
058134     END-IF.                                                      UCTAXDOC
058135                                                                  UCTAXDOC
058136 9300-EXIT.   EXIT.                                               UCTAXDOC
058137                                                                  UCTAXDOC
058138     EJECT                                                        UCTAXDOC
058139                                                                  UCTAXDOC
058140 9400-SELECT-BAS-DATA    SECTION.                                 UCTAXDOC
058141                                                                  UCTAXDOC
058142     MOVE 'SELECT BAS 1' TO DB2MSG-TAG.                           UCTAXDOC
058143     EXEC SQL                                                     UCTAXDOC
058144        SELECT MAX(CHAR(SYSTEM_ENTRY_TIME,ISO))                   UCTAXDOC
058145          INTO :WS-SYS-ENTRY-TIME                                 UCTAXDOC
058146          FROM PPPVZBAS_BAS                                       UCTAXDOC
058147         WHERE EMPLID = :UCWSTAXW-EMPLOYEE-ID                     UCTAXDOC
058148           AND SYSTEM_ENTRY_DATE  = :IDX-ROW-DATA.PPPBAS-C        UCTAXDOC
058149           AND ITERATION_NUMBER   = :WS-ITERATION-NUMBER          UCTAXDOC
058150     END-EXEC.                                                    UCTAXDOC
058151                                                                  UCTAXDOC
058152     MOVE 'SELECT BAS 2' TO DB2MSG-TAG.                           UCTAXDOC
058153     EXEC SQL                                                     UCTAXDOC
058154         SELECT  EMPLID                                           UCTAXDOC
058155                 ,EMPLOYEE_NAME                                   UCTAXDOC
058156                 ,SOC_SEC_NUM                                     UCTAXDOC
058157                 ,PERM_ADDR_1                                     UCTAXDOC
058158                 ,PERM_ADDR_2                                     UCTAXDOC
058159                 ,PERM_ADDR_CITY                                  UCTAXDOC
058160                 ,PERM_ADDR_ST                                    UCTAXDOC
058161                 ,PERM_ADDR_ZIP                                   UCTAXDOC
058162                 ,CHAR(BIRTH_DATE, ISO)                           UCTAXDOC
058163         INTO    :BAS-ROW-DATA.EMPLID                             UCTAXDOC
058164                ,:BAS-ROW-DATA.EMPLOYEE-NAME                      UCTAXDOC
058165                ,:BAS-ROW-DATA.SOC-SEC-NUM                        UCTAXDOC
058166                ,:BAS-ROW-DATA.PERM-ADDR-1                        UCTAXDOC
058167                ,:BAS-ROW-DATA.PERM-ADDR-2                        UCTAXDOC
058168                ,:BAS-ROW-DATA.PERM-ADDR-CITY                     UCTAXDOC
058169                ,:BAS-ROW-DATA.PERM-ADDR-ST                       UCTAXDOC
058170                ,:BAS-ROW-DATA.PERM-ADDR-ZIP                      UCTAXDOC
058171                ,:BAS-ROW-DATA.BIRTH-DATE                         UCTAXDOC
058172         FROM  PPPVZBAS_BAS                                       UCTAXDOC
058173         WHERE EMPLID = :UCWSTAXW-EMPLOYEE-ID                     UCTAXDOC
058174           AND SYSTEM_ENTRY_DATE  = :IDX-ROW-DATA.PPPBAS-C        UCTAXDOC
058175           AND SYSTEM_ENTRY_TIME  = :WS-SYS-ENTRY-TIME            UCTAXDOC
058176           AND ITERATION_NUMBER   = :WS-ITERATION-NUMBER          UCTAXDOC
058177     END-EXEC.                                                    UCTAXDOC
058178                                                                  UCTAXDOC
058179     IF SQLCODE = +100                                            UCTAXDOC
058180       INITIALIZE BAS-ROW-DATA                                    UCTAXDOC
058181       MOVE XDC3-LOW-ISO-DATE TO BIRTH-DATE OF BAS-ROW-DATA       UCTAXDOC
058182     END-IF.                                                      UCTAXDOC
058183                                                                  UCTAXDOC
058184 9400-EXIT.   EXIT.                                               UCTAXDOC
058185                                                                  UCTAXDOC
058186                                                                  UCTAXDOC
058187     EJECT                                                        UCTAXDOC
058188 9700-W4-SELECT       SECTION.                                    UCTAXDOC
058189**************************************************************    UCTAXDOC
058190*  FETCH THE FEDERAL TAX DATA IN PPPHTX ROW                  *    UCTAXDOC
058191**************************************************************    UCTAXDOC
058192                                                                  UCTAXDOC
058193     MOVE 'FETCH W4 PPPHTX ROW' TO  DB2MSG-TAG.                   UCTAXDOC
058194                                                                  UCTAXDOC
058195     EXEC SQL                                                     UCTAXDOC
058196          SELECT EMPLID                                           UCTAXDOC
058197                ,ITERATION_NUMBER                                 UCTAXDOC
058198                ,CHAR (SYSTEM_ENTRY_DATE,ISO)                     UCTAXDOC
058199                ,CHAR (SYSTEM_ENTRY_TIME,ISO)                     UCTAXDOC
058200                ,TAX_PROCESSOR_ID                                 UCTAXDOC
058201                ,CHAR (W4_PROCESS_DATE,ISO)                       UCTAXDOC
058202                ,FEDTAX_MARITAL                                   UCTAXDOC
058203                ,FEDTAX_MARITAL_C                                 UCTAXDOC
058204                ,FEDTAX_EXEMPT                                    UCTAXDOC
058205                ,FEDTAX_EXEMPT_C                                  UCTAXDOC
058206                ,FEDTAX_ADDTL_AMT                                 UCTAXDOC
058207                ,FEDTAX_ADDTL_AMT_C                               UCTAXDOC
058208                ,FED_AT_NONRS_AMT                                 UCTAXDOC
058209                ,FED_AT_NONRS_AMT_C                               UCTAXDOC
058210                ,CHAR (DE4_PROCESS_DATE,ISO)                      UCTAXDOC
058211                ,STE_TAX_MARITAL                                  UCTAXDOC
058212                ,STE_TAX_MARITAL_C                                UCTAXDOC
058213                ,STE_TAX_PERDED                                   UCTAXDOC
058214                ,STE_TAX_PERDED_C                                 UCTAXDOC
058215                ,STE_TAX_ITMDED                                   UCTAXDOC
058216                ,STE_TAX_ITMDED_C                                 UCTAXDOC
058217                ,STE_TAX_ADTL_AMT                                 UCTAXDOC
058218                ,STE_TAX_ADTL_AMT_C                               UCTAXDOC
058219        INTO                                                      UCTAXDOC
058220            :HTX-ROW-DATA.EMPLID                                  UCTAXDOC
058221           ,:HTX-ROW-DATA.ITERATION-NUMBER                        UCTAXDOC
058222           ,:HTX-ROW-DATA.SYSTEM-ENTRY-DATE                       UCTAXDOC
058223           ,:HTX-ROW-DATA.SYSTEM-ENTRY-TIME                       UCTAXDOC
058224           ,:HTX-ROW-DATA.TAX-PROCESSOR-ID                        UCTAXDOC
058225           ,:HTX-ROW-DATA.W4-PROCESS-DATE                         UCTAXDOC
058226           ,:HTX-ROW-DATA.FEDTAX-MARITAL                          UCTAXDOC
058227           ,:HTX-ROW-DATA.FEDTAX-MARITAL-C                        UCTAXDOC
058228           ,:HTX-ROW-DATA.FEDTAX-EXEMPT                           UCTAXDOC
058229           ,:HTX-ROW-DATA.FEDTAX-EXEMPT-C                         UCTAXDOC
058230           ,:HTX-ROW-DATA.FEDTAX-ADDTL-AMT                        UCTAXDOC
058231           ,:HTX-ROW-DATA.FEDTAX-ADDTL-AMT-C                      UCTAXDOC
058232           ,:HTX-ROW-DATA.FED-AT-NONRS-AMT                        UCTAXDOC
058233           ,:HTX-ROW-DATA.FED-AT-NONRS-AMT-C                      UCTAXDOC
058234           ,:HTX-ROW-DATA.DE4-PROCESS-DATE                        UCTAXDOC
058235           ,:HTX-ROW-DATA.STE-TAX-MARITAL                         UCTAXDOC
058236           ,:HTX-ROW-DATA.STE-TAX-MARITAL-C                       UCTAXDOC
058237           ,:HTX-ROW-DATA.STE-TAX-PERDED                          UCTAXDOC
058238           ,:HTX-ROW-DATA.STE-TAX-PERDED-C                        UCTAXDOC
058239           ,:HTX-ROW-DATA.STE-TAX-ITMDED                          UCTAXDOC
058240           ,:HTX-ROW-DATA.STE-TAX-ITMDED-C                        UCTAXDOC
058241           ,:HTX-ROW-DATA.STE-TAX-ADTL-AMT                        UCTAXDOC
058242           ,:HTX-ROW-DATA.STE-TAX-ADTL-AMT-C                      UCTAXDOC
058243          FROM   PPPVZHTX_HTX                                     UCTAXDOC
058244          WHERE  EMPLID            = :UCWSTAXW-EMPLOYEE-ID        UCTAXDOC
058245          AND    ITERATION_NUMBER  = :UCWSTAXW-ITERATION-NUMBER   UCTAXDOC
058246          AND    SYSTEM_ENTRY_DATE = :UCWSTAXW-SYSTEM-ENTRY-DATE  UCTAXDOC
058247          AND    SYSTEM_ENTRY_TIME = :UCWSTAXW-SYSTEM-ENTRY-TIME  UCTAXDOC
058248     END-EXEC.                                                    UCTAXDOC
058249                                                                  UCTAXDOC
058250     IF SQLCODE = ZERO                                            UCTAXDOC
058251        PERFORM 2300-DEVELOP-TAX-ENTRY                            UCTAXDOC
058252     ELSE                                                         UCTAXDOC
058253       PERFORM 9999-ABEND                                         UCTAXDOC
058254     END-IF.                                                      UCTAXDOC
058255                                                                  UCTAXDOC
058256 9700-EXIT.                                                       UCTAXDOC
058257     EXIT.                                                        UCTAXDOC
058258                                                                  UCTAXDOC
058259     EJECT                                                        UCTAXDOC
058260*----------------------------------------------------------------*UCTAXDOC
058261 9800-DATE-CONVERSION-ROUTINES  SECTION.                          UCTAXDOC
058262*----------------------------------------------------------------*UCTAXDOC
058263*                                                                 UCTAXDOC
058264     COPY CPPDXDC3.                                               UCTAXDOC
058265*                                                                 UCTAXDOC
058266 EJECT                                                            UCTAXDOC
058267 9999-ABEND    SECTION.                                           UCTAXDOC
058268**************************************************************    UCTAXDOC
058270*  COPIED PROCEDURE DIVISION CODE FOR ABEND HANDLING         *    UCTAXDOC
058300**************************************************************    UCTAXDOC
058400                                                                  UCTAXDOC
058500     MOVE 'UCTAXDOC' TO UCWSABND-ABENDING-PGM.                    UCTAXDOC
058600                                                                  UCTAXDOC
058700     COPY UCPDABND.                                               UCTAXDOC
058800 9999-EXIT.                                                       UCTAXDOC
058900     EXIT.                                                        UCTAXDOC
059000                                                                  UCTAXDOC
059100                                                                  UCTAXDOC
059200*999999-SQL-ERROR SECTION.                                        UCTAXDOC
059300**************************************************************    UCTAXDOC
059400*  COPIED PROCEDURE DIVISION CODE FOR SQL ERROR HANDLING     *    UCTAXDOC
059500**************************************************************    UCTAXDOC
059600                                                                  UCTAXDOC
059700      EXEC SQL                                                    UCTAXDOC
059800           INCLUDE CPPDXP99                                       UCTAXDOC
059900      END-EXEC.                                                   UCTAXDOC
060000                                                                  UCTAXDOC
060100      MOVE 'SQL ERROR - SEE PRECEDING DB2 MESSAGES'               UCTAXDOC
060200                                      TO UCWSABND-ABEND-DATA (1). UCTAXDOC
060300                                                                  UCTAXDOC
060400      PERFORM 9999-ABEND.                                         UCTAXDOC
060500 999999-EXIT.                                                     UCTAXDOC
060600       EXIT.                                                      UCTAXDOC
