000100**************************************************************/   36510832
000200*  PROGRAM: UCWESSS                                          */   36510832
000300*  RELEASE: ___0832______ SERVICE REQUEST(S): _____3651____  */   36510832
000400*  NAME:_______DDM_______ MODIFICATION DATE:  __11/12/93____ */   36510832
000500*  DESCRIPTION: DSS - DISTRIBUTED SYSTEM SERVICES            */   36510832
000600*    SUBSYSTEM STATUS.                                       */   36510832
000700*                                                            */   36510832
000800**************************************************************/   36510832
000900 IDENTIFICATION DIVISION.                                         UCWESSS
001000 PROGRAM-ID. UCWESSS.                                             UCWESSS
001100 ENVIRONMENT DIVISION.                                            UCWESSS
001200 CONFIGURATION SECTION.                                           UCWESSS
001300 SOURCE-COMPUTER.  COPY CPOTXUCS.                                 UCWESSS
001400 DATA DIVISION.                                                   UCWESSS
001500     EJECT                                                        UCWESSS
001600 WORKING-STORAGE SECTION.                                         UCWESSS
001700*                                                                 UCWESSS
001800 01  FILLER.                                                      UCWESSS
001900   05  FILLER               PIC X(27) VALUE                       UCWESSS
002000       'WORKING STORAGE STARTS HERE'.                             UCWESSS
002100*                                                                 UCWESSS
002200 01  SWITCHES.                                                    UCWESSS
002300     05  SSI-ROW-FOUND-SW            PIC X(01).                   UCWESSS
002400         88  SSI-ROW-FOUND           VALUE 'Y'.                   UCWESSS
002500         88  SSI-ROW-NOT-FOUND       VALUE 'N'.                   UCWESSS
002600     05  NEW-STAT-FOUND-SW           PIC X(01).                   UCWESSS
002700         88  NEW-STAT-FOUND          VALUE 'Y'.                   UCWESSS
002800         88  NEW-STAT-NOT-FOUND      VALUE 'N'.                   UCWESSS
002900     05  PAGING-FORWARD-SW           PIC X(01).                   UCWESSS
003000         88  PAGING-FORWARD          VALUE 'Y'.                   UCWESSS
003100         88  NOT-PAGING-FORWARD      VALUE 'N'.                   UCWESSS
003200     05  PAGING-BACKWARD-SW          PIC X(01).                   UCWESSS
003300         88  PAGING-BACKWARD         VALUE 'Y'.                   UCWESSS
003400         88  NOT-PAGING-BACKWARD     VALUE 'N'.                   UCWESSS
003500*                                                                 UCWESSS
003600 01 LIMITS-AND-CONSTANTS.                                         UCWESSS
003700    05  PGM-NAME                           PIC X(08)              UCWESSS
003800                                               VALUE 'UCWESSS '.  UCWESSS
003900    05  PGM-RELEASE-NBR                    PIC X(05)              UCWESSS
004000                                               VALUE 'E0832'.     UCWESSS
004100    05  SSI-PER-SCRN                       PIC S9(03) COMP        UCWESSS
004200                                               VALUE  +26.        UCWESSS
004300    05  SSI-HIGH-VALUE                     PIC X(02)              UCWESSS
004400                                           VALUE  HIGH-VALUES.    UCWESSS
004500    05  SSI-LOW-VALUE                      PIC X(02)              UCWESSS
004600                                           VALUE  SPACE.          UCWESSS
004700******  DERIVED LIMITS                                            UCWESSS
004800    05  SSI-PER-SCRN-PLUS-1                PIC S9(03) COMP.       UCWESSS
004900    05  SSI-PER-HALF-SCREEN                PIC S9(03) COMP.       UCWESSS
005000******  ERASE-EOF ATTRIBUTE                                       UCWESSS
005100    05  ERASE-EOF                          PIC X(01) VALUE X'80'. UCWESSS
005200*                                                                 UCWESSS
005300 01 COUNTERS-AND-SUBS.                                            UCWESSS
005400     05  SSI-ROW-CTR               PIC S9(04)  COMP.              UCWESSS
005500     05  FRWD-SUB                  PIC S9(04)  COMP.              UCWESSS
005600     05  BKWD-SUB                  PIC S9(04)  COMP.              UCWESSS
005700     05  HALF-SUB                  PIC S9(04)  COMP.              UCWESSS
005800*                                                                 UCWESSS
005900 01  MESSAGE-NUMBERS.                                             UCWESSS
006000***      INVALID DATA ENTERED                                     UCWESSS
006001     05  MU0002                    PIC X(5) VALUE 'U0002'.        UCWESSS
006100*                                                                 UCWESSS
006200 01  FILLER.                                                      UCWESSS
006300     05  TBL-ENTRY   OCCURS 27 TIMES.                             UCWESSS
006400         10  TBL-SUBSYSTEM-ID          PIC X(02).                 UCWESSS
006500         10  TBL-NAME                  PIC X(21).                 UCWESSS
006600         10  TBL-CUR-STAT              PIC X(01).                 UCWESSS
006700         10  TBL-NEW-STAT              PIC X(01).                 UCWESSS
006800         10  TBL-ROW-ERR               PIC X(01).                 UCWESSS
006900     EJECT                                                        UCWESSS
007000 01  CPWSESSS EXTERNAL.                                           UCWESSS
007100     EXEC SQL                                                     UCWESSS
007200          INCLUDE CPWSESSS                                        UCWESSS
007300     END-EXEC.                                                    UCWESSS
007400     EJECT                                                        UCWESSS
007500 01  UCDTLARE  EXTERNAL.                                          UCWESSS
007600     COPY UCDTLARE.                                               UCWESSS
007700 01  UCESSS0 REDEFINES UCDTLARE.                                  UCWESSS
007800     COPY UCESSS0.                                                UCWESSS
007900     EJECT                                                        UCWESSS
008000 01  UCCOMMON  EXTERNAL.                                          UCWESSS
008100     COPY UCCOMMON.                                               UCWESSS
008200     EJECT                                                        UCWESSS
008300 01  UCPISCRN  EXTERNAL.                                          UCWESSS
008400     COPY UCPISCRN.                                               UCWESSS
008500     EJECT                                                        UCWESSS
008600 01  UCWSABND    EXTERNAL.                                        UCWESSS
008700     COPY UCWSABND.                                               UCWESSS
008800                                                                  UCWESSS
008900 01  PPDB2MSG-INTERFACE.                                          UCWESSS
009000     COPY CPLNKDB2.                                               UCWESSS
009100     EJECT                                                        UCWESSS
009200******************************************************************UCWESSS
009300*          SQL - WORKING STORAGE                                 *UCWESSS
009400******************************************************************UCWESSS
009500*                                                                 UCWESSS
009600*                                                                 UCWESSS
009700 01 MISC-HOST-VARIABLES.                                          UCWESSS
009800     05  FIRST-SSI-OF-SCRN         PIC  X(02).                    UCWESSS
009900     05  LAST-SSI-OF-SCRN          PIC  X(02).                    UCWESSS
010000     05  LAST-SSI-PLUS-1           PIC  X(02).                    UCWESSS
010100     05  BKWD-ROW-COUNT            PIC S9(08)  COMP.              UCWESSS
010200     05  BKWD-LOW-VALUE            PIC  X(02).                    UCWESSS
010300*                                                                 UCWESSS
010400*                                                                 UCWESSS
010500     EXEC SQL                                                     UCWESSS
010600          INCLUDE SQLCA                                           UCWESSS
010700     END-EXEC.                                                    UCWESSS
010800     EJECT                                                        UCWESSS
010900     EXEC SQL                                                     UCWESSS
011000          INCLUDE UC0VZSSI                                        UCWESSS
011100     END-EXEC.                                                    UCWESSS
011200     EJECT                                                        UCWESSS
011300     EXEC SQL                                                     UCWESSS
011400        DECLARE FRWDCSR CURSOR FOR                                UCWESSS
011500          SELECT                                                  UCWESSS
011600             SSI_SUBSYSTEM_ID                                     UCWESSS
011700          ,  SSI_NAME                                             UCWESSS
011800          ,  SSI_STATUS                                           UCWESSS
011900          ,  SSI_APPLICATION_ID                                   UCWESSS
012000          ,  SSI_CHANGED_BY                                       UCWESSS
012100          ,  SSI_CHANGED_AT                                       UCWESSS
012200          FROM   UC0VZSSI_SSI                                     UCWESSS
012300          WHERE  SSI_SUBSYSTEM_ID   > :LAST-SSI-OF-SCRN           UCWESSS
012400          ORDER BY SSI_SUBSYSTEM_ID                               UCWESSS
012500     END-EXEC.                                                    UCWESSS
012600*                                                                 UCWESSS
012700*                                                                 UCWESSS
012800     EXEC SQL                                                     UCWESSS
012900        DECLARE BKWDCSR  CURSOR FOR                               UCWESSS
013000          SELECT                                                  UCWESSS
013100             SSI_SUBSYSTEM_ID                                     UCWESSS
013200          ,  SSI_NAME                                             UCWESSS
013300          ,  SSI_STATUS                                           UCWESSS
013400          ,  SSI_APPLICATION_ID                                   UCWESSS
013500          ,  SSI_CHANGED_BY                                       UCWESSS
013600          ,  SSI_CHANGED_AT                                       UCWESSS
013700          FROM   UC0VZSSI_SSI                                     UCWESSS
013800          WHERE  SSI_SUBSYSTEM_ID   < :FIRST-SSI-OF-SCRN          UCWESSS
013900            AND  SSI_SUBSYSTEM_ID  >= :BKWD-LOW-VALUE             UCWESSS
014000          ORDER BY SSI_SUBSYSTEM_ID    DESC                       UCWESSS
014100     END-EXEC.                                                    UCWESSS
014200     EJECT                                                        UCWESSS
014300 LINKAGE SECTION.                                                 UCWESSS
014400 01  DFHCOMMAREA             PIC X(1).                            UCWESSS
014500     EJECT                                                        UCWESSS
014600 PROCEDURE DIVISION.                                              UCWESSS
014700****************************************************************  UCWESSS
014800*            P R O C E D U R E  D I V I S I O N                   UCWESSS
014900****************************************************************  UCWESSS
015000     EXEC SQL                                                     UCWESSS
015100          INCLUDE CPPDXE99                                        UCWESSS
015200     END-EXEC.                                                    UCWESSS
015300 0000-PARA-FOR-PRECOMP-PAGING  SECTION.                           UCWESSS
015400****************************************************************  UCWESSS
015500****************************************************************  UCWESSS
015600     EJECT                                                        UCWESSS
015700 0000-MAINLINE SECTION.                                           UCWESSS
015800******************************************************************UCWESSS
015900*  PROCESS LOGICAL FUNCTION REQUEST FROM UCROUTER.                UCWESSS
016000*  NOTE!!! UCROUTER MAKES 2 CALLS WHEN THERE ARE 2 IMPLICIT       UCWESSS
016100*  FUNCTIONS SUCH AS "PAGE FORWARD." PAGE FORWARD IS EDIT FIRST/  UCWESSS
016200*  PAGE FORWARD SECOND.                                           UCWESSS
016300******************************************************************UCWESSS
016400     PERFORM 9100-INITIALIZATION                                  UCWESSS
016410***  DETERMINE IF A FULL SCREEN OF DATA EXISTS FOR BKWD PAGING    UCWESSS
016500     PERFORM 9200-COUNT-BKWD-ROWS                                 UCWESSS
016600*                                                                 UCWESSS
016700     EVALUATE TRUE                                                UCWESSS
016800       WHEN UCCOMMON-DISPLAY-PAGE-1                               UCWESSS
016900          PERFORM 1000-PROC-INITIAL-SCRN                          UCWESSS
017000***                                                               UCWESSS
017100       WHEN UCCOMMON-DISPLAY-CURRENT-PAGE                         UCWESSS
017300***       THE BKWD CURSOR IS USED TO REDISPLAY THE CURRENT SCREEN.UCWESSS
017400***       IF LESS THAN ONE FULL SCREEN TO DISPLAY,                UCWESSS
017410***       USE THE LOGIC TO DISPLAY THE INITIAL SCREEN.            UCWESSS
017500          IF BKWD-ROW-COUNT   < SSI-PER-SCRN                      UCWESSS
017600             PERFORM 1000-PROC-INITIAL-SCRN                       UCWESSS
017700          ELSE                                                    UCWESSS
017800             PERFORM 2000-DISPLAY-CUR-SCRN                        UCWESSS
017900          END-IF                                                  UCWESSS
018000***                                                               UCWESSS
018100       WHEN UCCOMMON-EDIT-REQUEST                                 UCWESSS
018200          PERFORM 3000-PROC-SCRN-INPUT                            UCWESSS
018300***                                                               UCWESSS
018400       WHEN UCCOMMON-FORWARD-REQUEST                              UCWESSS
018500          PERFORM 4000-PAGE-FORWARD                               UCWESSS
018600***                                                               UCWESSS
018700       WHEN UCCOMMON-BACKWARD-REQUEST                             UCWESSS
018800***       IF LESS THAN ONE FULL SCREEN TO DISPLAY,   DISPLAY 1ST SCREEN
018900          IF BKWD-ROW-COUNT   < SSI-PER-SCRN                      UCWESSS
019000             PERFORM 1000-PROC-INITIAL-SCRN                       UCWESSS
019100          ELSE                                                    UCWESSS
019200             MOVE SSI-LOW-VALUE TO BKWD-LOW-VALUE                 UCWESSS
019300             PERFORM 5000-PAGE-BACKWARD                           UCWESSS
019400          END-IF                                                  UCWESSS
019500***                                                               UCWESSS
019600       WHEN OTHER                                                 UCWESSS
019700          PERFORM 9000-PROC-INVALID-REQUEST                       UCWESSS
019800     END-EVALUATE.                                                UCWESSS
019900*                                                                 UCWESSS
020000     PERFORM 9500-SET-UPD-IN-PROG-STATUS                          UCWESSS
020100*                                                                 UCWESSS
020200     GOBACK.                                                      UCWESSS
020300*                                                                 UCWESSS
020400 0000-EXIT.                                                       UCWESSS
020500     EXIT.                                                        UCWESSS
020600     EJECT                                                        UCWESSS
020700 1000-PROC-INITIAL-SCRN    SECTION.                               UCWESSS
020800******************************************************************UCWESSS
020900******************************************************************UCWESSS
021000     PERFORM 9300-CLEAR-MAP                                       UCWESSS
021100     PERFORM 9400-SET-MAP-DEFAULTS                                UCWESSS
021200     MOVE SSI-LOW-VALUE TO LAST-SSI-OF-SCRN                       UCWESSS
021300     PERFORM 4000-PAGE-FORWARD                                    UCWESSS
021400     SET UCPISCRN-BACKWARD-NOT-AVAIL  TO TRUE.                    UCWESSS
021500*                                                                 UCWESSS
021600 1000-EXIT.                                                       UCWESSS
021700     EXIT.                                                        UCWESSS
021800     EJECT                                                        UCWESSS
021900 2000-DISPLAY-CUR-SCRN     SECTION.                               UCWESSS
022000******************************************************************UCWESSS
022100******************************************************************UCWESSS
022200     MOVE FIRST-SSI-OF-SCRN       TO BKWD-LOW-VALUE               UCWESSS
022300     MOVE LAST-SSI-PLUS-1 TO FIRST-SSI-OF-SCRN                    UCWESSS
022400     PERFORM 5000-PAGE-BACKWARD                                   UCWESSS
022500     MOVE SSI-LOW-VALUE           TO BKWD-LOW-VALUE.              UCWESSS
022600*                                                                 UCWESSS
022700 2000-EXIT.                                                       UCWESSS
022800     EXIT.                                                        UCWESSS
022900     EJECT                                                        UCWESSS
023000 3000-PROC-SCRN-INPUT      SECTION.                               UCWESSS
023100******************************************************************UCWESSS
023200******************************************************************UCWESSS
023300     MOVE ZERO TO HALF-SUB                                        UCWESSS
023400     PERFORM 3400-EDIT-SCRN-INPUT                                 UCWESSS
023500        VARYING FRWD-SUB FROM 1 BY 1                              UCWESSS
023600          UNTIL FRWD-SUB > SSI-PER-SCRN                           UCWESSS
023700*                                                                 UCWESSS
023800     PERFORM 9400-SET-MAP-DEFAULTS                                UCWESSS
023900*                                                                 UCWESSS
024000     MOVE ZERO TO HALF-SUB                                        UCWESSS
024100     PERFORM 8000-FORMAT-SCRN                                     UCWESSS
024200        VARYING FRWD-SUB FROM 1 BY 1                              UCWESSS
024300          UNTIL FRWD-SUB > SSI-PER-SCRN                           UCWESSS
024400     IF UCCOMMON-NO-EDIT-ERRORS                                   UCWESSS
024500        MOVE -1     TO NEW-STAT-1L(1)                             UCWESSS
024610     ELSE                                                         UCWESSS
024621        MOVE MU0002 TO UCCOMMON-MSG-NUMBER                        UCWESSS
024630     END-IF.                                                      UCWESSS
024700*                                                                 UCWESSS
024800 3000-EXIT.                                                       UCWESSS
024900     EXIT.                                                        UCWESSS
025000     EJECT                                                        UCWESSS
025100 3400-EDIT-SCRN-INPUT   SECTION.                                  UCWESSS
025200******************************************************************UCWESSS
025300***  HOLD THE TWO HALVES OF THE SCREEN.                           UCWESSS
025400***  FLAG FIELDS IN ERROR.                                        UCWESSS
025500******************************************************************UCWESSS
025600     EVALUATE  TRUE                                               UCWESSS
025700       WHEN FRWD-SUB     <= SSI-PER-HALF-SCREEN                   UCWESSS
025800          ADD 1 TO HALF-SUB                                       UCWESSS
025900          MOVE SSI-1I(HALF-SUB)                                   UCWESSS
026000            TO TBL-SUBSYSTEM-ID(FRWD-SUB)                         UCWESSS
026001          MOVE SSI-NAME-1I(HALF-SUB)                              UCWESSS
026002            TO TBL-NAME(FRWD-SUB)                                 UCWESSS
026300          MOVE SSI-STAT-1I(HALF-SUB)                              UCWESSS
026400            TO TBL-CUR-STAT (FRWD-SUB)                            UCWESSS
026500          IF  NEW-STAT-1I(HALF-SUB) = '*'                         UCWESSS
026600             MOVE SPACE TO NEW-STAT-1I(HALF-SUB)                  UCWESSS
026700          END-IF                                                  UCWESSS
026800          MOVE NEW-STAT-1I(HALF-SUB)                              UCWESSS
026900            TO TBL-NEW-STAT (FRWD-SUB)                            UCWESSS
027000          IF  NEW-STAT-1L(HALF-SUB) > ZERO                        UCWESSS
027100             IF  NEW-STAT-1I(HALF-SUB) = 'A' OR 'U' OR SPACE      UCWESSS
027200                MOVE 'N' TO TBL-ROW-ERR(FRWD-SUB)                 UCWESSS
027300                IF  NEW-STAT-1I(HALF-SUB) = 'A' OR 'U'            UCWESSS
027400                   PERFORM 3410-HOLD-NEW-STAT                     UCWESSS
027500                END-IF                                            UCWESSS
027600             ELSE                                                 UCWESSS
027700                MOVE 'Y' TO TBL-ROW-ERR(FRWD-SUB)                 UCWESSS
027800                SET UCCOMMON-EDIT-ERRORS-FOUND TO TRUE            UCWESSS
027900             END-IF                                               UCWESSS
028000          ELSE                                                    UCWESSS
028100             MOVE 'N' TO TBL-ROW-ERR(FRWD-SUB)                    UCWESSS
028200          END-IF                                                  UCWESSS
028300       WHEN FRWD-SUB     = SSI-PER-HALF-SCREEN + 1                UCWESSS
028400          MOVE 1 TO HALF-SUB                                      UCWESSS
028500          MOVE SSI-2I(HALF-SUB)                                   UCWESSS
028600            TO TBL-SUBSYSTEM-ID(FRWD-SUB)                         UCWESSS
028601          MOVE SSI-NAME-2I(HALF-SUB)                              UCWESSS
028602            TO TBL-NAME(FRWD-SUB)                                 UCWESSS
028900          MOVE SSI-STAT-2I(HALF-SUB)                              UCWESSS
029000            TO TBL-CUR-STAT (FRWD-SUB)                            UCWESSS
029100          IF  NEW-STAT-2I(HALF-SUB) = '*'                         UCWESSS
029200             MOVE SPACE TO NEW-STAT-2I(HALF-SUB)                  UCWESSS
029300          END-IF                                                  UCWESSS
029400          MOVE NEW-STAT-2I(HALF-SUB)                              UCWESSS
029500            TO TBL-NEW-STAT (FRWD-SUB)                            UCWESSS
029600          IF  NEW-STAT-2L(HALF-SUB) > ZERO                        UCWESSS
029700             IF  NEW-STAT-2I(HALF-SUB) = 'A' OR 'U' OR SPACE      UCWESSS
029800                MOVE 'N' TO TBL-ROW-ERR(FRWD-SUB)                 UCWESSS
029900                IF  NEW-STAT-1I(HALF-SUB) = 'A' OR 'U'            UCWESSS
030000                   PERFORM 3410-HOLD-NEW-STAT                     UCWESSS
030100                END-IF                                            UCWESSS
030200             ELSE                                                 UCWESSS
030300                MOVE 'Y' TO TBL-ROW-ERR(FRWD-SUB)                 UCWESSS
030400                SET UCCOMMON-EDIT-ERRORS-FOUND TO TRUE            UCWESSS
030500             END-IF                                               UCWESSS
030600          ELSE                                                    UCWESSS
030700             MOVE 'N' TO TBL-ROW-ERR(FRWD-SUB)                    UCWESSS
030800          END-IF                                                  UCWESSS
030900       WHEN FRWD-SUB     < SSI-PER-SCRN-PLUS-1                    UCWESSS
031000          ADD 1 TO HALF-SUB                                       UCWESSS
031100          MOVE SSI-2I(HALF-SUB)                                   UCWESSS
031200            TO TBL-SUBSYSTEM-ID(FRWD-SUB)                         UCWESSS
031201          MOVE SSI-NAME-2I(HALF-SUB)                              UCWESSS
031202            TO TBL-NAME(FRWD-SUB)                                 UCWESSS
031500          MOVE SSI-STAT-2I(HALF-SUB)                              UCWESSS
031600            TO TBL-CUR-STAT (FRWD-SUB)                            UCWESSS
031700          IF  NEW-STAT-2I(HALF-SUB) = '*'                         UCWESSS
031800             MOVE SPACE TO NEW-STAT-2I(HALF-SUB)                  UCWESSS
031900          END-IF                                                  UCWESSS
032000          MOVE NEW-STAT-2I(HALF-SUB)                              UCWESSS
032100            TO TBL-NEW-STAT (FRWD-SUB)                            UCWESSS
032200          IF  NEW-STAT-2L(HALF-SUB) > ZERO                        UCWESSS
032300             IF  NEW-STAT-2I(HALF-SUB) = 'A' OR 'U' OR SPACE      UCWESSS
032400                MOVE 'N' TO TBL-ROW-ERR(FRWD-SUB)                 UCWESSS
032500                IF  NEW-STAT-1I(HALF-SUB) = 'A' OR 'U'            UCWESSS
032600                   PERFORM 3410-HOLD-NEW-STAT                     UCWESSS
032700                END-IF                                            UCWESSS
032800             ELSE                                                 UCWESSS
032900                MOVE 'Y' TO TBL-ROW-ERR(FRWD-SUB)                 UCWESSS
033000                SET UCCOMMON-EDIT-ERRORS-FOUND TO TRUE            UCWESSS
033100             END-IF                                               UCWESSS
033200          ELSE                                                    UCWESSS
033300             MOVE 'N' TO TBL-ROW-ERR(FRWD-SUB)                    UCWESSS
033400          END-IF                                                  UCWESSS
033500     END-EVALUATE.                                                UCWESSS
033600 3400-EXIT.                                                       UCWESSS
033700     EXIT.                                                        UCWESSS
033800     EJECT                                                        UCWESSS
033900 3410-HOLD-NEW-STAT          SECTION.                             UCWESSS
034000******************************************************************UCWESSS
034100*                                                                 UCWESSS
034200******************************************************************UCWESSS
034300     SET ESSS-IDX TO 1                                            UCWESSS
034400     SEARCH ESSS-TBL                                              UCWESSS
034500        AT END                                                    UCWESSS
034700           CONTINUE                                               UCWESSS
034800        WHEN  ESSS-SSI(ESSS-IDX) = TBL-SUBSYSTEM-ID(FRWD-SUB)     UCWESSS
034900              MOVE TBL-NEW-STAT(FRWD-SUB)                         UCWESSS
035000                TO ESSS-NEW-STAT(ESSS-IDX)                        UCWESSS
035100        WHEN  ESSS-SSI(ESSS-IDX) = SPACE                          UCWESSS
035200           MOVE TBL-SUBSYSTEM-ID(FRWD-SUB) TO ESSS-SSI (ESSS-IDX) UCWESSS
035300           MOVE TBL-NEW-STAT(FRWD-SUB) TO ESSS-NEW-STAT(ESSS-IDX) UCWESSS
035400     END-SEARCH.                                                  UCWESSS
035500 3410-EXIT.                                                       UCWESSS
035600     EXIT.                                                        UCWESSS
035710     EJECT                                                        UCWESSS
035800 4000-PAGE-FORWARD         SECTION.                               UCWESSS
035900******************************************************************UCWESSS
036000***  THE FORWARD PAGING OPTION HAS BEEN PRE-VALIDATED. THAT IS,   UCWESSS
036100***  IT HAS ALREADY BEEN DETERMINED THAT MORE FORWARD DATA EXISTS.UCWESSS
036200***                                                               UCWESSS
036300*** THIS FUNCTION ALWAYS FETCHES FORWARD FROM THE LAST ENTRY OF   UCWESSS
036400*** THE PRIOR SCREEN OR FROM THE BEGINNING ON INITIAL ENTRY.      UCWESSS
036500*** NOTE: THIS CURSOR CONSIDERS BLANK TO BE INVALID FOR PURPOSES  UCWESSS
036600*** OF THIS PROGRAM AND THEREFORE SKIPS OVER IT.                  UCWESSS
036700***                                                               UCWESSS
036800*** THIS FUNCTION ALWAYS FETCHES 1 EXTRA ROW TO DETERMINE IF MORE UCWESSS
036900*** DATA FOLLOWS.                                                 UCWESSS
037000******************************************************************UCWESSS
037100     PERFORM 9300-CLEAR-MAP                                       UCWESSS
037200     PERFORM 9400-SET-MAP-DEFAULTS                                UCWESSS
037300     SET PAGING-FORWARD  TO TRUE                                  UCWESSS
037400*                                                                 UCWESSS
037500     PERFORM 7020-OPEN-FRWDCSR                                    UCWESSS
037600     SET SSI-ROW-FOUND TO TRUE                                    UCWESSS
037700     PERFORM 6000-FETCH-SCRN-TBL                                  UCWESSS
037800     PERFORM 7030-CLOSE-FRWDCSR                                   UCWESSS
037900*                                                                 UCWESSS
038000     MOVE ZERO TO HALF-SUB                                        UCWESSS
038100     PERFORM 8000-FORMAT-SCRN                                     UCWESSS
038200        VARYING FRWD-SUB FROM 1 BY 1                              UCWESSS
038300          UNTIL FRWD-SUB > SSI-PER-SCRN                           UCWESSS
038400     MOVE -1     TO NEW-STAT-1L(1)                                UCWESSS
038500*                                                                 UCWESSS
038600     SET UCPISCRN-BACKWARD  TO TRUE.                              UCWESSS
038700*                                                                 UCWESSS
038800*                                                                 UCWESSS
038900 4000-EXIT.                                                       UCWESSS
039000     EXIT.                                                        UCWESSS
039100     EJECT                                                        UCWESSS
039200 5000-PAGE-BACKWARD        SECTION.                               UCWESSS
039300******************************************************************UCWESSS
039400***  THE BACKWARD PAGING OPTION HAS BEEN PRE-VALIDATED. THAT IS,  UCWESSS
039500***  IT HAS ALREADY BEEN DETERMINED THAT MORE BACKWARD DATA       UCWESSS
039600***  EXISTS.                                                      UCWESSS
039700***                                                               UCWESSS
039800*** THIS FUNCTION ALWAYS FETCHES BACKWARD FROM THE FIRST ENTRY OF UCWESSS
039900*** THE PRIOR SCREEN.                                             UCWESSS
040000***                                                               UCWESSS
040100*** IT IS ALSO USED TO RE-DISPLAY THE CURRENT SCREEN.             UCWESSS
040200*** THIS IS ACCOMPLISHED BY DIRECTING IT TO PAGE BACKWARD         UCWESSS
040300*** WHILE GIVING IT A STARTING VALUE "LAST-SCRN-PLUS-1" WHICH IS  UCWESSS
040400*** ACTUALLY THE FIRST ENTRY OF THE "NEXT SCREEN".                UCWESSS
040500******************************************************************UCWESSS
040600     PERFORM 9300-CLEAR-MAP                                       UCWESSS
040700     PERFORM 9400-SET-MAP-DEFAULTS                                UCWESSS
040800     SET PAGING-BACKWARD TO TRUE                                  UCWESSS
040900*                                                                 UCWESSS
041000     PERFORM 7050-OPEN-BKWDCSR                                    UCWESSS
041100     SET SSI-ROW-FOUND TO TRUE                                    UCWESSS
041200     PERFORM 6000-FETCH-SCRN-TBL                                  UCWESSS
041300     PERFORM 7060-CLOSE-BKWDCSR                                   UCWESSS
041400*                                                                 UCWESSS
041500     MOVE ZERO TO HALF-SUB                                        UCWESSS
041600     PERFORM 8000-FORMAT-SCRN                                     UCWESSS
041700        VARYING FRWD-SUB FROM 1 BY 1                              UCWESSS
041800          UNTIL FRWD-SUB > SSI-PER-SCRN                           UCWESSS
041900     MOVE -1     TO NEW-STAT-1L(1)                                UCWESSS
042000     SET UCPISCRN-FORWARD   TO TRUE.                              UCWESSS
042100*                                                                 UCWESSS
042200 5000-EXIT.                                                       UCWESSS
042300     EXIT.                                                        UCWESSS
042400     EJECT                                                        UCWESSS
042500 6000-FETCH-SCRN-TBL    SECTION.                                  UCWESSS
042600******************************************************************UCWESSS
042700*  THIS FUNCTION FETCHES FROM 0 TO N+1 ROWS IN ASC OR DESC ORDER. UCWESSS
042800*  IT RETURNS 0 TO N ROWS IN ASCENDING ORDER IN A TABLE WHERE "N" UCWESSS
042900*  IS THE NUMBER OF ENTRIES PER SCREEN.                           UCWESSS
043000*                                                                 UCWESSS
043100*  THIS FUNCTION CHECKS THE N+1 ROW TO DETERMINE HOW TO SET       UCWESSS
043200*  THE PF7/PF8 INDICATORS WHEN THE FOOTER IS FORMATTED.           UCWESSS
043300*                                                                 UCWESSS
043400*  THIS FUNCTION DETERMINES THE FIRST AND LAST ROWS OF THE        UCWESSS
043500*  SCREEN BEING FORMATTED PLUS THE FIRST ROW OF THE NEXT FORWARD  UCWESSS
043600*  SCREEN, FROM THE POINT OF VIEW OF THE SCREEN BEING FORMATTED.  UCWESSS
043700*  THESE 3 VALUES ARE USED TO CONTROL ALL SCROLLING.              UCWESSS
043800******************************************************************UCWESSS
043900     IF PAGING-FORWARD                                            UCWESSS
044000        SET UCPISCRN-FORWARD-NOT-AVAIL  TO TRUE                   UCWESSS
044100        MOVE SSI-HIGH-VALUE          TO LAST-SSI-PLUS-1           UCWESSS
044200***     ACTUAL LAST-SSI-PLUS-1 IS SET BY FETCH PARA               UCWESSS
044300     ELSE                                                         UCWESSS
044400        MOVE FIRST-SSI-OF-SCRN TO LAST-SSI-PLUS-1                 UCWESSS
044500***     IF UNRESTRICTED BACKWARD PAGE, RESET PF7 INDICATOR        UCWESSS
044600        IF BKWD-LOW-VALUE = SSI-LOW-VALUE                         UCWESSS
044700           SET UCPISCRN-BACKWARD-NOT-AVAIL  TO TRUE               UCWESSS
044800        END-IF                                                    UCWESSS
044900     END-IF                                                       UCWESSS
045000***                                                               UCWESSS
045100     PERFORM                                                      UCWESSS
045200        VARYING FRWD-SUB FROM 1 BY 1                              UCWESSS
045300          UNTIL FRWD-SUB > SSI-PER-SCRN-PLUS-1                    UCWESSS
045400***     RETRIEVE THE DATA AND SET THE PF7/PF8 INDICATORS          UCWESSS
045500        IF SSI-ROW-FOUND                                          UCWESSS
045600           IF PAGING-FORWARD                                      UCWESSS
045700              PERFORM 7010-FETCH-FRWDCSR                          UCWESSS
045800           ELSE                                                   UCWESSS
045900              PERFORM 7040-FETCH-BKWDCSR                          UCWESSS
046000           END-IF                                                 UCWESSS
046100        END-IF                                                    UCWESSS
046200*                                                                 UCWESSS
046300        IF SSI-ROW-NOT-FOUND                                      UCWESSS
046400           MOVE SPACE TO SSI-SUBSYSTEM-ID                         UCWESSS
046500           MOVE SPACE TO SSI-NAME                                 UCWESSS
046600           MOVE SPACE TO SSI-STATUS                               UCWESSS
046700        END-IF                                                    UCWESSS
046800***                                                               UCWESSS
046900        PERFORM 6100-LOAD-SCRN-TBL                                UCWESSS
047000     END-PERFORM                                                  UCWESSS
047100***                                                               UCWESSS
047200***  IF THE BACKWARD FETCH WAS USED, ANY BLANK LINES WILL BE      UCWESSS
047300***  AT THE TOP. COMPRESS THE TABLE.                              UCWESSS
047400     PERFORM 6200-COMP-SCRN-TBL                                   UCWESSS
047500*                                                                 UCWESSS
047600     MOVE TBL-SUBSYSTEM-ID(1) TO FIRST-SSI-OF-SCRN                UCWESSS
047700*                                                                 UCWESSS
047800     MOVE FIRST-SSI-OF-SCRN TO ESSS-FIRST-SSI-OF-SCRN             UCWESSS
047900     MOVE LAST-SSI-OF-SCRN  TO ESSS-LAST-SSI-OF-SCRN              UCWESSS
048000     MOVE LAST-SSI-PLUS-1 TO ESSS-LAST-SSI-PLUS-1.                UCWESSS
048100*                                                                 UCWESSS
048200 6000-EXIT.                                                       UCWESSS
048300     EXIT.                                                        UCWESSS
048400     EJECT                                                        UCWESSS
048500 6100-LOAD-SCRN-TBL    SECTION.                                   UCWESSS
048600******************************************************************UCWESSS
048700*  LOAD THE DB ROWS INTO THE SCREEN TABLE                         UCWESSS
048800******************************************************************UCWESSS
048900     IF FRWD-SUB < SSI-PER-SCRN-PLUS-1                            UCWESSS
049000        IF PAGING-FORWARD                                         UCWESSS
049100           MOVE SSI-SUBSYSTEM-ID TO TBL-SUBSYSTEM-ID(FRWD-SUB)    UCWESSS
049200           MOVE SSI-NAME         TO TBL-NAME(FRWD-SUB)            UCWESSS
049300           MOVE SSI-STATUS       TO TBL-CUR-STAT(FRWD-SUB)        UCWESSS
049400        ELSE                                                      UCWESSS
049500***        REVERSE ORDER OF THE BACKWARD SCREEN ENTRIES           UCWESSS
049600           COMPUTE BKWD-SUB = SSI-PER-SCRN-PLUS-1 - FRWD-SUB      UCWESSS
049700           MOVE SSI-SUBSYSTEM-ID TO TBL-SUBSYSTEM-ID(BKWD-SUB)    UCWESSS
049800           MOVE SSI-NAME         TO TBL-NAME(BKWD-SUB)            UCWESSS
049900           MOVE SSI-STATUS       TO TBL-CUR-STAT(BKWD-SUB)        UCWESSS
050000        END-IF                                                    UCWESSS
050100     END-IF.                                                      UCWESSS
050200*                                                                 UCWESSS
050300 6100-EXIT.                                                       UCWESSS
050400     EXIT.                                                        UCWESSS
050500*                                                                 UCWESSS
050600*                                                                 UCWESSS
050700*                                                                 UCWESSS
050800 6200-COMP-SCRN-TBL    SECTION.                                   UCWESSS
050900******************************************************************UCWESSS
051000*  COMPRESS SCREEN TABLE IF NOT FULL AND PAGING BACKWARD          UCWESSS
051100******************************************************************UCWESSS
051200***  IF THE BACKWARD FETCH WAS USED, ANY BLANK LINES WILL BE      UCWESSS
051300***  AT THE TOP. COMPRESS THE TABLE.                              UCWESSS
051400     IF TBL-ENTRY(1) = SPACE                                      UCWESSS
051500        MOVE ZERO TO  BKWD-SUB                                    UCWESSS
051600        PERFORM                                                   UCWESSS
051700           VARYING FRWD-SUB FROM 1 BY 1                           UCWESSS
051800             UNTIL FRWD-SUB > SSI-PER-SCRN                        UCWESSS
051900***                                                               UCWESSS
052000           IF TBL-ENTRY(FRWD-SUB) > SPACE                         UCWESSS
052100              ADD 1 TO BKWD-SUB                                   UCWESSS
052200              MOVE TBL-ENTRY(FRWD-SUB) TO TBL-ENTRY(BKWD-SUB)     UCWESSS
052300           END-IF                                                 UCWESSS
052400***                                                               UCWESSS
052500        END-PERFORM                                               UCWESSS
052600***                                                               UCWESSS
052700***     CLEAR THE REST OF THE TABLE                               UCWESSS
052800        ADD 1 TO BKWD-SUB                                         UCWESSS
052900        PERFORM                                                   UCWESSS
053000           VARYING FRWD-SUB FROM BKWD-SUB BY 1                    UCWESSS
053100             UNTIL FRWD-SUB > SSI-PER-SCRN                        UCWESSS
053200           MOVE SPACE TO TBL-ENTRY(FRWD-SUB)                      UCWESSS
053300        END-PERFORM                                               UCWESSS
053400     END-IF.                                                      UCWESSS
053500*                                                                 UCWESSS
053600 6200-EXIT.                                                       UCWESSS
053700     EXIT.                                                        UCWESSS
053800     EJECT                                                        UCWESSS
053900 7010-FETCH-FRWDCSR                   SECTION.                    UCWESSS
054000******************************************************************UCWESSS
054100******************************************************************UCWESSS
054200     MOVE 'FETCH FORWARD PAGING CURSOR' TO DB2MSG-TAG.            UCWESSS
054300*                                                                 UCWESSS
054400     EXEC SQL                                                     UCWESSS
054500        FETCH FRWDCSR                                             UCWESSS
054600        INTO :SSI-SUBSYSTEM-ID                                    UCWESSS
054700        ,    :SSI-NAME                                            UCWESSS
054800        ,    :SSI-STATUS                                          UCWESSS
054900        ,    :SSI-APPLICATION-ID                                  UCWESSS
055000        ,    :SSI-CHANGED-BY                                      UCWESSS
055100        ,    :SSI-CHANGED-AT                                      UCWESSS
055200     END-EXEC.                                                    UCWESSS
055300*                                                                 UCWESSS
055400     EVALUATE SQLCODE                                             UCWESSS
055500       WHEN ZERO                                                  UCWESSS
055600          SET SSI-ROW-FOUND      TO TRUE                          UCWESSS
055700          COMPUTE SSI-ROW-CTR = SSI-ROW-CTR + 1                   UCWESSS
055800***                                                               UCWESSS
055900          EVALUATE TRUE                                           UCWESSS
056000***         CHECK THE FIRST ROW OF THE NEXT LOGICAL SCREEN        UCWESSS
056100            WHEN SSI-ROW-CTR = SSI-PER-SCRN-PLUS-1                UCWESSS
056200               SET UCPISCRN-FORWARD TO TRUE                       UCWESSS
056300               MOVE SSI-SUBSYSTEM-ID  TO LAST-SSI-PLUS-1          UCWESSS
056400            WHEN OTHER                                            UCWESSS
056500               MOVE SSI-SUBSYSTEM-ID  TO LAST-SSI-OF-SCRN         UCWESSS
056600          END-EVALUATE                                            UCWESSS
056700***                                                               UCWESSS
056800       WHEN +100                                                  UCWESSS
056900          SET SSI-ROW-NOT-FOUND  TO TRUE                          UCWESSS
057000     END-EVALUATE.                                                UCWESSS
057100*                                                                 UCWESSS
057200     EXIT.                                                        UCWESSS
057300     EJECT                                                        UCWESSS
057400 7020-OPEN-FRWDCSR                    SECTION.                    UCWESSS
057500******************************************************************UCWESSS
057600******************************************************************UCWESSS
057700     MOVE 'OPEN FORWARD PAGING CURSOR' TO DB2MSG-TAG.             UCWESSS
057800*                                                                 UCWESSS
057900     EXEC SQL                                                     UCWESSS
058000        OPEN FRWDCSR                                              UCWESSS
058100     END-EXEC.                                                    UCWESSS
058200*                                                                 UCWESSS
058300 7020-EXIT.                                                       UCWESSS
058400     EXIT.                                                        UCWESSS
058500*                                                                 UCWESSS
058600*                                                                 UCWESSS
058700*                                                                 UCWESSS
058800 7030-CLOSE-FRWDCSR                   SECTION.                    UCWESSS
058900******************************************************************UCWESSS
059000*  THIS SECTION CLOSES THE CURSOR USED ON A FORWARD PAGING       *UCWESSS
059100*  REQUEST.                                                      *UCWESSS
059200******************************************************************UCWESSS
059300     MOVE 'CLOSE FORWARD PAGING CURSOR' TO DB2MSG-TAG.            UCWESSS
059400                                                                  UCWESSS
059500     EXEC SQL                                                     UCWESSS
059600        CLOSE FRWDCSR                                             UCWESSS
059700     END-EXEC.                                                    UCWESSS
059800                                                                  UCWESSS
059900 7030-EXIT.                                                       UCWESSS
060000     EXIT.                                                        UCWESSS
060100     EJECT                                                        UCWESSS
060200 7040-FETCH-BKWDCSR                   SECTION.                    UCWESSS
060300******************************************************************UCWESSS
060400******************************************************************UCWESSS
060500     MOVE 'FETCH BACKWARD PAGING CURSOR' TO DB2MSG-TAG.           UCWESSS
060600*                                                                 UCWESSS
060700     EXEC SQL                                                     UCWESSS
060800        FETCH BKWDCSR                                             UCWESSS
060900        INTO :SSI-SUBSYSTEM-ID                                    UCWESSS
061000        ,    :SSI-NAME                                            UCWESSS
061100        ,    :SSI-STATUS                                          UCWESSS
061200        ,    :SSI-APPLICATION-ID                                  UCWESSS
061300        ,    :SSI-CHANGED-BY                                      UCWESSS
061400        ,    :SSI-CHANGED-AT                                      UCWESSS
061500     END-EXEC.                                                    UCWESSS
061600*                                                                 UCWESSS
061700     EVALUATE SQLCODE                                             UCWESSS
061800       WHEN ZERO                                                  UCWESSS
061900***       NOTE: A BLANK SUBSYSTEM ID REPRESENTS A NOT-FOUND       UCWESSS
062000***       FOR PURPOSES OF THIS PROGRAM                            UCWESSS
062100          IF SSI-SUBSYSTEM-ID > SSI-LOW-VALUE                     UCWESSS
062200             SET SSI-ROW-FOUND      TO TRUE                       UCWESSS
062300             COMPUTE SSI-ROW-CTR = SSI-ROW-CTR + 1                UCWESSS
062400***          CHECK THE FIRST ROW OF THE NEXT LOGICAL SCREEN       UCWESSS
062500             IF SSI-ROW-CTR = SSI-PER-SCRN-PLUS-1                 UCWESSS
062600                SET UCPISCRN-BACKWARD TO TRUE                     UCWESSS
062700             END-IF                                               UCWESSS
062800***          NOTE THAT IF ZERO ROWS, THIS CLAUSE DOES NOT EXECUTE.UCWESSS
062900***          (ONLY POSSIBLE IF INTERVENING DELETION OF ROW(S).    UCWESSS
063000***          LAST-SSI-OF-SCRN DEFAULTS TO BLANK WHICH SHOULD      UCWESSS
063100***          CAUSE PAGING TO START FROM THE FIRST SCREEN AGAIN.   UCWESSS
063200             IF SSI-ROW-CTR = 1                                   UCWESSS
063300                MOVE SSI-SUBSYSTEM-ID TO LAST-SSI-OF-SCRN         UCWESSS
063400             END-IF                                               UCWESSS
063500          ELSE                                                    UCWESSS
063600             SET SSI-ROW-NOT-FOUND  TO TRUE                       UCWESSS
063700          END-IF                                                  UCWESSS
063800       WHEN +100                                                  UCWESSS
063900          SET SSI-ROW-NOT-FOUND  TO TRUE                          UCWESSS
064000     END-EVALUATE.                                                UCWESSS
064100 7040-EXIT.                                                       UCWESSS
064200     EXIT.                                                        UCWESSS
064300     EJECT                                                        UCWESSS
064400 7050-OPEN-BKWDCSR                    SECTION.                    UCWESSS
064500******************************************************************UCWESSS
064600******************************************************************UCWESSS
064700     MOVE 'OPEN BACKWARD PAGING CURSOR' TO DB2MSG-TAG.            UCWESSS
064800*                                                                 UCWESSS
064900     EXEC SQL                                                     UCWESSS
065000        OPEN BKWDCSR                                              UCWESSS
065100     END-EXEC.                                                    UCWESSS
065200*                                                                 UCWESSS
065300 7050-EXIT.                                                       UCWESSS
065400     EXIT.                                                        UCWESSS
065500*                                                                 UCWESSS
065600*                                                                 UCWESSS
065700*                                                                 UCWESSS
065800 7060-CLOSE-BKWDCSR                   SECTION.                    UCWESSS
065900******************************************************************UCWESSS
066000******************************************************************UCWESSS
066100     MOVE 'CLOSE BACKWARD PAGING CURSOR' TO DB2MSG-TAG.           UCWESSS
066200                                                                  UCWESSS
066300     EXEC SQL                                                     UCWESSS
066400        CLOSE BKWDCSR                                             UCWESSS
066500     END-EXEC.                                                    UCWESSS
066600*                                                                 UCWESSS
066700 7060-EXIT.                                                       UCWESSS
066800     EXIT.                                                        UCWESSS
068600     EJECT                                                        UCWESSS
068700 8000-FORMAT-SCRN       SECTION.                                  UCWESSS
068800******************************************************************UCWESSS
068900***  FORMAT THE TWO HALVES OF THE SCREEN.                         UCWESSS
069000***  PROTECT ENTRY FIELDS WHERE APPROPRIATE, IE WHERE SSI IS      UCWESSS
069100***  BLANK OR IS THIS SUBSYSTEM OR AN ACTIVE LOAD OF SHARED       UCWESSS
069101***  STORAGE IS IN PROGRESS (STATUS = L).                         UCWESSS
069110***  SET HIGHLIGHTING ACCORDINGLY.                                UCWESSS
069200******************************************************************UCWESSS
069300     EVALUATE  TRUE                                               UCWESSS
069400       WHEN FRWD-SUB     <= SSI-PER-HALF-SCREEN                   UCWESSS
069500          ADD 1 TO HALF-SUB                                       UCWESSS
069600          MOVE TBL-SUBSYSTEM-ID(FRWD-SUB) TO SSI-1O(HALF-SUB)     UCWESSS
069710          MOVE TBL-SUBSYSTEM-ID(FRWD-SUB) TO SSI-SUBSYSTEM-ID     UCWESSS
069720          PERFORM 8300-GET-SSI-NAME-FROM-DB                       UCWESSS
069730          MOVE SSI-NAME TO TBL-NAME(FRWD-SUB)                     UCWESSS
069740          MOVE TBL-NAME     (FRWD-SUB) TO SSI-NAME-1O(HALF-SUB)   UCWESSS
069800          MOVE TBL-CUR-STAT (FRWD-SUB) TO SSI-STAT-1O(HALF-SUB)   UCWESSS
069900          IF SSI-1O (HALF-SUB) = UCCOMMON-SUBSYSTEM-ID            UCWESSS
070000          OR SSI-1O (HALF-SUB) = SPACE                            UCWESSS
070010          OR SSI-STAT-1O (HALF-SUB) = 'L'                         UCWESSS
070100             MOVE UCCOMMON-ATR-ENTRY-PRO  TO NEW-STAT-1A(HALF-SUB)UCWESSS
070200             MOVE UCCOMMON-HLT-NORM-DISPL TO NEW-STAT-1H(HALF-SUB)UCWESSS
070300          ELSE                                                    UCWESSS
070400             PERFORM 8100-APPLY-UPDATES-TO-SCRN                   UCWESSS
070500             IF UCCOMMON-EDIT-REQUEST                             UCWESSS
070600                PERFORM 8200-APPLY-ERR-ATR-TO-SCRN                UCWESSS
070700             END-IF                                               UCWESSS
070800          END-IF                                                  UCWESSS
070900       WHEN FRWD-SUB     = SSI-PER-HALF-SCREEN + 1                UCWESSS
071000          MOVE 1 TO HALF-SUB                                      UCWESSS
071010          MOVE TBL-SUBSYSTEM-ID(FRWD-SUB) TO SSI-2O(HALF-SUB)     UCWESSS
071020          MOVE TBL-SUBSYSTEM-ID(FRWD-SUB) TO SSI-SUBSYSTEM-ID     UCWESSS
071030          PERFORM 8300-GET-SSI-NAME-FROM-DB                       UCWESSS
071040          MOVE SSI-NAME TO TBL-NAME(FRWD-SUB)                     UCWESSS
071050          MOVE TBL-NAME     (FRWD-SUB) TO SSI-NAME-2O(HALF-SUB)   UCWESSS
071300          MOVE TBL-CUR-STAT (FRWD-SUB) TO SSI-STAT-2O(HALF-SUB)   UCWESSS
071400          IF SSI-2O (HALF-SUB) = UCCOMMON-SUBSYSTEM-ID            UCWESSS
071500          OR SSI-2O (HALF-SUB) = SPACE                            UCWESSS
071510          OR SSI-STAT-2O (HALF-SUB) = 'L'                         UCWESSS
071600             MOVE UCCOMMON-ATR-ENTRY-PRO  TO NEW-STAT-2A(HALF-SUB)UCWESSS
071700             MOVE UCCOMMON-HLT-NORM-DISPL TO NEW-STAT-2H(HALF-SUB)UCWESSS
071800          ELSE                                                    UCWESSS
071900             PERFORM 8100-APPLY-UPDATES-TO-SCRN                   UCWESSS
072000             IF UCCOMMON-EDIT-REQUEST                             UCWESSS
072100                PERFORM 8200-APPLY-ERR-ATR-TO-SCRN                UCWESSS
072200             END-IF                                               UCWESSS
072300          END-IF                                                  UCWESSS
072400       WHEN FRWD-SUB     < SSI-PER-SCRN-PLUS-1                    UCWESSS
072500          ADD 1 TO HALF-SUB                                       UCWESSS
072510          MOVE TBL-SUBSYSTEM-ID(FRWD-SUB) TO SSI-2O(HALF-SUB)     UCWESSS
072520          MOVE TBL-SUBSYSTEM-ID(FRWD-SUB) TO SSI-SUBSYSTEM-ID     UCWESSS
072530          PERFORM 8300-GET-SSI-NAME-FROM-DB                       UCWESSS
072540          MOVE SSI-NAME TO TBL-NAME(FRWD-SUB)                     UCWESSS
072550          MOVE TBL-NAME     (FRWD-SUB) TO SSI-NAME-2O(HALF-SUB)   UCWESSS
072800          MOVE TBL-CUR-STAT (FRWD-SUB) TO SSI-STAT-2O(HALF-SUB)   UCWESSS
072900          IF SSI-2O (HALF-SUB) = UCCOMMON-SUBSYSTEM-ID            UCWESSS
073000          OR SSI-2O (HALF-SUB) = SPACE                            UCWESSS
073010          OR SSI-STAT-2O (HALF-SUB) = 'L'                         UCWESSS
073100             MOVE UCCOMMON-ATR-ENTRY-PRO  TO NEW-STAT-2A(HALF-SUB)UCWESSS
073200             MOVE UCCOMMON-HLT-NORM-DISPL TO NEW-STAT-2H(HALF-SUB)UCWESSS
073300          ELSE                                                    UCWESSS
073400             PERFORM 8100-APPLY-UPDATES-TO-SCRN                   UCWESSS
073500             IF UCCOMMON-EDIT-REQUEST                             UCWESSS
073600                PERFORM 8200-APPLY-ERR-ATR-TO-SCRN                UCWESSS
073700             END-IF                                               UCWESSS
073800          END-IF                                                  UCWESSS
073900     END-EVALUATE.                                                UCWESSS
074000 8000-EXIT.                                                       UCWESSS
074100     EXIT.                                                        UCWESSS
074200     EJECT                                                        UCWESSS
074300 8100-APPLY-UPDATES-TO-SCRN  SECTION.                             UCWESSS
074400******************************************************************UCWESSS
074500*                                                                 UCWESSS
074600******************************************************************UCWESSS
074700     SET ESSS-IDX TO 1                                            UCWESSS
074800     SEARCH ESSS-TBL                                              UCWESSS
074900        AT END                                                    UCWESSS
075000           SET NEW-STAT-NOT-FOUND TO TRUE                         UCWESSS
075100        WHEN  ESSS-SSI(ESSS-IDX) = TBL-SUBSYSTEM-ID(FRWD-SUB)     UCWESSS
075200          MOVE ESSS-NEW-STAT(ESSS-IDX) TO TBL-NEW-STAT(FRWD-SUB)  UCWESSS
075300          SET NEW-STAT-FOUND TO TRUE                              UCWESSS
075400        WHEN  ESSS-SSI(ESSS-IDX) = SPACE                          UCWESSS
075500          SET NEW-STAT-NOT-FOUND TO TRUE                          UCWESSS
075600     END-SEARCH.                                                  UCWESSS
075700 8100-EXIT.                                                       UCWESSS
075800     EXIT.                                                        UCWESSS
075900     EJECT                                                        UCWESSS
076000 8200-APPLY-ERR-ATR-TO-SCRN  SECTION.                             UCWESSS
076100******************************************************************UCWESSS
076200*                                                                 UCWESSS
076300******************************************************************UCWESSS
076400     EVALUATE  TRUE                                               UCWESSS
076500       WHEN FRWD-SUB     <= SSI-PER-HALF-SCREEN                   UCWESSS
076600          IF TBL-ROW-ERR(FRWD-SUB) = 'Y'                          UCWESSS
076700             MOVE -1                     TO NEW-STAT-1L(HALF-SUB) UCWESSS
076800             MOVE UCCOMMON-CLR-ERROR     TO NEW-STAT-1C(HALF-SUB) UCWESSS
076900             MOVE UCCOMMON-ATR-ERROR-MDT TO NEW-STAT-1A(HALF-SUB) UCWESSS
077000             MOVE UCCOMMON-HLT-ERROR     TO NEW-STAT-1H(HALF-SUB) UCWESSS
077100          END-IF                                                  UCWESSS
077200       WHEN FRWD-SUB     > SSI-PER-HALF-SCREEN                    UCWESSS
077300          IF TBL-ROW-ERR(FRWD-SUB) = 'Y'                          UCWESSS
077400             MOVE -1                     TO NEW-STAT-2L(HALF-SUB) UCWESSS
077500             MOVE UCCOMMON-CLR-ERROR     TO NEW-STAT-2C(HALF-SUB) UCWESSS
077600             MOVE UCCOMMON-ATR-ERROR-MDT TO NEW-STAT-2A(HALF-SUB) UCWESSS
077700             MOVE UCCOMMON-HLT-ERROR     TO NEW-STAT-2H(HALF-SUB) UCWESSS
077800          END-IF                                                  UCWESSS
077900     END-EVALUATE.                                                UCWESSS
078000 8200-EXIT.                                                       UCWESSS
078100     EXIT.                                                        UCWESSS
078110     EJECT                                                        UCWESSS
078120 8300-GET-SSI-NAME-FROM-DB   SECTION.                             UCWESSS
078130******************************************************************UCWESSS
078140* GET SSI NAME FROM DB. SCREEN INPUT HAS BEEN TRANSLATED TO       UCWESSS
078150* UPPER CASE, WHICH IS NOT WHAT IS WANTED.                        UCWESSS
078160******************************************************************UCWESSS
078170     MOVE 'SELECT SSI NAME             ' TO DB2MSG-TAG            UCWESSS
078180*                                                                 UCWESSS
078190     IF SSI-SUBSYSTEM-ID = SSI-LOW-VALUE                          UCWESSS
078191        MOVE SPACE TO SSI-NAME                                    UCWESSS
078192     ELSE                                                         UCWESSS
078193        EXEC SQL                                                  UCWESSS
078194             SELECT SSI_NAME                                      UCWESSS
078195             INTO  :SSI-NAME                                      UCWESSS
078196             FROM   UC0VZSSI_SSI                                  UCWESSS
078197             WHERE  SSI_SUBSYSTEM_ID   = :SSI-SUBSYSTEM-ID        UCWESSS
078198        END-EXEC                                                  UCWESSS
078199        IF SQLCODE = +100                                         UCWESSS
078200           MOVE SPACE TO SSI-NAME                                 UCWESSS
078201        END-IF                                                    UCWESSS
078202     END-IF.                                                      UCWESSS
078203*                                                                 UCWESSS
078204 8300-EXIT.                                                       UCWESSS
078205     EXIT.                                                        UCWESSS
078210     EJECT                                                        UCWESSS
078300 9000-PROC-INVALID-REQUEST SECTION.                               UCWESSS
078400******************************************************************UCWESSS
078500******************************************************************UCWESSS
078600     MOVE 'INVALID UCCOMMON-REQUEST-CODE'                         UCWESSS
078700       TO UCWSABND-MSG-DATA.                                      UCWESSS
078800*                                                                 UCWESSS
078900     MOVE SPACES          TO UCWSABND-ABEND-DATA(1)               UCWESSS
079000                             UCWSABND-ABEND-DATA(2).              UCWESSS
079100*                                                                 UCWESSS
079200     STRING                                                       UCWESSS
079300           'INVALID REQUEST CODE = '  DELIMITED BY SIZE           UCWESSS
079400            UCCOMMON-REQUEST-CODE     DELIMITED BY SIZE           UCWESSS
079500       INTO UCWSABND-ABEND-DATA(1)                                UCWESSS
079600     END-STRING.                                                  UCWESSS
079700*                                                                 UCWESSS
079800     PERFORM 9999-ABEND.                                          UCWESSS
079900 9000-EXIT.                                                       UCWESSS
080000     EXIT.                                                        UCWESSS
080100     EJECT                                                        UCWESSS
080200 9100-INITIALIZATION                  SECTION.                    UCWESSS
080300******************************************************************UCWESSS
080400******************************************************************UCWESSS
080410     IF UCCOMMON-DISPLAY-PAGE-1                                   UCWESSS
080420        MOVE SPACE TO CPWSESSS                                    UCWESSS
080430     END-IF                                                       UCWESSS
080500     MOVE ZERO TO UCCOMMON-RETURN-CODE                            UCWESSS
080600     SET UCCOMMON-NO-EDIT-ERRORS TO TRUE                          UCWESSS
080700     SET UCCOMMON-NO-UPD-IN-PROGRESS TO TRUE                      UCWESSS
080800     MOVE PGM-NAME  TO UCWSABND-ABENDING-PGM                      UCWESSS
080900     MOVE PGM-NAME  TO DB2MSG-PGM-ID                              UCWESSS
081000     MOVE PGM-RELEASE-NBR   TO UCPISCRN-DTL-REL-NO                UCWESSS
081100     INITIALIZE SWITCHES                                          UCWESSS
081200     INITIALIZE COUNTERS-AND-SUBS                                 UCWESSS
081300     MOVE SPACE TO MISC-HOST-VARIABLES                            UCWESSS
081400     COMPUTE SSI-PER-SCRN-PLUS-1 = SSI-PER-SCRN + 1               UCWESSS
081500     COMPUTE SSI-PER-HALF-SCREEN = SSI-PER-SCRN / 2               UCWESSS
082110     MOVE ESSS-LAST-SSI-OF-SCRN  TO  LAST-SSI-OF-SCRN             UCWESSS
082120     MOVE ESSS-LAST-SSI-PLUS-1 TO LAST-SSI-PLUS-1                 UCWESSS
082130     MOVE ESSS-FIRST-SSI-OF-SCRN       TO FIRST-SSI-OF-SCRN.      UCWESSS
082200*                                                                 UCWESSS
082300 9100-EXIT.                                                       UCWESSS
082400     EXIT.                                                        UCWESSS
082500     EJECT                                                        UCWESSS
082600 9200-COUNT-BKWD-ROWS                 SECTION.                    UCWESSS
082700******************************************************************UCWESSS
082800* DETERMINE IF A BKWD PAGE WILL FILL THE SCREEN. IF NOT, THE      UCWESSS
082900* REQUEST WILL BE CONVERTED TO A FRWD PAGE FROM THE BEGINNING.    UCWESSS
083000******************************************************************UCWESSS
083100     MOVE 'SELECT ROW COUNT' TO DB2MSG-TAG                        UCWESSS
083200     MOVE SSI-LOW-VALUE TO BKWD-LOW-VALUE.                        UCWESSS
083300*                                                                 UCWESSS
083400     EXEC SQL                                                     UCWESSS
083500          SELECT COUNT(*)                                         UCWESSS
083600          INTO :BKWD-ROW-COUNT                                    UCWESSS
083700          FROM   UC0VZSSI_SSI                                     UCWESSS
083800          WHERE  SSI_SUBSYSTEM_ID   < :FIRST-SSI-OF-SCRN          UCWESSS
083900            AND  SSI_SUBSYSTEM_ID   > :SSI-LOW-VALUE              UCWESSS
084000     END-EXEC.                                                    UCWESSS
084100*                                                                 UCWESSS
084200 9200-EXIT.                                                       UCWESSS
084300     EXIT.                                                        UCWESSS
084400     EJECT                                                        UCWESSS
084500 9300-CLEAR-MAP                       SECTION.                    UCWESSS
084600******************************************************************UCWESSS
084700******************************************************************UCWESSS
084800     MOVE LOW-VALUES TO UCDTLARE.                                 UCWESSS
084900     MOVE LENGTH OF UCESSS0O TO UCPISCRN-DETAIL-MAP-LENGTH.       UCWESSS
085000*                                                                 UCWESSS
085100 9300-EXIT.                                                       UCWESSS
085200     EXIT.                                                        UCWESSS
085300*                                                                 UCWESSS
085400*                                                                 UCWESSS
085500*                                                                 UCWESSS
085600 9400-SET-MAP-DEFAULTS                SECTION.                    UCWESSS
085700******************************************************************UCWESSS
085800*  SET ALL DEFAULT SCREEN ATTRIBUTES                              UCWESSS
085900******************************************************************UCWESSS
086000     MOVE UCCOMMON-CLR-COL-HEAD   TO HDR1C                        UCWESSS
086100     MOVE UCCOMMON-HLT-COL-HEAD   TO HDR1H                        UCWESSS
086200     MOVE UCCOMMON-ATR-COL-HEAD   TO HDR1A                        UCWESSS
086300     MOVE UCCOMMON-CLR-COL-HEAD   TO HDR2C                        UCWESSS
086400     MOVE UCCOMMON-HLT-COL-HEAD   TO HDR2H                        UCWESSS
086500     MOVE UCCOMMON-ATR-COL-HEAD   TO HDR2A                        UCWESSS
086600     MOVE UCCOMMON-CLR-COL-HEAD   TO HDR3C                        UCWESSS
086700     MOVE UCCOMMON-HLT-COL-HEAD   TO HDR3H                        UCWESSS
086800     MOVE UCCOMMON-ATR-COL-HEAD   TO HDR3A                        UCWESSS
086900*                                                                 UCWESSS
087000     PERFORM VARYING HALF-SUB FROM 1 BY 1                         UCWESSS
087100       UNTIL HALF-SUB > SSI-PER-HALF-SCREEN                       UCWESSS
087200        MOVE UCCOMMON-ATR-ENTRY-MDT-PRO TO SSI-1A (HALF-SUB)      UCWESSS
087300        MOVE UCCOMMON-ATR-ENTRY-MDT-PRO TO SSI-NAME-1A (HALF-SUB) UCWESSS
087400        MOVE UCCOMMON-ATR-ENTRY-MDT-PRO TO SSI-STAT-1A (HALF-SUB) UCWESSS
087500        MOVE UCCOMMON-ATR-ENTRY-MDT-PRO TO SSI-2A (HALF-SUB)      UCWESSS
087600        MOVE UCCOMMON-ATR-ENTRY-MDT-PRO TO SSI-NAME-2A (HALF-SUB) UCWESSS
087700        MOVE UCCOMMON-ATR-ENTRY-MDT-PRO TO SSI-STAT-2A (HALF-SUB) UCWESSS
087800        MOVE UCCOMMON-ATR-ENTRY-MDT     TO NEW-STAT-1A (HALF-SUB) UCWESSS
087900        MOVE UCCOMMON-ATR-ENTRY-MDT     TO NEW-STAT-2A (HALF-SUB) UCWESSS
088000        MOVE UCCOMMON-CLR-NORM-DISPL TO SSI-STAT-1C (HALF-SUB)    UCWESSS
088100        MOVE UCCOMMON-CLR-ENTRY      TO NEW-STAT-1C (HALF-SUB)    UCWESSS
088200        MOVE UCCOMMON-CLR-FLD-LABEL  TO SSI-1C (HALF-SUB)         UCWESSS
088300        MOVE UCCOMMON-CLR-FLD-LABEL  TO SSI-NAME-1C (HALF-SUB)    UCWESSS
088400        MOVE UCCOMMON-CLR-NORM-DISPL TO SSI-STAT-2C (HALF-SUB)    UCWESSS
088500        MOVE UCCOMMON-CLR-ENTRY      TO NEW-STAT-2C (HALF-SUB)    UCWESSS
088600        MOVE UCCOMMON-CLR-FLD-LABEL  TO SSI-2C (HALF-SUB)         UCWESSS
088700        MOVE UCCOMMON-CLR-FLD-LABEL  TO SSI-NAME-2C (HALF-SUB)    UCWESSS
088800        MOVE UCCOMMON-HLT-NORM-DISPL TO SSI-STAT-1H (HALF-SUB)    UCWESSS
088900        MOVE UCCOMMON-HLT-ENTRY      TO NEW-STAT-1H (HALF-SUB)    UCWESSS
089000        MOVE UCCOMMON-HLT-FLD-LABEL  TO SSI-1H (HALF-SUB)         UCWESSS
089100        MOVE UCCOMMON-HLT-FLD-LABEL  TO SSI-NAME-1H (HALF-SUB)    UCWESSS
089200        MOVE UCCOMMON-HLT-NORM-DISPL TO SSI-STAT-2H (HALF-SUB)    UCWESSS
089300        MOVE UCCOMMON-HLT-ENTRY      TO NEW-STAT-2H (HALF-SUB)    UCWESSS
089400        MOVE UCCOMMON-HLT-FLD-LABEL  TO SSI-2H (HALF-SUB)         UCWESSS
089500        MOVE UCCOMMON-HLT-FLD-LABEL  TO SSI-NAME-2H (HALF-SUB)    UCWESSS
089600     END-PERFORM.                                                 UCWESSS
089700*                                                                 UCWESSS
089800 9400-EXIT.                                                       UCWESSS
089900     EXIT.                                                        UCWESSS
090000     EJECT                                                        UCWESSS
090100 9500-SET-UPD-IN-PROG-STATUS   SECTION.                           UCWESSS
090200******************************************************************UCWESSS
090300******************************************************************UCWESSS
090400     SET ESSS-IDX TO 1                                            UCWESSS
090500     SEARCH ESSS-TBL                                              UCWESSS
090600        AT END                                                    UCWESSS
090800           CONTINUE                                               UCWESSS
090900        WHEN  ESSS-SSI(ESSS-IDX) = SPACE                          UCWESSS
091000           IF ESSS-IDX > 1                                        UCWESSS
091100              SET UCCOMMON-UPD-IN-PROGRESS TO TRUE                UCWESSS
091200           ELSE                                                   UCWESSS
091300              SET UCCOMMON-NO-UPD-IN-PROGRESS TO TRUE             UCWESSS
091400           END-IF                                                 UCWESSS
091500     END-SEARCH.                                                  UCWESSS
091600*                                                                 UCWESSS
091700 9500-EXIT.                                                       UCWESSS
091800     EXIT.                                                        UCWESSS
091900     EJECT                                                        UCWESSS
092000*999999-SQL-ERROR                     SECTION.                    UCWESSS
092100******************************************************************UCWESSS
092200* COPIED PROCEDURE DIVISION CODE FOR SQL ERROR HANDLING          *UCWESSS
092300******************************************************************UCWESSS
092400*                                                                 UCWESSS
092500     EXEC SQL                                                     UCWESSS
092600          INCLUDE CPPDXP99                                        UCWESSS
092700     END-EXEC.                                                    UCWESSS
092800*                                                                 UCWESSS
092900     MOVE 'SQL ERROR - SEE PRECEDING DB2 MESSAGES'                UCWESSS
093000                     TO UCWSABND-ABEND-DATA (1).                  UCWESSS
093100*                                                                 UCWESSS
093200     PERFORM 9999-ABEND.                                          UCWESSS
093300*                                                                 UCWESSS
093400 999999-EXIT.                                                     UCWESSS
093500       EXIT.                                                      UCWESSS
093600*                                                                 UCWESSS
093700*                                                                 UCWESSS
093800 9999-ABEND                           SECTION.                    UCWESSS
093900******************************************************************UCWESSS
094000*  COPIED PROCEDURE DIVISION CODE FOR ABEND HANDLING             *UCWESSS
094100******************************************************************UCWESSS
094200*                                                                 UCWESSS
094300     COPY UCPDABND.                                               UCWESSS
094400*                                                                 UCWESSS
094500 9999-EXIT.                                                       UCWESSS
094600     EXIT.                                                        UCWESSS
