000001**************************************************************/   42801061
000002*  PROGRAM: UCWFMNU                                          */   42801061
000003*  RELEASE: ___1061______ SERVICE REQUEST(S): ____14280____  */   42801061
000004*  NAME:_______QUAN______ MODIFICATION DATE:  ___03/12/96__  */   42801061
000005*  DESCRIPTION:                                              */   42801061
000006*  -  ADDED LOGIC TO ACCOMMODATE A SECOND PAGE SCREEN OF THE */   42801061
000007*     FUNCTION CODE MENU. THE FUNCTION POSITION WAS INCREASED*/   42801061
000008*     FROM 32 TO 33.                                         */   42801061
000009**************************************************************/   42801061
000000**************************************************************/   36430833
000001*  PROGRAM: UCWFMNU                                          */   36430833
000002*  RELEASE: ___0833______ SERVICE REQUEST(S): _____3643____  */   36430833
000003*  NAME:_______AAC_______ MODIFICATION DATE:  __11/18/93____ */   36430833
000004*  DESCRIPTION:                                              */   36430833
000005*   CORRECT HANDLING OF CURSOR SELECTION FOR EMPTY MENU ROWS */   36430833
000006*   AND ASSIGNMENT OF ATTRIBUTE BYTES                        */   36430833
000007**************************************************************/   36430833
000000**************************************************************/   36430815
000001*  PROGRAM: UCWFMNU                                          */   36430815
000002*  RELEASE: ___0815______ SERVICE REQUEST(S): _____3643____  */   36430815
000003*  NAME:_______AAC_______ MODIFICATION DATE:  __09/17/93____ */   36430815
000004*  DESCRIPTION:                                              */   36430815
000005*   CORRECT HANDLING OF CURSOR POSITION SELECTIONS           */   36430815
000006*                                                            */   36430815
000007**************************************************************/   36430815
000100**************************************************************/   36430795
000200*  PROGRAM: UCWFMNU                                          */   36430795
000300*  RELEASE # ___0795___   SERVICE REQUEST NO(S)____3643______*/   36430795
000400*  NAME _____EMS_______   MODIFICATION DATE ____07/15/93_____*/   36430795
000500*  DESCRIPTION                                               */   36430795
000600*    SUBSYSTEMS FUNCTION CODE MENU PROGRAM FOR THE ONLINE    */   36430795
000700*    APPLICATIONS SYSTEM                                     */   36430795
000800**************************************************************/   36430795
000900 IDENTIFICATION DIVISION.                                         UCWFMNU
001000 PROGRAM-ID. UCWFMNU.                                             UCWFMNU
001100 ENVIRONMENT DIVISION.                                            UCWFMNU
001200 CONFIGURATION SECTION.                                           UCWFMNU
001300 SOURCE-COMPUTER.  COPY CPOTXUCS.                                 UCWFMNU
001400 DATA DIVISION.                                                   UCWFMNU
001500 WORKING-STORAGE SECTION.                                         UCWFMNU
001600                                                                  UCWFMNU
001700 01  WS-COMN.                                                     UCWFMNU
001800   05  WS-START             PIC X(27) VALUE                       UCWFMNU
001900       'WORKING STORAGE STARTS HERE'.                             UCWFMNU
002000                                                                  UCWFMNU
002100 01  WS-FUNC-SUB                   PIC 9(2) VALUE ZEROS.          UCWFMNU
002200 01  WS-MAP-SUB                    PIC 9(2) VALUE ZEROS.          UCWFMNU
002300 01  WS-ATR-SUB                    PIC 9(2) VALUE ZEROS.          UCWFMNU
002400 01  WS-EIBCPOSN                   PIC S9(4) USAGE COMP.          UCWFMNU
002500                                                                  UCWFMNU
002600***************************************************************** UCWFMNU
002700* THE FOLLOWING TABLE LISTS ALL THE POSSIBLE CURSOR POSITION    * UCWFMNU
002800* VALUES FOR CURSOR SELECTION OF THE FUNCTION CODES ON THE      * UCWFMNU
002900* SUBSYSTEM FUNCTIONS MENU SCREEN.                              * UCWFMNU
003000***************************************************************** UCWFMNU
003100                                                                  UCWFMNU
003200 01  WS-CURSOR-POSN-VALUES.                                       UCWFMNU
003300     05  FILLER                PIC S9(04) VALUE +241 USAGE COMP.  UCWFMNU
003400     05  FILLER                PIC S9(04) VALUE +321 USAGE COMP.  UCWFMNU
003500     05  FILLER                PIC S9(04) VALUE +401 USAGE COMP.  UCWFMNU
003600     05  FILLER                PIC S9(04) VALUE +481 USAGE COMP.  UCWFMNU
003700     05  FILLER                PIC S9(04) VALUE +561 USAGE COMP.  UCWFMNU
003800     05  FILLER                PIC S9(04) VALUE +641 USAGE COMP.  UCWFMNU
003900     05  FILLER                PIC S9(04) VALUE +721 USAGE COMP.  UCWFMNU
004000     05  FILLER                PIC S9(04) VALUE +801 USAGE COMP.  UCWFMNU
004100     05  FILLER                PIC S9(04) VALUE +881 USAGE COMP.  UCWFMNU
004200     05  FILLER                PIC S9(04) VALUE +961 USAGE COMP.  UCWFMNU
004300     05  FILLER                PIC S9(04) VALUE +1041 USAGE COMP. UCWFMNU
004400     05  FILLER                PIC S9(04) VALUE +1121 USAGE COMP. UCWFMNU
004500     05  FILLER                PIC S9(04) VALUE +1201 USAGE COMP. UCWFMNU
004600     05  FILLER                PIC S9(04) VALUE +1281 USAGE COMP. UCWFMNU
004700     05  FILLER                PIC S9(04) VALUE +1361 USAGE COMP. UCWFMNU
004800     05  FILLER                PIC S9(04) VALUE +1441 USAGE COMP. UCWFMNU
004900     05  FILLER                PIC S9(04) VALUE  +280 USAGE COMP. UCWFMNU
005000     05  FILLER                PIC S9(04) VALUE  +360 USAGE COMP. UCWFMNU
005100     05  FILLER                PIC S9(04) VALUE  +440 USAGE COMP. UCWFMNU
005200     05  FILLER                PIC S9(04) VALUE  +520 USAGE COMP. UCWFMNU
005300     05  FILLER                PIC S9(04) VALUE  +600 USAGE COMP. UCWFMNU
005400     05  FILLER                PIC S9(04) VALUE  +680 USAGE COMP. UCWFMNU
005500     05  FILLER                PIC S9(04) VALUE  +760 USAGE COMP. UCWFMNU
005600     05  FILLER                PIC S9(04) VALUE  +840 USAGE COMP. UCWFMNU
005700     05  FILLER                PIC S9(04) VALUE  +920 USAGE COMP. UCWFMNU
005800     05  FILLER                PIC S9(04) VALUE +1000 USAGE COMP. UCWFMNU
005900     05  FILLER                PIC S9(04) VALUE +1080 USAGE COMP. UCWFMNU
006000     05  FILLER                PIC S9(04) VALUE +1160 USAGE COMP. UCWFMNU
006100     05  FILLER                PIC S9(04) VALUE +1240 USAGE COMP. UCWFMNU
006200     05  FILLER                PIC S9(04) VALUE +1320 USAGE COMP. UCWFMNU
006300     05  FILLER                PIC S9(04) VALUE +1400 USAGE COMP. UCWFMNU
006400     05  FILLER                PIC S9(04) VALUE +1480 USAGE COMP. UCWFMNU
006410     05  FILLER                PIC S9(04) VALUE +241  USAGE COMP. 42801061
006500 01  WS-CURSOR-POSN-TABLE  REDEFINES WS-CURSOR-POSN-VALUES.       UCWFMNU
006600*****05  WS-CURSOR-POSN-TABLE-ENTRIES OCCURS 32 TIMES             42801061
006610     05  WS-CURSOR-POSN-TABLE-ENTRIES OCCURS 33 TIMES             42801061
006700          INDEXED BY CURSOR-INDEX.                                UCWFMNU
006800        10  WS-CURSOR-POSN-VALUE   PIC S9(04) USAGE COMP.         UCWFMNU
006900                                                                  UCWFMNU
007000 01  WS-MESS-NOS.                                                 UCWFMNU
007100     05  MU0016                    PIC X(5) VALUE 'U0016'.        UCWFMNU
007200                                                                  UCWFMNU
007300 01  WS-MISC.                                                     UCWFMNU
007400     05  WS-FETCH-FLAG               PIC X(01).                   UCWFMNU
007500         88  FETCH-OK                VALUE 'Y'.                   UCWFMNU
007600         88  END-FETCH               VALUE 'N'.                   UCWFMNU
007700     05  WS-ERROR-SWITCHES.                                       UCWFMNU
007800         10  WS-REQUEST-CD           PIC X(01).                   UCWFMNU
007900             88  INVALID-REQUEST-CD  VALUE 'N'.                   UCWFMNU
008000         10  WS-CURSOR-SELECT        PIC X(01).                   UCWFMNU
008100             88  VALID-CURSOR-SELECT VALUE 'Y'.                   UCWFMNU
008200     05  WS-FUNCTION               PIC X(4) VALUE SPACES.         UCWFMNU
008300     05  WS-MENU-POSN              PIC S9(04) USAGE COMP.         UCWFMNU
008400     05  WS-FIRST-MENU-POSN        PIC S9(04) USAGE COMP.         UCWFMNU
008500     05  WS-LAST-MENU-POSN         PIC S9(04) USAGE COMP.         UCWFMNU
008600     05  WS-LAST-POSN-CURR-PG      PIC S9(04) USAGE COMP.         UCWFMNU
008700     05  WS-LAST-POSN-CURR-PG-1    PIC S9(04) USAGE COMP.         UCWFMNU
008800     05  WS-LAST-POSN-NEXT-PG      PIC S9(04) USAGE COMP.         UCWFMNU
008900     05  WS-FIRST-POSN-CURR-PG     PIC S9(04) USAGE COMP.         UCWFMNU
009000     05  WS-FIRST-POSN-CURR-PG-1   PIC S9(04) USAGE COMP.         UCWFMNU
009100     05  WS-FIRST-POSN-PREV-PG     PIC S9(04) USAGE COMP.         UCWFMNU
009200     05  WS-SEQ-NO                 PIC S9(04) USAGE COMP.         UCWFMNU
009300     05  WS-ROW-COUNT              PIC S9(04) USAGE COMP.         UCWFMNU
009400     05  WS-NUMBER-PAGES           PIC S9(04) USAGE COMP.         UCWFMNU
009500     05  WS-REMAINDER              PIC S9(04) USAGE COMP.         UCWFMNU
009600     05  WS-LAST-PAGE              PIC S9(04) USAGE COMP.         UCWFMNU
009700     05  WS-FIRST-PAGE             PIC S9(04) USAGE COMP.         UCWFMNU
009800                                                                  UCWFMNU
009900                                                                  UCWFMNU
010000 01  UCDTLARE  EXTERNAL.                                          UCWFMNU
010100     COPY UCDTLARE.                                               UCWFMNU
010200 01  WS-UCFMNU0 REDEFINES UCDTLARE.                               UCWFMNU
010300     COPY UCFMNU0.                                                UCWFMNU
010400                                                                  UCWFMNU
010500 01  UCCOMMON  EXTERNAL.                                          UCWFMNU
010600     COPY UCCOMMON.                                               UCWFMNU
010700                                                                  UCWFMNU
010800 01  UCPISCRN  EXTERNAL.                                          UCWFMNU
010900     COPY UCPISCRN.                                               UCWFMNU
011000                                                                  UCWFMNU
011100 01  UCWSABND    EXTERNAL.                                        UCWFMNU
011200     COPY UCWSABND.                                               UCWFMNU
011300                                                                  UCWFMNU
011400 01  PPDB2MSG-INTERFACE.                                          UCWFMNU
011500     COPY CPLNKDB2.                                               UCWFMNU
011600                                                                  UCWFMNU
011700******************************************************************UCWFMNU
011800*          SQL - WORKING STORAGE                                 *UCWFMNU
011900******************************************************************UCWFMNU
012000                                                                  UCWFMNU
012100     EXEC SQL                                                     UCWFMNU
012200          INCLUDE SQLCA                                           UCWFMNU
012300     END-EXEC.                                                    UCWFMNU
012400                                                                  UCWFMNU
012500     EXEC SQL                                                     UCWFMNU
012600          INCLUDE UC0VZCFN                                        UCWFMNU
012700     END-EXEC.                                                    UCWFMNU
012800                                                                  UCWFMNU
012900     EXEC SQL                                                     UCWFMNU
013000          INCLUDE UC0VZMNU                                        UCWFMNU
013100     END-EXEC.                                                    UCWFMNU
013200                                                                  UCWFMNU
013300******************************************************************UCWFMNU
013400                                                                  UCWFMNU
013500     EXEC SQL                                                     UCWFMNU
013600        DECLARE ENTRYCSR CURSOR FOR                               UCWFMNU
013700          SELECT MNU_FUNCTION, MNU_POSITION_NO,                   UCWFMNU
013800                 CFN_FUNC_DESC                                    UCWFMNU
013900          FROM   UC0VZMNU_MNU, UC0VZCFN_CFN                       UCWFMNU
014000          WHERE  MNU_FUNCTION       = CFN_FUNCTION_ID             UCWFMNU
014100          AND    MNU_MENU_NAME      = :WS-FUNCTION                UCWFMNU
014200          AND    MNU_POSITION_NO   >= :WS-FIRST-MENU-POSN         UCWFMNU
014300          AND    MNU_POSITION_NO   <= :WS-LAST-MENU-POSN          UCWFMNU
014400          ORDER BY MNU_POSITION_NO                                UCWFMNU
014500     END-EXEC.                                                    UCWFMNU
014600                                                                  UCWFMNU
014700     EXEC SQL                                                     UCWFMNU
014800        DECLARE FORWDCSR CURSOR FOR                               UCWFMNU
014900          SELECT MNU_FUNCTION, MNU_POSITION_NO,                   UCWFMNU
015000                 CFN_FUNC_DESC                                    UCWFMNU
015100          FROM   UC0VZMNU_MNU, UC0VZCFN_CFN                       UCWFMNU
015200          WHERE  MNU_FUNCTION       = CFN_FUNCTION_ID             UCWFMNU
015300          AND    MNU_MENU_NAME      = :WS-FUNCTION                UCWFMNU
015400          AND    MNU_POSITION_NO    > :WS-LAST-POSN-CURR-PG       UCWFMNU
015500          AND    MNU_POSITION_NO   <= :WS-LAST-POSN-NEXT-PG       UCWFMNU
015600          ORDER BY MNU_POSITION_NO                                UCWFMNU
015700     END-EXEC.                                                    UCWFMNU
015800                                                                  UCWFMNU
015900     EXEC SQL                                                     UCWFMNU
016000        DECLARE BKWDCSR  CURSOR FOR                               UCWFMNU
016100          SELECT MNU_FUNCTION, MNU_POSITION_NO,                   UCWFMNU
016200                 CFN_FUNC_DESC                                    UCWFMNU
016300          FROM   UC0VZMNU_MNU, UC0VZCFN_CFN                       UCWFMNU
016400          WHERE  MNU_FUNCTION       = CFN_FUNCTION_ID             UCWFMNU
016500          AND    MNU_MENU_NAME      = :WS-FUNCTION                UCWFMNU
016600          AND    MNU_POSITION_NO    < :WS-FIRST-POSN-CURR-PG      UCWFMNU
016700          AND    MNU_POSITION_NO   >= :WS-FIRST-POSN-PREV-PG      UCWFMNU
016800          ORDER BY MNU_POSITION_NO                                UCWFMNU
016900     END-EXEC.                                                    UCWFMNU
017000                                                                  UCWFMNU
017100 LINKAGE SECTION.                                                 UCWFMNU
017200 01  DFHCOMMAREA             PIC X(10585).                        UCWFMNU
017300                                                                  UCWFMNU
017400 PROCEDURE DIVISION.                                              UCWFMNU
017500                                                                  UCWFMNU
017600     EXEC SQL                                                     UCWFMNU
017700          INCLUDE CPPDXE99                                        UCWFMNU
017800     END-EXEC.                                                    UCWFMNU
017900                                                                  UCWFMNU
018000 0000-MAINLINE                        SECTION.                    UCWFMNU
018100                                                                  UCWFMNU
018200******************************************************************UCWFMNU
018300*  THIS IS THE MAIN LINE PROCESSING SECTION.  IT PERFORMS THE    *UCWFMNU
018400*  INITIALIZATION AND DETERMINES WHICH SECTIONS ARE TO BE        *UCWFMNU
018500*  PERFORMED BASED ON THE LOGICAL FUNCTION REQUEST CODE PASSED   *UCWFMNU
018600*  TO IT BY UCROUTER.                                            *UCWFMNU
018700******************************************************************UCWFMNU
018800                                                                  UCWFMNU
018900     PERFORM 1000-INITIALIZATION.                                 UCWFMNU
019000                                                                  UCWFMNU
019100     EVALUATE TRUE                                                UCWFMNU
019200         WHEN UCCOMMON-DISPLAY-REQUEST                            UCWFMNU
019300            PERFORM 1010-SET-UP-MAP                               UCWFMNU
019400            PERFORM 2000-DISPLAY-DATA                             UCWFMNU
019500         WHEN UCCOMMON-EDIT-REQUEST                               UCWFMNU
019600            PERFORM 1010-SET-UP-MAP                               UCWFMNU
019700            PERFORM 2000-DISPLAY-DATA                             UCWFMNU
019800            PERFORM 3000-PROCESS-ENTER                            UCWFMNU
019900         WHEN UCCOMMON-FORWARD-REQUEST                            UCWFMNU
020000            PERFORM 1010-SET-UP-MAP                               UCWFMNU
020100            PERFORM 4000-PROCESS-FORWARD-PAGING                   UCWFMNU
020200         WHEN UCCOMMON-BACKWARD-REQUEST                           UCWFMNU
020300            PERFORM 1010-SET-UP-MAP                               UCWFMNU
020400            PERFORM 5000-PROCESS-BACKWARD-PAGING                  UCWFMNU
020500         WHEN OTHER                                               UCWFMNU
020600            PERFORM 9000-INVALID-REQUEST-CODE                     UCWFMNU
020700     END-EVALUATE.                                                UCWFMNU
020800                                                                  UCWFMNU
020900     GOBACK.                                                      UCWFMNU
021000                                                                  UCWFMNU
021100 0000-EXIT.                                                       UCWFMNU
021200     EXIT.                                                        UCWFMNU
021300                                                                  UCWFMNU
021400                                                                  UCWFMNU
021500 1000-INITIALIZATION                  SECTION.                    UCWFMNU
021600                                                                  UCWFMNU
021700******************************************************************UCWFMNU
021800*  THIS PERFORMS THE GENERAL INITIALIZATION.                     *UCWFMNU
021900******************************************************************UCWFMNU
022000                                                                  UCWFMNU
022100     MOVE 'UCWFMNU' TO UCWSABND-ABENDING-PGM.                     UCWFMNU
022200     MOVE 'UCWFMNU' TO DB2MSG-PGM-ID.                             UCWFMNU
022300     MOVE UCCOMMON-FUNCTION     TO WS-FUNCTION.                   UCWFMNU
022400     INITIALIZE WS-ERROR-SWITCHES.                                UCWFMNU
022500     MOVE ZERO TO UCCOMMON-RETURN-CODE.                           UCWFMNU
022600     MOVE 'M0795' TO UCPISCRN-DTL-REL-NO.                         UCWFMNU
022700                                                                  UCWFMNU
022800 1000-EXIT.                                                       UCWFMNU
022900     EXIT.                                                        UCWFMNU
023000                                                                  UCWFMNU
023100                                                                  UCWFMNU
023200 1010-SET-UP-MAP                      SECTION.                    UCWFMNU
023300                                                                  UCWFMNU
023400******************************************************************UCWFMNU
023500*  THIS PERFORMS THE GENERAL SET-UP REQUIRED BEFORE THE SENDING  *UCWFMNU
023600*  OF A MAP.                                                     *UCWFMNU
023700******************************************************************UCWFMNU
023800                                                                  UCWFMNU
023900     PERFORM 1020-SET-UP-PAGING.                                  UCWFMNU
024000                                                                  UCWFMNU
024100     MOVE LOW-VALUES TO UCDTLARE.                                 UCWFMNU
024200     MOVE LENGTH OF UCFMNU0O TO UCPISCRN-DETAIL-MAP-LENGTH.       UCWFMNU
024300     PERFORM 1030-MOVE-COLORS-HIGHLITES.                          UCWFMNU
024400                                                                  UCWFMNU
024500 1010-EXIT.                                                       UCWFMNU
024600     EXIT.                                                        UCWFMNU
024700                                                                  UCWFMNU
024800                                                                  UCWFMNU
024900 1020-SET-UP-PAGING                   SECTION.                    UCWFMNU
025000                                                                  UCWFMNU
025100******************************************************************UCWFMNU
025200*  THIS PERFORMS THE SET-UP REQUIRED FOR THE SCROLLING OF        *UCWFMNU
025300*  OF DATA SCREENS.  THE SELECT COUNTS THE TOTAL NUMBER          *UCWFMNU
025400*  OF ROWS THAT COULD BE RETURNED.  THE ROW COUNT IS USED TO     *UCWFMNU
025500*  DETERMINE THE TOTAL NUMBER OF PAGES. AND THE PAGE COUNT IS    *UCWFMNU
025600*  USED TO DETERMINE WHETHER FORWARD OR BACKWARD SCROLLING CAN   *UCWFMNU
025700*  BE IMPLEMENTED.                                               *UCWFMNU
025800******************************************************************UCWFMNU
025900                                                                  UCWFMNU
026000     MOVE 'SELECT ROW COUNT' TO DB2MSG-TAG.                       UCWFMNU
026100                                                                  UCWFMNU
026200     EXEC SQL                                                     UCWFMNU
026300         SELECT COUNT(*)                                          UCWFMNU
026400          INTO :WS-ROW-COUNT                                      UCWFMNU
026500          FROM   UC0VZMNU_MNU, UC0VZCFN_CFN                       UCWFMNU
026600          WHERE  MNU_FUNCTION       = CFN_FUNCTION_ID             UCWFMNU
026700          AND    MNU_MENU_NAME      = :WS-FUNCTION                UCWFMNU
026800     END-EXEC.                                                    UCWFMNU
026900                                                                  UCWFMNU
027000     EVALUATE SQLCODE                                             UCWFMNU
027100         WHEN ZERO                                                UCWFMNU
027200            CONTINUE                                              UCWFMNU
027300         WHEN +100                                                UCWFMNU
027400            MOVE SPACES TO UCPISCRN-FORWARD-SW                    UCWFMNU
027500            MOVE SPACES TO UCPISCRN-BACKWARD-SW                   UCWFMNU
027600            PERFORM 999999-SQL-ERROR                              UCWFMNU
027700     END-EVALUATE.                                                UCWFMNU
027800                                                                  UCWFMNU
027900     DIVIDE WS-ROW-COUNT BY 32 GIVING WS-NUMBER-PAGES             UCWFMNU
028000         REMAINDER WS-REMAINDER.                                  UCWFMNU
028100                                                                  UCWFMNU
028200     IF WS-REMAINDER > 0                                          UCWFMNU
028300        ADD 1 TO WS-NUMBER-PAGES                                  UCWFMNU
028400     END-IF.                                                      UCWFMNU
028500                                                                  UCWFMNU
028600     MOVE WS-NUMBER-PAGES TO WS-LAST-PAGE.                        UCWFMNU
028700     MOVE 1 TO WS-FIRST-PAGE.                                     UCWFMNU
028800                                                                  UCWFMNU
028900 1020-EXIT.                                                       UCWFMNU
029000     EXIT.                                                        UCWFMNU
029100                                                                  UCWFMNU
029200                                                                  UCWFMNU
029300 1030-MOVE-COLORS-HIGHLITES           SECTION.                    UCWFMNU
029400                                                                  UCWFMNU
029500******************************************************************UCWFMNU
029600*  THIS SECTION MOVES OUT ALL THE SCREEN ATTRIBUTES REQUIRED FOR *UCWFMNU
029700*  THE DISPLAYING OF DATA.                                       *UCWFMNU
029800******************************************************************UCWFMNU
029900                                                                  UCWFMNU
030000     INITIALIZE WS-ATR-SUB.                                       UCWFMNU
030100                                                                  UCWFMNU
030200     PERFORM VARYING WS-ATR-SUB FROM 1 BY 1                       UCWFMNU
030300       UNTIL WS-ATR-SUB > 16                                      UCWFMNU
030400        MOVE UCCOMMON-ATR-ENTRY TO FUNC-SEL1A (WS-ATR-SUB)        UCWFMNU
030500        MOVE UCCOMMON-ATR-ENTRY TO FUNC-SEL2A (WS-ATR-SUB)        UCWFMNU
030600*****                                                          CD 42801061
030910        MOVE UCCOMMON-ATR-FLD-LABEL  TO FUNC-CODE1A (WS-ATR-SUB)  36430833
030920        MOVE UCCOMMON-ATR-FLD-LABEL  TO FUNC-DESC1A (WS-ATR-SUB)  36430833
030930        MOVE UCCOMMON-ATR-FLD-LABEL  TO FUNC-CODE2A (WS-ATR-SUB)  36430833
030940        MOVE UCCOMMON-ATR-FLD-LABEL  TO FUNC-DESC2A (WS-ATR-SUB)  36430833
031000        MOVE UCCOMMON-CLR-NORM-DISPL TO FUNC-SEL1C (WS-ATR-SUB)   UCWFMNU
031100        MOVE UCCOMMON-CLR-FLD-LABEL  TO FUNC-CODE1C (WS-ATR-SUB)  UCWFMNU
031200        MOVE UCCOMMON-CLR-FLD-LABEL  TO FUNC-DESC1C (WS-ATR-SUB)  UCWFMNU
031300        MOVE UCCOMMON-CLR-NORM-DISPL TO FUNC-SEL2C (WS-ATR-SUB)   UCWFMNU
031400        MOVE UCCOMMON-CLR-FLD-LABEL  TO FUNC-CODE2C (WS-ATR-SUB)  UCWFMNU
031500        MOVE UCCOMMON-CLR-FLD-LABEL  TO FUNC-DESC2C (WS-ATR-SUB)  UCWFMNU
031600        MOVE UCCOMMON-HLT-ENTRY      TO FUNC-SEL1H (WS-ATR-SUB)   UCWFMNU
031700        MOVE UCCOMMON-HLT-FLD-LABEL  TO FUNC-CODE1H (WS-ATR-SUB)  UCWFMNU
031800        MOVE UCCOMMON-HLT-FLD-LABEL  TO FUNC-DESC1H (WS-ATR-SUB)  UCWFMNU
031900        MOVE UCCOMMON-HLT-ENTRY      TO FUNC-SEL2H (WS-ATR-SUB)   UCWFMNU
032000        MOVE UCCOMMON-HLT-FLD-LABEL  TO FUNC-CODE2H (WS-ATR-SUB)  UCWFMNU
032100        MOVE UCCOMMON-HLT-FLD-LABEL  TO FUNC-DESC2H (WS-ATR-SUB)  UCWFMNU
032200     END-PERFORM.                                                 UCWFMNU
032300                                                                  UCWFMNU
032400 1030-EXIT.                                                       UCWFMNU
032500     EXIT.                                                        UCWFMNU
032600                                                                  UCWFMNU
032700                                                                  UCWFMNU
032800 2000-DISPLAY-DATA             SECTION.                           UCWFMNU
032900                                                                  UCWFMNU
033000******************************************************************UCWFMNU
033100*  THIS SECTION OPENS THE CURSOR FOR THE ROWS THAT WILL DISPLAY  *UCWFMNU
033200*  THE FIRST SCREEN OF DATA AND ALSO FOR PREVIOUS SCREEN OF DATA *UCWFMNU
033300*  (FOR THE CASES IN WHICH THERE IS NO MORE DATA ON A FORWARD    *UCWFMNU
033400*  OR BACKWARD REQUEST AND THE PREVIOUS SCREEN MUST BE RETURNED.).UCWFMNU
033500******************************************************************UCWFMNU
033600                                                                  UCWFMNU
033700     IF UCPISCRN-PAGE-NUMBER = ZERO                               UCWFMNU
033800       MOVE 1 TO UCPISCRN-PAGE-NUMBER                             UCWFMNU
033900     END-IF.                                                      UCWFMNU
034000                                                                  UCWFMNU
034100******************************************************************UCWFMNU
034200*  COMPUTES FIRST AND LAST MENU POSITIONS FOR INITIAL SCREEN     *UCWFMNU
034300*  AND ALSO FOR PREVIOUS SCREENS.                                 UCWFMNU
034400******************************************************************UCWFMNU
034500                                                                  UCWFMNU
034600     COMPUTE WS-FIRST-MENU-POSN =                                 UCWFMNU
034700       ((UCPISCRN-PAGE-NUMBER - 1) * 32) + 1.                     UCWFMNU
034800     COMPUTE WS-LAST-MENU-POSN = UCPISCRN-PAGE-NUMBER * 32.       UCWFMNU
034900                                                                  UCWFMNU
035000     MOVE 'OPEN DISPLAY DATA CURSOR' TO DB2MSG-TAG.               UCWFMNU
035100                                                                  UCWFMNU
035200     EXEC SQL                                                     UCWFMNU
035300        OPEN ENTRYCSR                                             UCWFMNU
035400     END-EXEC.                                                    UCWFMNU
035500                                                                  UCWFMNU
035600     IF SQLCODE = ZERO                                            UCWFMNU
035700        SET FETCH-OK TO TRUE                                      UCWFMNU
035800        INITIALIZE WS-FUNC-SUB                                    UCWFMNU
035900        MOVE '1' TO WS-MAP-SUB                                    UCWFMNU
036000        PERFORM 7000-FETCH-MOVE-DATA                              UCWFMNU
036100     END-IF.                                                      UCWFMNU
036200                                                                  UCWFMNU
036300     IF UCPISCRN-PAGE-NUMBER >  WS-FIRST-PAGE                     UCWFMNU
036400        SET UCPISCRN-BACKWARD TO TRUE                             UCWFMNU
036500     ELSE                                                         UCWFMNU
036600        MOVE SPACES TO UCPISCRN-BACKWARD-SW                       UCWFMNU
036700     END-IF.                                                      UCWFMNU
036800                                                                  UCWFMNU
036900     IF UCPISCRN-PAGE-NUMBER < WS-LAST-PAGE                       UCWFMNU
037000        SET UCPISCRN-FORWARD TO TRUE                              UCWFMNU
037100     ELSE                                                         UCWFMNU
037200        MOVE SPACES TO UCPISCRN-FORWARD-SW                        UCWFMNU
037300     END-IF.                                                      UCWFMNU
037400                                                                  UCWFMNU
037500 2000-EXIT.                                                       UCWFMNU
037600     EXIT.                                                        UCWFMNU
037700                                                                  UCWFMNU
037800                                                                  UCWFMNU
037900 3000-PROCESS-ENTER        SECTION.                               UCWFMNU
038000******************************************************************UCWFMNU
038100*  THIS SECTION SEARCHES THE CURSOR POSITION VALUE TABLE TO FIND *UCWFMNU
038200*  THE CURSOR POSITION WHERE A FUNCTION CODE WAS SELECTED.  IT   *UCWFMNU
038300*  THEN MAPS THAT POSITION TO A SEQUENCE NUMBER WHICH CORRESPONDS*UCWFMNU
038400*  TO THE MENU POSITION NUMBER) AND USES IT TO SELECT THE        *UCWFMNU
038500*  FUNCTION CODE.                                                *UCWFMNU
038600******************************************************************UCWFMNU
038700                                                                  UCWFMNU
038800     MOVE UCCOMMON-FUNCTION     TO WS-FUNCTION.                   UCWFMNU
038900     MOVE EIBCPOSN TO WS-EIBCPOSN.                                UCWFMNU
039000                                                                  UCWFMNU
039100     SET CURSOR-INDEX TO 1                                        UCWFMNU
039200     SEARCH WS-CURSOR-POSN-TABLE-ENTRIES                          UCWFMNU
039300        WHEN WS-CURSOR-POSN-VALUE (CURSOR-INDEX) = WS-EIBCPOSN    UCWFMNU
039400           SET VALID-CURSOR-SELECT TO TRUE                        UCWFMNU
039500           SET WS-SEQ-NO TO CURSOR-INDEX                          UCWFMNU
039600     END-SEARCH.                                                  UCWFMNU
039700                                                                  UCWFMNU
039800     IF VALID-CURSOR-SELECT                                       UCWFMNU
039900       COMPUTE WS-MENU-POSN = WS-SEQ-NO +                         UCWFMNU
040000                                (32 * (UCPISCRN-PAGE-NUMBER - 1)) UCWFMNU
040100       MOVE 'SELECT MENU TABLE' TO DB2MSG-TAG                     UCWFMNU
040200                                                                  UCWFMNU
040300       EXEC SQL                                                   UCWFMNU
040400           SELECT MNU_FUNCTION                                    UCWFMNU
040500           INTO :MNU-FUNCTION                                     UCWFMNU
040600           FROM UC0VZMNU_MNU                                      UCWFMNU
040700           WHERE MNU_POSITION_NO  = :WS-MENU-POSN                 UCWFMNU
040800           AND   MNU_MENU_NAME    = :WS-FUNCTION                  UCWFMNU
040900       END-EXEC                                                   UCWFMNU
041000                                                                  UCWFMNU
041010       IF SQLCODE = 0                                             36430833
041100         MOVE MNU-FUNCTION TO UCPISCRN-MENU-FUNCTION-SELECT       36430833
041101       ELSE                                                       36430833
041102         MOVE MU0016 TO UCCOMMON-MSG-NUMBER                       36430833
041103       END-IF                                                     36430833
041110*****                                                          CD 42801061
041300     ELSE                                                         UCWFMNU
041400       IF WS-EIBCPOSN > +1531                                     UCWFMNU
041500         CONTINUE                                                 UCWFMNU
041600       ELSE                                                       UCWFMNU
041700         MOVE MU0016 TO UCCOMMON-MSG-NUMBER                       UCWFMNU
041800       END-IF                                                     UCWFMNU
041900     END-IF.                                                      UCWFMNU
042000                                                                  UCWFMNU
042100 3000-EXIT.                                                       UCWFMNU
042200     EXIT.                                                        UCWFMNU
042300                                                                  UCWFMNU
042400                                                                  UCWFMNU
042500 4000-PROCESS-FORWARD-PAGING  SECTION.                            UCWFMNU
042600******************************************************************UCWFMNU
042700*  THIS SECTION OPENS THE CURSOR THAT WILL BE PROCESSED ON A     *UCWFMNU
042800*  FORWARD PAGING REQUEST.  IT COMPUTES THE LAST MENU POSITION   *UCWFMNU
042900*  NUMBER OF THE CURRENT PAGE AND THE LAST MENU POSITION NUMBER  *UCWFMNU
043000*  OF THE SUBSEQUENT PAGE TO RETRIEVE THE NECESSARY FUNCTION     *UCWFMNU
043100*  CODES.                                                        *UCWFMNU
043200******************************************************************UCWFMNU
043300                                                                  UCWFMNU
043400     COMPUTE WS-LAST-POSN-CURR-PG  = UCPISCRN-PAGE-NUMBER * 32.   UCWFMNU
043500                                                                  UCWFMNU
043600     COMPUTE WS-LAST-POSN-NEXT-PG  = WS-LAST-POSN-CURR-PG + 32.   UCWFMNU
043700                                                                  UCWFMNU
043800     MOVE 'OPEN FORWARD PAGING CURSOR' TO DB2MSG-TAG.             UCWFMNU
043900                                                                  UCWFMNU
044000     EXEC SQL                                                     UCWFMNU
044100        OPEN FORWDCSR                                             UCWFMNU
044200     END-EXEC.                                                    UCWFMNU
044300                                                                  UCWFMNU
044400     IF SQLCODE = ZERO                                            UCWFMNU
044500        SET FETCH-OK TO TRUE                                      UCWFMNU
044600        INITIALIZE WS-FUNC-SUB                                    UCWFMNU
044700        MOVE '1' TO WS-MAP-SUB                                    UCWFMNU
044800        PERFORM 7000-FETCH-MOVE-DATA                              UCWFMNU
044900     END-IF.                                                      UCWFMNU
045000                                                                  UCWFMNU
045100     ADD 1 TO UCPISCRN-PAGE-NUMBER.                               UCWFMNU
045200                                                                  UCWFMNU
045300******************************************************************UCWFMNU
045400*  THE FOLLOWING CODE TURNS THE OPTION FOR BACKWARD PAGING ON    *UCWFMNU
045500*  IF THE CURRENT PAGE NUMBER IS GREATER THAN THE FIRST PAGE,    *UCWFMNU
045600*  AND TURNS FORWARD PAGING ON IF THE CURRENT PAGE NUMBER IS     *UCWFMNU
045700*  LESS THAN THE LAST PAGE.  OTHERWISE, THE OPTIONS ARE TURNED   *UCWFMNU
045800*  OFF.                                                          *UCWFMNU
045900******************************************************************UCWFMNU
046000                                                                  UCWFMNU
046100     IF UCPISCRN-PAGE-NUMBER >  WS-FIRST-PAGE                     UCWFMNU
046200        SET UCPISCRN-BACKWARD TO TRUE                             UCWFMNU
046300     ELSE                                                         UCWFMNU
046400        MOVE SPACES TO UCPISCRN-BACKWARD-SW                       UCWFMNU
046500     END-IF.                                                      UCWFMNU
046600                                                                  UCWFMNU
046700     IF UCPISCRN-PAGE-NUMBER < WS-LAST-PAGE                       UCWFMNU
046800        SET UCPISCRN-FORWARD TO TRUE                              UCWFMNU
046900     ELSE                                                         UCWFMNU
047000        MOVE SPACES TO UCPISCRN-FORWARD-SW                        UCWFMNU
047100     END-IF.                                                      UCWFMNU
047200 4000-EXIT.                                                       UCWFMNU
047300     EXIT.                                                        UCWFMNU
047400                                                                  UCWFMNU
047500                                                                  UCWFMNU
047600 5000-PROCESS-BACKWARD-PAGING  SECTION.                           UCWFMNU
047700******************************************************************UCWFMNU
047800*  THIS SECTION OPENS THE CURSOR THAT WILL BE PROCESSED ON A     *UCWFMNU
047900*  BACKWARD PAGING REQUEST. IT COMPUTES THE FIRST MENU POSITION  *UCWFMNU
048000*  NUMBER OF THE CURRENT PAGE AND THE FIRST MENU POSITION NUMBER  UCWFMNU
048100*  OF THE PREVIOUS PAGE TO RETRIEVE THE NECESSARY FUNCTION       *UCWFMNU
048200*  CODES.                                                        *UCWFMNU
048300******************************************************************UCWFMNU
048400                                                                  UCWFMNU
048500     COMPUTE WS-FIRST-POSN-CURR-PG =                              UCWFMNU
048600             ((UCPISCRN-PAGE-NUMBER - 1) * 32) + 1.               UCWFMNU
048700                                                                  UCWFMNU
048800     COMPUTE WS-FIRST-POSN-PREV-PG = WS-FIRST-POSN-CURR-PG - 32.  UCWFMNU
048900                                                                  UCWFMNU
049000     MOVE 'OPEN BACKWARD PAGING CURSOR' TO DB2MSG-TAG.            UCWFMNU
049100                                                                  UCWFMNU
049200     EXEC SQL                                                     UCWFMNU
049300        OPEN BKWDCSR                                              UCWFMNU
049400     END-EXEC.                                                    UCWFMNU
049500                                                                  UCWFMNU
049600     IF SQLCODE = ZERO                                            UCWFMNU
049700        SET FETCH-OK TO TRUE                                      UCWFMNU
049800        INITIALIZE WS-FUNC-SUB                                    UCWFMNU
049900        MOVE '1' TO WS-MAP-SUB                                    UCWFMNU
050000        PERFORM 7000-FETCH-MOVE-DATA                              UCWFMNU
050100     END-IF.                                                      UCWFMNU
050200                                                                  UCWFMNU
050300     SUBTRACT 1 FROM UCPISCRN-PAGE-NUMBER.                        UCWFMNU
050400                                                                  UCWFMNU
050500******************************************************************UCWFMNU
050600*  THE FOLLOWING CODE TURNS THE OPTION FOR BACKWARD PAGING ON    *UCWFMNU
050700*  IF THE CURRENT PAGE NUMBER IS GREATER THAN THE FIRST PAGE,    *UCWFMNU
050800*  AND TURNS FORWARD PAGING ON IF THE CURRENT PAGE NUMBER IS     *UCWFMNU
050900*  LESS THAN THE LAST PAGE.  OTHERWISE, THE OPTIONS ARE TURNED   *UCWFMNU
051000*  OFF.                                                          *UCWFMNU
051100******************************************************************UCWFMNU
051200                                                                  UCWFMNU
051300     IF UCPISCRN-PAGE-NUMBER >  WS-FIRST-PAGE                     UCWFMNU
051400        SET UCPISCRN-BACKWARD TO TRUE                             UCWFMNU
051500     ELSE                                                         UCWFMNU
051600        MOVE SPACES TO UCPISCRN-BACKWARD-SW                       UCWFMNU
051700     END-IF.                                                      UCWFMNU
051800                                                                  UCWFMNU
051900     IF UCPISCRN-PAGE-NUMBER < WS-LAST-PAGE                       UCWFMNU
052000        SET UCPISCRN-FORWARD TO TRUE                              UCWFMNU
052100     ELSE                                                         UCWFMNU
052200        MOVE SPACES TO UCPISCRN-FORWARD-SW                        UCWFMNU
052300     END-IF.                                                      UCWFMNU
052400 5000-EXIT.                                                       UCWFMNU
052500     EXIT.                                                        UCWFMNU
052600                                                                  UCWFMNU
052700                                                                  UCWFMNU
052800 7000-FETCH-MOVE-DATA   SECTION.                                  UCWFMNU
052900******************************************************************UCWFMNU
053000*  THIS SECTION DETERMINES WHICH CURSOR TO FETCH BASED ON THE    *UCWFMNU
053100*  LOGICAL FUNCTION REQUEST CODE PASSED BY UCROUTER. AFTER IT    *UCWFMNU
053200*  HAS FETCHED THE APPROPRIATE CURSOR, IT CLOSES THE CURSOR.     *UCWFMNU
053300******************************************************************UCWFMNU
053400                                                                  UCWFMNU
053500     EVALUATE TRUE                                                UCWFMNU
053600         WHEN UCCOMMON-DISPLAY-REQUEST                            UCWFMNU
053700            PERFORM 7010-FETCH-ENTRYCSR VARYING WS-FUNC-SUB       UCWFMNU
053800               FROM 1 BY 1 UNTIL END-FETCH                        UCWFMNU
053900            PERFORM 7015-CLOSE-ENTRYCSR                           UCWFMNU
054000         WHEN UCCOMMON-EDIT-REQUEST                               UCWFMNU
054100            PERFORM 7010-FETCH-ENTRYCSR VARYING WS-FUNC-SUB       UCWFMNU
054200               FROM 1 BY 1 UNTIL END-FETCH                        UCWFMNU
054300            PERFORM 7015-CLOSE-ENTRYCSR                           UCWFMNU
054400         WHEN UCCOMMON-FORWARD-REQUEST                            UCWFMNU
054500            PERFORM 7020-FETCH-FORWDCSR VARYING WS-FUNC-SUB       UCWFMNU
054600               FROM 1 BY 1 UNTIL END-FETCH                        UCWFMNU
054700            PERFORM 7025-CLOSE-FORWDCSR                           UCWFMNU
054800         WHEN UCCOMMON-BACKWARD-REQUEST                           UCWFMNU
054900            PERFORM 7030-FETCH-BKWDCSR VARYING WS-FUNC-SUB        UCWFMNU
055000               FROM 1 BY 1 UNTIL END-FETCH                        UCWFMNU
055100            PERFORM 7035-CLOSE-BKWDCSR                            UCWFMNU
055200         WHEN OTHER                                               UCWFMNU
055300            PERFORM 9000-INVALID-REQUEST-CODE                     UCWFMNU
055400     END-EVALUATE.                                                UCWFMNU
055500 7000-EXIT.                                                       UCWFMNU
055600     EXIT.                                                        UCWFMNU
055700                                                                  UCWFMNU
055800                                                                  UCWFMNU
055900 7010-FETCH-ENTRYCSR                  SECTION.                    UCWFMNU
056000******************************************************************UCWFMNU
056100*  THIS SECTION FETCHES THE DATA ON THE INITIAL SCREEN OF        *UCWFMNU
056200*  FUNCTION CODES.  AFTER IT FETCHES, IT MOVES THE DATA DIRECTLY *UCWFMNU
056300*  INTO THE MAP AREA.                                            *UCWFMNU
056400******************************************************************UCWFMNU
056500                                                                  UCWFMNU
056600     MOVE 'FETCH DISPLAY DATA CURSOR' TO DB2MSG-TAG.              UCWFMNU
056700                                                                  UCWFMNU
056800     EXEC SQL                                                     UCWFMNU
056900        FETCH ENTRYCSR                                            UCWFMNU
057000        INTO  :MNU-FUNCTION,                                      UCWFMNU
057100              :MNU-POSITION-NO,                                   UCWFMNU
057200              :CFN-FUNC-DESC                                      UCWFMNU
057300     END-EXEC.                                                    UCWFMNU
057400                                                                  UCWFMNU
057500     EVALUATE SQLCODE                                             UCWFMNU
057600         WHEN ZERO                                                UCWFMNU
057700            CONTINUE                                              UCWFMNU
057800         WHEN +100                                                UCWFMNU
057900            SET END-FETCH TO TRUE                                 UCWFMNU
058000            GO TO 7010-EXIT                                       UCWFMNU
058100     END-EVALUATE.                                                UCWFMNU
058200                                                                  UCWFMNU
058300******************************************************************UCWFMNU
058400*  THIS CODE MOVES THE DATA FROM THE FETCH INTO THE MAP AREA.    *UCWFMNU
058500*  THERE ARE 32 MENU POSITIONS ON A MAP, AND EACH FUNCTION CODE  *UCWFMNU
058600*  MUST BE MOVED INTO THE AREA OF THE MAP SPECIFIED BY THE MENU  *UCWFMNU
058700*  POSITION NUMBER SPECIFIED IN THE DB2 TABLE.  A SUBSCRIPT IS   *UCWFMNU
058800*  IS BEING USED TO REFERENCE THE FUNCTION CODES IN ACCORDANCE   *UCWFMNU
058900*  WITH THE MENU POSITION NUMBER SPECIFIED IN THE TABLE.  A      *UCWFMNU
059000*  SECOND MAP SUBSCRIPT IS BEING USED TO REFERENCE THE TWO-SIDED *UCWFMNU
059100*  ARRAY DEFINED IN THE MAP. (AN ARRAY THAT OCCURS TWICE, ONCE   *UCWFMNU
059200*  FOR THE LEFT SIDE OF THE MAP, AND ONCE FOR THE RIGHT SIDE OF  *UCWFMNU
059300*  THE MAP.)                                                     *UCWFMNU
059400******************************************************************UCWFMNU
059500                                                                  UCWFMNU
059600     IF WS-FUNC-SUB <= 16                                         UCWFMNU
059700        MOVE MNU-FUNCTION  TO  FUNC-CODE1O(WS-MAP-SUB)            UCWFMNU
059800        MOVE CFN-FUNC-DESC TO  FUNC-DESC1O(WS-MAP-SUB)            UCWFMNU
059900        ADD 1 TO WS-MAP-SUB                                       UCWFMNU
060000     ELSE                                                         UCWFMNU
060100        IF WS-MAP-SUB = 17                                        UCWFMNU
060200           MOVE 1 TO WS-MAP-SUB                                   UCWFMNU
060300           MOVE MNU-FUNCTION  TO  FUNC-CODE2O(WS-MAP-SUB)         UCWFMNU
060400           MOVE CFN-FUNC-DESC TO  FUNC-DESC2O(WS-MAP-SUB)         UCWFMNU
060500        ELSE                                                      UCWFMNU
060600           ADD 1 TO WS-MAP-SUB                                    UCWFMNU
060700           MOVE MNU-FUNCTION  TO  FUNC-CODE2O(WS-MAP-SUB)         UCWFMNU
060800           MOVE CFN-FUNC-DESC TO  FUNC-DESC2O(WS-MAP-SUB)         UCWFMNU
060900        END-IF                                                    UCWFMNU
061000     END-IF.                                                      UCWFMNU
061100 7010-EXIT.                                                       UCWFMNU
061200     EXIT.                                                        UCWFMNU
061300                                                                  UCWFMNU
061400                                                                  UCWFMNU
061500 7015-CLOSE-ENTRYCSR                  SECTION.                    UCWFMNU
061600******************************************************************UCWFMNU
061700*  THIS SECTION CLOSES THE CURSOR FOR THE FIRST SCREEN OF        *UCWFMNU
061800*  FUNCTION CODES.                                               *UCWFMNU
061900******************************************************************UCWFMNU
062000                                                                  UCWFMNU
062100     MOVE 'CLOSE DISPLAY DATA CURSOR' TO DB2MSG-TAG.              UCWFMNU
062200                                                                  UCWFMNU
062300     EXEC SQL                                                     UCWFMNU
062400        CLOSE ENTRYCSR                                            UCWFMNU
062500     END-EXEC.                                                    UCWFMNU
062600                                                                  UCWFMNU
062700     IF SQLCODE = ZERO                                            UCWFMNU
062800        NEXT SENTENCE                                             UCWFMNU
062900     END-IF.                                                      UCWFMNU
063000 7015-EXIT.                                                       UCWFMNU
063100     EXIT.                                                        UCWFMNU
063200                                                                  UCWFMNU
063300                                                                  UCWFMNU
063400 7020-FETCH-FORWDCSR                  SECTION.                    UCWFMNU
063500******************************************************************UCWFMNU
063600*  THIS SECTION FETCHES THE DATA ON A FORWARD PAGING REQUEST     *UCWFMNU
063700*  FOR FUNCTION CODES.  AFTER IT FETCHES, IT MOVES THE DATA      *UCWFMNU
063800*  DIRECTLY INTO THE MAP AREA.                                   *UCWFMNU
063900******************************************************************UCWFMNU
064000                                                                  UCWFMNU
064100     MOVE 'FETCH FORWARD PAGING CURSOR' TO DB2MSG-TAG.            UCWFMNU
064200                                                                  UCWFMNU
064300     EXEC SQL                                                     UCWFMNU
064400        FETCH FORWDCSR                                            UCWFMNU
064500        INTO  :MNU-FUNCTION,                                      UCWFMNU
064600              :MNU-POSITION-NO,                                   UCWFMNU
064700              :CFN-FUNC-DESC                                      UCWFMNU
064800     END-EXEC.                                                    UCWFMNU
064900                                                                  UCWFMNU
065000     EVALUATE SQLCODE                                             UCWFMNU
065100         WHEN ZERO                                                UCWFMNU
065200            CONTINUE                                              UCWFMNU
065300         WHEN +100                                                UCWFMNU
065400            SET END-FETCH TO TRUE                                 UCWFMNU
065500            GO TO 7020-EXIT                                       UCWFMNU
065600     END-EVALUATE.                                                UCWFMNU
065700                                                                  UCWFMNU
065800******************************************************************UCWFMNU
065900*  THIS CODE MOVES THE DATA FROM THE FETCH INTO THE MAP AREA.    *UCWFMNU
066000*  THERE ARE 32 MENU POSITIONS ON A MAP, AND EACH FUNCTION CODE  *UCWFMNU
066100*  MUST BE MOVED INTO THE AREA OF THE MAP SPECIFIED BY THE MENU  *UCWFMNU
066200*  POSITION NUMBER SPECIFIED IN THE DB2 TABLE.  A SUBSCRIPT IS   *UCWFMNU
066300*  IS BEING USED TO REFERENCE THE FUNCTION CODES IN ACCORDANCE   *UCWFMNU
066400*  WITH THE MENU POSITION NUMBER SPECIFIED IN THE TABLE.  A      *UCWFMNU
066500*  SECOND MAP SUBSCRIPT IS BEING USED TO REFERENCE THE TWO-SIDED *UCWFMNU
066600*  ARRAY DEFINED IN THE MAP. (AN ARRAY THAT OCCURS TWICE, ONCE   *UCWFMNU
066700*  FOR THE LEFT SIDE OF THE MAP, AND ONCE FOR THE RIGHT SIDE OF  *UCWFMNU
066800*  THE MAP.)                                                     *UCWFMNU
066900******************************************************************UCWFMNU
067000                                                                  UCWFMNU
067100     IF WS-FUNC-SUB <= 16                                         UCWFMNU
067200        MOVE MNU-FUNCTION  TO  FUNC-CODE1O(WS-MAP-SUB)            UCWFMNU
067300        MOVE CFN-FUNC-DESC TO  FUNC-DESC1O(WS-MAP-SUB)            UCWFMNU
067400        ADD 1 TO WS-MAP-SUB                                       UCWFMNU
067500     ELSE                                                         UCWFMNU
067600        IF WS-MAP-SUB = 17                                        UCWFMNU
067700           MOVE 1 TO WS-MAP-SUB                                   UCWFMNU
067800           MOVE MNU-FUNCTION  TO  FUNC-CODE2O(WS-MAP-SUB)         UCWFMNU
067900           MOVE CFN-FUNC-DESC TO  FUNC-DESC2O(WS-MAP-SUB)         UCWFMNU
068000        ELSE                                                      UCWFMNU
068100           ADD 1 TO WS-MAP-SUB                                    UCWFMNU
068200           MOVE MNU-FUNCTION  TO  FUNC-CODE2O(WS-MAP-SUB)         UCWFMNU
068300           MOVE CFN-FUNC-DESC TO  FUNC-DESC2O(WS-MAP-SUB)         UCWFMNU
068400        END-IF                                                    UCWFMNU
068500     END-IF.                                                      UCWFMNU
068600 7020-EXIT.                                                       UCWFMNU
068700     EXIT.                                                        UCWFMNU
068800                                                                  UCWFMNU
068900                                                                  UCWFMNU
069000 7025-CLOSE-FORWDCSR                  SECTION.                    UCWFMNU
069100******************************************************************UCWFMNU
069200*  THIS SECTION CLOSES THE CURSOR USED ON A FORWARD PAGING       *UCWFMNU
069300*  REQUEST.                                                      *UCWFMNU
069400******************************************************************UCWFMNU
069500                                                                  UCWFMNU
069600     MOVE 'CLOSE FORWARD PAGING CURSOR' TO DB2MSG-TAG.            UCWFMNU
069700                                                                  UCWFMNU
069800     EXEC SQL                                                     UCWFMNU
069900        CLOSE FORWDCSR                                            UCWFMNU
070000     END-EXEC.                                                    UCWFMNU
070100                                                                  UCWFMNU
070200     EVALUATE SQLCODE                                             UCWFMNU
070300         WHEN ZERO                                                UCWFMNU
070400            CONTINUE                                              UCWFMNU
070500     END-EVALUATE.                                                UCWFMNU
070600 7025-EXIT.                                                       UCWFMNU
070700     EXIT.                                                        UCWFMNU
070800                                                                  UCWFMNU
070900                                                                  UCWFMNU
071000 7030-FETCH-BKWDCSR                   SECTION.                    UCWFMNU
071100******************************************************************UCWFMNU
071200*  THIS SECTION FETCHES THE DATA ON A BACKWARD PAGING REQUEST    *UCWFMNU
071300*  FOR FUNCTION CODES.  AFTER IT FETCHES, IT MOVES THE DATA      *UCWFMNU
071400*  DIRECTLY INTO THE MAP AREA.                                   *UCWFMNU
071500******************************************************************UCWFMNU
071600                                                                  UCWFMNU
071700     MOVE 'FETCH BACKWARD PAGING CURSOR' TO DB2MSG-TAG.           UCWFMNU
071800                                                                  UCWFMNU
071900     EXEC SQL                                                     UCWFMNU
072000        FETCH BKWDCSR                                             UCWFMNU
072100        INTO  :MNU-FUNCTION,                                      UCWFMNU
072200              :MNU-POSITION-NO,                                   UCWFMNU
072300              :CFN-FUNC-DESC                                      UCWFMNU
072400     END-EXEC.                                                    UCWFMNU
072500                                                                  UCWFMNU
072600     EVALUATE SQLCODE                                             UCWFMNU
072700         WHEN ZERO                                                UCWFMNU
072800            CONTINUE                                              UCWFMNU
072900         WHEN +100                                                UCWFMNU
073000            SET END-FETCH TO TRUE                                 UCWFMNU
073100            GO TO 7030-EXIT                                       UCWFMNU
073200     END-EVALUATE.                                                UCWFMNU
073300                                                                  UCWFMNU
073400******************************************************************UCWFMNU
073500*  THIS CODE MOVES THE DATA FROM THE FETCH INTO THE MAP AREA.    *UCWFMNU
073600*  THERE ARE 32 MENU POSITIONS ON A MAP, AND EACH FUNCTION CODE  *UCWFMNU
073700*  MUST BE MOVED INTO THE AREA OF THE MAP SPECIFIED BY THE MENU  *UCWFMNU
073800*  POSITION NUMBER SPECIFIED IN THE DB2 TABLE.  A SUBSCRIPT IS   *UCWFMNU
073900*  IS BEING USED TO REFERENCE THE FUNCTION CODES IN ACCORDANCE   *UCWFMNU
074000*  WITH THE MENU POSITION NUMBER SPECIFIED IN THE TABLE.  A      *UCWFMNU
074100*  SECOND MAP SUBSCRIPT IS BEING USED TO REFERENCE THE TWO-SIDED *UCWFMNU
074200*  ARRAY DEFINED IN THE MAP. (AN ARRAY THAT OCCURS TWICE, ONCE   *UCWFMNU
074300*  FOR THE LEFT SIDE OF THE MAP, AND ONCE FOR THE RIGHT SIDE OF  *UCWFMNU
074400*  THE MAP.)                                                     *UCWFMNU
074500******************************************************************UCWFMNU
074600                                                                  UCWFMNU
074700     IF WS-FUNC-SUB <= 16                                         UCWFMNU
074800        MOVE MNU-FUNCTION  TO  FUNC-CODE1O(WS-MAP-SUB)            UCWFMNU
074900        MOVE CFN-FUNC-DESC TO  FUNC-DESC1O(WS-MAP-SUB)            UCWFMNU
075000        ADD 1 TO WS-MAP-SUB                                       UCWFMNU
075100     ELSE                                                         UCWFMNU
075200        IF WS-MAP-SUB = 17                                        UCWFMNU
075300           MOVE 1 TO WS-MAP-SUB                                   UCWFMNU
075400           MOVE MNU-FUNCTION  TO  FUNC-CODE2O(WS-MAP-SUB)         UCWFMNU
075500           MOVE CFN-FUNC-DESC TO  FUNC-DESC2O(WS-MAP-SUB)         UCWFMNU
075600        ELSE                                                      UCWFMNU
075700           ADD 1 TO WS-MAP-SUB                                    UCWFMNU
075800           MOVE MNU-FUNCTION  TO  FUNC-CODE2O(WS-MAP-SUB)         UCWFMNU
075900           MOVE CFN-FUNC-DESC TO  FUNC-DESC2O(WS-MAP-SUB)         UCWFMNU
076000        END-IF                                                    UCWFMNU
076100     END-IF.                                                      UCWFMNU
076200 7030-EXIT.                                                       UCWFMNU
076300     EXIT.                                                        UCWFMNU
076400                                                                  UCWFMNU
076500                                                                  UCWFMNU
076600 7035-CLOSE-BKWDCSR                   SECTION.                    UCWFMNU
076700******************************************************************UCWFMNU
076800*  THIS SECTION CLOSES THE CURSOR USED ON A BACKWARD PAGING      *UCWFMNU
076900*  REQUEST.                                                      *UCWFMNU
077000******************************************************************UCWFMNU
077100                                                                  UCWFMNU
077200     MOVE 'CLOSE BACKWARD PAGING CURSOR' TO DB2MSG-TAG.           UCWFMNU
077300                                                                  UCWFMNU
077400     EXEC SQL                                                     UCWFMNU
077500        CLOSE BKWDCSR                                             UCWFMNU
077600     END-EXEC.                                                    UCWFMNU
077700                                                                  UCWFMNU
077800     EVALUATE SQLCODE                                             UCWFMNU
077900         WHEN ZERO                                                UCWFMNU
078000            CONTINUE                                              UCWFMNU
078100     END-EVALUATE.                                                UCWFMNU
078200 7035-EXIT.                                                       UCWFMNU
078300     EXIT.                                                        UCWFMNU
078400                                                                  UCWFMNU
078500                                                                  UCWFMNU
078600 9000-INVALID-REQUEST-CODE SECTION.                               UCWFMNU
078700     MOVE 'INVALID UCCOMMON-REQUEST-CODE'                         UCWFMNU
078800       TO UCWSABND-MSG-DATA.                                      UCWFMNU
078900                                                                  UCWFMNU
079000     MOVE SPACES          TO UCWSABND-ABEND-DATA(1)               UCWFMNU
079100                             UCWSABND-ABEND-DATA(2).              UCWFMNU
079200                                                                  UCWFMNU
079300     STRING                                                       UCWFMNU
079400           'INVALID REQUEST CODE = '  DELIMITED BY SIZE           UCWFMNU
079500            UCCOMMON-REQUEST-CODE     DELIMITED BY SIZE           UCWFMNU
079600       INTO UCWSABND-ABEND-DATA(1)                                UCWFMNU
079700     END-STRING.                                                  UCWFMNU
079800                                                                  UCWFMNU
079900     PERFORM 9999-ABEND.                                          UCWFMNU
080000 9000-EXIT.                                                       UCWFMNU
080100     EXIT.                                                        UCWFMNU
080200                                                                  UCWFMNU
080300                                                                  UCWFMNU
080400*999999-SQL-ERROR                     SECTION.                    UCWFMNU
080500******************************************************************UCWFMNU
080600* COPIED PROCEDURE DIVISION CODE FOR SQL ERROR HANDLING          *UCWFMNU
080700******************************************************************UCWFMNU
080800                                                                  UCWFMNU
080900     EXEC SQL                                                     UCWFMNU
081000          INCLUDE CPPDXP99                                        UCWFMNU
081100     END-EXEC.                                                    UCWFMNU
081200                                                                  UCWFMNU
081300     MOVE 'SQL ERROR - SEE PRECEDING DB2 MESSAGES'                UCWFMNU
081400                     TO UCWSABND-ABEND-DATA (1).                  UCWFMNU
081500                                                                  UCWFMNU
081600     PERFORM 9999-ABEND.                                          UCWFMNU
081700                                                                  UCWFMNU
081800 999999-EXIT.                                                     UCWFMNU
081900       EXIT.                                                      UCWFMNU
082000                                                                  UCWFMNU
082100                                                                  UCWFMNU
082200 9999-ABEND                           SECTION.                    UCWFMNU
082300******************************************************************UCWFMNU
082400*  COPIED PROCEDURE DIVISION CODE FOR ABEND HANDLING             *UCWFMNU
082500******************************************************************UCWFMNU
082600                                                                  UCWFMNU
082700     COPY UCPDABND.                                               UCWFMNU
082800                                                                  UCWFMNU
082900 9999-EXIT.                                                       UCWFMNU
083000     EXIT.                                                        UCWFMNU
