000100*==========================================================%      UCSD0059
000200*= UCSD LOCAL CHANGES HAVE BEEN IMPLEMENTED.              =%      UCSD0059
000300*= COLUMN 73 THRU 80 DENOTES CHANGE NUMBER - UCSD0059     =%      UCSD0059
000400*=                                                        =%      UCSD0059
000500*==========================================================%      UCSD0167
000600*=    PROGRAM: UCWIARV                                    =%      UCSD0167
000700*=    CHANGE # UCSD0167     PROJ. REQUEST: UCSD0080       =%      UCSD0167
000800*=    NAME: G CHIU          MODIFICATION DATE: 10/12/02   =%      UCSD0167
000900*=                                                        =%      UCSD0167
001000*=    DESCRIPTION:                                        =%      UCSD0167
001100*=     CHANGE ALL REFERENCES TO APPLICATION ID TO         =%      UCSD0167
001200*=     EMPLOYEE ID.                                       =%      UCSD0167
001300*==========================================================%      UCSD0167
000600*==========================================================%      UCSD0080
000700*=    PROGRAM: UCWIARV                                    =%      UCSD0080
000800*=    CHANGE # UCSD0080     PROJ. REQUEST: UCSD0080       =%      UCSD0080
000900*=    NAME: DELIA PERKINS   MODIFICATION DATE: 09/27/95   =%      UCSD0080
001000*=                                                        =%      UCSD0080
001100*=    DESCRIPTION:                                        =%      UCSD0080
001200*=     ADD HIGHLIGHTING OF FIELDS THAT HAVE CHANGED ON    =%      UCSD0080
001300*=     THE PAN NOTICE SO THAT IT IS EASIER TO IDENTIFIY   =%      UCSD0080
001300*=     CHANGES.                                           =%      UCSD0080
001400*==========================================================%      UCSD0080
000600*==========================================================%      UCSD0059
000700*=    PROGRAM: UCWIARV                                    =%      UCSD0059
000800*=    CHANGE # 0059         PROJ. REQUEST: 0059           =%      UCSD0059
000900*=    NAME: JEFFREY HAYDEN  MODIFICATION DATE: 08/01/94   =%      UCSD0059
001000*=                                                        =%      UCSD0059
001100*=    DESCRIPTION:                                        =%      UCSD0059
001200*=     CHANGE ALL REFERENCES TO APPLICATION ID TO         =%      UCSD0059
001300*=     EMPLOYEE ID.                                       =%      UCSD0059
001200*=     ADDED LOGIC TO RECOGNIZE THE '\' CHARACTER IN      =%      UCSD0059
001300*=     POSITION 79 OF TEXT AS A NEW TOP-OF-PAGE WHEN      =%      UCSD0059
003400*=     SCORLL FOWARD.                                     =%      UCSD0059
001400*==========================================================%      UCSD0059
003600**************************************************************/   52131415
003700*  PROGRAM: UCWIARV                                          */   52131415
003800*  RELEASE: ___1415______ SERVICE REQUEST(S): ____15213____  */   52131415
003900*  NAME:_______MLG_______ MODIFICATION DATE:  __06/10/02____ */   52131415
004000*  DESCRIPTION:                                              */   52131415
004100*     PAN ENHANCEMENT CHANGES.                               */   52131415
004200*                                                            */   52131415
004300**************************************************************/   52131415
000100**************************************************************/   36480863
000200*  PROGRAM: UCWIARV                                          */   36480863
000300*  RELEASE: ___0863______ SERVICE REQUEST(S): _____3648____  */   36480863
000400*  NAME:_______DXS_______ MODIFICATION DATE:  __01/27/94____ */   36480863
000500*  DESCRIPTION: THIS PROGRAM BUILDS THE NOTIFICATION         */   36480863
000600*  FOR DISPLAY FROM TS QUEUES BUILT BY UCPANNOT.             */   36480863
000700*                                                            */   36480863
000800**************************************************************/   36480863
000900 IDENTIFICATION DIVISION.                                         UCWIARV
001000 PROGRAM-ID. UCWIARV.                                             UCWIARV
001100**************************************************************/   UCWIARV
001200* THIS PROGRAM WILL DISPLAY THE PAN NOTIFICATION BY READING  */   UCWIARV
001300* THE TEMPORARY STORAGE QUEUE CREATED BY PROGRAM UCPANNOT    */   UCWIARV
001400* AND WRITING THE QUEUE, ONE ITEM PER LINE, TO THE UCIARV0   */   UCWIARV
001500* SCREEN                                                     */   UCWIARV
001600**************************************************************/   UCWIARV
001700 ENVIRONMENT DIVISION.                                            UCWIARV
001800 CONFIGURATION SECTION.                                           UCWIARV
001900 SOURCE-COMPUTER.  COPY CPOTXUCS.                                 UCWIARV
002000 DATA DIVISION.                                                   UCWIARV
002100 WORKING-STORAGE SECTION.                                         UCWIARV
002200                                                                  UCWIARV
002300 01 WS-MISC.                                                      UCWIARV
002400    05  WS-THIS-PGM-NAME                   PIC X(08)              UCWIARV
002500                                               VALUE 'UCWIARV '.  UCWIARV
002600    05  WS-IARV-FUNC                       PIC X(04)              UCWIARV
002700                                               VALUE 'IARV'.      UCWIARV
002800    05  WS-IARW-FUNC                       PIC X(04)              UCWIARV
002900                                               VALUE 'IARW'.      UCWIARV
003000    05  WS-RELEASE-NUMBER                  PIC X(05)              UCWIARV
003100                                               VALUE 'I0863'.     UCWIARV
003200    05  WS-INIT-DATE                       PIC X(08)              UCWIARV
003300                                               VALUE '01/01/01'.  UCWIARV
003400    05  WS-INIT-TIME                       PIC X(08)              UCWIARV
003500                                               VALUE '00:00:00'.  UCWIARV
003600    05  WS-INIT-YEAR                       PIC X(04)              UCWIARV
003700                                               VALUE '0001'.      UCWIARV
003800    05  WS-CHECK-YEAR                      PIC X(04).             UCWIARV
003900    05  SCREEN-SUB                         PIC S9(02) COMP        UCWIARV
004000                                               VALUE ZERO.        UCWIARV
004100    05  WS-RESP                            PIC S9(08) COMP.       UCWIARV
004200    05  WS-PAGE-NUMBER                     PIC 9(04).             UCWIARV
004300    05  FILLER REDEFINES WS-PAGE-NUMBER.                          UCWIARV
004400        10  FILLER                         PIC X(03).             UCWIARV
004500        10  WS-PAGE-NUMBER-X               PIC X(01).             UCWIARV
004600    05  WS-REM                             PIC 9(02).             UCWIARV
004700    05  WS-HIGHEST-RECORD-ID               PIC X(02).             UCWIARV
004800                                                                  UCWIARV
004900    05  WS-LOCAL-COMMAND.                                         UCWIARV
005000        10  WS-ENTERED-COMMAND             PIC X(06).             UCWIARV
005100        10  WS-ENTERED-OCCURRENCE-KEY      PIC X(02).             UCWIARV
005200                                                                  UCWIARV
005300    05  WS-FETCH-FLAG                      PIC X VALUE 'Y'.       UCWIARV
005400        88  FWD-FETCH                            VALUE 'Y'.       UCWIARV
005500        88  END-FWD-FETCH                        VALUE 'N'.       UCWIARV
005600                                                                  UCWIARV
010000    05  WS-LINE                            PIC X(79).             52131415
010100    05  WS-LENGTH                          PIC S9(04) COMP.       52131415
010200    05  WS-ITEM                            PIC S9(04) COMP.       52131415
010300    05  WS-NUMITEMS                        PIC S9(04) COMP.       52131415
010400                                                                  52131415
010500****05  TS-QUEUE-LINE                      PIC X(79).             52131415
010600****05  TS-QUEUE-LENGTH                    PIC S9(04) COMP.       52131415
010700****05  TS-QUEUE-ITEM                      PIC S9(04) COMP        52131415
010800*****                                          VALUE ZERO.        52131415
010900****05  TS-QUEUE-NUMITEMS                  PIC S9(04) COMP        52131415
011000*****                                          VALUE ZERO.        52131415
006300    05  TS-QUEUE-ID.                                              UCWIARV
006400         10  TS-QUEUE-NAME                 PIC X(04).             UCWIARV
006500             88  TS-QUEUE-NAME-IS-IARV         VALUE 'IARV'.      UCWIARV
006600         10  TS-QUEUE-TERM-ID              PIC X(04).             UCWIARV
006700                                                                  UCWIARV
011600*****05  TS-AUDIT-QUEUE-ID.                                       52131415
011700*****    10  TS-AUDIT-QUEUE-NAME-SS        PIC X(02).             52131415
011800*****    10  TS-AUDIT-QUEUE-NAME-ID        PIC X(02) VALUE 'AU'.  52131415
011900*****    10  TS-AUDIT-QUEUE-TERMID         PIC X(04).             52131415
012000*****05  TS-AUDIT-QUEUE-LENGTH        COMP PIC S9(04) VALUE 8.    52131415
012100*****05  TS-AUDIT-QUEUE-DATA               PIC X(08).             52131415
007400                                                                  UCWIARV
007500 01  PPDB2MSG-INTERFACE.                                          UCWIARV
007600     COPY CPLNKDB2.                                               UCWIARV
007700                                                                  UCWIARV
007800 01 WS-CALLED-PROGRAMS.                                           UCWIARV
007900    05 WS-PGM-PANNOT                          PIC X(08)           UCWIARV
008000                                               VALUE 'UCPANNOT'.  UCWIARV
008100    05 WS-PGM-PPCTTUTL                        PIC X(08)           UCWIARV
008200                                               VALUE 'PPCTTUTL'.  UCWIARV
008300 01  CPLNKCTT         EXTERNAL.                                   UCWIARV
008400     EXEC SQL                                                     UCWIARV
008500          INCLUDE CPLNKCTT                                        UCWIARV
008600     END-EXEC.                                                    UCWIARV
008700                                                                  UCWIARV
008800 01  UCCOMMON         EXTERNAL.                                   UCWIARV
008900     EXEC SQL                                                     UCWIARV
009000          INCLUDE UCCOMMON                                        UCWIARV
009100     END-EXEC.                                                    UCWIARV
009200                                                                  UCWIARV
009300 01  UCWSPANW EXTERNAL.                                           UCWIARV
009400     EXEC SQL                                                     UCWIARV
009500          INCLUDE UCWSPANW                                        UCWIARV
009600     END-EXEC.                                                    UCWIARV
009700         10  UCWSPANW-IARV-WORK-AREA                              UCWIARV
009800                             REDEFINES UCWSPANW-PROGRAM-WORK-AREA.UCWIARV
009900             15  UCWSPANW-WA-INITIALIZED-IND    PIC X(15).        UCWIARV
010000                 88  UCWSPANW-WA-INITIALIZED                      UCWIARV
010100                                        VALUE '>>??UCWIARV??<<'.  UCWIARV
015000             15  UCWSPANW-WA-TOP-ITEM        PIC S9(04) COMP.     UCWIARV
015100             15  UCWSPANW-WA-BOT-ITEM        PIC S9(04) COMP.     UCWIARV
015200*********    15  UCWSPANW-WA-PANNOT          PIC X(01).           52131415
015300*********        88  UCWSPANW-WA-PANNOT-CALLED                    52131415
015400*********                               VALUE 'Y'.                52131415
015500*********        88  UCWSPANW-WA-PANNOT-NOT-CALLED                52131415
015600*********                               VALUE 'N'.                52131415
010900             15  UCWSPANW-WA-TOT-PAGES       PIC  9(02).          UCWIARV
011000             15  UCWSPANW-WA-CURR-PAGE       PIC  9(02).          UCWIARV
015900             15  UCWSPANW-WA-FILLER          PIC X(488).          UCWIARV
011200                                                                  UCWIARV
011300 01  UCPISCRN         EXTERNAL.                                   UCWIARV
011400     EXEC SQL                                                     UCWIARV
011500          INCLUDE UCPISCRN                                        UCWIARV
011600     END-EXEC.                                                    UCWIARV
011700                                                                  UCWIARV
011800 01  CPWSDEHI         EXTERNAL.                                   UCWIARV
011900     EXEC SQL                                                     UCWIARV
012000          INCLUDE CPWSDEHI                                        UCWIARV
012100     END-EXEC.                                                    UCWIARV
012200                                                                  UCWIARV
012300 01  UCWSABND         EXTERNAL.                                   UCWIARV
012400     EXEC SQL                                                     UCWIARV
012500          INCLUDE UCWSABND                                        UCWIARV
012600     END-EXEC.                                                    UCWIARV
012700                                                                  UCWIARV
012800 01  UCDTLARE         EXTERNAL.                                   UCWIARV
012900     EXEC SQL                                                     UCWIARV
013000          INCLUDE UCDTLARE                                        UCWIARV
013100     END-EXEC.                                                    UCWIARV
013200                                                                  UCWIARV
013300 01  IARV-SCRN REDEFINES UCDTLARE.                                UCWIARV
013400     COPY UCIARV0.                                                UCWIARV
013500                                                                  UCWIARV
013600******************************************************************UCWIARV
013700*          SQL - WORKING STORAGE                                 *UCWIARV
013800******************************************************************UCWIARV
018700 01  WS-UC0VZPNF.                                                 52131415
018800     EXEC SQL                                                     52131415
018900           INCLUDE UC0VZPNF                                       52131415
019000     END-EXEC.                                                    52131415
019100                                                                  52131415
019200     EXEC SQL                                                     52131415
019300        DECLARE PNF-FORW-CURS CURSOR FOR                          52131415
019400          SELECT PNF_NOTIF_TEXT                                   52131415
019500                ,PNF_ITEM_NUMBER                                  52131415
019600          FROM   UC0VZPNF_PNF                                     52131415
019700          WHERE  PNF_NOTICE_ID      = :UCWSPANW-NOTICE-ID         52131415
019800          AND    PNF_TIMESTAMP      = :UCWSPANW-PNF-TIMESTAMP     52131415
019900          AND    PNF_ITEM_NUMBER >= :PNF-ITEM-NUMBER              52131415
020000          ORDER BY PNF_ITEM_NUMBER                                52131415
020100     END-EXEC.                                                    52131415
020200                                                                  52131415
020300     EXEC SQL                                                     52131415
020400        DECLARE PNF-BACK-CURS CURSOR FOR                          52131415
020500          SELECT PNF_NOTIF_TEXT                                   52131415
020600                ,PNF_ITEM_NUMBER                                  52131415
020700          FROM   UC0VZPNF_PNF                                     52131415
020800          WHERE  PNF_NOTICE_ID      = :UCWSPANW-NOTICE-ID         52131415
020900          AND    PNF_TIMESTAMP      = :UCWSPANW-PNF-TIMESTAMP     52131415
021000          AND    PNF_ITEM_NUMBER <= :PNF-ITEM-NUMBER              52131415
021100          ORDER BY PNF_ITEM_NUMBER DESC                           52131415
021200     END-EXEC.                                                    52131415
021300                                                                  52131415
013900     EXEC SQL                                                     UCWIARV
014000          INCLUDE SQLCA                                           UCWIARV
014100     END-EXEC.                                                    UCWIARV
014200                                                                  UCWIARV
014300 LINKAGE SECTION.                                                 UCWIARV
014400                                                                  UCWIARV
014500 PROCEDURE DIVISION.                                              UCWIARV
014600                                                                  UCWIARV
014700 0000-MAINLINE   SECTION.                                         UCWIARV
014800     PERFORM 0010-INITIALIZATION.                                 UCWIARV
014900     EVALUATE TRUE                                                UCWIARV
015000        WHEN UCCOMMON-DISPLAY-REQUEST OR                          UCWIARV
015100             UCCOMMON-EDIT-REQUEST                                UCWIARV
015200          IF UCCOMMON-DISPLAY-PAGE-1                              UCWIARV
015300             MOVE +1 TO UCWSPANW-WA-CURR-PAGE                     UCWIARV
015400          END-IF                                                  UCWIARV
023000          MOVE UCWSPANW-WA-TOP-ITEM TO WS-ITEM                    52131415
023100********* MOVE UCWSPANW-WA-TOP-ITEM TO TS-QUEUE-ITEM              52131415
023200          PERFORM 0500-FORMAT-SCREEN-FORWARD                      UCWIARV
015700        WHEN UCCOMMON-FORWARD-REQUEST                             UCWIARV
015800          ADD +1 TO UCWSPANW-WA-CURR-PAGE                         UCWIARV
023500          MOVE UCWSPANW-WA-BOT-ITEM TO WS-ITEM                    52131415
023600          ADD +1  TO WS-ITEM                                      52131415
023700********* MOVE UCWSPANW-WA-BOT-ITEM TO TS-QUEUE-ITEM              52131415
023800********* ADD +1  TO TS-QUEUE-ITEM                                52131415
023900          PERFORM 0500-FORMAT-SCREEN-FORWARD                      UCWIARV
016200        WHEN UCCOMMON-BACKWARD-REQUEST                            UCWIARV
024100          MOVE UCWSPANW-WA-TOP-ITEM TO WS-ITEM                    52131415
024200          SUBTRACT +1 FROM UCWSPANW-WA-CURR-PAGE                  52131415
024300                        WS-ITEM                                   52131415
024400********* MOVE UCWSPANW-WA-TOP-ITEM TO TS-QUEUE-ITEM              52131415
024500********* SUBTRACT +1 FROM UCWSPANW-WA-CURR-PAGE                  52131415
024600*********               TS-QUEUE-ITEM                             52131415
024700          PERFORM 0550-FORMAT-SCREEN-BACKWARD                     UCWIARV
016700        WHEN OTHER                                                UCWIARV
016800          STRING                                                  UCWIARV
016900                'INVALID REQUEST CODE = '  DELIMITED BY SIZE      UCWIARV
017000                 UCCOMMON-REQUEST-CODE     DELIMITED BY SIZE      UCWIARV
017100            INTO UCWSABND-ABEND-DATA(1)                           UCWIARV
017200          END-STRING                                              UCWIARV
017300          PERFORM 9999-ABEND                                      UCWIARV
017400     END-EVALUATE.                                                UCWIARV
017500                                                                  UCWIARV
017600     MOVE LENGTH OF UCIARV0O TO UCPISCRN-DETAIL-MAP-LENGTH.       UCWIARV
017700     SET UCCOMMON-NO-UPD-IN-PROGRESS TO TRUE.                     UCWIARV
017800                                                                  UCWIARV
026000     PERFORM 0090-CLEANUP-PNF.                                    52131415
026100                                                                  52131415
017900     GOBACK.                                                      UCWIARV
018000                                                                  UCWIARV
018100                                                                  UCWIARV
018200 0000-EXIT.                                                       UCWIARV
018300     EXIT.                                                        UCWIARV
018400                                                                  UCWIARV
018500                                                                  UCWIARV
018600 EJECT                                                            UCWIARV
018700 0010-INITIALIZATION     SECTION.                                 UCWIARV
018800**************************************************************    UCWIARV
018900*  ENABLE SPECIAL LOGICAL FUNCTIONS FOR PAN                  *    UCWIARV
019000**************************************************************    UCWIARV
019100     MOVE 'SWITCH-ADR'     TO UCPISCRN-ADDL-LOGIC-FUNC(1).        UCWIARV
019200     IF UCCOMMON-FUNCTION = WS-IARW-FUNC                          UCWIARV
019300       MOVE 'SWITCH-COM' TO UCPISCRN-ADDL-LOGIC-FUNC(2)           UCWIARV
019400       MOVE 'APP-UPDT  ' TO UCPISCRN-ADDL-LOGIC-FUNC(3)           UCWIARV
019500       MOVE 'PAN-CAN   ' TO UCPISCRN-ADDL-LOGIC-FUNC(4)           UCWIARV
019600     END-IF.                                                      UCWIARV
019700**************************************************************    UCWIARV
019800*  INITIALIZE SCREEN AREA                                    *    UCWIARV
019900**************************************************************    UCWIARV
020000     MOVE LOW-VALUES TO UCIARV0O.                                 UCWIARV
020100     PERFORM 0100-INITIALIZE-FIELDS.                              UCWIARV
020200     PERFORM 0200-INITIALIZE-LABELS.                              UCWIARV
020300     MOVE WS-RELEASE-NUMBER TO UCPISCRN-DTL-REL-NO.               UCWIARV
020400**************************************************************    UCWIARV
020500*  INITIALIZE WORK AREAS, TS QUEUE AND COUNT ENTRIES         *    UCWIARV
020600**************************************************************    UCWIARV
020700                                                                  UCWIARV
029100     IF NOT UCWSPANW-WA-INITIALIZED                               52131415
029200       OR UCCOMMON-DISPLAY-PAGE-1                                 52131415
029300         INITIALIZE UCWSPANW-IARV-WORK-AREA                       52131415
029400         SET UCWSPANW-WA-INITIALIZED TO TRUE                      52131415
029500         MOVE +1  TO UCWSPANW-WA-TOP-ITEM                         52131415
029600         MOVE +15 TO UCWSPANW-WA-BOT-ITEM                         52131415
029700     END-IF.                                                      52131415
029800                                                                  52131415
029900     PERFORM 2000-BUILD-NOTIFICATION.                             52131415
030000     PERFORM 0050-COUNT-ENTRIES.                                  52131415
030100                                                                  52131415
030200*****MOVE UCWSPANW-QUEUE-NAME TO TS-QUEUE-ID.                     52131415
030300*****                                                             52131415
030400*****IF NOT UCWSPANW-WA-INITIALIZED                               52131415
030500*****  OR UCCOMMON-DISPLAY-PAGE-1                                 52131415
030600*****    INITIALIZE UCWSPANW-IARV-WORK-AREA                       52131415
030700*****    SET UCWSPANW-WA-INITIALIZED TO TRUE                      52131415
030800*****    SET UCWSPANW-WA-PANNOT-NOT-CALLED TO TRUE                52131415
030900*****    PERFORM 2000-BUILD-TSQ                                   52131415
031000*****    PERFORM 0050-COUNT-ENTRIES                               52131415
031100*****    MOVE +1  TO UCWSPANW-WA-TOP-ITEM                         52131415
031200*****    MOVE +15 TO UCWSPANW-WA-BOT-ITEM                         52131415
031300*****END-IF.                                                      52131415
020900                                                                  UCWIARV
022100 0010-EXIT.                                                       UCWIARV
022200     EXIT.                                                        UCWIARV
022300                                                                  UCWIARV
022400                                                                  UCWIARV
031900 EJECT                                                            UCWIARV
032000 0050-COUNT-ENTRIES   SECTION.                                    UCWIARV
032100**************************************************************    UCWIARV
032200* DETERMINE TOTAL PAGES                                           UCWIARV
032300**************************************************************    UCWIARV
032400     DIVIDE UCWSPANW-NUM-RECS BY +15                              UCWIARV
032500       GIVING UCWSPANW-WA-TOT-PAGES REMAINDER WS-REM.             UCWIARV
032600                                                                  UCWIARV
032700     IF WS-REM > ZERO                                             UCWIARV
032800        ADD +1 TO UCWSPANW-WA-TOT-PAGES                           UCWIARV
032900     END-IF.                                                      UCWIARV
033000                                                                  UCWIARV
033100                                                                  UCWIARV
033200 0050-EXIT.                                                       UCWIARV
033300     EXIT.                                                        UCWIARV
033400                                                                  UCWIARV
024100     EJECT                                                        UCWIARV
024200                                                                  UCWIARV
033700 0090-CLEANUP-PNF       SECTION.                                  52131415
033800**************************************************************    52131415
033900*  DELETE PNF RECORDS                                        *    52131415
034000**************************************************************    52131415
034100     MOVE 'DELETE PNF ROWS     ' TO DB2MSG-TAG.                   52131415
034200     EXEC SQL                                                     52131415
034300          DELETE FROM UC0VZPNF_PNF                                52131415
034400          WHERE  PNF_NOTICE_ID      = :UCWSPANW-NOTICE-ID         52131415
034500          AND    PNF_TIMESTAMP      = :UCWSPANW-PNF-TIMESTAMP     52131415
034600     END-EXEC.                                                    52131415
034700                                                                  52131415
034800 0090-EXIT.                                                       52131415
034900     EXIT.                                                        52131415
035000                                                                  52131415
035100     EJECT                                                        52131415
035200                                                                  52131415
024300 0100-INITIALIZE-FIELDS SECTION.                                  UCWIARV
024400**************************************************************    UCWIARV
024500*  SET COLOR, HIGHLIGHT AND ATTRIBUTE BYTES TO THEIR         *    UCWIARV
024600*  INITIAL VALUES.                                           *    UCWIARV
024700**************************************************************    UCWIARV
024800                                                                  UCWIARV
024900     MOVE UCCOMMON-ATR-NORM-DISPL                                 UCWIARV
026400*                              TO   DE0230-PNT-APPLICATION-IDA    UCWIARV
036100                               TO   DE0230-PNT-EMPLOYEE-IDA       UCWIARV
025100                                    DE0240-PNT-TRANSACTION-IDA    UCWIARV
025200                                    DE0220-PNT-ORIG-USERIDA       UCWIARV
025300                                    DE0210-DATEA                  UCWIARV
025400                                    DE0210-TIMEA.                 UCWIARV
025500                                                                  UCWIARV
025600     MOVE UCCOMMON-CLR-NORM-DISPL                                 UCWIARV
027200*                              TO   DE0230-PNT-APPLICATION-IDC    UCWIARV
036900                               TO   DE0230-PNT-EMPLOYEE-IDC       UCWIARV
025800                                    DE0240-PNT-TRANSACTION-IDC    UCWIARV
025900                                    DE0220-PNT-ORIG-USERIDC       UCWIARV
026000                                    DE0210-DATEC                  UCWIARV
026100                                    DE0210-TIMEC.                 UCWIARV
026200                                                                  UCWIARV
026300     MOVE UCCOMMON-HLT-NORM-DISPL                                 UCWIARV
028000*                              TO   DE0230-PNT-APPLICATION-IDH    UCWIARV
037700                               TO   DE0230-PNT-EMPLOYEE-IDH       UCWIARV
026500                                    DE0240-PNT-TRANSACTION-IDH    UCWIARV
026600                                    DE0220-PNT-ORIG-USERIDH       UCWIARV
026700                                    DE0210-DATEH                  UCWIARV
026800                                    DE0210-TIMEH.                 UCWIARV
026900                                                                  UCWIARV
027000                                                                  UCWIARV
027100     PERFORM VARYING SCREEN-SUB FROM 1 BY 1 UNTIL SCREEN-SUB > 15 UCWIARV
027200       MOVE UCCOMMON-CLR-NORM-DISPL                               UCWIARV
027300         TO DE0260-PNT-TEXT-LINEC (SCREEN-SUB)                    UCWIARV
027400       MOVE UCCOMMON-HLT-NORM-DISPL                               UCWIARV
027500         TO DE0260-PNT-TEXT-LINEH (SCREEN-SUB)                    UCWIARV
027600       MOVE UCCOMMON-ATR-NORM-DISPL                               UCWIARV
027700         TO DE0260-PNT-TEXT-LINEA (SCREEN-SUB)                    UCWIARV
027800     END-PERFORM.                                                 UCWIARV
027900                                                                  UCWIARV
028000                                                                  UCWIARV
028100 0100-EXIT.                                                       UCWIARV
028200     EXIT.                                                        UCWIARV
028300                                                                  UCWIARV
028400                                                                  UCWIARV
028500 0200-INITIALIZE-LABELS SECTION.                                  UCWIARV
028600**************************************************************    UCWIARV
028700*  SET COLOR, HIGHLIGHT AND ATTRIBUTE BYTES FOR LABEL FIELDS *    UCWIARV
028800*  TO THE INITIAL VALUES.                                    *    UCWIARV
028900**************************************************************    UCWIARV
029000                                                                  UCWIARV
030800*    MOVE UCCOMMON-ATR-FLD-LABEL TO DE0230-L-PNT-APPLICATION-IDA  UCWIARV
040500     MOVE UCCOMMON-ATR-FLD-LABEL TO DE0230-L-PNT-EMPLOYEE-IDA     UCWIARV
029200                                    DE0240-L-PNT-TRANSACTION-IDA  UCWIARV
029300                                    DE0220-L-PNT-ORIG-USERIDA     UCWIARV
029400                                    DE0210-L-DATEA                UCWIARV
029500                                    DE0210-L-TIMEA                UCWIARV
029600                                    CURRENT-PAGEA                 UCWIARV
029700                                    L-CURRENT-PAGEA               UCWIARV
029800                                    TOTAL-PAGESA                  UCWIARV
029900                                    L-TOTAL-PAGESA.               UCWIARV
030000                                                                  UCWIARV
031900*    MOVE UCCOMMON-CLR-FLD-LABEL TO DE0230-L-PNT-APPLICATION-IDC  UCWIARV
041600     MOVE UCCOMMON-CLR-FLD-LABEL TO DE0230-L-PNT-EMPLOYEE-IDC     UCWIARV
030200                                    DE0240-L-PNT-TRANSACTION-IDC  UCWIARV
030300                                    DE0220-L-PNT-ORIG-USERIDC     UCWIARV
030400                                    DE0210-L-DATEC                UCWIARV
030500                                    DE0210-L-TIMEC                UCWIARV
030600                                    CURRENT-PAGEC                 UCWIARV
030700                                    L-CURRENT-PAGEC               UCWIARV
030800                                    TOTAL-PAGESC                  UCWIARV
030900                                    L-TOTAL-PAGESC.               UCWIARV
031000                                                                  UCWIARV
033000*    MOVE UCCOMMON-HLT-FLD-LABEL TO DE0230-L-PNT-APPLICATION-IDH  UCWIARV
042700     MOVE UCCOMMON-HLT-FLD-LABEL TO DE0230-L-PNT-EMPLOYEE-IDH     UCWIARV
031200                                    DE0240-L-PNT-TRANSACTION-IDH  UCWIARV
031300                                    DE0220-L-PNT-ORIG-USERIDH     UCWIARV
031400                                    DE0210-L-DATEH                UCWIARV
031500                                    DE0210-L-TIMEH                UCWIARV
031600                                    CURRENT-PAGEH                 UCWIARV
031700                                    L-CURRENT-PAGEH               UCWIARV
031800                                    TOTAL-PAGESH                  UCWIARV
031900                                    L-TOTAL-PAGESH.               UCWIARV
032000                                                                  UCWIARV
032100 0200-EXIT.                                                       UCWIARV
032200     EXIT.                                                        UCWIARV
032300                                                                  UCWIARV
032400                                                                  UCWIARV
044100 0500-FORMAT-SCREEN-FORWARD     SECTION.                          UCWIARV
032600                                                                  UCWIARV
032700     PERFORM 1000-FORMAT-KEY-DATA.                                UCWIARV
032800                                                                  UCWIARV
044500     MOVE WS-ITEM TO PNF-ITEM-NUMBER.                             52131415
044600                                                                  52131415
044700*****MOVE DFHRESP(NORMAL) TO WS-RESP.                             52131415
044800*****                                                             52131415
044900     MOVE 'OPEN PNF-FORW-CURS     ' TO DB2MSG-TAG.                52131415
045000     EXEC SQL                                                     52131415
045100          OPEN PNF-FORW-CURS                                      52131415
045200     END-EXEC.                                                    52131415
045300                                                                  52131415
045400     PERFORM 1500-READ-PNF-FORWARD                                52131415
045500         VARYING SCREEN-SUB FROM 1 BY 1                           52131415
045600         UNTIL SCREEN-SUB > 15                                    52131415
045700         OR SQLCODE NOT = ZERO.                                   52131415
045800                                                                  52131415
045900     MOVE 'CLOSE PNF-FORW-CURS     ' TO DB2MSG-TAG.               52131415
046000     EXEC SQL                                                     52131415
046100          CLOSE PNF-FORW-CURS                                     52131415
046200     END-EXEC.                                                    52131415
046300                                                                  52131415
046400*****PERFORM 1500-READ-TSQ-FORWARD                                52131415
046500*****    VARYING SCREEN-SUB FROM 1 BY 1                           52131415
046600*****    UNTIL SCREEN-SUB > 15   OR                               52131415
046700*****    WS-RESP NOT = DFHRESP(NORMAL).                           52131415
033000                                                                  UCWIARV
046900     PERFORM 1575-SET-PAGING.                                     UCWIARV
047000                                                                  UCWIARV
047100 0500-EXIT.                                                       UCWIARV
047200     EXIT.                                                        UCWIARV
047300                                                                  UCWIARV
047400     EJECT                                                        UCWIARV
047500                                                                  UCWIARV
047600 0550-FORMAT-SCREEN-BACKWARD    SECTION.                          UCWIARV
047700                                                                  UCWIARV
047800     PERFORM 1000-FORMAT-KEY-DATA.                                UCWIARV
047900                                                                  UCWIARV
048000     MOVE WS-ITEM TO PNF-ITEM-NUMBER.                             52131415
048100                                                                  52131415
048200*****MOVE DFHRESP(NORMAL) TO WS-RESP.                             52131415
048300*****                                                             52131415
048400     MOVE 'OPEN PNF-BACK-CURS     ' TO DB2MSG-TAG.                52131415
048500     EXEC SQL                                                     52131415
048600          OPEN PNF-BACK-CURS                                      52131415
048700     END-EXEC.                                                    52131415
048800                                                                  52131415
048900     PERFORM 1550-READ-PNF-BACKWARD                               52131415
049000         VARYING SCREEN-SUB FROM 15 BY -1                         52131415
049100         UNTIL SCREEN-SUB = ZERO                                  52131415
049200         OR SQLCODE NOT = ZERO.                                   52131415
049300                                                                  52131415
049400     MOVE 'CLOSE PNF-BACK-CURS     ' TO DB2MSG-TAG.               52131415
049500     EXEC SQL                                                     52131415
049600          CLOSE PNF-BACK-CURS                                     52131415
049700     END-EXEC.                                                    52131415
049800                                                                  52131415
049900*****PERFORM 1550-READ-TSQ-BACKWARD                               52131415
050000*****    VARYING SCREEN-SUB FROM 15 BY -1                         52131415
050100*****    UNTIL SCREEN-SUB =  ZERO  OR                             52131415
050200*****    WS-RESP NOT = DFHRESP(NORMAL).                           52131415
050300                                                                  UCWIARV
033500                                                                  UCWIARV
033600     PERFORM 1575-SET-PAGING.                                     UCWIARV
033700                                                                  UCWIARV
050700 0550-EXIT.                                                       UCWIARV
033900     EXIT.                                                        UCWIARV
034000                                                                  UCWIARV
034100     EJECT                                                        UCWIARV
036100 1000-FORMAT-KEY-DATA   SECTION.                                  UCWIARV
036200                                                                  UCWIARV
038300*    MOVE UCWSPANW-APPL-ID TO                                     UCWIARV
038500*         DE0230-PNT-APPLICATION-IDO                              UCWIARV
051500     MOVE UCWSPANW-EMPLOYEE-ID TO                                 UCWIARV
051600          DE0230-PNT-EMPLOYEE-IDO                                 UCWIARV
036500                                                                  UCWIARV
036600     MOVE UCWSPANW-TRAN-ID  TO                                    UCWIARV
036700          DE0240-PNT-TRANSACTION-IDO                              UCWIARV
036800                                                                  UCWIARV
036900     MOVE UCWSPANW-ORIG-USERID TO                                 UCWIARV
037000          DE0220-PNT-ORIG-USERIDO                                 UCWIARV
037100                                                                  UCWIARV
037200     MOVE UCWSPANW-TIMESTAMP(6:2) TO                              UCWIARV
037300          DE0210-DATEO(1:2)                                       UCWIARV
037400                                                                  UCWIARV
037500     MOVE UCWSPANW-TIMESTAMP(9:2) TO                              UCWIARV
037600          DE0210-DATEO(4:2)                                       UCWIARV
037700                                                                  UCWIARV
037800     MOVE UCWSPANW-TIMESTAMP(3:2) TO                              UCWIARV
037900          DE0210-DATEO(7:2)                                       UCWIARV
038000                                                                  UCWIARV
038100     MOVE UCWSPANW-TIMESTAMP(1:4) TO                              UCWIARV
038200          WS-CHECK-YEAR.                                          UCWIARV
038300                                                                  UCWIARV
038400     MOVE '/'                       TO                            UCWIARV
038500          DE0210-DATEO(3:1)                                       UCWIARV
038600          DE0210-DATEO(6:1)                                       UCWIARV
038700                                                                  UCWIARV
038800     IF DE0210-DATEO = WS-INIT-DATE AND                           UCWIARV
038900        WS-CHECK-YEAR = WS-INIT-YEAR                              UCWIARV
039000        MOVE ALL '*' TO DE0210-DATEO                              UCWIARV
039100     END-IF.                                                      UCWIARV
039200                                                                  UCWIARV
039300     MOVE UCWSPANW-TIMESTAMP(12:2) TO                             UCWIARV
039400          DE0210-TIMEO(1:2)                                       UCWIARV
039500                                                                  UCWIARV
039600     MOVE UCWSPANW-TIMESTAMP(15:2) TO                             UCWIARV
039700          DE0210-TIMEO(4:2)                                       UCWIARV
039800                                                                  UCWIARV
039900     MOVE UCWSPANW-TIMESTAMP(18:2) TO                             UCWIARV
040000          DE0210-TIMEO(7:2)                                       UCWIARV
040100                                                                  UCWIARV
040200     MOVE ':'                       TO                            UCWIARV
040300          DE0210-TIMEO(3:1)                                       UCWIARV
040400          DE0210-TIMEO(6:1).                                      UCWIARV
040500                                                                  UCWIARV
040600     IF DE0210-TIMEO = WS-INIT-TIME                               UCWIARV
040700        MOVE ALL '*' TO DE0210-TIMEO                              UCWIARV
040800     END-IF.                                                      UCWIARV
040900                                                                  UCWIARV
041000 1000-EXIT.                                                       UCWIARV
041100     EXIT.                                                        UCWIARV
041200                                                                  UCWIARV
041300     EJECT                                                        UCWIARV
041400                                                                  UCWIARV
056700 1500-READ-PNF-FORWARD     SECTION.                               52131415
056800                                                                  52131415
056900     MOVE LOW-VALUES TO WS-LINE.                                  52131415
057000     MOVE +79        TO WS-LENGTH.                                52131415
057100                                                                  52131415
057200     MOVE 'SELECT PNF-FORW-CURS     ' TO DB2MSG-TAG.              52131415
057300     EXEC SQL                                                     52131415
057400          FETCH PNF-FORW-CURS                                     52131415
057500          INTO :WS-LINE                                           52131415
057600              ,:PNF-ITEM-NUMBER                                   52131415
057700     END-EXEC.                                                    52131415
057800                                                                  52131415
057900     IF SQLCODE = ZERO                                            52131415
058000        MOVE WS-LINE                                              52131415
058100          TO     DE0260-PNT-TEXT-LINEO(SCREEN-SUB)                52131415
058200        MOVE PNF-ITEM-NUMBER TO  UCWSPANW-WA-BOT-ITEM             52131415
058300        IF SCREEN-SUB = +1                                        52131415
058400           MOVE PNF-ITEM-NUMBER TO  UCWSPANW-WA-TOP-ITEM          52131415
058500        END-IF                                                    52131415
058600     END-IF.                                                      52131415
058700                                                                  52131415
058800 1500-EXIT.                                                       52131415
058900     EXIT.                                                        52131415
059000                                                                  52131415
059100     EJECT                                                        52131415
059200                                                                  52131415
059300 1550-READ-PNF-BACKWARD     SECTION.                              52131415
059400                                                                  52131415
059500     MOVE LOW-VALUES TO WS-LINE.                                  52131415
059600     MOVE +79        TO WS-LENGTH.                                52131415
059700                                                                  52131415
059800     MOVE 'SELECT PNF-BACK-CURS     ' TO DB2MSG-TAG.              52131415
059900     EXEC SQL                                                     52131415
060000          FETCH PNF-BACK-CURS                                     52131415
060100          INTO :WS-LINE                                           52131415
060200              ,:PNF-ITEM-NUMBER                                   52131415
060300     END-EXEC.                                                    52131415
060400                                                                  52131415
060500     IF SQLCODE = ZERO                                            52131415
060600        MOVE WS-LINE                                              52131415
060700          TO     DE0260-PNT-TEXT-LINEO(SCREEN-SUB)                52131415
060800        MOVE PNF-ITEM-NUMBER TO  UCWSPANW-WA-TOP-ITEM             52131415
060900        IF SCREEN-SUB = +15                                       52131415
061000           MOVE PNF-ITEM-NUMBER TO  UCWSPANW-WA-BOT-ITEM          52131415
061100        END-IF                                                    52131415
061200     END-IF.                                                      52131415
061300                                                                  52131415
061400 1550-EXIT.                                                       52131415
061500     EXIT.                                                        52131415
061600                                                                  52131415
061700     EJECT                                                        52131415
061800                                                                  52131415
061900*1500-READ-TSQ-FORWARD     SECTION.                               52131415
062000*****                                                             52131415
062100*****MOVE LOW-VALUES TO TS-QUEUE-LINE                             52131415
062200*****MOVE +79        TO TS-QUEUE-LENGTH                           52131415
062300*****                                                             52131415
062400*****EXEC CICS                                                    52131415
062500*****     READQ TS                                                52131415
062600*****     QUEUE  (TS-QUEUE-ID)                                    52131415
062700*****     INTO   (TS-QUEUE-LINE)                                  52131415
062800*****     LENGTH (TS-QUEUE-LENGTH)                                52131415
062900*****     ITEM   (TS-QUEUE-ITEM)                                  52131415
063000*****     NOHANDLE                                                52131415
063100*****     RESP(WS-RESP)                                           52131415
063200*****END-EXEC.                                                    52131415
063300*****                                                             52131415
063400*****IF WS-RESP = DFHRESP(NORMAL)                                 52131415
063500*****   MOVE TS-QUEUE-LINE                                        52131415
063600*****     TO     DE0260-PNT-TEXT-LINEO(SCREEN-SUB)                52131415
063700*****   MOVE TS-QUEUE-ITEM TO  UCWSPANW-WA-BOT-ITEM               52131415
063800*****   IF SCREEN-SUB = +1                                        52131415
063900*****      MOVE TS-QUEUE-ITEM TO  UCWSPANW-WA-TOP-ITEM            52131415
064000*****   END-IF                                                    52131415
064100*****END-IF.                                                      52131415
064200*****                                                             52131415
064300*****                                                             52131415
064400*****ADD +1    TO TS-QUEUE-ITEM.                                  52131415
064500*****                                                             52131415
064600*1500-EXIT.                                                       52131415
064700*****EXIT.                                                        52131415
064800*****                                                             52131415
064900*****EJECT                                                        52131415
065000*****                                                             52131415
065100*1550-READ-TSQ-BACKWARD    SECTION.                               52131415
065200*****                                                             52131415
065300*****MOVE LOW-VALUES TO TS-QUEUE-LINE                             52131415
065400*****MOVE +79        TO TS-QUEUE-LENGTH                           52131415
065500*****                                                             52131415
065600*****EXEC CICS                                                    52131415
065700*****     READQ TS                                                52131415
065800*****     QUEUE  (TS-QUEUE-ID)                                    52131415
065900*****     INTO   (TS-QUEUE-LINE)                                  52131415
066000*****     LENGTH (TS-QUEUE-LENGTH)                                52131415
066100*****     ITEM   (TS-QUEUE-ITEM)                                  52131415
066200*****     NOHANDLE                                                52131415
066300*****     RESP(WS-RESP)                                           52131415
066400*****END-EXEC.                                                    52131415
066500*****                                                             52131415
066600*****IF WS-RESP = DFHRESP(NORMAL)                                 52131415
066700*****   MOVE TS-QUEUE-LINE                                        52131415
066800*****     TO     DE0260-PNT-TEXT-LINEO(SCREEN-SUB)                52131415
066900*****   MOVE TS-QUEUE-ITEM TO UCWSPANW-WA-TOP-ITEM                52131415
067000*****   IF SCREEN-SUB = +15                                       52131415
067100*****      MOVE TS-QUEUE-ITEM TO  UCWSPANW-WA-BOT-ITEM            52131415
067200*****   END-IF                                                    52131415
067300*****END-IF.                                                      52131415
067400*****                                                             52131415
067500*****SUBTRACT +1 FROM  TS-QUEUE-ITEM.                             52131415
067600*****                                                             52131415
067700*****                                                             52131415
067800*1500-EXIT.                                                       52131415
067900*****EXIT.                                                        52131415
068000*****                                                             52131415
068100*****EJECT                                                        52131415
068200*****                                                             52131415
047900 1575-SET-PAGING   SECTION.                                       UCWIARV
048000**************************************************************    UCWIARV
048100*   DETERMINE WHETHER FORWARD AND/OR BACKWARD PAGING IS      *    UCWIARV
048200*   AVAILABLE.                                               *    UCWIARV
048300**************************************************************    UCWIARV
048400                                                                  UCWIARV
048500     IF UCWSPANW-WA-CURR-PAGE = UCWSPANW-WA-TOT-PAGES             UCWIARV
048600        SET UCPISCRN-FORWARD-NOT-AVAIL TO TRUE                    UCWIARV
048700     ELSE                                                         UCWIARV
048800        SET UCPISCRN-FORWARD TO TRUE                              UCWIARV
048900     END-IF.                                                      UCWIARV
049000                                                                  UCWIARV
049100     IF UCWSPANW-WA-CURR-PAGE > 1                                 UCWIARV
049200        SET UCPISCRN-BACKWARD TO TRUE                             UCWIARV
049300     ELSE                                                         UCWIARV
049400        SET UCPISCRN-BACKWARD-NOT-AVAIL TO TRUE                   UCWIARV
049500     END-IF.                                                      UCWIARV
049600                                                                  UCWIARV
049700     MOVE UCWSPANW-WA-CURR-PAGE TO CURRENT-PAGEO.                 UCWIARV
049800     MOVE UCWSPANW-WA-TOT-PAGES TO TOTAL-PAGESO.                  UCWIARV
049900                                                                  UCWIARV
050000 1575-EXIT.                                                       UCWIARV
050100     EXIT.                                                        UCWIARV
050200                                                                  UCWIARV
050300     EJECT                                                        UCWIARV
070800 2000-BUILD-NOTIFICATION   SECTION.                               52131415
070900*2000-BUILD-TSQ       SECTION.                                    52131415
050500                                                                  UCWIARV
050600     SET  TS-QUEUE-NAME-IS-IARV  TO TRUE.                         UCWIARV
071200*****MOVE EIBTRMID          TO TS-QUEUE-TERM-ID.                  52131415
050800     MOVE TS-QUEUE-ID       TO UCWSPANW-QUEUE-NAME.               UCWIARV
050900                                                                  UCWIARV
071500     CALL WS-PGM-PANNOT.                                          52131415
071600*****CALL WS-PGM-PANNOT USING DFHEIBLK.                           52131415
051100                                                                  UCWIARV
071800*****SET  UCWSPANW-WA-PANNOT-CALLED TO TRUE.                      52131415
071900*****PERFORM 2100-WRITE-AUDIT-Q.                                  52131415
051400                                                                  UCWIARV
051500 2000-EXIT.                                                       UCWIARV
051600     EXIT.                                                        UCWIARV
051700     EJECT                                                        UCWIARV
051800                                                                  UCWIARV
051900**************************************************************    UCWIARV
052000*  WRITE ENTRY TO AUDIT QUEUE                                     UCWIARV
052100**************************************************************    UCWIARV
072800*2100-WRITE-AUDIT-Q   SECTION.                                    52131415
072900*****                                                             52131415
073000*****MOVE UCCOMMON-SUBSYSTEM-ID  TO TS-AUDIT-QUEUE-NAME-SS        52131415
073100*****MOVE EIBTRMID               TO TS-AUDIT-QUEUE-TERMID         52131415
073200*****MOVE TS-QUEUE-ID            TO TS-AUDIT-QUEUE-DATA.          52131415
073300*****                                                             52131415
073400*****EXEC CICS                                                    52131415
073500*****     WRITEQ  TS                                              52131415
073600*****     QUEUE  (TS-AUDIT-QUEUE-ID)                              52131415
073700*****     FROM   (TS-AUDIT-QUEUE-DATA)                            52131415
073800*****     LENGTH (TS-AUDIT-QUEUE-LENGTH)                          52131415
073900*****     NOHANDLE                                                52131415
074000*****     RESP(WS-RESP)                                           52131415
074100*****END-EXEC.                                                    52131415
074200*****                                                             52131415
074300*****IF WS-RESP = DFHRESP(NORMAL)                                 52131415
074400*****    CONTINUE                                                 52131415
074500*****ELSE                                                         52131415
074600*****    PERFORM 9999-ABEND                                       52131415
074700*****END-IF.                                                      52131415
074800*****                                                             52131415
074900*2100-WRITE-AUDIT-Q-EXIT.                                         52131415
075000*****EXIT.                                                        52131415
075100*****EJECT                                                        52131415
075200*****                                                             52131415
054700 9999-ABEND    SECTION.                                           UCWIARV
054800**************************************************************    UCWIARV
054900*  COPIED PROCEDURE DIVISION CODE FOR ABEND HANDLING         *    UCWIARV
055000**************************************************************    UCWIARV
055100                                                                  UCWIARV
055200     MOVE 'UCWIARV' TO UCWSABND-ABENDING-PGM.                     UCWIARV
055300                                                                  UCWIARV
055400     COPY UCPDABND.                                               UCWIARV
055500                                                                  UCWIARV
055600 9999-EXIT.                                                       UCWIARV
055700     EXIT.                                                        UCWIARV
055800                                                                  UCWIARV
055900*999999-SQL-ERROR SECTION.                                        UCWIARV
056000**************************************************************    UCWIARV
056100*  COPIED PROCEDURE DIVISION CODE FOR SQL ERROR HANDLING     *    UCWIARV
056200**************************************************************    UCWIARV
056300                                                                  UCWIARV
056400      EXEC SQL                                                    UCWIARV
056500           INCLUDE CPPDXP99                                       UCWIARV
056600      END-EXEC.                                                   UCWIARV
056700                                                                  UCWIARV
056800      MOVE 'SQL ERROR - SEE PRECEDING DB2 MESSAGES'               UCWIARV
056900                                      TO UCWSABND-ABEND-DATA (1). UCWIARV
057000                                                                  UCWIARV
057100      PERFORM 9999-ABEND.                                         UCWIARV
057200                                                                  UCWIARV
057300 999999-EXIT.                                                     UCWIARV
057400       EXIT.                                                      UCWIARV
057500                                                                  UCWIARV
