000800 IDENTIFICATION DIVISION.                                         ULA5SAUP
000900 PROGRAM-ID. ULA5SAUP.                                            ULA5SAUP
001000**************************************************************    ULA5SAUP
001100*  THIS PROGRAM IS THE UPDATE APPLICATION PROCESSOR FOR THE  *    ULA5SAUP
001200*  'EDSA'.  IT ADDS, UPDATES AND DELETES FROM THE UC0GRP AND *    ULA5SAUP
001300*  THE UC0ASC TABLES USING THE GRP-ARRAY EXTERNAL AREA.      *    ULA5SAUP
001600*  AN AUDIT TRAIL OF THESE CHANGES IS KEPT ON TABLE PPPXXX   *    ULA5SAUP
001700**************************************************************    ULA5SAUP
001800 ENVIRONMENT DIVISION.                                            ULA5SAUP
001900 CONFIGURATION SECTION.                                           ULA5SAUP
002000 SOURCE-COMPUTER.                                  COPY CPOTXUCS. ULA5SAUP
002100 OBJECT-COMPUTER.                                  COPY CPOTXOBJ. ULA5SAUP
002200 DATA DIVISION.                                                   ULA5SAUP
002300     EJECT                                                        ULA5SAUP
002400 WORKING-STORAGE SECTION.                                         ULA5SAUP
002500 01  WS-COMN.                                                     ULA5SAUP
002600     05  WS-START                          PIC X(27) VALUE        ULA5SAUP
002700         'WORKING STORAGE STARTS HERE'.                           ULA5SAUP
002800     05  A-STND-PROG-ID                   PIC X(15) VALUE         ULA5SAUP
002900                                                    'ULA5SAUP'.   ULA5SAUP
003000 01  WS-MISC.                                                     ULA5SAUP
003100     05  XGRP-ARRY-SIZE  VALUE +100        PIC S9(04) COMP.       ULA5SAUP
003200     05  ARRAY-SUB                         PIC S9(04) COMP.       ULA5SAUP
003611     05  GRP-ARRAY-COUNT-CMD               PIC S9(04) COMP.       ULA5SAUP
003620     05  GRP-ARRAY-HOLD-COUNT-CMD          PIC S9(04) COMP.       ULA5SAUP
003630                                                                  ULA5SAUP
003640 01  SWITCHES.                                                    ULA5SAUP
003650     05  WS-SUB-FOUND-SW                   PIC X(01).             ULA5SAUP
004291         88 WS-SUB-FOUND                   VALUE 'Y'.             ULA5SAUP
004292         88 WS-SUB-NOT-FOUND               VALUE 'N'.             ULA5SAUP
004291                                                                  ULA5SAUP
004292 01  GRZ-DB2-TABLE-DATA.                                          ULA5SAUP
004293     05  GT-USER-ID                        PIC X(08).             ULA5SAUP
004294     05  GT-EMPLOYEE-NUMBER                PIC X(09).             ULA5SAUP
004295     05  GT-HOME-DEPARTMENT                PIC X(04).             ULA5SAUP
004296     05  GT-UPDATE-FLAG                    PIC X(01).             ULA5SAUP
004297     05  GT-LINE-COMMAND                   PIC X(01).             ULA5SAUP
004298     05  GT-GROUP-NO                       PIC X(08).             ULA5SAUP
004299     05  GT-VIEW-ONLY                      PIC X(03).             ULA5SAUP
004300     05  GT-DEPT1                          PIC X(04).             ULA5SAUP
004301     05  GT-DEPT2                          PIC X(04).             ULA5SAUP
004302     05  GT-DEPT3                          PIC X(04).             ULA5SAUP
004303     05  GT-DEPT4                          PIC X(04).             ULA5SAUP
004304     05  GT-DEPT5                          PIC X(04).             ULA5SAUP
004305     05  GT-DEPT6                          PIC X(04).             ULA5SAUP
004306     05  GT-DEPT7                          PIC X(04).             ULA5SAUP
004307     05  GT-DEPT8                          PIC X(04).             ULA5SAUP
004308     05  GT-DEPT9                          PIC X(04).             ULA5SAUP
004309     05  GT-DEPT10                         PIC X(04).             ULA5SAUP
004310     05  GT-DEPT11                         PIC X(04).             ULA5SAUP
004311     05  GT-DEPT12                         PIC X(04).             ULA5SAUP
004312                                                                  ULA5SAUP
004323                                                                  ULA5SAUP
004330 01  ULWSEDSA EXTERNAL.                                           ULA5SAUP
004400     EXEC SQL                                                     ULA5SAUP
004500          INCLUDE ULWSEDSA                                        ULA5SAUP
004600     END-EXEC.                                                    ULA5SAUP
004700                                                                  ULA5SAUP
004800     EJECT                                                        ULA5SAUP
004900                                                                  ULA5SAUP
008500 01  GRP-ARRAY EXTERNAL.                                          ULA5SAUP
008600     EXEC SQL                                                     ULA5SAUP
008700          INCLUDE ULWSEGRP                                        ULA5SAUP
008800     END-EXEC.                                                    ULA5SAUP
008900                                                                  ULA5SAUP
009000 01  GRP-ARRAY-HOLD EXTERNAL.                                     ULA5SAUP
009100     EXEC SQL                                                     ULA5SAUP
009200          INCLUDE ULWSEGRP                                        ULA5SAUP
009300     END-EXEC.                                                    ULA5SAUP
009400     EJECT                                                        ULA5SAUP
009500 01  UCCOMMON   EXTERNAL.                                         ULA5SAUP
009600     COPY UCCOMMON.                                               ULA5SAUP
009700     EJECT                                                        ULA5SAUP
009800 01  UCWSABND    EXTERNAL.                                        ULA5SAUP
009900     COPY UCWSABND.                                               ULA5SAUP
010000     EJECT                                                        ULA5SAUP
010100 01  PPDB2MSG-INTERFACE.            COPY CPLNKDB2.                ULA5SAUP
010200******************************************************************ULA5SAUP
010300**  SQL       AREAS                                             **ULA5SAUP
010400**                                                              **ULA5SAUP
010500** THE VIEWS USED IN THIS PROGRAM ARE:                          **ULA5SAUP
010600**                                                              **ULA5SAUP
010700**    VIEW              VIEW DDL AND DCL INCLUDE                **ULA5SAUP
010800**                       MEMBER NAMES                           **ULA5SAUP
010900**                                                              **ULA5SAUP
011000**  UC0VGRP1_GRP          UC0VGRP1                              **ULA5SAUP
011020**  UC0VASC1_ASC          UC0VASC1                              **ULA5SAUP
011030**  UL0VZGRZ_GRZ          UL0VZGRZ                              **ULA5SAUP
011100**                                                              **ULA5SAUP
011200******************************************************************ULA5SAUP
011300     EXEC SQL                                                     ULA5SAUP
011400          INCLUDE SQLCA                                           ULA5SAUP
011500     END-EXEC.                                                    ULA5SAUP
011600     EJECT                                                        ULA5SAUP
011700 01  WS-GRP-INFO.                                                 ULA5SAUP
011800     EXEC SQL                                                     ULA5SAUP
011900          INCLUDE UC0VGRP1                                        ULA5SAUP
012000     END-EXEC.                                                    ULA5SAUP
012100                                                                  ULA5SAUP
012200 01  WS-ASC-INFO.                                                 ULA5SAUP
012300     EXEC SQL                                                     ULA5SAUP
012400          INCLUDE UC0VASC1                                        ULA5SAUP
012500     END-EXEC.                                                    ULA5SAUP
012501                                                                  ULA5SAUP
012510 01  WS-GRZ-INFO.                                                 ULA5SAUP
012520     EXEC SQL                                                     ULA5SAUP
012530          INCLUDE UL0VZGRZ                                        ULA5SAUP
012540     END-EXEC.                                                    ULA5SAUP
012600                                                                  ULA5SAUP
012700 LINKAGE SECTION.                                                 ULA5SAUP
012800     EJECT                                                        ULA5SAUP
012900 PROCEDURE DIVISION.                                              ULA5SAUP
013000**************************************************************    ULA5SAUP
013100*            P R O C E D U R E  D I V I S I O N              *    ULA5SAUP
013200**************************************************************    ULA5SAUP
013300 0000-MAINLINE SECTION.                                           ULA5SAUP
013400**************************************************************    ULA5SAUP
013500*   MAIN-LINE PROCESSING                                     *    ULA5SAUP
013600**************************************************************    ULA5SAUP
013700                                                                  ULA5SAUP
013800     EXEC SQL                                                     ULA5SAUP
013900          INCLUDE CPPDXE99                                        ULA5SAUP
014000     END-EXEC.                                                    ULA5SAUP
014100                                                                  ULA5SAUP
014200     SET UCCOMMON-RETURN-NO-ERRORS TO TRUE                        ULA5SAUP
014300     MOVE  A-STND-PROG-ID TO DB2MSG-PGM-ID                        ULA5SAUP
014500     MOVE ZERO TO     ARRAY-SUB                                   ULA5SAUP
014800                      GRZ-SEQ-NO                                  ULA5SAUP
014900                      GRP-ARRAY-COUNT-CMD                         ULA5SAUP
014910                      GRP-ARRAY-HOLD-COUNT-CMD.                   ULA5SAUP
015000*                                                                 ULA5SAUP
015100     PERFORM 1000-UPDATE-AUTH.                                    ULA5SAUP
015300                                                                  ULA5SAUP
015310     MOVE GRP-ARRAY TO GRP-ARRAY-HOLD.                            ULA5SAUP
015320                                                                  ULA5SAUP
015400     GOBACK.                                                      ULA5SAUP
015500                                                                  ULA5SAUP
015600 0000-EXIT.                                                       ULA5SAUP
015700     EXIT.                                                        ULA5SAUP
016000                                                                  ULA5SAUP
016300     EJECT                                                        ULA5SAUP
016400                                                                  ULA5SAUP
016420**************************************************************    ULA5SAUP
016430*    FOR EACH LINE THAT CHANGED, PROCESS THE CHANGE.         *    ULA5SAUP
016431*    THEN IF ADDING A RECORD FOR THE 1ST TIME ADD AN AUDIT   *    ULA5SAUP
016432*    TYPE RECORD INTO THE ASC TABLE AND IF THE UPDATE FLAG IS*    ULA5SAUP
016433*    ON ADD A PERSONAL RECORD TO THE ASC TABLE. IF DELETING  *    ULA5SAUP
016434*    ALL ENTRIES, REMOVE THE AUDIT AND PERSONAL RECORDS FROM *    ULA5SAUP
016435*    THE ASC TABLE. THIS ROUTINE WILL ALSO ADD A PERSONAL    *    ULA5SAUP
016436*    RECORD FOR A USER THAT HAD ONLY INQUIRY ACCESS BEFORE.  *    ULA5SAUP
016440**************************************************************    ULA5SAUP
016450                                                                  ULA5SAUP
016500 1000-UPDATE-AUTH  SECTION.                                       ULA5SAUP
016600                                                                  ULA5SAUP
016700     PERFORM VARYING ARRAY-SUB FROM 1 BY 1                        ULA5SAUP
016800      UNTIL ARRAY-SUB >  ULWSEDSA-TOTAL-ENTRIES                   ULA5SAUP
016900        IF (GRP-ARRAY-ENTRY OF GRP-ARRAY (ARRAY-SUB) NOT =        ULA5SAUP
017000            GRP-ARRAY-ENTRY OF GRP-ARRAY-HOLD (ARRAY-SUB))        ULA5SAUP
017110           PERFORM 1100-PROCESS-LINES                             ULA5SAUP
017200        END-IF                                                    ULA5SAUP
017300     END-PERFORM.                                                 ULA5SAUP
017400                                                                  ULA5SAUP
017410                                                                  ULA5SAUP
017411     PERFORM VARYING ARRAY-SUB FROM 1 BY 1                        ULA5SAUP
017412      UNTIL ARRAY-SUB >  ULWSEDSA-TOTAL-ENTRIES                   ULA5SAUP
017413        IF GRPA-LINE-COMMAND OF GRP-ARRAY (ARRAY-SUB) = 'S'       ULA5SAUP
017414           ADD 1 TO GRP-ARRAY-COUNT-CMD                           ULA5SAUP
017416        END-IF                                                    ULA5SAUP
017417        IF GRPA-LINE-COMMAND OF GRP-ARRAY-HOLD (ARRAY-SUB) = 'S'  ULA5SAUP
017418           ADD 1 TO GRP-ARRAY-HOLD-COUNT-CMD                      ULA5SAUP
017419        END-IF                                                    ULA5SAUP
017420     END-PERFORM.                                                 ULA5SAUP
017421                                                                  ULA5SAUP
017430     IF  GRP-ARRAY-COUNT-CMD = ZERO                               ULA5SAUP
017440     AND GRP-ARRAY-HOLD-COUNT-CMD > ZERO                          ULA5SAUP
017450         MOVE 'PERSONAL' TO ACCESS-RULE                           ULA5SAUP
017451         PERFORM 9500-DELETE-ASC-REC                              ULA5SAUP
017452         MOVE 'AUDIT'    TO ACCESS-RULE                           ULA5SAUP
017453         PERFORM 9500-DELETE-ASC-REC                              ULA5SAUP
017460     END-IF.                                                      ULA5SAUP
017466                                                                  ULA5SAUP
017467     MOVE ZERO TO SEQ-NUMBER.                                     ULA5SAUP
017497     IF  GRP-ARRAY-COUNT-CMD > ZERO                               ULA5SAUP
017498     AND GRP-ARRAY-HOLD-COUNT-CMD = ZERO                          ULA5SAUP
017500         MOVE 'AUDIT'    TO ACCESS-RULE                           ULA5SAUP
017501         PERFORM 9500-DELETE-ASC-REC                              ULA5SAUP
017502         PERFORM 9600-ADD-ASC-REC                                 ULA5SAUP
017503         IF GRP-UPDATE-FLAG OF GRP-ARRAY = 'Y'                    ULA5SAUP
017505            MOVE 'PERSONAL' TO ACCESS-RULE                        ULA5SAUP
017506            PERFORM 9500-DELETE-ASC-REC                           ULA5SAUP
017507            PERFORM 9600-ADD-ASC-REC                              ULA5SAUP
017508         END-IF                                                   ULA5SAUP
017509     END-IF.                                                      ULA5SAUP
017510                                                                  ULA5SAUP
017511                                                                  ULA5SAUP
017512     IF  GRP-ARRAY-COUNT-CMD > ZERO                               ULA5SAUP
017513     AND GRP-ARRAY-HOLD-COUNT-CMD > ZERO                          ULA5SAUP
017514         IF (GRP-UPDATE-FLAG OF GRP-ARRAY-HOLD = 'N'              ULA5SAUP
017515             AND GRP-UPDATE-FLAG OF GRP-ARRAY = 'Y')              ULA5SAUP
017516             MOVE 'PERSONAL' TO ACCESS-RULE                       ULA5SAUP
017517             PERFORM 9600-ADD-ASC-REC                             ULA5SAUP
017519             SET WS-SUB-NOT-FOUND TO TRUE                         ULA5SAUP
017520             PERFORM 1500-FIND-SUB VARYING ARRAY-SUB FROM 1 BY 1  SDA5SAUU
017521               UNTIL ARRAY-SUB >  ULWSEDSA-TOTAL-ENTRIES          ULA5SAUP
017522                  OR WS-SUB-FOUND                                 ULA5SAUP
017519             PERFORM 9200-MOVE-AUDIT-BEFORE                       ULA5SAUP
017520             PERFORM 9300-MOVE-AUDIT-AFTER                        ULA5SAUP
017521             PERFORM 9400-INSERT-GRP-AUDIT                        ULA5SAUP
017522         END-IF                                                   ULA5SAUP
017523         IF (GRP-UPDATE-FLAG OF GRP-ARRAY-HOLD = 'Y'              ULA5SAUP
017524             AND GRP-UPDATE-FLAG OF GRP-ARRAY = 'N')              ULA5SAUP
017525             MOVE 'PERSONAL' TO ACCESS-RULE                       ULA5SAUP
017526             PERFORM 9500-DELETE-ASC-REC                          ULA5SAUP
017531             SET WS-SUB-NOT-FOUND TO TRUE                         ULA5SAUP
017532             PERFORM 1500-FIND-SUB VARYING ARRAY-SUB FROM 1 BY 1  SDA5SAUU
017533               UNTIL ARRAY-SUB >  ULWSEDSA-TOTAL-ENTRIES          ULA5SAUP
017534                  OR WS-SUB-FOUND                                 ULA5SAUP
017528             PERFORM 9200-MOVE-AUDIT-BEFORE                       ULA5SAUP
017529             PERFORM 9300-MOVE-AUDIT-AFTER                        ULA5SAUP
017530             PERFORM 9400-INSERT-GRP-AUDIT                        ULA5SAUP
017531         END-IF                                                   ULA5SAUP
017532         IF  (GRP-UPDATE-FLAG OF GRP-ARRAY-HOLD =                 ULA5SAUP
017533              GRP-UPDATE-FLAG OF GRP-ARRAY)                       ULA5SAUP
017534         AND (GRP-EMPLOYEE-NUMBER OF GRP-ARRAY-HOLD NOT =         ULA5SAUP
017535              GRP-EMPLOYEE-NUMBER OF GRP-ARRAY)                   ULA5SAUP
017536             MOVE 'PERSONAL' TO ACCESS-RULE                       ULA5SAUP
017537             PERFORM 9500-DELETE-ASC-REC                          ULA5SAUP
017538             MOVE 'AUDIT'    TO ACCESS-RULE                       ULA5SAUP
017539             PERFORM 9500-DELETE-ASC-REC                          ULA5SAUP
017540             MOVE 'PERSONAL' TO ACCESS-RULE                       ULA5SAUP
017541             PERFORM 9600-ADD-ASC-REC                             ULA5SAUP
017542             MOVE 'AUDIT'    TO ACCESS-RULE                       ULA5SAUP
017543             PERFORM 9600-ADD-ASC-REC                             ULA5SAUP
017555             SET WS-SUB-NOT-FOUND TO TRUE                         ULA5SAUP
017556             PERFORM 1500-FIND-SUB VARYING ARRAY-SUB FROM 1 BY 1  SDA5SAUU
017557               UNTIL ARRAY-SUB >  ULWSEDSA-TOTAL-ENTRIES          ULA5SAUP
017558                  OR WS-SUB-FOUND                                 ULA5SAUP
017545             PERFORM 9200-MOVE-AUDIT-BEFORE                       ULA5SAUP
017546             PERFORM 9300-MOVE-AUDIT-AFTER                        ULA5SAUP
017547             PERFORM 9400-INSERT-GRP-AUDIT                        ULA5SAUP
017548         END-IF                                                   ULA5SAUP
017549     END-IF.                                                      ULA5SAUP
017550                                                                  ULA5SAUP
017551                                                                  ULA5SAUP
017560 1000-EXIT.                                                       ULA5SAUP
017600     EXIT.                                                        ULA5SAUP
017700                                                                  ULA5SAUP
017800     EJECT                                                        ULA5SAUP
017900                                                                  ULA5SAUP
018000 1100-PROCESS-LINES SECTION.                                      ULA5SAUP
018100**************************************************************    ULA5SAUP
018200*    MAIN LOGIC BRANCH                                       *    ULA5SAUP
018300**************************************************************    ULA5SAUP
018310                                                                  ULA5SAUP
018400     IF (GRPA-LINE-COMMAND OF GRP-ARRAY (ARRAY-SUB) = ' '         ULA5SAUP
018401         OR GRPA-LINE-COMMAND OF GRP-ARRAY (ARRAY-SUB) = 'D')     ULA5SAUP
018410     AND GRPA-LINE-COMMAND OF GRP-ARRAY-HOLD (ARRAY-SUB) = 'S'    ULA5SAUP
018500         PERFORM 1110-DELETE-RECORD                               ULA5SAUP
018600     ELSE                                                         ULA5SAUP
018610     IF  (GRPA-LINE-COMMAND OF GRP-ARRAY (ARRAY-SUB) = 'S')       ULA5SAUP
018620     AND (GRPA-LINE-COMMAND OF GRP-ARRAY-HOLD (ARRAY-SUB) = ' '   ULA5SAUP
018630         OR GRPA-LINE-COMMAND OF GRP-ARRAY (ARRAY-SUB) = 'D')     ULA5SAUP
018700         PERFORM 1120-ADD-RECORD                                  ULA5SAUP
018820     END-IF                                                       ULA5SAUP
018830     END-IF.                                                      ULA5SAUP
018900                                                                  ULA5SAUP
019000 1100-EXIT.                                                       ULA5SAUP
019100     EXIT.                                                        ULA5SAUP
019200     EJECT                                                        ULA5SAUP
019300                                                                  ULA5SAUP
019400 1110-DELETE-RECORD SECTION.                                      ULA5SAUP
019500**************************************************************    ULA5SAUP
019600*    DELETE THE GROUP FROM THE GROUP TABLE AND LOG CHANGES   *    ULA5SAUP
019700*    IN THE AUDIT TABLE.                                     *    ULA5SAUP
019900**************************************************************    ULA5SAUP
020000                                                                  ULA5SAUP
020010     MOVE GRP-USER-ID OF GRP-ARRAY TO AUTH-ID.                    ULA5SAUP
020200     PERFORM 9000-DELETE-GRP.                                     ULA5SAUP
020300     PERFORM 9200-MOVE-AUDIT-BEFORE.                              ULA5SAUP
020303     PERFORM 9300-MOVE-AUDIT-AFTER.                               ULA5SAUP
020304     PERFORM 9400-INSERT-GRP-AUDIT.                               ULA5SAUP
020310                                                                  ULA5SAUP
020400 1110-EXIT.                                                       ULA5SAUP
020500     EXIT.                                                        ULA5SAUP
020600     EJECT                                                        ULA5SAUP
020700                                                                  ULA5SAUP
022300 1120-ADD-RECORD SECTION.                                         ULA5SAUP
022400**************************************************************    ULA5SAUP
022500*    THE RECORD IS TO BE ADDED. DELETE THE RECORD IF IT      *    ULA5SAUP
022700*    EXISTED BEFORE THEN INSERT THE NEW RECORD.              *    ULA5SAUP
022900**************************************************************    ULA5SAUP
023000                                                                  ULA5SAUP
023020     MOVE GRP-USER-ID OF GRP-ARRAY TO AUTH-ID.                    ULA5SAUP
023030     PERFORM 9000-DELETE-GRP.                                     ULA5SAUP
023300     PERFORM 9100-INSERT-GRP.                                     ULA5SAUP
023310     PERFORM 9200-MOVE-AUDIT-BEFORE.                              ULA5SAUP
023330     PERFORM 9300-MOVE-AUDIT-AFTER.                               ULA5SAUP
023340     PERFORM 9400-INSERT-GRP-AUDIT.                               ULA5SAUP
023400                                                                  ULA5SAUP
023500 1120-EXIT.                                                       ULA5SAUP
023600     EXIT.                                                        ULA5SAUP
038900     EJECT                                                        ULA5SAUP
039000                                                                  ULA5SAUP
023630 1500-FIND-SUB   SECTION.                                         ULA5SAUP
023640**************************************************************    ULA5SAUP
023650*    THIS ROUTINE WILL SET ARRAY SUB TO THE 1ST GROUP THAT   *    ULA5SAUP
023660*    THE USER HAS ACCESS TO SO THAT WHEN THE GROUP IS NOT    *    ULA5SAUP
023661*    BEING CHANGED, THE AUDIT RECORD WILL REPORT THE GROUP   *    ULA5SAUP
023662*    INFORMATION FOR AN UNCHANGED GROUP.                     *    ULA5SAUP
023670**************************************************************    ULA5SAUP
023680                                                                  ULA5SAUP
023690     IF GRPA-LINE-COMMAND OF GRP-ARRAY (ARRAY-SUB) = 'S'          ULA5SAUP
023696        SET WS-SUB-FOUND TO TRUE                                  ULA5SAUP
023697     END-IF.                                                      ULA5SAUP
023698                                                                  ULA5SAUP
023699                                                                  ULA5SAUP
023700 1500-EXIT.                                                       ULA5SAUP
023701     EXIT.                                                        ULA5SAUP
023710                                                                  ULA5SAUP
023800                                                                  ULA5SAUP
038900     EJECT                                                        ULA5SAUP
039000                                                                  ULA5SAUP
039100 9000-DELETE-GRP   SECTION.                                       ULA5SAUP
039200**************************************************************    ULA5SAUP
039300*  DELETE A GRP ROW                                          *    ULA5SAUP
039400**************************************************************    ULA5SAUP
039500                                                                  ULA5SAUP
039700     MOVE 'DELETE FROM GRP TABLE       ' TO DB2MSG-TAG.           ULA5SAUP
039710     MOVE GRPA-GROUP-NO OF GRP-ARRAY (ARRAY-SUB) TO GROUP-ID.     ULA5SAUP
039800                                                                  ULA5SAUP
040710     EXEC SQL                                                     ULA5SAUP
040720        DELETE                                                    ULA5SAUP
040792        FROM UC0VGRP1_GRP                                         ULA5SAUP
040793        WHERE AUTH_ID  = :AUTH-ID                                 ULA5SAUP
040794          AND GROUP_ID = :GROUP-ID                                ULA5SAUP
040795     END-EXEC.                                                    ULA5SAUP
040800                                                                  ULA5SAUP
041500                                                                  ULA5SAUP
041600 9000-EXIT.                                                       ULA5SAUP
041700     EXIT.                                                        ULA5SAUP
041800                                                                  ULA5SAUP
041810     EJECT                                                        ULA5SAUP
041820 9100-INSERT-GRP       SECTION.                                   ULA5SAUP
041830**************************************************************    ULA5SAUP
041840*  INSERT A ROW IN TO THE GRP TABLE                          *    ULA5SAUP
041850**************************************************************    ULA5SAUP
041860                                                                  ULA5SAUP
041890     MOVE 'INSERT UC0GRP1   '      TO DB2MSG-TAG.                 ULA5SAUP
041891     MOVE GRP-USER-ID OF GRP-ARRAY TO AUTH-ID.                    ULA5SAUP
041892     MOVE GRPA-GROUP-NO OF GRP-ARRAY (ARRAY-SUB) TO GROUP-ID.     ULA5SAUP
041893     MOVE A-STND-PROG-ID           TO SOURCE-ID.                  ULA5SAUP
041894     MOVE UCCOMMON-USERID          TO CHANGED-BY OF WS-GRP-INFO.  ULA5SAUP
041896                                                                  ULA5SAUP
041897     EXEC SQL                                                     ULA5SAUP
041898        INSERT                                                    ULA5SAUP
041899        INTO UC0VGRP1_GRP                                         ULA5SAUP
041900                (AUTH_ID                                          ULA5SAUP
041901                ,GROUP_ID                                         ULA5SAUP
041902                ,SOURCE_ID                                        ULA5SAUP
041903                ,CHANGED_BY)                                      ULA5SAUP
041904        VALUES (:AUTH-ID                                          ULA5SAUP
041905               ,:GROUP-ID                                         ULA5SAUP
041910               ,:SOURCE-ID                                        ULA5SAUP
041920               ,:WS-GRP-INFO.CHANGED-BY)                          ULA5SAUP
041940     END-EXEC.                                                    ULA5SAUP
041950                                                                  ULA5SAUP
041960     IF  SQLCODE    NOT = 0                                       ULA5SAUP
041970         MOVE 'ABORT UC0GRP1 INSERT '                             ULA5SAUP
041980                             TO UCWSABND-ABEND-DATA (1)           ULA5SAUP
041990         PERFORM 9999-ABEND                                       ULA5SAUP
041991     END-IF.                                                      ULA5SAUP
041992                                                                  ULA5SAUP
041993 9100-EXIT.                                                       ULA5SAUP
041994     EXIT.                                                        ULA5SAUP
042000                                                                  ULA5SAUP
046600     EJECT                                                        ULA5SAUP
046700                                                                  ULA5SAUP
051000                                                                  ULA5SAUP
051010     EJECT                                                        ULA5SAUP
051100 9200-MOVE-AUDIT-BEFORE SECTION.                                  ULA5SAUP
051200**************************************************************    ULA5SAUP
051300*  MOVE "BEFORE" DATA TO THE GROUP ADUIT RECORD LAYOUT AND   *    ULA5SAUP
051310*  THEN TO THE DCL AREA TO BE WRITTEN TO THE GROUP AUDIT     *    ULA5SAUP
051320*  TABLE.                                                    *    ULA5SAUP
051400**************************************************************    ULA5SAUP
051500                                                                  ULA5SAUP
051600     MOVE GRP-USER-ID         OF GRP-ARRAY-HOLD                   ULA5SAUP
051610       TO GT-USER-ID.                                             ULA5SAUP
051700     MOVE GRP-EMPLOYEE-NUMBER OF GRP-ARRAY-HOLD                   ULA5SAUP
053310       TO GT-EMPLOYEE-NUMBER.                                     ULA5SAUP
053311     MOVE GRP-UPDATE-FLAG     OF GRP-ARRAY-HOLD                   ULA5SAUP
053312       TO GT-UPDATE-FLAG.                                         ULA5SAUP
053313     MOVE GRP-HOME-DEPT       OF GRP-ARRAY-HOLD                   ULA5SAUP
053314       TO GT-HOME-DEPARTMENT.                                     ULA5SAUP
053315     MOVE GRPA-LINE-COMMAND   OF GRP-ARRAY-HOLD (ARRAY-SUB)       ULA5SAUP
053316       TO GT-LINE-COMMAND.                                        ULA5SAUP
053317     MOVE GRPA-GROUP-NO       OF GRP-ARRAY-HOLD (ARRAY-SUB)       ULA5SAUP
053318       TO GT-GROUP-NO.                                            ULA5SAUP
053319     MOVE GRPA-VIEW-ONLY      OF GRP-ARRAY-HOLD (ARRAY-SUB)       ULA5SAUP
053320       TO GT-VIEW-ONLY.                                           ULA5SAUP
053321     MOVE GRPA-DEPT1          OF GRP-ARRAY-HOLD (ARRAY-SUB)       ULA5SAUP
053322       TO GT-DEPT1.                                               ULA5SAUP
053323     MOVE GRPA-DEPT2          OF GRP-ARRAY-HOLD (ARRAY-SUB)       ULA5SAUP
053324       TO GT-DEPT2.                                               ULA5SAUP
053325     MOVE GRPA-DEPT3          OF GRP-ARRAY-HOLD (ARRAY-SUB)       ULA5SAUP
053326       TO GT-DEPT3.                                               ULA5SAUP
053327     MOVE GRPA-DEPT4          OF GRP-ARRAY-HOLD (ARRAY-SUB)       ULA5SAUP
053328       TO GT-DEPT4.                                               ULA5SAUP
053329     MOVE GRPA-DEPT5          OF GRP-ARRAY-HOLD (ARRAY-SUB)       ULA5SAUP
053330       TO GT-DEPT5.                                               ULA5SAUP
053331     MOVE GRPA-DEPT6          OF GRP-ARRAY-HOLD (ARRAY-SUB)       ULA5SAUP
053332       TO GT-DEPT6.                                               ULA5SAUP
053333     MOVE GRPA-DEPT7          OF GRP-ARRAY-HOLD (ARRAY-SUB)       ULA5SAUP
053334       TO GT-DEPT7.                                               ULA5SAUP
053335     MOVE GRPA-DEPT8          OF GRP-ARRAY-HOLD (ARRAY-SUB)       ULA5SAUP
053336       TO GT-DEPT8.                                               ULA5SAUP
053337     MOVE GRPA-DEPT9          OF GRP-ARRAY-HOLD (ARRAY-SUB)       ULA5SAUP
053338       TO GT-DEPT9.                                               ULA5SAUP
053339     MOVE GRPA-DEPT10         OF GRP-ARRAY-HOLD (ARRAY-SUB)       ULA5SAUP
053340       TO GT-DEPT10.                                              ULA5SAUP
053341     MOVE GRPA-DEPT11         OF GRP-ARRAY-HOLD (ARRAY-SUB)       ULA5SAUP
053342       TO GT-DEPT11.                                              ULA5SAUP
053343     MOVE GRPA-DEPT12         OF GRP-ARRAY-HOLD (ARRAY-SUB)       ULA5SAUP
053344       TO GT-DEPT12.                                              ULA5SAUP
053345                                                                  ULA5SAUP
053346     MOVE LENGTH OF GRZ-DB2-TABLE-DATA TO GRZ-ROW-BEFORE-LEN.     ULA5SAUP
053347     MOVE GRZ-DB2-TABLE-DATA  TO GRZ-ROW-BEFORE-TEXT.             ULA5SAUP
053348                                                                  ULA5SAUP
053500 9200-EXIT.                                                       ULA5SAUP
053600     EXIT.                                                        ULA5SAUP
053601                                                                  ULA5SAUP
053602     EJECT                                                        ULA5SAUP
053603 9300-MOVE-AUDIT-AFTER  SECTION.                                  ULA5SAUP
053604**************************************************************    ULA5SAUP
053605*  MOVE "AFTER"  DATA TO THE GROUP ADUIT RECORD LAYOUT AND   *    ULA5SAUP
053606*  THEN TO THE DCL AREA TO BE WRITTEN TO THE GROUP AUDIT     *    ULA5SAUP
053607*  TABLE.                                                    *    ULA5SAUP
053608**************************************************************    ULA5SAUP
053609                                                                  ULA5SAUP
053610     MOVE GRP-USER-ID OF GRP-ARRAY                                ULA5SAUP
053611       TO GT-USER-ID.                                             ULA5SAUP
053612     MOVE GRP-EMPLOYEE-NUMBER OF GRP-ARRAY                        ULA5SAUP
053613       TO GT-EMPLOYEE-NUMBER.                                     ULA5SAUP
053614     MOVE GRP-UPDATE-FLAG     OF GRP-ARRAY                        ULA5SAUP
053615       TO GT-UPDATE-FLAG.                                         ULA5SAUP
053616     MOVE GRP-HOME-DEPT       OF GRP-ARRAY                        ULA5SAUP
053617       TO GT-HOME-DEPARTMENT.                                     ULA5SAUP
053618     MOVE GRPA-LINE-COMMAND   OF GRP-ARRAY (ARRAY-SUB)            ULA5SAUP
053619       TO GT-LINE-COMMAND.                                        ULA5SAUP
053620     MOVE GRPA-GROUP-NO       OF GRP-ARRAY (ARRAY-SUB)            ULA5SAUP
053621       TO GT-GROUP-NO.                                            ULA5SAUP
053624     MOVE GRPA-VIEW-ONLY      OF GRP-ARRAY (ARRAY-SUB)            ULA5SAUP
053625       TO GT-VIEW-ONLY.                                           ULA5SAUP
053626     MOVE GRPA-DEPT1          OF GRP-ARRAY (ARRAY-SUB)            ULA5SAUP
053627       TO GT-DEPT1.                                               ULA5SAUP
053628     MOVE GRPA-DEPT2          OF GRP-ARRAY (ARRAY-SUB)            ULA5SAUP
053629       TO GT-DEPT2.                                               ULA5SAUP
053630     MOVE GRPA-DEPT3          OF GRP-ARRAY (ARRAY-SUB)            ULA5SAUP
053631       TO GT-DEPT3.                                               ULA5SAUP
053632     MOVE GRPA-DEPT4          OF GRP-ARRAY (ARRAY-SUB)            ULA5SAUP
053633       TO GT-DEPT4.                                               ULA5SAUP
053634     MOVE GRPA-DEPT5          OF GRP-ARRAY (ARRAY-SUB)            ULA5SAUP
053635       TO GT-DEPT5.                                               ULA5SAUP
053636     MOVE GRPA-DEPT6          OF GRP-ARRAY (ARRAY-SUB)            ULA5SAUP
053637       TO GT-DEPT6.                                               ULA5SAUP
053638     MOVE GRPA-DEPT7          OF GRP-ARRAY (ARRAY-SUB)            ULA5SAUP
053639       TO GT-DEPT7.                                               ULA5SAUP
053640     MOVE GRPA-DEPT8          OF GRP-ARRAY (ARRAY-SUB)            ULA5SAUP
053641       TO GT-DEPT8.                                               ULA5SAUP
053642     MOVE GRPA-DEPT9          OF GRP-ARRAY (ARRAY-SUB)            ULA5SAUP
053643       TO GT-DEPT9.                                               ULA5SAUP
053644     MOVE GRPA-DEPT10         OF GRP-ARRAY (ARRAY-SUB)            ULA5SAUP
053645       TO GT-DEPT10.                                              ULA5SAUP
053646     MOVE GRPA-DEPT11         OF GRP-ARRAY (ARRAY-SUB)            ULA5SAUP
053647       TO GT-DEPT11.                                              ULA5SAUP
053648     MOVE GRPA-DEPT12         OF GRP-ARRAY (ARRAY-SUB)            ULA5SAUP
053649       TO GT-DEPT12.                                              ULA5SAUP
053650                                                                  ULA5SAUP
053651     MOVE LENGTH OF GRZ-DB2-TABLE-DATA TO GRZ-ROW-AFTER-LEN.      ULA5SAUP
053652     MOVE GRZ-DB2-TABLE-DATA  TO GRZ-ROW-AFTER-TEXT.              ULA5SAUP
053653                                                                  ULA5SAUP
053654                                                                  ULA5SAUP
053655 9300-EXIT.                                                       ULA5SAUP
053656     EXIT.                                                        ULA5SAUP
053657                                                                  ULA5SAUP
053660     EJECT                                                        ULA5SAUP
053700 9400-INSERT-GRP-AUDIT SECTION.                                   ULA5SAUP
053800**************************************************************    ULA5SAUP
053900*  INSERT A ROW INTO THE GRZ TABLE (GROUP AUDIT TABLE)       *    ULA5SAUP
054000**************************************************************    ULA5SAUP
054001                                                                  ULA5SAUP
054010     MOVE UCCOMMON-USERID       TO GRZ-USERID.                    ULA5SAUP
054020     ADD 1 TO GRZ-SEQ-NO.                                         ULA5SAUP
054100     MOVE 'INSERT UL0GRZ    '   TO DB2MSG-TAG.                    ULA5SAUP
054200     EXEC SQL                                                     ULA5SAUP
054300        INSERT                                                    ULA5SAUP
054400        INTO UL0VZGRZ_GRZ                                         ULA5SAUP
054500                (GRZ_USERID                                       ULA5SAUP
054600                ,GRZ_CHANGED_AT                                   ULA5SAUP
054800                ,GRZ_SEQ_NO                                       ULA5SAUP
054900                ,GRZ_ROW_BEFORE                                   ULA5SAUP
055000                ,GRZ_ROW_AFTER)                                   ULA5SAUP
055100        VALUES (:GRZ-USERID                                       ULA5SAUP
055200               ,CURRENT TIMESTAMP                                 ULA5SAUP
055400               ,:GRZ-SEQ-NO                                       ULA5SAUP
055500               ,:GRZ-ROW-BEFORE                                   ULA5SAUP
055600               ,:GRZ-ROW-AFTER)                                   ULA5SAUP
055700     END-EXEC.                                                    ULA5SAUP
055800                                                                  ULA5SAUP
055900     IF  SQLCODE    NOT = 0                                       ULA5SAUP
056000         MOVE 'ABORT UL0GRZ INSERT  '                             ULA5SAUP
056100                             TO UCWSABND-ABEND-DATA (1)           ULA5SAUP
056200         PERFORM 9999-ABEND                                       ULA5SAUP
056300     END-IF.                                                      ULA5SAUP
056400                                                                  ULA5SAUP
056500 9400-EXIT.                                                       ULA5SAUP
056600     EXIT.                                                        ULA5SAUP
060100                                                                  ULA5SAUP
060101     EJECT                                                        ULA5SAUP
060102 9500-DELETE-ASC-REC   SECTION.                                   ULA5SAUP
060103**************************************************************    ULA5SAUP
060104*  DELETE ASC ROWS BY USER ID AND ACCESS TYPE.               *    ULA5SAUP
060106**************************************************************    ULA5SAUP
060107                                                                  ULA5SAUP
060110     MOVE 'DELETE PPPVASC1  '   TO DB2MSG-TAG.                    ULA5SAUP
060112     MOVE GRP-USER-ID OF GRP-ARRAY TO IDENTIFIER.                 ULA5SAUP
060113     EXEC SQL                                                     ULA5SAUP
060114        DELETE FROM UC0VASC1_ASC                                  ULA5SAUP
060121         WHERE IDENTIFIER =  :IDENTIFIER                          ULA5SAUP
060122           AND ACCESS_RULE = :ACCESS-RULE                         ULA5SAUP
060124     END-EXEC.                                                    ULA5SAUP
060125                                                                  ULA5SAUP
060132 9500-EXIT.                                                       ULA5SAUP
060133     EXIT.                                                        ULA5SAUP
060134**************************************************************    ULA5SAUP
060135*  ADD A ROW TO THE ASC TABLE WITH EITHER AN "AUDIT" TYPE OF *    ULA5SAUP
060136*  ACCESS RULE OR A "PERSONAL" TYPE OF ACCESS RULE.          *    ULA5SAUP
060137**************************************************************    ULA5SAUP
060138     EJECT                                                        ULA5SAUP
060139 9600-ADD-ASC-REC      SECTION.                                   ULA5SAUP
060144                                                                  ULA5SAUP
060145     MOVE 'INSERT PPPVASC1  '   TO DB2MSG-TAG.                    ULA5SAUP
060146     MOVE GRP-USER-ID OF GRP-ARRAY TO IDENTIFIER.                 ULA5SAUP
060147     MOVE 1 TO SEQ-NUMBER.                                        ULA5SAUP
060148     MOVE GRP-EMPLOYEE-NUMBER OF GRP-ARRAY TO ASSOCIATION-DATA.   ULA5SAUP
060149     MOVE UCCOMMON-USERID TO CHANGED-BY OF WS-ASC-INFO.           ULA5SAUP
060152                                                                  ULA5SAUP
060153     EXEC SQL                                                     ULA5SAUP
060154        INSERT                                                    ULA5SAUP
060155        INTO UC0VASC1_ASC                                         ULA5SAUP
060156                (IDENTIFIER                                       ULA5SAUP
060157                ,ACCESS_RULE                                      ULA5SAUP
060158                ,SEQ_NUMBER                                       ULA5SAUP
060159                ,ASSOCIATION_DATA                                 ULA5SAUP
060160                ,CHANGED_BY)                                      ULA5SAUP
060161        VALUES (:IDENTIFIER                                       ULA5SAUP
060162               ,:ACCESS-RULE                                      ULA5SAUP
060163               ,:SEQ-NUMBER                                       ULA5SAUP
060164               ,:ASSOCIATION-DATA                                 ULA5SAUP
060165               ,:WS-ASC-INFO.CHANGED-BY)                          ULA5SAUP
060166     END-EXEC.                                                    ULA5SAUP
060167                                                                  ULA5SAUP
060168 9600-EXIT.                                                       ULA5SAUP
060169     EXIT.                                                        ULA5SAUP
060240     EJECT                                                        ULA5SAUP
060300                                                                  ULA5SAUP
060400 9999-ABEND    SECTION.                                           ULA5SAUP
060500**************************************************************    ULA5SAUP
060600*  COPIED PROCEDURE DIVISION CODE FOR ABEND HANDLING         *    ULA5SAUP
060700**************************************************************    ULA5SAUP
060800     MOVE A-STND-PROG-ID  TO UCWSABND-ABENDING-PGM.               ULA5SAUP
060900*                                                                 ULA5SAUP
061000     COPY UCPDABND.                                               ULA5SAUP
061100                                                                  ULA5SAUP
061200 9999-EXIT.                                                       ULA5SAUP
061300     EXIT.                                                        ULA5SAUP
061400                                                                  ULA5SAUP
061500     EJECT                                                        ULA5SAUP
061600                                                                  ULA5SAUP
061700*999999-SQL-ERROR SECTION.                                        ULA5SAUP
061800**************************************************************    ULA5SAUP
061900*  COPIED PROCEDURE DIVISION CODE FOR SQL ERROR HANDLING     *    ULA5SAUP
062000**************************************************************    ULA5SAUP
062100      EXEC SQL                                                    ULA5SAUP
062200           INCLUDE CPPDXP99                                       ULA5SAUP
062300      END-EXEC.                                                   ULA5SAUP
062400*                                                                 ULA5SAUP
062500      MOVE 'SQL ERROR - SEE PRECEDING DB2 MESSAGES'               ULA5SAUP
062600                                 TO UCWSABND-ABEND-DATA (1).      ULA5SAUP
062700*                                                                 ULA5SAUP
062800      PERFORM 9999-ABEND.                                         ULA5SAUP
062900***************    END OF SOURCE - ULA5SAUP    *******************ULA5SAUP
